{"url": "/m/straight_story/", "isOnOpening": false, "genreSet": [{"displayName": "Drama", "id": 9}, {"displayName": "Action & Adventure", "id": 1}, {"displayName": "Kids & Family", "id": 11}], "officialUrl": "http://disney.go.com/DisneyPictures/straightstory/index.html", "isInTheaters": false, "synopsis": "From director David Lynch comes a lyrical portrait of one man's real journey across America's Heartland. Filmed along the 260-mile route that the actual Alvin Straight traversed in 1994 from Laurens, Iowa to Mt. Zion, Wisconsin, \"the Straight story\" chronicles Alvin's patient odyssey and those he meets along the way. When not rolling along at five miles an hour aboard his '66 John Deere, Alvin encounters a number of strangers, from a teenage runaway to a fellow World War II veteran. By sharing his life's earned wisdom with simple stories, Alvin has a profound impact on these characters that color his pilgrimage.", "links": {"alternate": "//www.rottentomatoes.com/m/straight_story/"}, "runningTime": 111, "year": 1999, "trackingType": "DvdOther", "status": "Live", "isPlaying": false, "isOnDVD": true, "runningTimeStr": "1 hr. 51 min.", "ratingSummary": {"topcount": 43, "consensus": "With strong performances and director David Lynch at the helm, The Straight Story steers past sentimental byways on its ambling journey across the American heartland.", "topCritics": {"hasScore": true, "numReviews": 43, "meterClass": "certified", "numRotten": 2, "numFresh": 41, "hasReviews": true, "meterValue": 95, "averageRating": 8.030303}, "audience": {"meterScore": 91, "averageScore": 4.031911849975586, "numTotal": 31395, "ratingType": "viewed"}, "allcount": 103, "rottencount": 5, "dvdcount": 3, "allCritics": {"hasScore": true, "numReviews": 103, "meterClass": "certified", "numRotten": 5, "numFresh": 98, "hasReviews": true, "meterValue": 95, "averageRating": 8.17}, "freshcount": 98}, "mpaaRating": "G", "vanity": "straight_story", "studio": "Buena Vista Pictures", "purchaseOptions": {"amazon": {"url": "http://www.amazon.com/gp/product/B010PS12AS/ref=atv_feed_catalog?tag=rottetomao_aiv_mv-20", "isPrime": false, "type": "rent"}, "vudu": {"url": "https://www.vudu.com/content/movies/details/The-Straight-Story/16992", "type": "buy"}, "iTunes": {"url": "https://itunes.apple.com/movie/the-straight-story/id1001360976?uo=5", "price": "9.99"}}, "reviews": {"total": 103, "links": {"alternate": "//www.rottentomatoes.com/m/straight_story/#reviews", "self": "api.flixster.com/movies/the-straight-story/reviews.json?review_type=mob&country=us&page=1", "prev": "api.flixster.com/movies/the-straight-story/reviews.json?review_type=mob&country=us&page=0", "next": "api.flixster.com/movies/the-straight-story/reviews.json?review_type=mob&country=us&page=2"}, "reviews": [{"isRotten": false, "url": "https://www.newyorker.com/magazine/1999/11/01/white-nights", "publication": {"url": "", "name": "New Yorker"}, "isTop": true, "creationDate": 1586883223000, "isFresh": true, "freshness": "fresh", "critic": {"url": "/critic/anthony-lane", "name": "Anthony Lane", "id": 4597, "thumbnailImage": "https://resizing.flixster.com/ASeLeS5Iw1qgeuIvbbVnYyB1scQ=/72x72/v1.YzsyMjgxO2o7MTg3OTY7MjA0ODsxNDQ7MTQ0"}, "quote": "It's intriguing to watch the Lynch of Blue Velvet and Lost Highway feel his way toward a less wounding surrealism -- into images that have power to hurt and will do none.", "id": 2683301, "links": {"review": "https://www.newyorker.com/magazine/1999/11/01/white-nights"}}, {"isRotten": false, "url": "https://www.independent.co.uk/arts-entertainment/films/features/movies-you-might-have-missed-david-lynch-the-straight-story-the-straight-story-david-lynch-richard-a7532116.html", "publication": {"url": "", "name": "Independent (UK)"}, "isTop": true, "creationDate": 1584561799000, "isFresh": true, "freshness": "fresh", "critic": {"url": "/critic/darren-richman", "name": "Darren Richman", "id": 20627, "thumbnailImage": "https://d2a5cgar23scu2.cloudfront.net/static/images/redesign/user.none.tmb.jpg"}, "quote": "It seems only fitting that Lynch's most unambiguous, sentimental film should concern a man named Straight and the title is entirely apposite.", "id": 2677955, "links": {"review": "https://www.independent.co.uk/arts-entertainment/films/features/movies-you-might-have-missed-david-lynch-the-straight-story-the-straight-story-david-lynch-richard-a7532116.html"}}, {"isRotten": false, "url": "https://lwlies.com/articles/the-straight-story-david-lynch-american-road-movie/", "publication": {"url": "", "name": "Little White Lies"}, "isTop": true, "creationDate": 1584551998000, "isFresh": true, "freshness": "fresh", "critic": {"url": "/critic/james-clarke", "name": "James Clarke", "id": 26801, "thumbnailImage": "https://d2a5cgar23scu2.cloudfront.net/static/images/redesign/user.none.tmb.jpg"}, "quote": "Instead, like Alvin, [Lynch's] film sets out on its mission in its own unassuming way and; inviting as those campfire flames around which so many stories have been told.", "id": 2677904, "links": {"review": "https://lwlies.com/articles/the-straight-story-david-lynch-american-road-movie/"}}, {"isRotten": false, "url": "https://www.washingtonpost.com/wp-srv/style/movies/reviews/straightstoryhowe.htm", "publication": {"url": "", "name": "Washington Post"}, "isTop": true, "creationDate": 1584545105000, "isFresh": true, "freshness": "fresh", "critic": {"url": "/critic/desson-thomson", "name": "Desson Thomson", "id": 51, "thumbnailImage": "https://resizing.flixster.com/ouZNsS3EzolUJdtRmVFF7bEj4PQ=/72x72/v1.YzsxNTg2O2c7MTg3NzY7MjA0ODszODs1MQ"}, "quote": "David Lynch's movie - the finest he has made since \"Blue Velvet\" - is serenely bereft of postmodern cynicism.", "id": 2677879, "links": {"review": "https://www.washingtonpost.com/wp-srv/style/movies/reviews/straightstoryhowe.htm"}}, {"isRotten": false, "url": "https://film.avclub.com/the-straight-story-1798192063", "publication": {"url": "", "name": "AV Club"}, "isTop": true, "creationDate": 1584544965000, "isFresh": true, "freshness": "fresh", "critic": {"url": "/critic/scott-tobias", "name": "Scott Tobias", "id": 336, "thumbnailImage": "https://d2a5cgar23scu2.cloudfront.net/static/images/redesign/user.none.tmb.jpg"}, "quote": "With his sweet, lyrical masterpiece... David Lynch frees himself from the heavy irony and noir affectations of his last few films, discovering the pure, mythical slice of Americana previously confined to Agent Cooper's coffee and donuts in Twin Peaks.", "id": 2677878, "links": {"review": "https://film.avclub.com/the-straight-story-1798192063"}}, {"isRotten": false, "url": "https://www.wsj.com/articles/SB939945066136192163", "publication": {"url": "", "name": "Wall Street Journal"}, "isTop": true, "creationDate": 1522881766000, "isFresh": true, "freshness": "fresh", "critic": {"url": "/critic/joe-morgenstern", "name": "Joe Morgenstern", "id": 12088, "thumbnailImage": "https://resizing.flixster.com/bJIrcAX9fqTOFcu3mX0nvukyq8o=/72x72/v1.YzsyNjI4O2c7MTg3ODM7MjA0ODsxNTA7MTUw"}, "quote": "As far as I can see, [David Lynch] simply spotted a great story and embraced it. So will you.", "id": 2469127, "links": {"review": "https://www.wsj.com/articles/SB939945066136192163"}}, {"isRotten": false, "url": "https://www.youtube.com/watch?v=-7nA0LPJSwU", "creationDate": 1588837908000, "isFresh": true, "id": 2688291, "quote": "Lovely little film with a sweet and subtle lead performance you won't soon forget", "links": {"review": "https://www.youtube.com/watch?v=-7nA0LPJSwU"}, "publication": {"url": "", "name": "Rachel's Reviews (YouTube)"}, "isTop": false, "freshness": "fresh", "critic": {"url": "/critic/rachel-wagner", "name": "Rachel Wagner", "id": 23964, "thumbnailImage": "https://resizing.flixster.com/CvuVoWlOH-LcGgLgTU2V23hxVvM=/72x72/v1.YzszMjU3O2o7MTg3ODI7MjA0ODszMDA7MzAw"}, "original_score": "9/10"}, {"isRotten": false, "url": "https://vanyaland.com/2020/04/06/quarantainment-heres-this-weeks-biggest-streaming-releases/", "publication": {"url": "", "name": "Vanyaland"}, "isTop": false, "creationDate": 1586284277000, "isFresh": true, "freshness": "fresh", "critic": {"url": "/critic/nick-johnston", "name": "Nick Johnston", "id": 14531, "thumbnailImage": "https://resizing.flixster.com/eGFJrNoTJvkw9XoqBmZG83saCYc=/72x72/v1.YzszMjAyO2o7MTg3NzI7MjA0ODszMDA7MzAw"}, "quote": "It's unlike anything else in Lynch's filmography, and it's genuinely brilliant.", "id": 2681702, "links": {"review": "https://vanyaland.com/2020/04/06/quarantainment-heres-this-weeks-biggest-streaming-releases/"}}, {"isRotten": false, "url": "https://www.radiotimes.com/film/wtm5/the-straight-story/", "creationDate": 1584561634000, "isFresh": true, "id": 2677952, "quote": "It's hard to imagine a gentler film, yet Lynch fully exploits the stately pace to gaze fondly upon life's rich pageant.", "links": {"review": "https://www.radiotimes.com/film/wtm5/the-straight-story/"}, "publication": {"url": "", "name": "Radio Times"}, "isTop": false, "freshness": "fresh", "critic": {"url": "/critic/david-parkinson", "name": "David Parkinson", "id": 3959, "thumbnailImage": "https://d2a5cgar23scu2.cloudfront.net/static/images/redesign/user.none.tmb.jpg"}, "original_score": "5/5"}, {"isRotten": false, "url": "http://streamondemandathome.com/david-lynch-straight-story-streaming-vod-dvd/", "publication": {"url": "", "name": "Stream on Demand"}, "isTop": false, "creationDate": 1497554837000, "isFresh": true, "freshness": "fresh", "critic": {"url": "/critic/sean-axmaker", "name": "Sean Axmaker", "id": 229, "thumbnailImage": "https://resizing.flixster.com/OM9B-lRGDZvI9N_pbymYi4o5aGo=/72x72/v1.YzsxNjAxO2c7MTg3OTE7MjA0ODszODs0OA"}, "quote": "The Straight Story could easily slide into melancholy and sentimentality without Lynch's sensibility, an odd mix of up-by-your bootstraps American conservatism and on-the-road romanticism.", "id": 2399780, "links": {"review": "http://streamondemandathome.com/david-lynch-straight-story-streaming-vod-dvd/"}}, {"isRotten": false, "url": "http://moviemezzanine.com/the-david-lynch-retrospective-the-straight-story/", "creationDate": 1393047625000, "isFresh": true, "id": 2189710, "quote": "Is The Straight Story one of my favorite Lynch films? Hard to say. Is it one of his most meticulously, and perfectly constructed? Well, I just can't disagree on that one.", "links": {"review": "http://moviemezzanine.com/the-david-lynch-retrospective-the-straight-story/"}, "publication": {"url": "", "name": "Movie Mezzanine"}, "isTop": false, "freshness": "fresh", "critic": {"url": "/critic/christopher-runyon", "name": "Christopher Runyon", "id": 15971, "thumbnailImage": "https://d2a5cgar23scu2.cloudfront.net/static/images/redesign/user.none.tmb.jpg"}, "original_score": "A"}, {"isRotten": false, "url": "http://oldschoolreviews.com/rev_90/straight_story.html", "creationDate": 1375726993000, "isFresh": true, "id": 2157179, "quote": "look and feel of a foreign film", "links": {"review": "http://oldschoolreviews.com/rev_90/straight_story.html"}, "publication": {"url": "", "name": "Old School Reviews"}, "isTop": false, "freshness": "fresh", "critic": {"url": "/critic/john-a-nesbit", "name": "John A. Nesbit", "id": 3685, "thumbnailImage": "https://resizing.flixster.com/adqozrDYzJdEaQwZ7LH_22HXc_I=/72x72/v1.YzsxNzA3O2c7MTg4MDc7MjA0ODszODs0Mg"}, "original_score": "B"}]}, "casts": {"screenwriters": [{"url": "/celebrity/john_roach/", "name": "John Roach", "thumbnailImg": "https://d2a5cgar23scu2.cloudfront.net/static/images/redesign/actor.default.tmb.gif"}, {"url": "/celebrity/mary_sweeney/", "name": "Mary Sweeney", "thumbnailImg": "https://d2a5cgar23scu2.cloudfront.net/static/images/redesign/actor.default.tmb.gif"}, {"url": "/celebrity/john_f_roach/", "name": "John F. Roach", "thumbnailImg": "https://d2a5cgar23scu2.cloudfront.net/static/images/redesign/actor.default.tmb.gif"}], "directors": [{"url": "/celebrity/david_lynch/", "name": "David Lynch", "thumbnailImg": "https://resizing.flixster.com/Ua7-zGz_6A6ltrOhfQkFAZBFvPU=/80x80/v1.cjs0MjY0NTtqOzE4Nzk1OzIwNDg7NDcwOzM0MQ"}], "creators": [], "producers": [{"url": "/celebrity/neal-edelstein/", "name": "Neal Edelstein", "thumbnailImg": "https://d2a5cgar23scu2.cloudfront.net/static/images/redesign/actor.default.tmb.gif"}, {"url": "/celebrity/mary_sweeney/", "name": "Mary Sweeney", "thumbnailImg": "https://d2a5cgar23scu2.cloudfront.net/static/images/redesign/actor.default.tmb.gif"}, {"url": "/celebrity/alain_sarde/", "name": "Alain Sarde", "thumbnailImg": "https://d2a5cgar23scu2.cloudfront.net/static/images/redesign/actor.default.tmb.gif"}], "castItems": [{"person": {"url": "/celebrity/richard_farnsworth/", "name": "Richard Farnsworth", "thumbnailImg": "https://resizing.flixster.com/P6UsUkVnjQlIgzA1neCcPOmIqgQ=/80x80/v1.cDsxMjEzODE1MjtqOzE4ODAyOzIwNDg7NDMxOzMyNQ"}, "characters": [{"name": "Alvin Straight"}]}, {"person": {"url": "/celebrity/harry_dean_stanton/", "name": "Harry Dean Stanton", "thumbnailImg": "https://resizing.flixster.com/1NNyHboAI62ACY_mlEI0LjFDJbQ=/80x80/v1.cjs0MDQ3MjtqOzE4NzgyOzIwNDg7Mjc1OzIzMA"}, "characters": [{"name": "Lyle Straight"}]}, {"person": {"url": "/celebrity/sissy_spacek/", "name": "Sissy Spacek", "thumbnailImg": "https://resizing.flixster.com/dx-30sl_skALtingMiQ_TPM7VWQ=/80x80/v1.cjs0MjIwNjtqOzE4ODA2OzIwNDg7Mjc1OzI0MA"}, "characters": [{"name": "Rose Straight"}]}, {"person": {"url": "/celebrity/jane_galloway_heitz/", "name": "Jane Galloway Heitz", "thumbnailImg": "https://d2a5cgar23scu2.cloudfront.net/static/images/redesign/actor.default.tmb.gif"}, "characters": [{"name": "Dorothy"}]}, {"person": {"url": "/celebrity/everett_mcgill/", "name": "Everett McGill", "thumbnailImg": "https://resizing.flixster.com/60XUlmWS60OO7jQmGMXxuEWF_Q8=/80x80/v1.cDs1NDgwNzQzO2o7MTg3OTY7MjA0ODsxOTM7MjQ1"}, "characters": [{"name": "Tom The Dealer"}]}, {"person": {"url": "/celebrity/john_farley/", "name": "John Farley", "thumbnailImg": "https://resizing.flixster.com/UvoQz7Q94aHG_NSs5bKSIRk_VUw=/80x80/v1.cDsxMDkzNDgxOTtqOzE4ODkwOzIwNDg7MTAwOzEwMA"}, "characters": [{"name": "Thorvald Olsen"}]}, {"person": {"url": "/celebrity/kevin_p_farley/", "name": "Kevin P. Farley", "thumbnailImg": "https://resizing.flixster.com/P9wUIvB9mCqbco5vamb7Zi1EfW8=/80x80/v1.cDsxMTM0NDYxNztqOzE4ODc4OzIwNDg7NTAwOzMzMw"}, "characters": [{"name": "Harold Olsen"}]}, {"person": {"url": "/celebrity/jane_heitz/", "name": "Jane Heitz", "thumbnailImg": "https://d2a5cgar23scu2.cloudfront.net/static/images/redesign/actor.default.tmb.gif"}, "characters": [{"name": "Dorothy"}]}, {"person": {"url": "/celebrity/joseph_a_carpenter/", "name": "Joseph A. Carpenter", "thumbnailImg": "https://d2a5cgar23scu2.cloudfront.net/static/images/redesign/actor.default.tmb.gif"}, "characters": [{"name": "Bud"}]}, {"person": {"url": "/celebrity/donald_wiegert/", "name": "Donald Wiegert", "thumbnailImg": "https://d2a5cgar23scu2.cloudfront.net/static/images/redesign/actor.default.tmb.gif"}, "characters": [{"name": "Sig"}]}, {"person": {"url": "/celebrity/tracey_maloney/", "name": "Tracey Maloney", "thumbnailImg": "https://d2a5cgar23scu2.cloudfront.net/static/images/redesign/actor.default.tmb.gif"}, "characters": [{"name": "Nurse"}]}, {"person": {"url": "/celebrity/don_flannery/", "name": "Don Flannery", "thumbnailImg": "https://d2a5cgar23scu2.cloudfront.net/static/images/redesign/actor.default.tmb.gif"}, "characters": [{"name": "Doctor Gibbons"}]}, {"person": {"url": "/celebrity/jennifer_edwardshughes/", "name": "Jennifer Edwards-Hughes", "thumbnailImg": "https://d2a5cgar23scu2.cloudfront.net/static/images/redesign/actor.default.tmb.gif"}, "characters": [{"name": "Brenda"}]}, {"person": {"url": "/celebrity/ed_grennan/", "name": "Ed Grennan", "thumbnailImg": "https://d2a5cgar23scu2.cloudfront.net/static/images/redesign/actor.default.tmb.gif"}, "characters": [{"name": "Pete"}]}, {"person": {"url": "/celebrity/jack_walsh/", "name": "Jack Walsh", "thumbnailImg": "https://d2a5cgar23scu2.cloudfront.net/static/images/redesign/actor.default.tmb.gif"}, "characters": [{"name": "Apple"}]}, {"person": {"url": "/celebrity/gil_pearson/", "name": "Gil Pearson", "thumbnailImg": "https://d2a5cgar23scu2.cloudfront.net/static/images/redesign/actor.default.tmb.gif"}, "characters": [{"name": "Bus Driver"}]}, {"person": {"url": "/celebrity/barbara_june_patterson/", "name": "Barbara June Patterson", "thumbnailImg": "https://d2a5cgar23scu2.cloudfront.net/static/images/redesign/actor.default.tmb.gif"}, "characters": [{"name": "Woman on Bus"}]}, {"person": {"url": "/celebrity/anastasia_webb/", "name": "Anastasia Webb", "thumbnailImg": "https://d2a5cgar23scu2.cloudfront.net/static/images/redesign/actor.default.tmb.gif"}, "characters": [{"name": "Crystal"}]}, {"person": {"url": "/celebrity/max_guidry/", "name": "Max Guidry", "thumbnailImg": "https://d2a5cgar23scu2.cloudfront.net/static/images/redesign/actor.default.tmb.gif"}, "characters": [{"name": "Steve"}]}, {"person": {"url": "/celebrity/bill_mccallum/", "name": "Bill McCallum", "thumbnailImg": "https://d2a5cgar23scu2.cloudfront.net/static/images/redesign/actor.default.tmb.gif"}, "characters": [{"name": "Rat"}]}, {"person": {"url": "/celebrity/barbara-e-robertson/", "name": "Barbara E. Robertson", "thumbnailImg": "https://d2a5cgar23scu2.cloudfront.net/static/images/redesign/actor.default.tmb.gif"}, "characters": [{"name": "Deer Woman"}]}, {"person": {"url": "/celebrity/wylie_harker/", "name": "Wylie Harker", "thumbnailImg": "https://d2a5cgar23scu2.cloudfront.net/static/images/redesign/actor.default.tmb.gif"}, "characters": [{"name": "Verlyn Heller"}]}, {"person": {"url": "/celebrity/james_cada/", "name": "James Cada", "thumbnailImg": "https://resizing.flixster.com/mKlVnX88AHy_Cun7y44QKxEF3rI=/80x80/v1.cDsxMjI4MjYyMjtqOzE4Nzc5OzIwNDg7MTEwOzEwNQ"}, "characters": [{"name": "Danny Riordon"}]}, {"person": {"url": "/celebrity/sally_wingert/", "name": "Sally Wingert", "thumbnailImg": "https://d2a5cgar23scu2.cloudfront.net/static/images/redesign/actor.default.tmb.gif"}, "characters": [{"name": "Darla Riordon"}]}, {"person": {"url": "/celebrity/barbara_kingsley/", "name": "Barbara Kingsley", "thumbnailImg": "https://d2a5cgar23scu2.cloudfront.net/static/images/redesign/actor.default.tmb.gif"}, "characters": [{"name": "Janet Johnson"}]}, {"person": {"url": "/celebrity/jim_haun/", "name": "Jim Haun", "thumbnailImg": "https://d2a5cgar23scu2.cloudfront.net/static/images/redesign/actor.default.tmb.gif"}, "characters": [{"name": "Johnny Johnson"}]}, {"person": {"url": "/celebrity/randy_wiedenhoff/", "name": "Randy Wiedenhoff", "thumbnailImg": "https://d2a5cgar23scu2.cloudfront.net/static/images/redesign/actor.default.tmb.gif"}, "characters": [{"name": "Fireman No. 1"}]}, {"person": {"url": "/celebrity/jerry_e_anderson/", "name": "Jerry E. Anderson", "thumbnailImg": "https://d2a5cgar23scu2.cloudfront.net/static/images/redesign/actor.default.tmb.gif"}, "characters": [{"name": "Fireman No. 2"}]}, {"person": {"url": "/celebrity/john_lordan/", "name": "John Lordan", "thumbnailImg": "https://d2a5cgar23scu2.cloudfront.net/static/images/redesign/actor.default.tmb.gif"}, "characters": [{"name": "Priest"}]}, {"person": {"url": "/celebrity/russ_reed/", "name": "Russ Reed", "thumbnailImg": "https://d2a5cgar23scu2.cloudfront.net/static/images/redesign/actor.default.tmb.gif"}, "characters": [{"name": "Mr. Zion Bartender"}]}, {"person": {"url": "/celebrity/ralph_feldhacker/", "name": "Ralph Feldhacker", "thumbnailImg": "https://d2a5cgar23scu2.cloudfront.net/static/images/redesign/actor.default.tmb.gif"}, "characters": [{"name": "Farmer on Tractor"}]}, {"person": {"url": "/celebrity/garett_sweeney/", "name": "Garett Sweeney", "thumbnailImg": "https://d2a5cgar23scu2.cloudfront.net/static/images/redesign/actor.default.tmb.gif"}, "characters": [{"name": "Boy in Truck"}]}, {"person": {"url": "/celebrity/peter_sweeney/", "name": "Peter Sweeney", "thumbnailImg": "https://d2a5cgar23scu2.cloudfront.net/static/images/redesign/actor.default.tmb.gif"}, "characters": [{"name": "Boy in Truck"}]}, {"person": {"url": "/celebrity/tommy_fahey/", "name": "Tommy Fahey", "thumbnailImg": "https://d2a5cgar23scu2.cloudfront.net/static/images/redesign/actor.default.tmb.gif"}, "characters": [{"name": "Boy in Truck"}]}, {"person": {"url": "/celebrity/matt_fahey/", "name": "Matt Fahey", "thumbnailImg": "https://d2a5cgar23scu2.cloudfront.net/static/images/redesign/actor.default.tmb.gif"}, "characters": [{"name": "Boy in Truck"}]}, {"person": {"url": "/celebrity/dan_fahey/", "name": "Dan Fahey", "thumbnailImg": "https://d2a5cgar23scu2.cloudfront.net/static/images/redesign/actor.default.tmb.gif"}, "characters": [{"name": "Boy in Truck"}]}]}, "title": "The Straight Story", "adjustedScore": 99.27088781196747, "ratings": {"critics_rating": "Certified Fresh", "audience_score": 91, "dvdReleaseDate": 973584000000, "critics_score": 95, "theaterReleaseDate": 939970800000, "audience_rating": "Upright"}, "videoClips": {"mainTrailer": {"hlsUrl": "http://video.internetvideoarchive.net/video.m3u8?cmd=6&publishedid=http://www.youtube.com/v/cxrcDLpOluY&customerid=300120&e=1619087018469&sub=RTO&fmt=11&h=4b094604a6db76d4179bf1192389988e", "seconds": 11, "minutes": 2, "id": 8803017, "title": "the straight story - trailer", "thumbUrl": "http://img.youtube.com/vi/cxrcDLpOluY/default.jpg", "mp4Url": "http://video.internetvideoarchive.net/video.mp4?cmd=6&publishedid=http://www.youtube.com/v/cxrcDLpOluY&customerid=300120&e=1619087018469&sub=RTO&fmt=4&videokbrate=750&h=e7c2b42bcd67b196be25aa7ec48c7851"}, "size": 1, "videoClips": [{"hlsUrl": "http://video.internetvideoarchive.net/video.m3u8?cmd=6&publishedid=http://www.youtube.com/v/cxrcDLpOluY&customerid=300120&e=1619087018469&sub=RTO&fmt=11&h=4b094604a6db76d4179bf1192389988e", "seconds": 11, "minutes": 2, "id": 8803017, "title": "the straight story - trailer", "thumbUrl": "http://img.youtube.com/vi/cxrcDLpOluY/default.jpg", "mp4Url": "http://video.internetvideoarchive.net/video.mp4?cmd=6&publishedid=http://www.youtube.com/v/cxrcDLpOluY&customerid=300120&e=1619087018469&sub=RTO&fmt=4&videokbrate=750&h=e7c2b42bcd67b196be25aa7ec48c7851"}]}, "isUpcoming": false, "posters": {"original": "https://resizing.flixster.com/vIKm-qO4r5_VeFZWYgOEWpH_S6g=/768x1024/v1.bTsxMTYxNDA3MTtqOzE4ODc1OzIwNDg7NzY4OzEwMjQ", "detailed": "https://resizing.flixster.com/QpB_26u2ADCP9896JoYJsOwC28Y=/180x240/v1.bTsxMTYxNDA3MTtqOzE4ODc1OzIwNDg7NzY4OzEwMjQ", "profile": "https://resizing.flixster.com/BxRbijIDyFYaK5G48wwRDplTsm0=/120x160/v1.bTsxMTYxNDA3MTtqOzE4ODc1OzIwNDg7NzY4OzEwMjQ", "thumbnail": "https://resizing.flixster.com/uc38tqC150ijx1h6xS27nduY3bs=/54x72/v1.bTsxMTYxNDA3MTtqOzE4ODc1OzIwNDg7NzY4OzEwMjQ"}, "isLimited": false, "mainTrailer": {"thumbUrl": "https://img.youtube.com/vi/cxrcDLpOluY/default.jpg", "hlsUrl": "http://video.internetvideoarchive.net/video.m3u8?cmd=6&publishedid=http://www.youtube.com/v/cxrcDLpOluY&customerid=300120&e=1619087018024&sub=RTO&fmt=11&h=2dfb0e48d58fd6b1171bc074b70df8b6", "id": 8803017, "mp4Url": "http://video.internetvideoarchive.net/video.mp4?cmd=6&publishedid=http://www.youtube.com/v/cxrcDLpOluY&customerid=300120&e=1619087018025&sub=RTO&fmt=4&videokbrate=750&h=d0895b7a6959d5d5a5aab71cbb67badf"}, "photos": {"photos": [{"url": "https://resizing.flixster.com/zshnGfNU5XFwZZAbhJCbRG4snhs=/418x627/v1.bjsxMzA4Mjc2O2o7MTg4MTY7MjA0ODs0MTg7NjI3", "index": 0, "submittedBy": "RT Staff", "height": 627, "imageId": 1308276, "thumbnail": "https://resizing.flixster.com/GwTR6dwhFApkz7MWy5T1oy7P_O8=/80x80/v1.bjsxMzA4Mjc2O2o7MTg4MTY7MjA0ODs0MTg7NjI3", "submittedDate": "2016-11-04", "id": "multiuse-1308276", "photoType": "movie", "width": 418}, {"url": "https://resizing.flixster.com/XHVSHOP75lxj4uqRpPMDNtVGQNc=/682x1023/v1.bjsyNTczMTMxO2o7MTg4NzA7MjA0ODs3MzI7MTA5OA", "index": 1, "submittedBy": "RT Staff", "height": 1023, "imageId": 2573131, "thumbnail": "https://resizing.flixster.com/3fqqfJT5brkDGuhrhbszHWhfjwI=/80x80/v1.bjsyNTczMTMxO2o7MTg4NzA7MjA0ODs3MzI7MTA5OA", "submittedDate": "2020-08-03", "id": "multiuse-2573131", "photoType": "movie", "width": 682}], "length": 2}, "id": 9479}