{"url": "/m/the_breadwinner/", "isOnOpening": false, "boxoffice": "$0.2M", "genreSet": [{"displayName": "Drama", "id": 9}, {"displayName": "Animation", "id": 2}, {"displayName": "Kids & Family", "id": 11}], "officialUrl": "", "isInTheaters": false, "synopsis": "Parvana is an 11-year-old girl growing up under the Taliban in Afghanistan in 2001. When her father is wrongfully arrested, Parvana cuts off her hair and dresses like a boy in order to support her family. Working alongside her friend Shauzia, Parvana discovers a new world of freedom-and danger. With undaunted courage, Parvana draws strength from the fantastical stories she invents, as she embarks on a quest to find her father and reunite her family. Equal parts thrilling and enchanting, The Breadwinner is an inspiring and luminously animated tale about the power of stories to sustain hope and carry us through dark times", "links": {"alternate": "//www.rottentomatoes.com/m/the_breadwinner/"}, "year": 2017, "trackingType": "DvdOther", "status": "Live", "isPlaying": false, "isOnDVD": true, "runningTimeStr": "1 hr. 33 min.", "ratingSummary": {"topcount": 32, "consensus": "The Breadwinner's stunning visuals are matched by a story that dares to confront sobering real-life issues with uncommon -- and richly rewarding -- honesty.", "topCritics": {"hasScore": true, "numReviews": 32, "meterClass": "certified", "numRotten": 2, "numFresh": 30, "hasReviews": true, "meterValue": 94, "averageRating": 7.659091}, "audience": {"meterScore": 87, "averageScore": 4.119236946105957, "numTotal": 1881, "ratingType": "viewed"}, "allcount": 105, "rottencount": 5, "dvdcount": 0, "allCritics": {"hasScore": true, "numReviews": 105, "meterClass": "certified", "numRotten": 5, "numFresh": 100, "hasReviews": true, "meterValue": 95, "averageRating": 7.86}, "freshcount": 100}, "mpaaRating": "PG-13", "vanity": "the_breadwinner", "photos": {"photos": [{"url": "https://resizing.flixster.com/AyQv6_84Kk4oPKrInFs2CXFzKKY=/1024x431/v1.bjsxNjc5MTcxO2o7MTg4MjU7MjA0ODsyNTAwOzEwNTI", "index": 0, "submittedBy": "RT Staff", "height": 431, "imageId": 1679171, "thumbnail": "https://resizing.flixster.com/LRyjoSmhSXpibGYhdEqQ_5lDJyo=/80x80/v1.bjsxNjc5MTcxO2o7MTg4MjU7MjA0ODsyNTAwOzEwNTI", "submittedDate": "2017-07-21", "id": "multiuse-1679171", "photoType": "movie", "width": 1024}, {"url": "https://resizing.flixster.com/eHEGyfoWj4Id3RX8iYZAb000wMw=/1024x430/v1.bjsxNjc5MTcyO2o7MTg4MjY7MjA0ODsyNTAwOzEwNTE", "index": 1, "submittedBy": "RT Staff", "height": 430, "imageId": 1679172, "thumbnail": "https://resizing.flixster.com/2KHiDJ78SkTPmhkHKMtG7wft108=/80x80/v1.bjsxNjc5MTcyO2o7MTg4MjY7MjA0ODsyNTAwOzEwNTE", "submittedDate": "2017-07-21", "id": "multiuse-1679172", "photoType": "movie", "width": 1024}, {"url": "https://resizing.flixster.com/jA1a1ghdly78I96-RKza11oExS8=/1024x428/v1.bjsxNjc5MTczO2o7MTg4Mjc7MjA0ODsyNTAwOzEwNDQ", "index": 2, "submittedBy": "RT Staff", "height": 428, "imageId": 1679173, "thumbnail": "https://resizing.flixster.com/lquvaJVHHvCzCHn_5Zt7GtWRSMQ=/80x80/v1.bjsxNjc5MTczO2o7MTg4Mjc7MjA0ODsyNTAwOzEwNDQ", "submittedDate": "2017-07-21", "id": "multiuse-1679173", "photoType": "movie", "width": 1024}], "length": 3}, "runningTime": 93, "purchaseOptions": {"amazon": {"url": "http://www.amazon.com/gp/product/B079P32VT3/ref=atv_feed_catalog?tag=rottetomao_aiv_mv-20", "isPrime": false, "type": "buy"}, "netflix": {"streamingId": "80217121"}, "vudu": {"url": "https://www.vudu.com/content/movies/details/The-Breadwinner/925175", "type": "buy"}, "iTunes": {"url": "https://itunes.apple.com/movie/the-breadwinner/id1316850594?uo=5", "price": "4.99"}}, "reviews": {"total": 105, "links": {"alternate": "//www.rottentomatoes.com/m/the_breadwinner/#reviews", "self": "api.flixster.com/movies/the-breadwinner/reviews.json?review_type=mob&country=us&page=1", "prev": "api.flixster.com/movies/the-breadwinner/reviews.json?review_type=mob&country=us&page=0", "next": "api.flixster.com/movies/the-breadwinner/reviews.json?review_type=mob&country=us&page=2"}, "reviews": [{"isRotten": false, "url": "https://www.irishtimes.com/culture/film/the-breadwinner-another-winning-tale-from-cartoon-saloon-1.3504473", "creationDate": 1527899835000, "isFresh": true, "id": 2482062, "quote": "A fantastical myth, woven through the propulsive main story, serves as a distraction to the characters in their most distressed moments. Story as lesson. Story as history. Also, story as entertainment. Story as escape. ", "links": {"review": "https://www.irishtimes.com/culture/film/the-breadwinner-another-winning-tale-from-cartoon-saloon-1.3504473"}, "publication": {"url": "", "name": "Irish Times"}, "isTop": true, "freshness": "fresh", "critic": {"url": "/critic/donald-clarke", "name": "Donald Clarke", "id": 14362, "thumbnailImage": "https://resizing.flixster.com/REwjiavIWiOkjw75Bqv20iXlMrI=/72x72/v1.YzsyNzkwO2c7MTg3NjU7MjA0ODsxNTA7MTUw"}, "original_score": "4/5"}, {"isRotten": false, "url": "https://www.theguardian.com/film/2018/may/27/the-breadwinner-review-nora-twomey-deborah-ellis-kabul", "creationDate": 1527427573000, "isFresh": true, "id": 2480977, "quote": "Along with the eerie beauty of the animation there is a salving streak of humour that softens this tale's sharper edges, reminding us that - for children - laughter and bravery walk hand in hand.", "links": {"review": "https://www.theguardian.com/film/2018/may/27/the-breadwinner-review-nora-twomey-deborah-ellis-kabul"}, "publication": {"url": "", "name": "Observer (UK)"}, "isTop": true, "freshness": "fresh", "critic": {"url": "/critic/mark-kermode", "name": "Mark Kermode", "id": 4121, "thumbnailImage": "https://d2a5cgar23scu2.cloudfront.net/static/images/redesign/user.none.tmb.jpg"}, "original_score": "5/5"}, {"isRotten": false, "url": "https://www.standard.co.uk/go/london/film/the-breadwinner-it-takes-real-girl-power-to-tackle-the-taliban-a3848336.html", "creationDate": 1527267743000, "isFresh": true, "id": 2480728, "quote": "This beautiful and continually surprising film makes us think about what children can and can't bear.", "links": {"review": "https://www.standard.co.uk/go/london/film/the-breadwinner-it-takes-real-girl-power-to-tackle-the-taliban-a3848336.html"}, "publication": {"url": "", "name": "London Evening Standard"}, "isTop": true, "freshness": "fresh", "critic": {"url": "/critic/charlotte-osullivan", "name": "Charlotte O'Sullivan", "id": 5385, "thumbnailImage": "https://d2a5cgar23scu2.cloudfront.net/static/images/redesign/user.none.tmb.jpg"}, "original_score": "4/5"}, {"isRotten": false, "url": "https://www.timeout.com/london/film/the-breadwinner", "creationDate": 1527240485000, "isFresh": true, "id": 2480643, "quote": "This is a day-to-day survival story that stirs the heart and fires the imagination. ", "links": {"review": "https://www.timeout.com/london/film/the-breadwinner"}, "publication": {"url": "", "name": "Time Out"}, "isTop": true, "freshness": "fresh", "critic": {"url": "/critic/philip-de-semlyen", "name": "Philip De Semlyen", "id": 13260, "thumbnailImage": "https://resizing.flixster.com/4lB0IN_InIORu0bwG_7MO8zCJN0=/72x72/v1.YzszMjg3O2c7MTg3Njc7MjA0ODsxNTA7MTUw"}, "original_score": "5/5"}, {"isRotten": false, "url": "https://www.thetimes.co.uk/article/film-review-the-breadwinner-pgvqw7l95", "creationDate": 1527202152000, "isFresh": true, "id": 2480582, "quote": "Not the most obvious subjects for a family animation, but The Breadwinner tackles them all with devastating economy.", "links": {"review": "https://www.thetimes.co.uk/article/film-review-the-breadwinner-pgvqw7l95"}, "publication": {"url": "", "name": "Times (UK)"}, "isTop": true, "freshness": "fresh", "critic": {"url": "/critic/ed-potton", "name": "Ed Potton", "id": 11404, "thumbnailImage": "https://d2a5cgar23scu2.cloudfront.net/static/images/redesign/user.none.tmb.jpg"}, "original_score": "4/5"}, {"isRotten": false, "url": "https://www.telegraph.co.uk/films/0/breadwinner-review-fantasy-reality-collide-visionary-look-life/", "creationDate": 1527191241000, "isFresh": true, "id": 2480511, "quote": "The Breadwinner is thrillingly alive with the delicacy, artistry and wit of human touch.", "links": {"review": "https://www.telegraph.co.uk/films/0/breadwinner-review-fantasy-reality-collide-visionary-look-life/"}, "publication": {"url": "", "name": "Daily Telegraph (UK)"}, "isTop": true, "freshness": "fresh", "critic": {"url": "/critic/robbie-collin", "name": "Robbie Collin", "id": 13264, "thumbnailImage": "https://resizing.flixster.com/oiYY9OAZSIZLuvSZSEAd_-em8g8=/72x72/v1.YzsyNjY2O2c7MTg3NzY7MjA0ODsxNTA7MTUw"}, "original_score": "4/5"}, {"isRotten": false, "url": "http://www.richardcrouse.ca/the-breadwinner-3-%c2%bd-stars-beautifully-animated-its-intense-and-inspiring/", "creationDate": 1612387332000, "isFresh": true, "id": 2764041, "quote": "Beautifully animated, it's intense, inspiring and further proof that good storytelling is good storytelling regardless of milieu.", "links": {"review": "http://www.richardcrouse.ca/the-breadwinner-3-%c2%bd-stars-beautifully-animated-its-intense-and-inspiring/"}, "publication": {"url": "", "name": "Richard Crouse"}, "isTop": false, "freshness": "fresh", "critic": {"url": "/critic/richard-crouse", "name": "Richard Crouse", "id": 5921, "thumbnailImage": "https://resizing.flixster.com/ccJ27MfJF5DyTthYpeMJqr02opo=/72x72/v1.YzszODgxO2o7MTg3NzY7MjA0ODszMDA7MzAw"}, "original_score": "3.5/5"}, {"isRotten": false, "url": "https://substreammagazine.com/2017/12/breadwinner-review/", "creationDate": 1601603904000, "isFresh": true, "id": 2730816, "quote": "A remarkably solid film about perseverance and hardship in a society dominated by those who insist that might makes right.", "links": {"publication": "http://https://substreammagazine.com/", "review": "https://substreammagazine.com/2017/12/breadwinner-review/"}, "publication": {"url": "http://https://substreammagazine.com/", "name": "Substream Magazine"}, "isTop": false, "freshness": "fresh", "critic": {"url": "/critic/leigh-monson", "name": "Leigh Monson", "id": 20805, "thumbnailImage": "https://resizing.flixster.com/RRPx70vCCLputp858cY-ln2eRms=/72x72/v1.YzszMjk4O2o7MTg3Nzg7MjA0ODszMDA7MzAw"}, "original_score": "3.5/5"}, {"isRotten": false, "url": "https://www.straitstimes.com/lifestyle/entertainment/at-the-movies-unsettling-animation-i-lost-my-body-the-breadwinner-have-a", "creationDate": 1591650383000, "isFresh": true, "id": 2694892, "quote": "While there is more than a moment of bleak humour - in scenes showing that when one is arguing with the armed religious right, the worst thing one can do is win - much of the story plays out as a tense survival story.", "links": {"review": "https://www.straitstimes.com/lifestyle/entertainment/at-the-movies-unsettling-animation-i-lost-my-body-the-breadwinner-have-a"}, "publication": {"url": "", "name": "The Straits Times (Singapore)"}, "isTop": false, "freshness": "fresh", "critic": {"url": "/critic/john-lui", "name": "John Lui", "id": 17180, "thumbnailImage": "https://resizing.flixster.com/d3JCEMcF-8HCrMPtz0gyRt9VO9M=/72x72/v1.YzsyNzU1O2c7MTg3NzU7MjA0ODsxNTA7MTUw"}, "original_score": "3.5/5"}, {"isRotten": false, "url": "https://www.flickfeast.co.uk/reviews/film-reviews/bfi-lff-2017-the-breadwinner-2017/", "creationDate": 1573590172000, "isFresh": true, "id": 2644837, "quote": "Overall, The Breadwinner is a strong debut for Twomey and a beautifully animated adaptation of Ellis' novel.", "links": {"review": "https://www.flickfeast.co.uk/reviews/film-reviews/bfi-lff-2017-the-breadwinner-2017/"}, "publication": {"url": "", "name": "Flick Feast"}, "isTop": false, "freshness": "fresh", "critic": {"url": "/critic/katie-smith-wong", "name": "Katie Smith-Wong", "id": 25631, "thumbnailImage": "https://resizing.flixster.com/RJi-m9TFZo3-GtFCNhVxSgC3-tc=/72x72/v1.YzszNDcyO2o7MTg3NzI7MjA0ODszMDA7MzAw"}, "original_score": "4/5"}, {"isRotten": false, "url": "https://www.espinof.com/categoria/criticas", "creationDate": 1563493249000, "isFresh": true, "id": 2606671, "quote": "Its effective animation, and its solid script are the icing on the cake. [Full Review in Spanish] ", "links": {"review": "https://www.espinof.com/categoria/criticas"}, "publication": {"url": "", "name": "Espinof"}, "isTop": false, "freshness": "fresh", "critic": {"url": "/critic/mikel-zorrilla", "name": "Mikel Zorrilla", "id": 16945, "thumbnailImage": "https://d2a5cgar23scu2.cloudfront.net/static/images/redesign/user.none.tmb.jpg"}, "original_score": "4/5"}, {"isRotten": false, "url": "https://www.fotogramas.es/peliculas-criticas/a28026736/el-pan-de-la-guerra-critica-pelicula/", "creationDate": 1560732092000, "isFresh": true, "id": 2597733, "quote": "The film's poetic aura removes and remains after it ends. [Full Review in Spanish]", "links": {"review": "https://www.fotogramas.es/peliculas-criticas/a28026736/el-pan-de-la-guerra-critica-pelicula/"}, "publication": {"url": "", "name": "Fotogramas"}, "isTop": false, "freshness": "fresh", "critic": {"url": "/critic/pablo-vazquez", "name": "Pablo V\u00e1zquez", "id": 25312, "thumbnailImage": "https://d2a5cgar23scu2.cloudfront.net/static/images/redesign/user.none.tmb.jpg"}, "original_score": "4/5"}]}, "casts": {"screenwriters": [{"url": "/celebrity/anita_doron/", "name": "Anita Doron", "thumbnailImg": "https://d2a5cgar23scu2.cloudfront.net/static/images/redesign/actor.default.tmb.gif"}], "directors": [{"url": "/celebrity/nora_twomey/", "name": "Nora Twomey", "thumbnailImg": "https://d2a5cgar23scu2.cloudfront.net/static/images/redesign/actor.default.tmb.gif"}], "creators": [], "producers": [], "castItems": [{"person": {"url": "/celebrity/saara_chaudry/", "name": "Saara Chaudry", "thumbnailImg": "https://d2a5cgar23scu2.cloudfront.net/static/images/redesign/actor.default.tmb.gif"}, "characters": [{"name": "Parvana"}]}, {"person": {"url": "/celebrity/soma_chhaya/", "name": "Soma Chhaya", "thumbnailImg": "https://d2a5cgar23scu2.cloudfront.net/static/images/redesign/actor.default.tmb.gif"}, "characters": [{"name": "Shauzia"}]}, {"person": {"url": "/celebrity/laara_sadiq/", "name": "Laara Sadiq", "thumbnailImg": "https://resizing.flixster.com/UfySlYDSdvMJQ4_DIStkP-Wfcyk=/80x80/v1.cDsxMjgwMjkzNDtqOzE4ODA3OzIwNDg7NDEzOzU5NA"}, "characters": [{"name": "Fattema"}]}, {"person": {"url": "/celebrity/shaista_latif/", "name": "Shaista Latif", "thumbnailImg": "https://d2a5cgar23scu2.cloudfront.net/static/images/redesign/actor.default.tmb.gif"}, "characters": [{"name": "Soraya"}]}, {"person": {"url": "/celebrity/ali_badshah/", "name": "Ali Badshah", "thumbnailImg": "https://d2a5cgar23scu2.cloudfront.net/static/images/redesign/actor.default.tmb.gif"}, "characters": [{"name": "Nurullah"}]}, {"person": {"url": "/celebrity/noorin_gulamgaus/", "name": "Noorin Gulamgaus", "thumbnailImg": "https://d2a5cgar23scu2.cloudfront.net/static/images/redesign/actor.default.tmb.gif"}, "characters": [{"name": "Idrees/Sulayman"}]}, {"person": {"url": "/celebrity/kawa_ada/", "name": "Kawa Ada", "thumbnailImg": "https://d2a5cgar23scu2.cloudfront.net/static/images/redesign/actor.default.tmb.gif"}, "characters": [{"name": "Razaq"}]}]}, "title": "The Breadwinner", "adjustedScore": 98.79682039333927, "ratings": {"critics_rating": "Certified Fresh", "audience_score": 87, "dvdReleaseDate": 1520323200000, "critics_score": 95, "theaterReleaseDate": 1510905600000, "audience_rating": "Upright"}, "videoClips": {"mainTrailer": {"hlsUrl": "http://video.internetvideoarchive.net/video.m3u8?cmd=6&publishedid=http://link.theplatform.com/s/NGweTC/media/mTqlnRI6h2g4&customerid=300120&e=1619087039201&sub=RTO&fmt=11&h=142e136b364445ec2838fd8bf5b423cf", "seconds": 56, "minutes": 1, "id": 11302517, "title": "The Breadwinner: Trailer 1", "thumbUrl": "http://resizing.flixster.com/-QEQFNhjwgZRnFPcod6DZEDzWmQ=/171x128/v1.bjsxNzY3NzU5O2o7MTg3ODU7MjA0ODsxMDgwOzE5MjA", "mp4Url": "http://video.internetvideoarchive.net/video.mp4?cmd=6&publishedid=http://link.theplatform.com/s/NGweTC/media/mTqlnRI6h2g4&customerid=300120&e=1619087039201&sub=RTO&fmt=4&videokbrate=750&h=6ad5796c42b1469f2e9ee6ba126aa76e"}, "size": 2, "videoClips": [{"hlsUrl": "http://video.internetvideoarchive.net/video.m3u8?cmd=6&publishedid=http://link.theplatform.com/s/NGweTC/media/mTqlnRI6h2g4&customerid=300120&e=1619087039201&sub=RTO&fmt=11&h=142e136b364445ec2838fd8bf5b423cf", "seconds": 56, "minutes": 1, "id": 11302517, "title": "The Breadwinner: Trailer 1", "thumbUrl": "http://resizing.flixster.com/-QEQFNhjwgZRnFPcod6DZEDzWmQ=/171x128/v1.bjsxNzY3NzU5O2o7MTg3ODU7MjA0ODsxMDgwOzE5MjA", "mp4Url": "http://video.internetvideoarchive.net/video.mp4?cmd=6&publishedid=http://link.theplatform.com/s/NGweTC/media/mTqlnRI6h2g4&customerid=300120&e=1619087039201&sub=RTO&fmt=4&videokbrate=750&h=6ad5796c42b1469f2e9ee6ba126aa76e"}, {"hlsUrl": "http://video.internetvideoarchive.net/video.m3u8?cmd=6&publishedid=http://link.theplatform.com/s/NGweTC/media/1KZMhKq_mkqJ&customerid=300120&e=1619087039201&sub=RTO&fmt=11&h=26f424495b5a812a118c6d821d037c6a", "seconds": 1, "minutes": 1, "id": 11298363, "title": "The Breadwinner: Teaser Trailer 1", "thumbUrl": "http://resizing.flixster.com/oJv0VcP1pfbbSc3wnJ_bv9-gEOM=/171x128/v1.bjsxNjIyNzg3O2o7MTg3ODM7MjA0ODsxMDgwOzE5MjA", "mp4Url": "http://video.internetvideoarchive.net/video.mp4?cmd=6&publishedid=http://link.theplatform.com/s/NGweTC/media/1KZMhKq_mkqJ&customerid=300120&e=1619087039201&sub=RTO&fmt=4&videokbrate=750&h=8eea08e1f9a83d079cfe5d59337ceb24"}]}, "isUpcoming": false, "posters": {"original": "https://resizing.flixster.com/Mo19h2kN8tKZUWEabNCCQp-M7DQ=/488x713/v1.bTsxMjU2MzA5OTtqOzE4ODE5OzIwNDg7NDg4OzcxMw", "detailed": "https://resizing.flixster.com/_dMDwzWqp1RWc5iMHHjZngTOu54=/180x263/v1.bTsxMjU2MzA5OTtqOzE4ODE5OzIwNDg7NDg4OzcxMw", "profile": "https://resizing.flixster.com/2TMtyWvtMcJXOzRENiv4zVdr8AQ=/120x175/v1.bTsxMjU2MzA5OTtqOzE4ODE5OzIwNDg7NDg4OzcxMw", "thumbnail": "https://resizing.flixster.com/nWrY3oOZk4kNM9Gyj169BTshgO4=/54x79/v1.bTsxMjU2MzA5OTtqOzE4ODE5OzIwNDg7NDg4OzcxMw"}, "isLimited": true, "mainTrailer": {"thumbUrl": "https://resizing.flixster.com/-QEQFNhjwgZRnFPcod6DZEDzWmQ=/171x128/v1.bjsxNzY3NzU5O2o7MTg3ODU7MjA0ODsxMDgwOzE5MjA", "hlsUrl": "http://video.internetvideoarchive.net/video.m3u8?cmd=6&publishedid=http://link.theplatform.com/s/NGweTC/media/mTqlnRI6h2g4&customerid=300120&e=1619087038953&sub=RTO&fmt=11&h=11c62f15e3b1a046922e1dc76892ac4c", "id": 11302517, "mp4Url": "http://video.internetvideoarchive.net/video.mp4?cmd=6&publishedid=http://link.theplatform.com/s/NGweTC/media/mTqlnRI6h2g4&customerid=300120&e=1619087038953&sub=RTO&fmt=4&videokbrate=750&h=6c12fde09f7375ec5f33461d84a2691f"}, "advisory": "for thematic material including some violent images", "id": 771443582}