{"url": "/m/lady_and_the_tramp/", "isOnOpening": false, "genreSet": [{"displayName": "Drama", "id": 9}, {"displayName": "Animation", "id": 2}, {"displayName": "Kids & Family", "id": 11}], "runningTime": 76, "isInTheaters": false, "synopsis": "Lady and the Tramp represented two \"firsts\" for Disney: It was the studio's first Cinemascope animated feature, and it was their first full-length cartoon based on an original story rather than an established \"classic\". Lady is the pampered female dog belonging to Jim Dear and Darling. When her human masters bring a baby into the house, Lady feels she's being eased out; and when Darling's insufferable Aunt Sarah introduces her nasty twin Siamese cats into the fold, Lady is certain that she's no longer welcome. The cats wreak all manner of havoc, for which Lady is blamed. After the poor dog is fitted with a muzzle, Lady escapes from the house, only to run across the path of the Tramp, a raffish male dog from the \"wrong\" side of town. The Tramp helps Lady remove her muzzle, then takes her out on a night on the town, culminating in a romantic spaghetti dinner, courtesy of a pair of dog-loving Italian waiters. After their idyllic evening together, Lady decides that it's her duty to protect Darling's baby from those duplicitous Siamese felines. On her way home, Lady is captured and thrown in the dog pound. Here she learns from a loose-living mutt named Peg that The Tramp is a canine rake. Disillusioned, Lady is more than happy to be returned to her humans, even though it means that she'll be chained up at the insistence of Aunt Sarah. Tramp comes into Lady's yard to apologize, but she wants no part of him. Suddenly, a huge, vicious rat breaks into the house, threatening the baby. Lady breaks loose, and together with Tramp, runs into the house to protect the infant. When the dust settles, it appears to Aunt Sarah that Tramp has tried to attack the child. That's when Lady's faithful friends Jock the bloodhound and Trusty the scottie swing into action, rescuing Tramp from the dogcatcher. Once Jim Dear and Darling are convinced that Tramp is a hero, he is invited to stay...and come next Christmas, there's a whole flock of little Ladies and Tramps gathered around the family. Beyond the usual excellent animation and visual effects, the principal selling card of Lady and the Tramp is its music. Many of the songs were performed and co-written by Peggy Lee, who years after the film's 1955 theatrical issue, successfully sued Disney for her fair share of residuals from the videocassette release. ~ Hal Erickson, Rovi", "links": {"alternate": "//www.rottentomatoes.com/m/lady_and_the_tramp/"}, "year": 1955, "trackingType": "DvdOther", "status": "Live", "isPlaying": false, "isOnDVD": true, "runningTimeStr": "1 hr. 16 min.", "ratingSummary": {"topcount": 9, "consensus": "A nostalgic charmer, Lady and the Tramp's token sweetness is mighty but the songs and richly colored animation are technically superb and make for a memorable experience.", "topCritics": {"hasScore": true, "numReviews": 9, "meterClass": "certified", "numRotten": 3, "numFresh": 6, "hasReviews": true, "meterValue": 67, "averageRating": 7}, "audience": {"meterScore": 80, "averageScore": 3.5014336109161377, "numTotal": 861081, "ratingType": "viewed"}, "allcount": 42, "rottencount": 3, "dvdcount": 19, "allCritics": {"hasScore": true, "numReviews": 42, "meterClass": "certified", "numRotten": 3, "numFresh": 39, "hasReviews": true, "meterValue": 93, "averageRating": 7.9}, "freshcount": 39}, "mpaaRating": "G", "vanity": "lady_and_the_tramp", "studio": "Buena Vista Pictures", "purchaseOptions": {"amazon": {"url": "http://www.amazon.com/gp/product/B078RMZYGX/ref=atv_feed_catalog?tag=rottetomao_aiv_mv-20", "isPrime": false, "type": "buy"}, "vudu": {"url": "https://www.vudu.com/content/movies/details/Lady-and-the-Tramp-The-Walt-Disney-Signature-Collection/921845", "type": "buy"}, "iTunes": {"url": "https://itunes.apple.com/movie/lady-and-the-tramp/id474132759?uo=5", "price": "14.99"}}, "reviews": {"total": 42, "links": {"alternate": "//www.rottentomatoes.com/m/lady_and_the_tramp/#reviews", "self": "api.flixster.com/movies/lady-and-the-tramp/reviews.json?review_type=mob&country=us&page=1", "prev": "api.flixster.com/movies/lady-and-the-tramp/reviews.json?review_type=mob&country=us&page=0", "next": "api.flixster.com/movies/lady-and-the-tramp/reviews.json?review_type=mob&country=us&page=2"}, "reviews": [{"isRotten": false, "url": "http://www.chicagotribune.com/news/ct-xpm-1986-12-19-8604050010-story.html", "creationDate": 1537821001000, "isFresh": true, "id": 2512782, "quote": "The quintessential American love story -- the one between the spoiled heiress and the spontaneous, fun-loving guy from the wrong side of the tracks -- has seldom been more elegantly and entertainingly told.", "links": {"review": "http://www.chicagotribune.com/news/ct-xpm-1986-12-19-8604050010-story.html"}, "publication": {"url": "", "name": "Chicago Tribune"}, "isTop": true, "freshness": "fresh", "critic": {"url": "/critic/dave-kehr", "name": "Dave Kehr", "id": 15, "thumbnailImage": "https://resizing.flixster.com/9JKqg6sYG8Ma4MxlrqIMwc3jppc=/72x72/v1.YzszNjQ3O2o7MTg3Njc7MjA0ODszMDA7MzAw"}, "original_score": "4/4"}, {"isRotten": false, "url": "http://www.commonsensemedia.org/movie-reviews/lady-and-tramp ", "creationDate": 1293332518000, "isFresh": true, "id": 1948913, "quote": "Classic Disney dogs paw their way into hearts.", "links": {"review": "http://www.commonsensemedia.org/movie-reviews/lady-and-tramp "}, "publication": {"url": "", "name": "Common Sense Media"}, "isTop": true, "freshness": "fresh", "critic": {"url": "/critic/nell-minow", "name": "Nell Minow", "id": 13, "thumbnailImage": "https://resizing.flixster.com/0Yu3ChYD_PlERNzLAMX6a0J1DOo=/72x72/v1.YzsxNTc5O2c7MTg3Njk7MjA0ODszODs0OA"}, "original_score": "5/5"}, {"isRotten": true, "url": "http://www.time.com/time/magazine/article/0,9171,807375,00.html?promoid=googlep", "publication": {"url": "", "name": "TIME Magazine"}, "isTop": true, "creationDate": 1220274849000, "isFresh": false, "freshness": "rotten", "quote": "Walt Disney has for so long parlayed gooey sentiment and stark horror into profitable cartoons that most moviegoers are apt to be more surprised than disappointed to discover that the combination somehow does not work this time.", "id": 1752603, "links": {"review": "http://www.time.com/time/magazine/article/0,9171,807375,00.html?promoid=googlep"}}, {"isRotten": false, "url": "http://www.variety.com/review/VE1117792400.html?categoryid=31&cs=1", "publication": {"url": "", "name": "Variety"}, "isTop": true, "creationDate": 1212401723000, "isFresh": true, "freshness": "fresh", "critic": {"url": "/critic/variety-staff", "name": "Variety Staff", "id": 12507, "thumbnailImage": "https://resizing.flixster.com/8Z-e2stpP9WriX4ZUvtumMg0pB0=/72x72/v1.YzsyNDg3O2c7MTg3Nzc7MjA0ODsxNTI7MTY4"}, "quote": "The wider canvas and extra detail work reportedly meant an additional 30% in negative cost. It was a sound investment.", "id": 1731918, "links": {"review": "http://www.variety.com/review/VE1117792400.html?categoryid=31&cs=1"}}, {"isRotten": false, "url": "http://www.timeout.com/film/reviews/80002/lady_and_the_tramp.html", "publication": {"url": "", "name": "Time Out"}, "isTop": true, "creationDate": 1151147966000, "isFresh": true, "freshness": "fresh", "critic": {"url": "/critic/geoff-andrew", "name": "Geoff Andrew", "id": 12289, "thumbnailImage": "https://d2a5cgar23scu2.cloudfront.net/static/images/redesign/user.none.tmb.jpg"}, "quote": "Happily the cameo lowlife, an excellent manic beaver, the famously villainous Siamese, and classic songs rescue the film from dumb animal sentiment.", "id": 1519500, "links": {"review": "http://www.timeout.com/film/reviews/80002/lady_and_the_tramp.html"}}, {"isRotten": true, "url": "http://movies.nytimes.com/movie/review?res=9507E1DB113EE63BBC4C51DFB066838E649EDE&partner=Rotten Tomatoes", "publication": {"url": "", "name": "New York Times"}, "isTop": true, "creationDate": 1143289348000, "isFresh": false, "freshness": "rotten", "critic": {"url": "/critic/bosley-crowther", "name": "Bosley Crowther", "id": 154, "thumbnailImage": "https://resizing.flixster.com/ZoBZxKdbHo6AIbCJJ9D_0ksLISc=/72x72/v1.YzsyMzk1O2c7MTg3NzU7MjA0ODszODs0Mg"}, "quote": "The sentimentality is mighty, and the use of the CinemaScope size does not make for any less awareness of the thickness of the goo.", "id": 1493796, "links": {"review": "http://movies.nytimes.com/movie/review?res=9507E1DB113EE63BBC4C51DFB066838E649EDE&partner=Rotten Tomatoes"}}, {"isRotten": false, "url": "http://gonewiththetwins.com/new/lady-and-the-tramp-1955/", "creationDate": 1616546035000, "isFresh": true, "id": 2778960, "quote": "It might not be Disney's most impressive work, but it's still expertly designed, quite satisfying, and highly memorable for its key romantic sequences.", "links": {"review": "http://gonewiththetwins.com/new/lady-and-the-tramp-1955/"}, "publication": {"url": "", "name": "Gone With The Twins"}, "isTop": false, "freshness": "fresh", "critic": {"url": "/critic/mike-massie", "name": "Mike Massie", "id": 27168, "thumbnailImage": "https://resizing.flixster.com/cKCY6tR9EskewGPlb8BlnvWesZU=/72x72/v1.YzszNjc3O2o7MTg3OTc7MjA0ODszMDA7MzAw"}, "original_score": "7/10"}, {"isRotten": false, "url": "https://www.youtube.com/watch?v=9NF8ZhiWB5s&list=PL7wz447AgL4zvyd7KAHcNX2sw4IxyyvK0&index=52", "creationDate": 1550191357000, "isFresh": true, "id": 2558977, "quote": "I just love Lady and the Tramp.", "links": {"review": "https://www.youtube.com/watch?v=9NF8ZhiWB5s&list=PL7wz447AgL4zvyd7KAHcNX2sw4IxyyvK0&index=52"}, "publication": {"url": "", "name": "Rachel's Reviews (YouTube)"}, "isTop": false, "freshness": "fresh", "critic": {"url": "/critic/rachel-wagner", "name": "Rachel Wagner", "id": 23964, "thumbnailImage": "https://resizing.flixster.com/CvuVoWlOH-LcGgLgTU2V23hxVvM=/72x72/v1.YzszMjU3O2o7MTg3ODI7MjA0ODszMDA7MzAw"}, "original_score": "A+"}, {"isRotten": false, "url": "http://www.thebluspot.com/single-post/2018/03/01/Lady-and-the-Tramp-Signature-Collection-A-Charming-Animated-Classic-Blu-ray", "creationDate": 1519940508000, "isFresh": true, "id": 2461441, "quote": "While Lady and the Tramp may not rank as one of Disney's greatest animated works, it still makes for a charming experience thanks to its memorable and entertaining characters, gorgeous animation, and a beautiful score.", "links": {"review": "http://www.thebluspot.com/single-post/2018/03/01/Lady-and-the-Tramp-Signature-Collection-A-Charming-Animated-Classic-Blu-ray"}, "publication": {"url": "", "name": "The Blu Spot"}, "isTop": false, "freshness": "fresh", "critic": {"url": "/critic/jeff-beck", "name": "Jeff Beck", "id": 14576, "thumbnailImage": "https://resizing.flixster.com/DEV4OZdrbHDv5zJngiwCvC8gMO0=/72x72/v1.YzsyMzc2O2c7MTg4MDE7MjA0ODszODs0Mg"}, "original_score": "3.5/5"}, {"isRotten": false, "url": "http://www.spiritualityandpractice.com/films/reviews/view/15356/lady-and-the-tramp", "creationDate": 1516746231000, "isFresh": true, "id": 2452144, "quote": "50th anniversary edition of the class story of two very different dogs who fall in love.", "links": {"review": "http://www.spiritualityandpractice.com/films/reviews/view/15356/lady-and-the-tramp"}, "publication": {"url": "", "name": "Spirituality & Practice"}, "isTop": false, "freshness": "fresh", "critic": {"url": "/critic/frederic-and-mary-ann-brussat", "name": "Frederic and Mary Ann Brussat", "id": 2896, "thumbnailImage": "https://resizing.flixster.com/DSjWSSPbsJb4yUTK5n0GfFG556A=/72x72/v1.YzszNjYzO2o7MTg3ODM7MjA0ODszMDA7MzAw"}, "original_score": "5/5"}, {"isRotten": false, "url": "http://www.trespassmag.com/couch-trespassing-lady-and-the-tramp/", "publication": {"url": "", "name": "Trespass"}, "isTop": false, "creationDate": 1378666007000, "isFresh": true, "freshness": "fresh", "critic": {"url": "/critic/glenn-dunks", "name": "Glenn Dunks", "id": 13771, "thumbnailImage": "https://resizing.flixster.com/BgpggWjtjgJrV1Vf6gHtGENXyFs=/72x72/v1.YzszMzg4O2o7MTg3Nzg7MjA0ODsyMzIwOzIzMjA"}, "quote": "This tale (oh hah hah!) of two canines in love has withstood the test of time to remain a family classic.", "id": 2162925, "links": {"review": "http://www.trespassmag.com/couch-trespassing-lady-and-the-tramp/"}}, {"isRotten": false, "url": "http://eclipsemagazine.com/high-definition/30637/", "creationDate": 1335097504000, "isFresh": true, "id": 2075129, "quote": "I just love hand drawn animation, it really brings to life all the characters in a very expressive way. The imperfections doing it by hand give everything a rougher edge but more heart.", "links": {"review": "http://eclipsemagazine.com/high-definition/30637/"}, "publication": {"name": "Eclipse Magazine"}, "isTop": false, "freshness": "fresh", "critic": {"url": "/critic/michelle-alexandria", "name": "Michelle Alexandria", "id": 9688, "thumbnailImage": "https://d2a5cgar23scu2.cloudfront.net/static/images/redesign/user.none.tmb.jpg"}, "original_score": "A"}]}, "casts": {"screenwriters": [{"url": "/celebrity/ward_greene/", "name": "Ward Greene", "thumbnailImg": "https://d2a5cgar23scu2.cloudfront.net/static/images/redesign/actor.default.tmb.gif"}, {"url": "/celebrity/erdman_penner/", "name": "Erdman Penner", "thumbnailImg": "https://d2a5cgar23scu2.cloudfront.net/static/images/redesign/actor.default.tmb.gif"}, {"url": "/celebrity/joe_rinaldi/", "name": "Joe Rinaldi", "thumbnailImg": "https://d2a5cgar23scu2.cloudfront.net/static/images/redesign/actor.default.tmb.gif"}, {"url": "/celebrity/1092574-ralph_wright/", "name": "Ralph Wright", "thumbnailImg": "https://d2a5cgar23scu2.cloudfront.net/static/images/redesign/actor.default.tmb.gif"}, {"url": "/celebrity/don_dagradi/", "name": "Don DaGradi", "thumbnailImg": "https://d2a5cgar23scu2.cloudfront.net/static/images/redesign/actor.default.tmb.gif"}], "directors": [{"url": "/celebrity/hamilton_luske/", "name": "Hamilton Luske", "thumbnailImg": "https://resizing.flixster.com/s-rOiI4dbZyPOqJAbfxDXMEy-U0=/80x80/v1.cDsxMTAzNzc2ODtqOzE4ODgwOzIwNDg7NjA7NjA"}, {"url": "/celebrity/clyde_geronimi/", "name": "Clyde Geronimi", "thumbnailImg": "https://resizing.flixster.com/21qaDVrtabJ-b8PrHoLBKeRFwqM=/80x80/v1.cDsxMTAzMTI4MTtqOzE4ODczOzIwNDg7NDUwOzI0Ng"}, {"url": "/celebrity/wilfred_jackson/", "name": "Wilfred Jackson", "thumbnailImg": "https://resizing.flixster.com/Cp8MRI4NpzvGR5fUhu2ugdcKzDM=/80x80/v1.cDsxMTA2MzcyMDtqOzE4ODY4OzIwNDg7NjQwOzQ3OA"}], "creators": [], "producers": [{"url": "/celebrity/walt_disney/", "name": "Walt Disney", "thumbnailImg": "https://resizing.flixster.com/LSoN_IPA17uTor-mQWNn8QNL0pI=/80x80/v1.cjs0MjI0MDtqOzE4Nzk1OzIwNDg7NDUwOzU5OQ"}], "castItems": [{"person": {"url": "/celebrity/barbara-luddy/", "name": "Barbara Luddy", "thumbnailImg": "https://resizing.flixster.com/srBD0Dg0iZHBxdVyj49VH2OUyyE=/80x80/v1.cDszNDkzMDk4O2o7MTg4Njg7MjA0ODszMDA7MzU3"}, "characters": [{"name": "Lady"}]}, {"person": {"url": "/celebrity/larry_roberts/", "name": "Larry Roberts", "thumbnailImg": "https://d2a5cgar23scu2.cloudfront.net/static/images/redesign/actor.default.tmb.gif"}, "characters": [{"name": "Tramp"}]}, {"person": {"url": "/celebrity/bill_thompson/", "name": "Bill Thompson", "thumbnailImg": "https://resizing.flixster.com/gwqRus8M0krpKVE46eJIQmWsQbI=/80x80/v1.cDszNDU2MzA2O2o7MTg4ODY7MjA0ODs0ODI7NDEw"}, "characters": [{"name": "Jock/Bull/Dachsie"}]}, {"person": {"url": "/celebrity/peggy_lee/", "name": "Peggy Lee", "thumbnailImg": "https://resizing.flixster.com/Q1hhS3AcSItDF_P-Znx6cL-kHA4=/80x80/v1.cDszNDkzMDY5O2c7MTg4ODQ7MjA0ODs5NjsxNDA"}, "characters": [{"name": "Darling/Peg/Si/Am"}]}, {"person": {"url": "/celebrity/bill_baucom/", "name": "Bill Baucom", "thumbnailImg": "https://resizing.flixster.com/u0RtFfyxqvu0i-cL6-otIYHdDP8=/80x80/v1.cDsxMjkxNDAyNDtqOzE4NzkzOzIwNDg7Mzc3OzY2MQ"}, "characters": [{"name": "Trusty"}]}, {"person": {"url": "/celebrity/stan_freberg/", "name": "Stan Freberg", "thumbnailImg": "https://resizing.flixster.com/pSgAg3-HWHRrKTL_VNy7QYTatI8=/80x80/v1.cDsxMzY5MzQzOTtqOzE4ODE3OzIwNDg7MjgyOzI4OA"}, "characters": [{"name": "Beaver"}]}, {"person": {"url": "/celebrity/birthe_buch/", "name": "Birthe Buch", "thumbnailImg": "https://d2a5cgar23scu2.cloudfront.net/static/images/redesign/actor.default.tmb.gif"}}, {"person": {"url": "/celebrity/verna-felton/", "name": "Verna Felton", "thumbnailImg": "https://resizing.flixster.com/KT1Ehj0UbQBCn7OCWPyF0_WTjvw=/80x80/v1.cDszOTc1MzEzO2o7MTg3Nzk7MjA0ODsxMDY7MTE2"}, "characters": [{"name": "Aunt Sarah"}]}, {"person": {"url": "/celebrity/alan_reed_sr/", "name": "Alan Reed Sr.", "thumbnailImg": "https://resizing.flixster.com/t-Fx2t7e1CsQXY6yAoZbe9X95qE=/80x80/v1.cDsxNDAwODMwMDtqOzE4ODE3OzIwNDg7MzAwOzQ1MQ"}, "characters": [{"name": "Boris"}]}, {"person": {"url": "/celebrity/george_givot/", "name": "George Givot", "thumbnailImg": "https://resizing.flixster.com/n9yACgIvRQKbYgMBrKMF6tJz-q4=/80x80/v1.cDsxMTUwNDEwOTtqOzE4ODkyOzIwNDg7MzIwOzI1OA"}, "characters": [{"name": "Tony"}]}, {"person": {"url": "/celebrity/dal_mckennon/", "name": "Dal McKennon", "thumbnailImg": "https://resizing.flixster.com/EHEFkw8fyEbrTw7MXh3mR__qlP8=/80x80/v1.cDsxMTc5NTA0OTtqOzE4Nzc1OzIwNDg7MTk4OzIwNg"}, "characters": [{"name": "Toughy/Professor"}]}, {"person": {"url": "/celebrity/lee_millar_4/", "name": "Lee Millar", "thumbnailImg": "https://d2a5cgar23scu2.cloudfront.net/static/images/redesign/actor.default.tmb.gif"}, "characters": [{"name": "Jim Dear"}]}, {"person": {"url": "/celebrity/the_mello_men/", "name": "The Mello Men", "thumbnailImg": "https://d2a5cgar23scu2.cloudfront.net/static/images/redesign/actor.default.tmb.gif"}}, {"person": {"url": "/celebrity/bill_baucon/", "name": "Bill Baucon", "thumbnailImg": "https://d2a5cgar23scu2.cloudfront.net/static/images/redesign/actor.default.tmb.gif"}}]}, "title": "Lady and the Tramp", "adjustedScore": 98.08554538078127, "ratings": {"critics_rating": "Certified Fresh", "audience_score": 80, "dvdReleaseDate": 1328601600000, "critics_score": 93, "theaterReleaseDate": -458499600000, "audience_rating": "Upright"}, "videoClips": {"mainTrailer": {"hlsUrl": "http://video.internetvideoarchive.net/video.m3u8?cmd=6&publishedid=http://link.theplatform.com/s/NGweTC/media/yPDEiCQXfxpE&customerid=300120&e=1619087059633&sub=RTO&fmt=11&h=b02fcda5cc48b6d67526d23f14487685", "seconds": 18, "minutes": 1, "id": 11312976, "title": "Lady and the Tramp: Trailer 1", "thumbUrl": "http://resizing.flixster.com/ya-tkE47dyhdnznI_pGtCoXRCn0=/171x128/v1.bjsyMzI5Njc0O2o7MTg3OTE7MjA0ODsxMDgwOzE5MjA", "mp4Url": "http://video.internetvideoarchive.net/video.mp4?cmd=6&publishedid=http://link.theplatform.com/s/NGweTC/media/yPDEiCQXfxpE&customerid=300120&e=1619087059633&sub=RTO&fmt=4&videokbrate=750&h=fb0c9e526f32d04cceab47f7f8c8d23f"}, "size": 1, "videoClips": [{"hlsUrl": "http://video.internetvideoarchive.net/video.m3u8?cmd=6&publishedid=http://link.theplatform.com/s/NGweTC/media/yPDEiCQXfxpE&customerid=300120&e=1619087059632&sub=RTO&fmt=11&h=385100b39f853c932325fcc6b05053ee", "seconds": 18, "minutes": 1, "id": 11312976, "title": "Lady and the Tramp: Trailer 1", "thumbUrl": "http://resizing.flixster.com/ya-tkE47dyhdnznI_pGtCoXRCn0=/171x128/v1.bjsyMzI5Njc0O2o7MTg3OTE7MjA0ODsxMDgwOzE5MjA", "mp4Url": "http://video.internetvideoarchive.net/video.mp4?cmd=6&publishedid=http://link.theplatform.com/s/NGweTC/media/yPDEiCQXfxpE&customerid=300120&e=1619087059632&sub=RTO&fmt=4&videokbrate=750&h=449c5d9adf6e401d7129c1a13ae9b5e5"}]}, "isUpcoming": false, "posters": {"original": "https://resizing.flixster.com/aFRUy7GoCr8G-Hd-zkui8CF9q8s=/400x533/v1.bTsxMTYxNDA1NjtqOzE4ODYwOzIwNDg7NDAwOzUzMw", "detailed": "https://resizing.flixster.com/GBaO3MN1uG-tDFAw-ITMmMB2QXk=/180x240/v1.bTsxMTYxNDA1NjtqOzE4ODYwOzIwNDg7NDAwOzUzMw", "profile": "https://resizing.flixster.com/fNz0HLJRZk-1R2--ONr1vyU-rnc=/120x160/v1.bTsxMTYxNDA1NjtqOzE4ODYwOzIwNDg7NDAwOzUzMw", "thumbnail": "https://resizing.flixster.com/NP7AP333q1I6GcdUWa4fPTNoUxw=/54x72/v1.bTsxMTYxNDA1NjtqOzE4ODYwOzIwNDg7NDAwOzUzMw"}, "isLimited": false, "mainTrailer": {"thumbUrl": "https://resizing.flixster.com/ya-tkE47dyhdnznI_pGtCoXRCn0=/171x128/v1.bjsyMzI5Njc0O2o7MTg3OTE7MjA0ODsxMDgwOzE5MjA", "hlsUrl": "http://video.internetvideoarchive.net/video.m3u8?cmd=6&publishedid=http://link.theplatform.com/s/NGweTC/media/yPDEiCQXfxpE&customerid=300120&e=1619087059290&sub=RTO&fmt=11&h=7269a981d1893a614770ba707d1d752f", "id": 11312976, "mp4Url": "http://video.internetvideoarchive.net/video.mp4?cmd=6&publishedid=http://link.theplatform.com/s/NGweTC/media/yPDEiCQXfxpE&customerid=300120&e=1619087059290&sub=RTO&fmt=4&videokbrate=750&h=0dbabac344019ff092eb21bdf6b5a83a"}, "photos": {"photos": [{"url": "https://resizing.flixster.com/EOp6UHfxJfLXZwxYh9Wne6sM0h0=/1024x768/v1.bjs1MzY5ODc7ajsxODc3MzsyMDQ4OzE2MDA7MTIwMA", "index": 0, "submittedBy": "RT Staff", "height": 768, "imageId": 536987, "thumbnail": "https://resizing.flixster.com/tHWlZnQ-PDZYxVjDe_u4_QtBO3M=/80x80/v1.bjs1MzY5ODc7ajsxODc3MzsyMDQ4OzE2MDA7MTIwMA", "submittedDate": "2015-03-27", "id": "multiuse-536987", "photoType": "movie", "width": 1024}, {"url": "https://resizing.flixster.com/pGIdZsRaLg2QWgCrqMGURmEgkJs=/1024x768/v1.bjs1MzY5ODg7ajsxODc3NDsyMDQ4OzE2MDA7MTIwMA", "index": 1, "submittedBy": "RT Staff", "height": 768, "imageId": 536988, "thumbnail": "https://resizing.flixster.com/8kN8vIfw8qXIqeNLmGPSwu4ahB0=/80x80/v1.bjs1MzY5ODg7ajsxODc3NDsyMDQ4OzE2MDA7MTIwMA", "submittedDate": "2015-03-27", "id": "multiuse-536988", "photoType": "movie", "width": 1024}, {"url": "https://resizing.flixster.com/Eq63cXMD_N4rWbe2_ULurkQ8aWM=/1024x768/v1.bjs1MzY5ODk7ajsxODc3NTsyMDQ4OzE2MDA7MTIwMA", "index": 2, "submittedBy": "RT Staff", "height": 768, "imageId": 536989, "thumbnail": "https://resizing.flixster.com/4QNqzjgX1lA8fGNhIAUOF4gkQrQ=/80x80/v1.bjs1MzY5ODk7ajsxODc3NTsyMDQ4OzE2MDA7MTIwMA", "submittedDate": "2015-03-27", "id": "multiuse-536989", "photoType": "movie", "width": 1024}], "length": 3}, "id": 9395}