{"url": "/m/my_neighbor_totoro/", "isOnOpening": false, "genreSet": [{"displayName": "Drama", "id": 9}, {"displayName": "Animation", "id": 2}, {"displayName": "Kids & Family", "id": 11}, {"displayName": "Science Fiction & Fantasy", "id": 14}], "runningTime": 87, "isInTheaters": false, "synopsis": "This superbly animated children's tale is directed by Hayao Miyazaki, one of Japan's most beloved animators. The story follows Satsuke and Mei, two young girls who find that their new country home is in a mystical forest inhabited by a menagerie of mystical creatures called Totoros. They befriend O Totoro, the biggest and eldest Totoro, who is also the king of the forest. As their girls' mother lies sick in the hospital, O Totoro brings the sisters on a magical adventure but also helps them to understand the realities of life. Like most films released by Miyazaki's Studio Ghibli, this family-oriented feature has a powerful ecological theme. The English-language version of this film wasn't dubbed until many years later, explaining the presence of actors such as Dakota Fanning in the cast (who wasn't even born until 1994). ~ Jonathan E. Laxamana, Rovi", "links": {"alternate": "//www.rottentomatoes.com/m/my_neighbor_totoro/"}, "year": 1988, "trackingType": "DvdOther", "status": "Live", "isPlaying": false, "isOnDVD": true, "runningTimeStr": "1 hr. 27 min.", "ratingSummary": {"topcount": 16, "consensus": "My Neighbor Totoro is a heartwarming, sentimental masterpiece that captures the simple grace of childhood.", "topCritics": {"hasScore": true, "numReviews": 16, "meterClass": "certified", "numRotten": 2, "numFresh": 14, "hasReviews": true, "meterValue": 88, "averageRating": 7.895833}, "audience": {"meterScore": 94, "averageScore": 4.326955795288086, "numTotal": 90380, "ratingType": "viewed"}, "allcount": 53, "rottencount": 3, "dvdcount": 12, "allCritics": {"hasScore": true, "numReviews": 53, "meterClass": "certified", "numRotten": 3, "numFresh": 50, "hasReviews": true, "meterValue": 94, "averageRating": 8.41}, "freshcount": 50}, "mpaaRating": "G", "vanity": "my_neighbor_totoro", "studio": "Tokuma Shoten", "purchaseOptions": {"vudu": {"url": "https://www.vudu.com/content/movies/details/My-Neighbor-Totoro-English-Language/8002", "type": "buy"}}, "reviews": {"total": 53, "links": {"alternate": "//www.rottentomatoes.com/m/my_neighbor_totoro/#reviews", "self": "api.flixster.com/movies/my-neighbor-totoro/reviews.json?review_type=mob&country=us&page=1", "prev": "api.flixster.com/movies/my-neighbor-totoro/reviews.json?review_type=mob&country=us&page=0", "next": "api.flixster.com/movies/my-neighbor-totoro/reviews.json?review_type=mob&country=us&page=2"}, "reviews": [{"isRotten": false, "url": "http://www.reelviews.net/reelviews/my-neighbor-totoro", "creationDate": 1530288263000, "isFresh": true, "id": 2487721, "quote": "Even the most amazing of the great Pixar films could be tagged with the label of \"antiseptic.\" No one would use that for Totoro, which, especially if seen under optimum conditions, astounds with its vibrancy.", "links": {"review": "http://www.reelviews.net/reelviews/my-neighbor-totoro"}, "publication": {"url": "", "name": "ReelViews"}, "isTop": true, "freshness": "fresh", "critic": {"url": "/critic/james-berardinelli", "name": "James Berardinelli", "id": 117, "thumbnailImage": "https://resizing.flixster.com/JsmeY6tEIWX9qWB0kv31lgrjBxs=/72x72/v1.YzsyNzIzO2c7MTg3ODg7MjA0ODsxNTA7MTUw"}, "original_score": "3.5/4"}, {"isRotten": false, "url": "http://metro.co.uk/2013/05/24/also-out-my-neighbour-totoro-grave-of-the-fireflies-and-benjamin-britten-peace-and-conflict-3806550/", "creationDate": 1504630583000, "isFresh": true, "id": 2415825, "quote": "A beautifully observed study of childhood that's unmissable, whatever your age. ", "links": {"publication": "http://https://metro.co.uk/", "review": "http://metro.co.uk/2013/05/24/also-out-my-neighbour-totoro-grave-of-the-fireflies-and-benjamin-britten-peace-and-conflict-3806550/"}, "publication": {"url": "http://https://metro.co.uk/", "name": "metro.co.uk"}, "isTop": true, "freshness": "fresh", "critic": {"url": "/critic/larushka-ivan-zadeh", "name": "Larushka Ivan-Zadeh", "id": 12629, "thumbnailImage": "https://resizing.flixster.com/gyelYFrTDlTrVCu5IERnYXVJ3mg=/72x72/v1.YzszMjU2O2o7MTg3ODE7MjA0ODszMDA7MzAw"}, "original_score": "5/5"}, {"isRotten": false, "url": "http://articles.latimes.com/1993-05-07/entertainment/ca-32448_1_neighbor-totoro", "publication": {"url": "", "name": "Los Angeles Times"}, "isTop": true, "creationDate": 1418066068000, "isFresh": true, "freshness": "fresh", "critic": {"url": "/critic/charles-solomon", "name": "Charles Solomon", "id": 3016, "thumbnailImage": "https://d2a5cgar23scu2.cloudfront.net/static/images/redesign/user.none.tmb.jpg"}, "quote": "Despite these limits, My Neighbor Totoro is a gentle and affirming film.", "id": 2236694, "links": {"review": "http://articles.latimes.com/1993-05-07/entertainment/ca-32448_1_neighbor-totoro"}}, {"isRotten": false, "url": "http://community.seattletimes.nwsource.com/archive/?date=19930506&slug=1699787", "creationDate": 1418065999000, "isFresh": true, "id": 2236693, "quote": "Miyazaki's appreciation of miraculous possibilities and childhood visions is what drives Totoro.", "links": {"review": "http://community.seattletimes.nwsource.com/archive/?date=19930506&slug=1699787"}, "publication": {"url": "", "name": "Seattle Times"}, "isTop": true, "freshness": "fresh", "critic": {"url": "/critic/john-hartl", "name": "John Hartl", "id": 22, "thumbnailImage": "https://d2a5cgar23scu2.cloudfront.net/static/images/redesign/user.none.tmb.jpg"}, "original_score": "3/4"}, {"isRotten": false, "url": "http://www.chicagoreader.com/chicago/my-neighbor-totoro/Film?oid=1061636", "publication": {"url": "", "name": "Chicago Reader"}, "isTop": true, "creationDate": 1418065800000, "isFresh": true, "freshness": "fresh", "critic": {"url": "/critic/ted-shen", "name": "Ted Shen", "id": 257, "thumbnailImage": "https://d2a5cgar23scu2.cloudfront.net/static/images/redesign/user.none.tmb.jpg"}, "quote": "Sheer enchantment.", "id": 2236692, "links": {"review": "http://www.chicagoreader.com/chicago/my-neighbor-totoro/Film?oid=1061636"}}, {"isRotten": false, "url": "http://www.standard.co.uk/goingout/film/my-neighbour-totoro--film-review-8630814.html", "creationDate": 1369394817000, "isFresh": true, "id": 2144070, "quote": "Not as complex or tense as Spirited Away (Hayao Miyazaki's masterpiece, released 13 years later). Still, few things are.", "links": {"review": "http://www.standard.co.uk/goingout/film/my-neighbour-totoro--film-review-8630814.html"}, "publication": {"url": "", "name": "London Evening Standard"}, "isTop": true, "freshness": "fresh", "critic": {"url": "/critic/charlotte-osullivan", "name": "Charlotte O'Sullivan", "id": 5385, "thumbnailImage": "https://d2a5cgar23scu2.cloudfront.net/static/images/redesign/user.none.tmb.jpg"}, "original_score": "4/5"}, {"isRotten": false, "url": "https://www.youtube.com/watch?v=8LtRRcTPF-4", "creationDate": 1584390111000, "isFresh": true, "id": 2677512, "quote": "An emotionally true animated film full of whimsy and delight", "links": {"review": "https://www.youtube.com/watch?v=8LtRRcTPF-4"}, "publication": {"url": "", "name": "Rachel's Reviews (YouTube)"}, "isTop": false, "freshness": "fresh", "critic": {"url": "/critic/rachel-wagner", "name": "Rachel Wagner", "id": 23964, "thumbnailImage": "https://resizing.flixster.com/CvuVoWlOH-LcGgLgTU2V23hxVvM=/72x72/v1.YzszMjU3O2o7MTg3ODI7MjA0ODszMDA7MzAw"}, "original_score": "10/10"}, {"isRotten": false, "url": "https://screenanarchy.com/2013/01/bluray-review-my-neighbour-totoro.html", "publication": {"url": "", "name": "ScreenAnarchy"}, "isTop": false, "creationDate": 1579029126000, "isFresh": true, "freshness": "fresh", "critic": {"url": "/critic/ard-vijn", "name": "Ard Vijn", "id": 24407, "thumbnailImage": "https://resizing.flixster.com/1ervuzy_sfMDM19MlhGIuVis5Ls=/72x72/v1.YzszNDk2O2o7MTg3OTY7MjA0ODszMDA7MzAw"}, "quote": "On paper it may sound saccharine and lethally sentimental, but My Neighbour Totoro is nothing but wonderful and honest. ", "id": 2660163, "links": {"review": "https://screenanarchy.com/2013/01/bluray-review-my-neighbour-totoro.html"}}, {"isRotten": false, "url": "https://asianmoviepulse.com/2018/12/anime-review-my-neighbor-totoro-1988-by-hayao-miyazaki/", "publication": {"url": "", "name": "Asian Movie Pulse"}, "isTop": false, "creationDate": 1575205760000, "isFresh": true, "freshness": "fresh", "critic": {"url": "/critic/panos-kotzathanasis-23482", "name": "Panos Kotzathanasis", "id": 23482, "thumbnailImage": "https://resizing.flixster.com/jujGmZhG58zRf3xpOps0S9xesPs=/72x72/v1.YzszMTQ1O2o7MTg4MDU7MjA0ODszMDA7MzAw"}, "quote": "Miyazaki creates a universe where childhood and its perspective of the world is the rule, with the Japanese master highlighting, once more, his knowledge of children's psyche", "id": 2650153, "links": {"review": "https://asianmoviepulse.com/2018/12/anime-review-my-neighbor-totoro-1988-by-hayao-miyazaki/"}}, {"isRotten": false, "url": "https://www.espinof.com/criticas/animacion-mi-vecino-totoro-de-hayao-miyazaki", "publication": {"url": "", "name": "Espinof"}, "isTop": false, "creationDate": 1567035552000, "isFresh": true, "freshness": "fresh", "critic": {"url": "/critic/sergio-benitez", "name": "Sergio Ben\u00edtez", "id": 16946, "thumbnailImage": "https://d2a5cgar23scu2.cloudfront.net/static/images/redesign/user.none.tmb.jpg"}, "quote": "A magic that, from the beginning of the action to the end, with Totoro or without him, delivers sublime 86 minutes of footage whose charm is impossible to resist. [Full Review in Spanish] ", "id": 2619776, "links": {"review": "https://www.espinof.com/criticas/animacion-mi-vecino-totoro-de-hayao-miyazaki"}}, {"isRotten": false, "url": "http://www.roguesportal.com/revisiting-ghibli-neighbor-totoro-blu-ray-review/", "publication": {"url": "", "name": "Rogues Portal"}, "isTop": false, "creationDate": 1534806785000, "isFresh": true, "freshness": "fresh", "critic": {"url": "/critic/stephanie-cooke", "name": "Stephanie Cooke", "id": 22615, "thumbnailImage": "https://resizing.flixster.com/KQ5F7tbQuX_amtCgecoyiIbDvKg=/72x72/v1.YzsyOTM0O2o7MTg3NzQ7MjA0ODs0MDA7NDAw"}, "quote": "The theme of innocent love is so prevalent and it feels good to watch unconditional displays of it, even within an animated fictional film.", "id": 2498975, "links": {"review": "http://www.roguesportal.com/revisiting-ghibli-neighbor-totoro-blu-ray-review/"}}, {"isRotten": false, "url": "http://www.undertheradarmag.com/reviews/my_neighbor_totoro/#When:12:08:28Z", "publication": {"url": "", "name": "Under the Radar"}, "isTop": false, "creationDate": 1508428835000, "isFresh": true, "freshness": "fresh", "critic": {"url": "/critic/austin-trunick", "name": "Austin Trunick", "id": 14980, "thumbnailImage": "https://resizing.flixster.com/yqjoe-x26q_OqgVfWcnQ0QOUlNw=/72x72/v1.YzsyNTcwO2c7MTg3NzA7MjA0ODsxNTA7MTUw"}, "quote": "As simply as we can put it, My Neighbor Totoro is a masterpiece of children's animation. There's no one we wouldn't recommend it to.", "id": 2428290, "links": {"review": "http://www.undertheradarmag.com/reviews/my_neighbor_totoro/#When:12:08:28Z"}}]}, "casts": {"screenwriters": [{"url": "/celebrity/hayao_miyazaki/", "name": "Hayao Miyazaki", "thumbnailImg": "https://resizing.flixster.com/2XcMlgbK50QeZ9J6oFpdgRhpd6g=/80x80/v1.cDsxMTM5NTUzOTtqOzE4ODYwOzIwNDg7MTU2Njs4NzQ"}], "directors": [{"url": "/celebrity/hayao_miyazaki/", "name": "Hayao Miyazaki", "thumbnailImg": "https://resizing.flixster.com/2XcMlgbK50QeZ9J6oFpdgRhpd6g=/80x80/v1.cDsxMTM5NTUzOTtqOzE4ODYwOzIwNDg7MTU2Njs4NzQ"}], "creators": [], "producers": [{"url": "/celebrity/toru_hara/", "name": "Toru Hara", "thumbnailImg": "https://d2a5cgar23scu2.cloudfront.net/static/images/redesign/actor.default.tmb.gif"}], "castItems": [{"person": {"url": "/celebrity/noriko_hidaka/", "name": "Noriko Hidaka", "thumbnailImg": "https://resizing.flixster.com/mMhvFHQBoTTkEjk2RSNt0-YHfLA=/80x80/v1.cDsxMDcxMzM3NztqOzE4ODQ1OzIwNDg7MTc1OzIwMA"}, "characters": [{"name": "Satsuki"}]}, {"person": {"url": "/celebrity/chika_sakamoto/", "name": "Chika Sakamoto", "thumbnailImg": "https://d2a5cgar23scu2.cloudfront.net/static/images/redesign/actor.default.tmb.gif"}, "characters": [{"name": "Mei"}]}, {"person": {"url": "/celebrity/shigesato_itoi/", "name": "Shigesato Itoi", "thumbnailImg": "https://d2a5cgar23scu2.cloudfront.net/static/images/redesign/actor.default.tmb.gif"}, "characters": [{"name": "Tatsuo Kusakabe"}]}, {"person": {"url": "/celebrity/sumi_shimamoto/", "name": "Sumi Shimamoto", "thumbnailImg": "https://d2a5cgar23scu2.cloudfront.net/static/images/redesign/actor.default.tmb.gif"}, "characters": [{"name": "Yasuko Kusakabe"}]}, {"person": {"url": "/celebrity/tanie_kitabayashi/", "name": "Tanie Kitabayashi", "thumbnailImg": "https://resizing.flixster.com/5H3iymV_3x_0JYKVxEBt64T2Q9o=/80x80/v1.cDsxMjc0MDkzNztqOzE4ODE5OzIwNDg7MjQwOzI0MA"}, "characters": [{"name": "Kanta No Obasan"}]}, {"person": {"url": "/celebrity/hitoshi_takagi/", "name": "Hitoshi Takagi", "thumbnailImg": "https://d2a5cgar23scu2.cloudfront.net/static/images/redesign/actor.default.tmb.gif"}, "characters": [{"name": "Totoro"}]}, {"person": {"url": "/celebrity/machiko_washio/", "name": "Machiko Washio", "thumbnailImg": "https://d2a5cgar23scu2.cloudfront.net/static/images/redesign/actor.default.tmb.gif"}, "characters": [{"name": "Teacher"}]}, {"person": {"url": "/celebrity/masashi_hirose/", "name": "Masashi Hirose", "thumbnailImg": "https://d2a5cgar23scu2.cloudfront.net/static/images/redesign/actor.default.tmb.gif"}, "characters": [{"name": "Kanta No Otosan"}]}]}, "title": "My Neighbor Totoro", "adjustedScore": 97.63903088019046, "ratings": {"critics_rating": "Certified Fresh", "audience_score": 94, "dvdReleaseDate": 1141718400000, "critics_score": 94, "audience_rating": "Upright"}, "videoClips": {"mainTrailer": {"hlsUrl": "http://video.internetvideoarchive.net/video.m3u8?cmd=6&publishedid=http://www.youtube.com/v/pp9PDj_zb1k&customerid=300120&e=1619087065206&sub=RTO&fmt=11&h=46ec50540d513db76b2bc76ff139ae54", "seconds": 58, "minutes": 1, "id": 3243266, "title": "My Neighbor Totoro Japanese Trailer", "thumbUrl": "http://img.youtube.com/vi/pp9PDj_zb1k/2.jpg", "mp4Url": "http://video.internetvideoarchive.net/video.mp4?cmd=6&publishedid=http://www.youtube.com/v/pp9PDj_zb1k&customerid=300120&e=1619087065206&sub=RTO&fmt=4&videokbrate=750&h=fc10affafb6c5b586aa0e97153bc1ec2"}, "size": 2, "videoClips": [{"hlsUrl": "http://video.internetvideoarchive.net/video.m3u8?cmd=6&publishedid=http://www.youtube.com/v/pp9PDj_zb1k&customerid=300120&e=1619087065206&sub=RTO&fmt=11&h=46ec50540d513db76b2bc76ff139ae54", "seconds": 58, "minutes": 1, "id": 3243266, "title": "My Neighbor Totoro Japanese Trailer", "thumbUrl": "http://img.youtube.com/vi/pp9PDj_zb1k/2.jpg", "mp4Url": "http://video.internetvideoarchive.net/video.mp4?cmd=6&publishedid=http://www.youtube.com/v/pp9PDj_zb1k&customerid=300120&e=1619087065206&sub=RTO&fmt=4&videokbrate=750&h=fc10affafb6c5b586aa0e97153bc1ec2"}, {"hlsUrl": "http://video.internetvideoarchive.net/video.m3u8?cmd=6&publishedid=http://link.theplatform.com/s/NGweTC/media/1UNxoLdpXb02&customerid=300120&e=1619087065206&sub=RTO&fmt=11&h=2c3d999be35296e65fd62d627bdae1f2", "seconds": 29, "minutes": 0, "id": 11328824, "title": "My Neighbor Totoro: Trailer 1", "thumbUrl": "http://resizing.flixster.com/u7vUxLdsN1Rs3H3bP4ttPl3-aRg=/171x128/v1.bjsyNTgzMTkyO2o7MTg4Mzk7MjA0ODsxMDgwOzE5MjA", "mp4Url": "http://video.internetvideoarchive.net/video.mp4?cmd=6&publishedid=http://link.theplatform.com/s/NGweTC/media/1UNxoLdpXb02&customerid=300120&e=1619087065206&sub=RTO&fmt=4&videokbrate=750&h=d1cc21bebae5d16cddd812d0665c405a"}]}, "isUpcoming": false, "posters": {"original": "https://resizing.flixster.com/GF4_Fjg6UEDuSyF_vQATKy2BnoU=/1536x2048/v1.bTsxMTIxMTIwODtqOzE4ODkyOzIwNDg7MTUzNjsyMDQ4", "detailed": "https://resizing.flixster.com/qhIpWd4ujaq-HwpVUQKTpCsRwHU=/180x240/v1.bTsxMTIxMTIwODtqOzE4ODkyOzIwNDg7MTUzNjsyMDQ4", "profile": "https://resizing.flixster.com/I8mbRKfD8GQAdjKRFCnI2riMyDg=/120x160/v1.bTsxMTIxMTIwODtqOzE4ODkyOzIwNDg7MTUzNjsyMDQ4", "thumbnail": "https://resizing.flixster.com/QfeTG2m2SWZNZlCDD-MsbKz2XTQ=/54x72/v1.bTsxMTIxMTIwODtqOzE4ODkyOzIwNDg7MTUzNjsyMDQ4"}, "isLimited": true, "mainTrailer": {"thumbUrl": "https://img.youtube.com/vi/pp9PDj_zb1k/2.jpg", "hlsUrl": "http://video.internetvideoarchive.net/video.m3u8?cmd=6&publishedid=http://www.youtube.com/v/pp9PDj_zb1k&customerid=300120&e=1619087064957&sub=RTO&fmt=11&h=d35230f7dca5c641d930e5faffb85a10", "id": 3243266, "mp4Url": "http://video.internetvideoarchive.net/video.mp4?cmd=6&publishedid=http://www.youtube.com/v/pp9PDj_zb1k&customerid=300120&e=1619087064957&sub=RTO&fmt=4&videokbrate=750&h=c0ab7130f30926b7dee460bf8f903c67"}, "photos": {"photos": [{"url": "https://resizing.flixster.com/9DizlFKCSzIYsWQ_tqam-xoPcRM=/1024x576/v1.bjs4NDAyNDU7ajsxODc3OTsyMDQ4OzE5MjA7MTA4MA", "index": 0, "submittedBy": "RT Staff", "height": 576, "imageId": 840245, "thumbnail": "https://resizing.flixster.com/kQxNboowq89WF4B1Q6mcv4_odr4=/80x80/v1.bjs4NDAyNDU7ajsxODc3OTsyMDQ4OzE5MjA7MTA4MA", "submittedDate": "2015-06-25", "id": "multiuse-840245", "photoType": "movie", "width": 1024}, {"url": "https://resizing.flixster.com/gfm2CDsrcmR2yiRaqZSG6dNJ964=/1024x563/v1.bjsxNjEyMzEzO2o7MTg3OTE7MjA0ODsxOTIwOzEwNTY", "index": 1, "submittedBy": "RT Staff", "height": 563, "imageId": 1612313, "thumbnail": "https://resizing.flixster.com/tAfnkkWbwnvu3VuSMAL9APp2Qfg=/80x80/v1.bjsxNjEyMzEzO2o7MTg3OTE7MjA0ODsxOTIwOzEwNTY", "submittedDate": "2017-05-05", "id": "multiuse-1612313", "photoType": "movie", "width": 1024}, {"url": "https://resizing.flixster.com/m5Fn4-QbjHYveWnXEZtAVUNHr2A=/1024x563/v1.bjsxNjEyMzE0O2o7MTg3OTI7MjA0ODsxOTIwOzEwNTY", "index": 2, "submittedBy": "RT Staff", "height": 563, "imageId": 1612314, "thumbnail": "https://resizing.flixster.com/PgflzD2kpa2fLxc4SnAjwjQtzZk=/80x80/v1.bjsxNjEyMzE0O2o7MTg3OTI7MjA0ODsxOTIwOzEwNTY", "submittedDate": "2017-05-05", "id": "multiuse-1612314", "photoType": "movie", "width": 1024}, {"url": "https://resizing.flixster.com/uJ4cF6hgxPgpspyF6d27SZmNhuE=/1024x563/v1.bjsxNjEyMzE1O2o7MTg3OTM7MjA0ODsxOTIwOzEwNTY", "index": 3, "submittedBy": "RT Staff", "height": 563, "imageId": 1612315, "thumbnail": "https://resizing.flixster.com/VqyQ5prmFuhCURughJVG3UmIKlI=/80x80/v1.bjsxNjEyMzE1O2o7MTg3OTM7MjA0ODsxOTIwOzEwNTY", "submittedDate": "2017-05-05", "id": "multiuse-1612315", "photoType": "movie", "width": 1024}, {"url": "https://resizing.flixster.com/Y2t2mR5wpDDlSB_cDbe0DdP33YA=/1024x563/v1.bjsxNjEyMzE2O2o7MTg3OTQ7MjA0ODsxOTIwOzEwNTY", "index": 4, "submittedBy": "RT Staff", "height": 563, "imageId": 1612316, "thumbnail": "https://resizing.flixster.com/PRaXUmAQ1AuEnXlFZY1n8BdJars=/80x80/v1.bjsxNjEyMzE2O2o7MTg3OTQ7MjA0ODsxOTIwOzEwNTY", "submittedDate": "2017-05-05", "id": "multiuse-1612316", "photoType": "movie", "width": 1024}, {"url": "https://resizing.flixster.com/52CGul_wuUYt7tVh-X8C9-bR-1k=/1024x676/v1.bjsxODU5MTk2O2o7MTg4MDc7MjA0ODsyOTk0OzE5Nzc", "index": 5, "submittedBy": "RT Staff", "height": 676, "imageId": 1859196, "thumbnail": "https://resizing.flixster.com/mEc8b--Y87RPtF5BUaAAUWUTxjE=/80x80/v1.bjsxODU5MTk2O2o7MTg4MDc7MjA0ODsyOTk0OzE5Nzc", "submittedDate": "2018-02-14", "id": "multiuse-1859196", "photoType": "movie", "width": 1024}, {"url": "https://resizing.flixster.com/ho1xqSH-8sjiKaLEREWyjmoVKmo=/1024x580/v1.bjsxODU5MTk3O2o7MTg4MDg7MjA0ODsyNTQ2OzE0NDE", "index": 6, "submittedBy": "RT Staff", "height": 580, "imageId": 1859197, "thumbnail": "https://resizing.flixster.com/hF-6fVaDHw4H5p8Mv-qPxxmZnqs=/80x80/v1.bjsxODU5MTk3O2o7MTg4MDg7MjA0ODsyNTQ2OzE0NDE", "submittedDate": "2018-02-14", "id": "multiuse-1859197", "photoType": "movie", "width": 1024}, {"url": "https://resizing.flixster.com/uw5bfYaJIV83Eq8hIVzCQZR-PdE=/1024x588/v1.bjsxODU5MTk4O2o7MTg4MDk7MjA0ODsyMDI0OzExNjI", "index": 7, "submittedBy": "RT Staff", "height": 588, "imageId": 1859198, "thumbnail": "https://resizing.flixster.com/JowWXtANoYAFDtglJNVE4eYdkJI=/80x80/v1.bjsxODU5MTk4O2o7MTg4MDk7MjA0ODsyMDI0OzExNjI", "submittedDate": "2018-02-14", "id": "multiuse-1859198", "photoType": "movie", "width": 1024}, {"url": "https://resizing.flixster.com/bi-PEjSo2hRufqeg6q-aWvUI810=/1024x598/v1.bjsxODU5MTk5O2o7MTg4MTA7MjA0ODsyMDI0OzExODI", "index": 8, "submittedBy": "RT Staff", "height": 598, "imageId": 1859199, "thumbnail": "https://resizing.flixster.com/gZhmR1XDmAK0_u_xSNPKDldvR6k=/80x80/v1.bjsxODU5MTk5O2o7MTg4MTA7MjA0ODsyMDI0OzExODI", "submittedDate": "2018-02-14", "id": "multiuse-1859199", "photoType": "movie", "width": 1024}, {"url": "https://resizing.flixster.com/AcoQNr1nM5gM2fdfyct1Lq8LSOk=/1024x573/v1.bjsxODU5MjAwO2o7MTg4MTE7MjA0ODsyODIzOzE1ODE", "index": 9, "submittedBy": "RT Staff", "height": 573, "imageId": 1859200, "thumbnail": "https://resizing.flixster.com/oJEXber3llEY1-kcpkQUw7cs_i8=/80x80/v1.bjsxODU5MjAwO2o7MTg4MTE7MjA0ODsyODIzOzE1ODE", "submittedDate": "2018-02-14", "id": "multiuse-1859200", "photoType": "movie", "width": 1024}, {"url": "https://resizing.flixster.com/d7n3_jnnbnh1u_Sgm0wQiU8bdT4=/768x1024/v1.bjsxODY5NzQyO2o7MTg4MjM7MjA0ODsxNTM2OzIwNDg", "index": 10, "submittedBy": "RT Staff", "height": 1024, "imageId": 1869742, "thumbnail": "https://resizing.flixster.com/Hr1uG86EAN44PPQB5K2Lji3IVxk=/80x80/v1.bjsxODY5NzQyO2o7MTg4MjM7MjA0ODsxNTM2OzIwNDg", "submittedDate": "2018-02-25", "id": "multiuse-1869742", "photoType": "movie", "width": 768}], "length": 11}, "id": 17541}