{"url": "/m/princess_mononoke_1999/", "isOnOpening": false, "genreSet": [{"displayName": "Drama", "id": 9}, {"displayName": "Action & Adventure", "id": 1}, {"displayName": "Animation", "id": 2}, {"displayName": "Kids & Family", "id": 11}, {"displayName": "Science Fiction & Fantasy", "id": 14}], "officialUrl": "http://www.princess-mononoke.com", "isInTheaters": false, "synopsis": "Directed by renowned animator Hayao Miyazaki, this anime has broken a number of box office records in its native Japan. Essentially a statement on the ecological devastation brought on by human advancement, the story follows the battle between Princess Mononoke and a mining village.", "links": {"alternate": "//www.rottentomatoes.com/m/princess_mononoke_1999/"}, "runningTime": 133, "year": 1999, "trackingType": "DvdOther", "status": "Live", "isPlaying": false, "isOnDVD": true, "runningTimeStr": "2 hr. 13 min.", "ratingSummary": {"topcount": 40, "consensus": "With its epic story and breathtaking visuals, Princess Mononoke is a landmark in the world of animation.", "topCritics": {"hasScore": true, "numReviews": 40, "meterClass": "certified", "numRotten": 4, "numFresh": 36, "hasReviews": true, "meterValue": 90, "averageRating": 7.824074}, "audience": {"meterScore": 94, "averageScore": 4.160831451416016, "numTotal": 221772, "ratingType": "viewed"}, "allcount": 110, "rottencount": 8, "dvdcount": 9, "allCritics": {"hasScore": true, "numReviews": 110, "meterClass": "certified", "numRotten": 8, "numFresh": 102, "hasReviews": true, "meterValue": 93, "averageRating": 7.97}, "freshcount": 102}, "mpaaRating": "PG-13", "vanity": "princess_mononoke_1999", "photos": {"photos": [{"url": "https://resizing.flixster.com/1uRBXArgicVz4c3y6t1Id7TGiiY=/1024x576/v1.bjsxNTI0NTIyO2o7MTg3OTQ7MjA0ODsyNTAwOzE0MDY", "index": 0, "submittedBy": "RT Staff", "height": 576, "imageId": 1524522, "thumbnail": "https://resizing.flixster.com/jxTssClxBKb67YUrBsMpSQjLrKc=/80x80/v1.bjsxNTI0NTIyO2o7MTg3OTQ7MjA0ODsyNTAwOzE0MDY", "submittedDate": "2017-02-04", "id": "multiuse-1524522", "photoType": "movie", "width": 1024}, {"url": "https://resizing.flixster.com/4PN5ND63japnmhp1KhtAUHJVskY=/1024x576/v1.bjsxNTI0NTIzO2o7MTg3OTU7MjA0ODsyNTAwOzE0MDY", "index": 1, "submittedBy": "RT Staff", "height": 576, "imageId": 1524523, "thumbnail": "https://resizing.flixster.com/c8yEZRA-osEb8cFfxbkSazTdwAs=/80x80/v1.bjsxNTI0NTIzO2o7MTg3OTU7MjA0ODsyNTAwOzE0MDY", "submittedDate": "2017-02-04", "id": "multiuse-1524523", "photoType": "movie", "width": 1024}, {"url": "https://resizing.flixster.com/JqPkjceJ__-tyZh-RoFPVnYXatU=/1024x576/v1.bjsxNTI0NTI0O2o7MTg3OTY7MjA0ODsyNTAwOzE0MDY", "index": 2, "submittedBy": "RT Staff", "height": 576, "imageId": 1524524, "thumbnail": "https://resizing.flixster.com/fw6ML3DOlHH20ZjAjEY8uKfODek=/80x80/v1.bjsxNTI0NTI0O2o7MTg3OTY7MjA0ODsyNTAwOzE0MDY", "submittedDate": "2017-02-04", "id": "multiuse-1524524", "photoType": "movie", "width": 1024}, {"url": "https://resizing.flixster.com/qBJLBZfIFPlsAU8YeLztYhlkGa0=/1024x576/v1.bjsxNTI0NTI1O2o7MTg3OTc7MjA0ODsyNTAwOzE0MDY", "index": 3, "submittedBy": "RT Staff", "height": 576, "imageId": 1524525, "thumbnail": "https://resizing.flixster.com/wr0YUMZh0sfexMqvr6UdljjSS3c=/80x80/v1.bjsxNTI0NTI1O2o7MTg3OTc7MjA0ODsyNTAwOzE0MDY", "submittedDate": "2017-02-04", "id": "multiuse-1524525", "photoType": "movie", "width": 1024}, {"url": "https://resizing.flixster.com/X5oim13K8CqaEcGzN1ug-rQhENY=/1024x576/v1.bjsxNTI0NTI2O2o7MTg3OTg7MjA0ODsyMDAwOzExMjU", "index": 4, "submittedBy": "RT Staff", "height": 576, "imageId": 1524526, "thumbnail": "https://resizing.flixster.com/NSWdBW6ZFZddoA0frYtmev0zYu0=/80x80/v1.bjsxNTI0NTI2O2o7MTg3OTg7MjA0ODsyMDAwOzExMjU", "submittedDate": "2017-02-04", "id": "multiuse-1524526", "photoType": "movie", "width": 1024}], "length": 5}, "studio": "Miramax Films", "purchaseOptions": {"vudu": {"url": "https://www.vudu.com/content/movies/details/Princess-Mononoke-English-Language/15777", "type": "buy"}}, "reviews": {"total": 110, "links": {"alternate": "//www.rottentomatoes.com/m/princess_mononoke_1999/#reviews", "self": "api.flixster.com/movies/princess-mononoke/reviews.json?review_type=mob&country=us&page=1", "prev": "api.flixster.com/movies/princess-mononoke/reviews.json?review_type=mob&country=us&page=0", "next": "api.flixster.com/movies/princess-mononoke/reviews.json?review_type=mob&country=us&page=2"}, "reviews": [{"isRotten": false, "url": "http://www.nydailynews.com/archives/nydn-features/dark-princess-isn-kids-disney-fans-japanese-anime-feature-anemic-gory-tad-sophisticated-article-1.840207", "creationDate": 1418000575000, "isFresh": true, "id": 2236570, "quote": "Done mostly in the style of hand-painted classic animation, with occasional digital assists, \"Princess Mononoke is indeed a thing of beauty and imagination.", "links": {"review": "http://www.nydailynews.com/archives/nydn-features/dark-princess-isn-kids-disney-fans-japanese-anime-feature-anemic-gory-tad-sophisticated-article-1.840207"}, "publication": {"url": "", "name": "New York Daily News"}, "isTop": true, "freshness": "fresh", "critic": {"url": "/critic/jack-mathews", "name": "Jack Mathews", "id": 2728, "thumbnailImage": "https://resizing.flixster.com/tA55daS8umelK2LqlFOn_pQrdOY=/72x72/v1.YzsxNjc5O2c7MTg3Nzk7MjA0ODszODs0OQ"}, "original_score": "2.5/4"}, {"isRotten": false, "isFresh": true, "publication": {"url": "", "name": "New Yorker"}, "isTop": true, "creationDate": 1385570181000, "freshness": "fresh", "critic": {"url": "/critic/david-denby", "name": "David Denby", "id": 148, "thumbnailImage": "https://resizing.flixster.com/08k4mazI2vlC7P9UOxdrd0hgz6k=/72x72/v1.YzsxNTk3O2c7MTg3ODc7MjA0ODszODs0Mw"}, "quote": "This handsome, beautifully designed Japanese animated film has the size -- though not the clarity -- of a great Japanese film epic.", "id": 2176979, "links": {}}, {"isRotten": true, "url": "http://www.washingtonpost.com/wp-srv/entertainment/movies/reviews/princessmononokehunter.htm", "publication": {"url": "", "name": "Washington Post"}, "isTop": true, "creationDate": 1385570121000, "isFresh": false, "freshness": "rotten", "critic": {"url": "/critic/stephen-hunter", "name": "Stephen Hunter", "id": 1267, "thumbnailImage": "https://resizing.flixster.com/zi_41n9GGNeXGyqMfexa8Tu-D4w=/72x72/v1.YzsxNjU4O2c7MTg4MDM7MjA0ODszODs0Mg"}, "quote": "Miyazaki's hordes of animators haven't penetrated beyond the skin; the moving creatures feel inarticulate and jerky, almost weightless, particularly when played against painterly background mattes.", "id": 2176978, "links": {"review": "http://www.washingtonpost.com/wp-srv/entertainment/movies/reviews/princessmononokehunter.htm"}}, {"isRotten": false, "url": "http://articles.baltimoresun.com/1999-11-24/features/9911240307_1_princess-mononoke-toy-story-story-2", "creationDate": 1385569996000, "isFresh": true, "id": 2176977, "quote": "With a Luminist's attention to light, water, shadow and smoke, Miyazaki creates an epochal story born of history, myth and Shinto animism.", "links": {"review": "http://articles.baltimoresun.com/1999-11-24/features/9911240307_1_princess-mononoke-toy-story-story-2"}, "publication": {"url": "", "name": "Baltimore Sun"}, "isTop": true, "freshness": "fresh", "critic": {"url": "/critic/ann-hornaday", "name": "Ann Hornaday", "id": 2952, "thumbnailImage": "https://resizing.flixster.com/-4fTVGGtAvltsKN5nXAa8PFDwOY=/72x72/v1.YzsyNTg1O2c7MTg3ODU7MjA0ODsxNTA7MTUw"}, "original_score": "4/4"}, {"isRotten": false, "url": "http://www.empireonline.com/reviews/review.asp?FID=133238", "creationDate": 1385569814000, "isFresh": true, "id": 2176973, "quote": "This imaginative and intriguing Anime deserves all the plaudits heaped upon it. ", "links": {"review": "http://www.empireonline.com/reviews/review.asp?FID=133238"}, "publication": {"url": "", "name": "Empire Magazine"}, "isTop": true, "freshness": "fresh", "critic": {"url": "/critic/mark-dinning", "name": "Mark Dinning", "id": 3939, "thumbnailImage": "https://d2a5cgar23scu2.cloudfront.net/static/images/redesign/user.none.tmb.jpg"}, "original_score": "4/5"}, {"isRotten": false, "url": "http://community.seattletimes.nwsource.com/archive/?date=19991105&slug=2993296", "creationDate": 1385569739000, "isFresh": true, "id": 2176972, "quote": "Beautifully constructed and painstakingly written, this is about as close to a perfect animated epic as you're likely to get.", "links": {"review": "http://community.seattletimes.nwsource.com/archive/?date=19991105&slug=2993296"}, "publication": {"url": "", "name": "Seattle Times"}, "isTop": true, "freshness": "fresh", "critic": {"url": "/critic/melanie-mcfarland", "name": "Melanie McFarland", "id": 3325, "thumbnailImage": "https://d2a5cgar23scu2.cloudfront.net/static/images/redesign/user.none.tmb.jpg"}, "original_score": "4/4"}, {"isRotten": false, "url": "https://www.pride.com/movies/2019/11/15/22-years-later-princess-mononoke-still-relevant-ever", "publication": {"url": "http://Pride.com ", "name": "Pride.com "}, "isTop": false, "creationDate": 1594965079000, "isFresh": true, "freshness": "fresh", "critic": {"url": "/critic/raffy-ermac", "name": "Raffy Ermac", "id": 27288, "thumbnailImage": "https://resizing.flixster.com/eYDiO95GwIMFrRj0OHTj90mjc6Y=/72x72/v1.YzszNzU0O2o7MTg3ODQ7MjA0ODszMDA7MzAw"}, "quote": "'Princess Mononoke' gives empowered voices to women (in a time where they didn't have any) & doesn't make them victims in need of a savior. It also forces audiences to look inward and question the way we consume things from the world around us.", "id": 2705578, "links": {"publication": "http://Pride.com ", "review": "https://www.pride.com/movies/2019/11/15/22-years-later-princess-mononoke-still-relevant-ever"}}, {"isRotten": false, "url": "https://asianmoviepulse.com/2020/04/film-review-princess-mononoke-1997-by-hayao-miyazaki/", "publication": {"url": "", "name": "Asian Movie Pulse"}, "isTop": false, "creationDate": 1586792717000, "isFresh": true, "freshness": "fresh", "critic": {"url": "/critic/panos-kotzathanasis-23482", "name": "Panos Kotzathanasis", "id": 23482, "thumbnailImage": "https://resizing.flixster.com/jujGmZhG58zRf3xpOps0S9xesPs=/72x72/v1.YzszMTQ1O2o7MTg4MDU7MjA0ODszMDA7MzAw"}, "quote": "In a style similar to \"Nausicaa of the Valley of the Wind\" but much richer in context, Hayao Miyazaki manages to present a number of different comments, mostly having to do with the dark side of human nature", "id": 2682971, "links": {"review": "https://asianmoviepulse.com/2020/04/film-review-princess-mononoke-1997-by-hayao-miyazaki/"}}, {"isRotten": false, "url": "https://thespool.net/features/2019/05/princess-mononoke/", "publication": {"url": "", "name": "The Spool"}, "isTop": false, "creationDate": 1579370222000, "isFresh": true, "freshness": "fresh", "critic": {"url": "/critic/sarah-gorr", "name": "Sarah Gorr", "id": 26476, "thumbnailImage": "https://d2a5cgar23scu2.cloudfront.net/static/images/redesign/user.none.tmb.jpg"}, "quote": "[Miyazaki understands] the myriad complications of being a person in this world, a world with too many layers for a word like 'evil' to suffice, and Princess Mononoke reflects that.", "id": 2661721, "links": {"review": "https://thespool.net/features/2019/05/princess-mononoke/"}}, {"isRotten": false, "url": "https://thefilmfrenzy.com/2019/05/16/view-from-the-couch-apollo-11-cold-pursuit-princess-mononoke-etc/", "creationDate": 1558312322000, "isFresh": true, "id": 2588029, "quote": "This is a visual treat featuring some truly unique creatures -- just check out those oddities that look like an unholy cross between Casper the Friendly Ghost and that chattering demon from the Hellraiser flicks.", "links": {"review": "https://thefilmfrenzy.com/2019/05/16/view-from-the-couch-apollo-11-cold-pursuit-princess-mononoke-etc/"}, "publication": {"url": "", "name": "Film Frenzy"}, "isTop": false, "freshness": "fresh", "critic": {"url": "/critic/matt-brunson", "name": "Matt Brunson", "id": 5777, "thumbnailImage": "https://resizing.flixster.com/sC65Fi_OccWCWRwVukoyOybQHtA=/72x72/v1.YzsxNzI4O2o7MTg3ODM7MjA0ODszODs0Mg"}, "original_score": "3.5/4"}, {"isRotten": false, "url": "http://www.roguesportal.com/revisiting-ghibli-princess-mononoke-blu-ray-review/", "publication": {"url": "", "name": "Rogues Portal"}, "isTop": false, "creationDate": 1534806498000, "isFresh": true, "freshness": "fresh", "critic": {"url": "/critic/stephanie-cooke", "name": "Stephanie Cooke", "id": 22615, "thumbnailImage": "https://resizing.flixster.com/KQ5F7tbQuX_amtCgecoyiIbDvKg=/72x72/v1.YzsyOTM0O2o7MTg3NzQ7MjA0ODs0MDA7NDAw"}, "quote": "There are some movies that are so special that it's almost like watching it for the first time every single time. Princess Mononoke is one of those films.", "id": 2498968, "links": {"review": "http://www.roguesportal.com/revisiting-ghibli-princess-mononoke-blu-ray-review/"}}, {"isRotten": false, "url": "http://filmthreat.com/reviews/princess-mononoke/", "creationDate": 1487287423000, "isFresh": true, "id": 2379214, "quote": "A spellbinding epic with great characters, visuals and pathos. ", "links": {"review": "http://filmthreat.com/reviews/princess-mononoke/"}, "publication": {"url": "", "name": "Film Threat"}, "isTop": false, "freshness": "fresh", "critic": {"url": "/critic/christian-villagomez", "name": "Christian Villagomez", "id": 19198, "thumbnailImage": "https://d2a5cgar23scu2.cloudfront.net/static/images/redesign/user.none.tmb.jpg"}, "original_score": "9/10"}]}, "casts": {"screenwriters": [{"url": "/celebrity/hayao_miyazaki/", "name": "Hayao Miyazaki", "thumbnailImg": "https://resizing.flixster.com/2XcMlgbK50QeZ9J6oFpdgRhpd6g=/80x80/v1.cDsxMTM5NTUzOTtqOzE4ODYwOzIwNDg7MTU2Njs4NzQ"}, {"url": "/celebrity/neil_gaiman/", "name": "Neil Gaiman", "thumbnailImg": "https://resizing.flixster.com/VXi05dNI1XxqYgsPKplQPLPt7xs=/80x80/v1.cDs1MzUyNzUzO2o7MTg3ODQ7MjA0ODszNzg7NDgw"}], "directors": [{"url": "/celebrity/hayao_miyazaki/", "name": "Hayao Miyazaki", "thumbnailImg": "https://resizing.flixster.com/2XcMlgbK50QeZ9J6oFpdgRhpd6g=/80x80/v1.cDsxMTM5NTUzOTtqOzE4ODYwOzIwNDg7MTU2Njs4NzQ"}], "creators": [], "producers": [{"url": "/celebrity/toshio_suzuki/", "name": "Toshio Suzuki", "thumbnailImg": "https://d2a5cgar23scu2.cloudfront.net/static/images/redesign/actor.default.tmb.gif"}], "castItems": [{"person": {"url": "/celebrity/yoji_matsuda/", "name": "Y\u00f4ji Matsuda", "thumbnailImg": "https://resizing.flixster.com/L00HT4RSsLIC7C9NJu8yh3heAnI=/80x80/v1.cDsxMDkzMTUxODtqOzE4ODc0OzIwNDg7NTAwOzMyOQ"}, "characters": [{"name": "Ashitaka"}]}, {"person": {"url": "/celebrity/yuriko-ishida/", "name": "Yuriko Ishida", "thumbnailImg": "https://resizing.flixster.com/YVgnRIUj5yScXy1VEYILepCwYqM=/80x80/v1.cDs5ODk4MjM4O2o7MTg4Mjc7MjA0ODsxMzg7MTc1"}, "characters": [{"name": "San"}]}, {"person": {"url": "/celebrity/yuko_tanaka/", "name": "Y\u00fbko Tanaka", "thumbnailImg": "https://resizing.flixster.com/_Nlx3ktT7VvyBWx1pOeSQk6F-eU=/80x80/v1.cDsxMDkzMTUxNTtqOzE4ODcxOzIwNDg7MjAwOzI5MQ"}, "characters": [{"name": "Lady Eboshi"}]}, {"person": {"url": "/celebrity/keith_david/", "name": "Keith David", "thumbnailImg": "https://resizing.flixster.com/6mgCCnjeW5xzZG8RVmQ5HrlNj6U=/80x80/v1.cjs0MDM1MjtqOzE4Nzk3OzIwNDg7Mjc1OzIzMA"}}, {"person": {"url": "/celebrity/kaoru_kobayashi/", "name": "Kaoru Kobayashi", "thumbnailImg": "https://resizing.flixster.com/4EVjQqzy6ClPEACmTejqD_ZgPvs=/80x80/v1.cDsxMDkzMTUyMDtqOzE4ODc2OzIwNDg7MTE1OzEzNg"}, "characters": [{"name": "Jigo"}]}, {"person": {"url": "/celebrity/john_demita_2/", "name": "John DeMita", "thumbnailImg": "https://d2a5cgar23scu2.cloudfront.net/static/images/redesign/actor.default.tmb.gif"}}, {"person": {"url": "/celebrity/masahiko-nishimura/", "name": "Masahiko Nishimura", "thumbnailImg": "https://resizing.flixster.com/NesY7FU5Nnfz5kmyXXhwpElAl3A=/80x80/v1.cDsxMDkzMTUyNjtqOzE4ODgyOzIwNDg7MTc1OzI1MA"}, "characters": [{"name": "Koroku"}]}, {"person": {"url": "/celebrity/akihiro_miwa/", "name": "Akihiro Miwa", "thumbnailImg": "https://d2a5cgar23scu2.cloudfront.net/static/images/redesign/actor.default.tmb.gif"}, "characters": [{"name": "Moro the Wolf"}]}, {"person": {"url": "/celebrity/tsunehiko_kamijyo/", "name": "Tsunehiko Kamijyo", "thumbnailImg": "https://d2a5cgar23scu2.cloudfront.net/static/images/redesign/actor.default.tmb.gif"}, "characters": [{"name": "Gonza"}]}, {"person": {"url": "/celebrity/masahiko_mishimura/", "name": "Masahiko Mishimura", "thumbnailImg": "https://d2a5cgar23scu2.cloudfront.net/static/images/redesign/actor.default.tmb.gif"}, "characters": [{"name": "Kohroko"}]}, {"person": {"url": "/celebrity/sumi_shimamoto/", "name": "Sumi Shimamoto", "thumbnailImg": "https://d2a5cgar23scu2.cloudfront.net/static/images/redesign/actor.default.tmb.gif"}, "characters": [{"name": "Toki"}]}, {"person": {"url": "/celebrity/hitsuko_mori/", "name": "Hitsuko Mori", "thumbnailImg": "https://d2a5cgar23scu2.cloudfront.net/static/images/redesign/actor.default.tmb.gif"}, "characters": [{"name": "Oracle"}]}, {"person": {"url": "/celebrity/hisaya_morishige/", "name": "Hisaya Morishige", "thumbnailImg": "https://d2a5cgar23scu2.cloudfront.net/static/images/redesign/actor.default.tmb.gif"}, "characters": [{"name": "Okkoto"}]}, {"person": {"url": "/celebrity/billy_crudup/", "name": "Billy Crudup", "thumbnailImg": "https://resizing.flixster.com/OeKOfp7BVX-dZm5nH23b8yhwY74=/80x80/v1.cjs0MDY0NztqOzE4Nzc3OzIwNDg7Mjc1OzIzMA"}, "characters": [{"name": "Ashitaka  [English Version]"}]}, {"person": {"url": "/celebrity/claire_danes/", "name": "Claire Danes", "thumbnailImg": "https://resizing.flixster.com/tB6bYhltxoIKmLmnKShI6c2rctA=/80x80/v1.cjs0OTEwNjtqOzE4Nzc2OzIwNDg7MTYyNTsxNzAx"}, "characters": [{"name": "San  [English Version]"}]}, {"person": {"url": "/celebrity/billy_bob_thornton/", "name": "Billy Bob Thornton", "thumbnailImg": "https://resizing.flixster.com/WyNyLD5c6X5ktwLrLQm5F0LbFow=/80x80/v1.cjs0OTA4NjtqOzE4ODAxOzIwNDg7MTkwMzsyMDAw"}, "characters": [{"name": "Jiko  [English Version]"}]}, {"person": {"url": "/celebrity/minnie_driver/", "name": "Minnie Driver", "thumbnailImg": "https://resizing.flixster.com/1hS46Pns0ipWic6d8nDOGL4qrcU=/80x80/v1.cjs0OTI4MztqOzE4NzczOzIwNDg7MjA1NDsyMTI2"}, "characters": [{"name": "Lady Eboshi  [English Version]"}]}, {"person": {"url": "/celebrity/gillian_anderson/", "name": "Gillian Anderson", "thumbnailImg": "https://resizing.flixster.com/RVoxs8I07Sls6kPKXs4mzsGhYPk=/80x80/v1.cjs0NTYxNDtqOzE4Nzk0OzIwNDg7MjIwOzE5Ng"}, "characters": [{"name": "Moro  [English Version]"}]}, {"person": {"url": "/celebrity/jada_pinkett/", "name": "Jada Pinkett Smith", "thumbnailImg": "https://resizing.flixster.com/0nWaRmipm4SHR9CkvVwTOAJXvlw=/80x80/v1.cjs0NjE2NTtqOzE4ODA1OzIwNDg7MjIwOzE5Ng"}, "characters": [{"name": "Sonji [English Version]"}]}, {"person": {"url": "/celebrity/john_dimaggio/", "name": "John DiMaggio", "thumbnailImg": "https://resizing.flixster.com/G68Qt8by7e_taRcOy0BGhLtMTtg=/80x80/v1.cjs0NTUyNTtqOzE4Nzk1OzIwNDg7NDAwOzM1Ng"}, "characters": [{"name": "Koroku  [English Version]"}]}]}, "title": "Princess Mononoke (Mononoke-hime)", "adjustedScore": 97.62910348850895, "ratings": {"critics_rating": "Certified Fresh", "audience_score": 94, "dvdReleaseDate": 977212800000, "critics_score": 93, "theaterReleaseDate": 939279600000, "audience_rating": "Upright"}, "videoClips": {"mainTrailer": {"hlsUrl": "http://video.internetvideoarchive.net/video.m3u8?cmd=6&publishedid=http://www.youtube.com/v/pkWWWKKA8jY&customerid=300120&e=1619087070354&sub=RTO&fmt=11&h=e94de1567d769db2a1f580a124119b4c", "seconds": 7, "minutes": 2, "id": 4917657, "title": "Princess Mononoke DVD Trailer", "thumbUrl": "http://img.youtube.com/vi/pkWWWKKA8jY/2.jpg", "mp4Url": "http://video.internetvideoarchive.net/video.mp4?cmd=6&publishedid=http://www.youtube.com/v/pkWWWKKA8jY&customerid=300120&e=1619087070354&sub=RTO&fmt=4&videokbrate=750&h=fc194f00f98846cd8422d0536f82161b"}, "size": 1, "videoClips": [{"hlsUrl": "http://video.internetvideoarchive.net/video.m3u8?cmd=6&publishedid=http://www.youtube.com/v/pkWWWKKA8jY&customerid=300120&e=1619087070354&sub=RTO&fmt=11&h=e94de1567d769db2a1f580a124119b4c", "seconds": 7, "minutes": 2, "id": 4917657, "title": "Princess Mononoke DVD Trailer", "thumbUrl": "http://img.youtube.com/vi/pkWWWKKA8jY/2.jpg", "mp4Url": "http://video.internetvideoarchive.net/video.mp4?cmd=6&publishedid=http://www.youtube.com/v/pkWWWKKA8jY&customerid=300120&e=1619087070354&sub=RTO&fmt=4&videokbrate=750&h=fc194f00f98846cd8422d0536f82161b"}]}, "isUpcoming": false, "posters": {"original": "https://resizing.flixster.com/6ROZ9RKBYnPnaabyOJ-7E1FF_EQ=/768x1024/v1.bTsxMTYxNDIyOTtqOzE4ODk4OzIwNDg7NzY4OzEwMjQ", "detailed": "https://resizing.flixster.com/DwlsQmRfnNloF70EFX4xDFW7lrY=/180x240/v1.bTsxMTYxNDIyOTtqOzE4ODk4OzIwNDg7NzY4OzEwMjQ", "profile": "https://resizing.flixster.com/Qq_afAt_A77CkadnIYs8QIbAvC4=/120x160/v1.bTsxMTYxNDIyOTtqOzE4ODk4OzIwNDg7NzY4OzEwMjQ", "thumbnail": "https://resizing.flixster.com/AjueAAszrErE3KrfTffAkrVukdU=/54x72/v1.bTsxMTYxNDIyOTtqOzE4ODk4OzIwNDg7NzY4OzEwMjQ"}, "isLimited": true, "mainTrailer": {"thumbUrl": "https://img.youtube.com/vi/pkWWWKKA8jY/2.jpg", "hlsUrl": "http://video.internetvideoarchive.net/video.m3u8?cmd=6&publishedid=http://www.youtube.com/v/pkWWWKKA8jY&customerid=300120&e=1619087070026&sub=RTO&fmt=11&h=b3155a9555de427ff563f8e7573a1837", "id": 4917657, "mp4Url": "http://video.internetvideoarchive.net/video.mp4?cmd=6&publishedid=http://www.youtube.com/v/pkWWWKKA8jY&customerid=300120&e=1619087070026&sub=RTO&fmt=4&videokbrate=750&h=858e618cf6e17356748370c3be65b71c"}, "advisory": "for images of violence and gore", "id": 10144}