{"url": "/m/bambi/", "isOnOpening": false, "genreSet": [{"displayName": "Animation", "id": 2}, {"displayName": "Kids & Family", "id": 11}, {"displayName": "Classics", "id": 5}, {"displayName": "Science Fiction & Fantasy", "id": 14}], "runningTime": 69, "isInTheaters": false, "synopsis": "\"Bambi,\" Walt Disney's beloved coming-of-age story, will thrill audiences with its breathtaking animation and characters who will touch your heart: Bambi, the wide-eyed fawn, his playful pal Thumper, the lovable skunk Flower and wise Friend Owl.", "links": {"alternate": "//www.rottentomatoes.com/m/bambi/"}, "year": 1942, "trackingType": "DvdOther", "status": "Live", "isPlaying": false, "isOnDVD": true, "runningTimeStr": "1 hr. 9 min.", "ratingSummary": {"topcount": 9, "consensus": "Elegantly animated and deeply touching, Bambi is an enduring, endearing, and moving Disney classic.", "topCritics": {"hasScore": true, "numReviews": 9, "meterClass": "certified", "numRotten": 2, "numFresh": 7, "hasReviews": true, "meterValue": 78, "averageRating": 7.65625}, "audience": {"meterScore": 73, "averageScore": 3.394686698913574, "numTotal": 599687, "ratingType": "viewed"}, "allcount": 52, "rottencount": 5, "dvdcount": 21, "allCritics": {"hasScore": true, "numReviews": 52, "meterClass": "certified", "numRotten": 5, "numFresh": 47, "hasReviews": true, "meterValue": 90, "averageRating": 8.28}, "freshcount": 47}, "mpaaRating": "G", "vanity": "bambi", "studio": "RKO Radio Pictures", "purchaseOptions": {"amazon": {"url": "http://www.amazon.com/gp/product/B072L4799K/ref=atv_feed_catalog?tag=rottetomao_aiv_mv-20", "isPrime": false, "type": "buy"}, "vudu": {"url": "http://www.vudu.com/movies/#!content/43825/Bambi", "type": "buy"}, "iTunes": {"url": "https://itunes.apple.com/movie/bambi/id415724828?uo=5", "price": "19.99"}}, "reviews": {"total": 52, "links": {"alternate": "//www.rottentomatoes.com/m/bambi/#reviews", "self": "api.flixster.com/movies/bambi/reviews.json?review_type=mob&country=us&page=1", "prev": "api.flixster.com/movies/bambi/reviews.json?review_type=mob&country=us&page=0", "next": "api.flixster.com/movies/bambi/reviews.json?review_type=mob&country=us&page=2"}, "reviews": [{"isRotten": true, "url": "https://newrepublic.com/article/134248/saccharine-symphony", "publication": {"url": "", "name": "The New Republic"}, "isTop": true, "creationDate": 1466115307000, "isFresh": false, "freshness": "rotten", "critic": {"url": "/critic/manny-farber", "name": "Manny Farber", "id": 14552, "thumbnailImage": "https://resizing.flixster.com/2uxB_FLBzriK9I4nmHPa4qZhm_Y=/72x72/v1.YzszNDQ3O2o7MTg3OTI7MjA0ODszMDA7MzAw"}, "quote": "The bogus art which has been creeping into the Disney pictures is really hammered at you in this one.", "id": 2333948, "links": {"review": "https://newrepublic.com/article/134248/saccharine-symphony"}}, {"isRotten": false, "url": "http://www.decentfilms.com/sections/reviews/1634", "creationDate": 1225275345000, "isFresh": true, "id": 1777194, "quote": "One of the most timeless and universal coming-of-age films ever, Bambi ranks with the very greatest of Disney's classic masterpieces.", "links": {"review": "http://www.decentfilms.com/sections/reviews/1634"}, "publication": {"name": "Decent Films Guide"}, "isTop": true, "freshness": "fresh", "critic": {"url": "/critic/steven-d-greydanus", "name": "Steven D. Greydanus", "id": 5612, "thumbnailImage": "https://resizing.flixster.com/TpXNeP2Bw4Ci0Knwz0ug2Ok6rWw=/72x72/v1.YzsyODA4O2c7MTg3ODM7MjA0ODsxNTA7MTUw"}, "original_score": "A+"}, {"isRotten": false, "url": "http://onfilm.chicagoreader.com/movies/capsules/714_BAMBI", "publication": {"url": "", "name": "Chicago Reader"}, "isTop": true, "creationDate": 1220484202000, "isFresh": true, "freshness": "fresh", "critic": {"url": "/critic/jonathan-rosenbaum", "name": "Jonathan Rosenbaum", "id": 18, "thumbnailImage": "https://resizing.flixster.com/1cTHA-AhKpzD72gBEOroQDcNEeE=/72x72/v1.YzszNjQ4O2o7MTg3Njg7MjA0ODszMDA7MzAw"}, "quote": "This animated feature based on Felix Salten's book about the coming of age of a fawn and his various forest friends (including the beloved Thumper) does convey some of the primal emotional power of Disney's features during this period.", "id": 1753046, "links": {"review": "http://onfilm.chicagoreader.com/movies/capsules/714_BAMBI"}}, {"isRotten": false, "url": "http://www.time.com/time/magazine/article/0,9171,849975-1,00.html", "publication": {"url": "", "name": "TIME Magazine"}, "isTop": true, "creationDate": 1220380123000, "isFresh": true, "freshness": "fresh", "quote": "For the first time, Disney has done his backgrounds in oils instead of watercolors. The result is striking.", "id": 1752787, "links": {"review": "http://www.time.com/time/magazine/article/0,9171,849975-1,00.html"}}, {"isRotten": false, "url": "http://www.variety.com/review/VE1117788860.html?categoryid=31&cs=1", "publication": {"url": "", "name": "Variety"}, "isTop": true, "creationDate": 1220380056000, "isFresh": true, "freshness": "fresh", "critic": {"url": "/critic/variety-staff", "name": "Variety Staff", "id": 12507, "thumbnailImage": "https://resizing.flixster.com/8Z-e2stpP9WriX4ZUvtumMg0pB0=/72x72/v1.YzsyNDg3O2c7MTg3Nzc7MjA0ODsxNTI7MTY4"}, "quote": "The glow and texture of the Disney brush reach new heights, especially in the treatment of a summer thunderstorm and a raging snowstorm.", "id": 1752785, "links": {"review": "http://www.variety.com/review/VE1117788860.html?categoryid=31&cs=1"}}, {"isRotten": false, "url": "http://www.timeout.com/film/reviews/67336/bambi.html", "publication": {"url": "", "name": "Time Out"}, "isTop": true, "creationDate": 1138274136000, "isFresh": true, "freshness": "fresh", "quote": "From Disney's richest period, interleaving splendid animation with vulgar Americana.", "id": 1474035, "links": {"review": "http://www.timeout.com/film/reviews/67336/bambi.html"}}, {"isRotten": false, "url": "http://gonewiththetwins.com/new/bambi-1942/", "creationDate": 1607330780000, "isFresh": true, "id": 2749207, "quote": "Full of poignancy, excitement, and considerable satisfaction.", "links": {"review": "http://gonewiththetwins.com/new/bambi-1942/"}, "publication": {"url": "", "name": "Gone With The Twins"}, "isTop": false, "freshness": "fresh", "critic": {"url": "/critic/mike-massie", "name": "Mike Massie", "id": 27168, "thumbnailImage": "https://resizing.flixster.com/cKCY6tR9EskewGPlb8BlnvWesZU=/72x72/v1.YzszNjc3O2o7MTg3OTc7MjA0ODszMDA7MzAw"}, "original_score": "9/10"}, {"isRotten": false, "url": "https://www.filmsite.org/bambi.html", "creationDate": 1569640143000, "isFresh": true, "id": 2630630, "quote": "Bambi (1942) is one of the most appealing, gracefully-told, lushly-beautiful, and popular Disney animated film classics. It was based on Austrian writer Felix Salten's 1923 storybook Bambi, A Life in the Woods. ", "links": {"review": "https://www.filmsite.org/bambi.html"}, "publication": {"url": "", "name": "Filmsite"}, "isTop": false, "freshness": "fresh", "critic": {"url": "/critic/tim-dirks", "name": "Tim Dirks", "id": 2, "thumbnailImage": "https://resizing.flixster.com/YLKhCBtohLWHB76z-5jiFMLQG1M=/72x72/v1.YzszNDY1O2o7MTg3NjU7MjA0ODs4NDA7OTE5"}, "original_score": "A+"}, {"isRotten": false, "url": "https://archive.org/details/cinemundial27unse/page/398", "publication": {"url": "", "name": "Cine-Mundial"}, "isTop": false, "creationDate": 1568663740000, "isFresh": true, "freshness": "fresh", "critic": {"url": "/critic/elena-de-la-torre", "name": "Elena de la Torre", "id": 25790, "thumbnailImage": "https://d2a5cgar23scu2.cloudfront.net/static/images/redesign/user.none.tmb.jpg"}, "quote": "Bambi is an artistic creation of indescribable beauty. [Full Review in Spanish]", "id": 2626607, "links": {"review": "https://archive.org/details/cinemundial27unse/page/398"}}, {"isRotten": false, "url": "https://rachelsreviews.net/2014/08/19/movie-5-bambi/", "creationDate": 1557361851000, "isFresh": true, "id": 2584818, "quote": "It's a beautiful art piece with great music and enough of a plot and characters to be tolerable, even enjoyable.", "links": {"review": "https://rachelsreviews.net/2014/08/19/movie-5-bambi/"}, "publication": {"url": "", "name": "rachelsreviews.net"}, "isTop": false, "freshness": "fresh", "critic": {"url": "/critic/rachel-wagner", "name": "Rachel Wagner", "id": 23964, "thumbnailImage": "https://resizing.flixster.com/CvuVoWlOH-LcGgLgTU2V23hxVvM=/72x72/v1.YzszMjU3O2o7MTg3ODI7MjA0ODszMDA7MzAw"}, "original_score": "B"}, {"isRotten": false, "url": "http://www.thebluspot.com/single-post/2017/06/05/Bambi-75th-Anniversary-Edition-The-Disney-Classic-Reaches-a-Milestone-Blu-ray", "creationDate": 1496681216000, "isFresh": true, "id": 2397892, "quote": "While its scarce plot may prevent it from being one of Disney's most memorable animated classics, Bambi remains an endearing and beloved film thanks to the delightful characters, the beautiful animation, and the marvelous music.", "links": {"review": "http://www.thebluspot.com/single-post/2017/06/05/Bambi-75th-Anniversary-Edition-The-Disney-Classic-Reaches-a-Milestone-Blu-ray"}, "publication": {"url": "", "name": "The Blu Spot"}, "isTop": false, "freshness": "fresh", "critic": {"url": "/critic/jeff-beck", "name": "Jeff Beck", "id": 14576, "thumbnailImage": "https://resizing.flixster.com/DEV4OZdrbHDv5zJngiwCvC8gMO0=/72x72/v1.YzsyMzc2O2c7MTg4MDE7MjA0ODszODs0Mg"}, "original_score": "3.5/5"}, {"isRotten": false, "url": "http://cinema-crazed.com/blog/2013/07/03/bambi-1942/", "publication": {"url": "", "name": "Cinema Crazed"}, "isTop": false, "creationDate": 1372838733000, "isFresh": true, "freshness": "fresh", "critic": {"url": "/critic/felix-vasquez-jr", "name": "Felix Vasquez Jr.", "id": 11967, "thumbnailImage": "https://resizing.flixster.com/eHTD-Qdfru_x4Uk0lQxyaIDQ_UI=/72x72/v1.YzsyMjA0O2o7MTg4MDk7MjA0ODsxMDA7MTAw"}, "quote": "Feels so much more like an animation experiment than it does a movie.", "id": 2151438, "links": {"review": "http://cinema-crazed.com/blog/2013/07/03/bambi-1942/"}}]}, "casts": {"screenwriters": [{"url": "/celebrity/larry_morey/", "name": "Larry Morey", "thumbnailImg": "https://d2a5cgar23scu2.cloudfront.net/static/images/redesign/actor.default.tmb.gif"}, {"url": "/celebrity/melvin_shaw/", "name": "Melvin Shaw", "thumbnailImg": "https://d2a5cgar23scu2.cloudfront.net/static/images/redesign/actor.default.tmb.gif"}, {"url": "/celebrity/1092574-ralph_wright/", "name": "Ralph Wright", "thumbnailImg": "https://d2a5cgar23scu2.cloudfront.net/static/images/redesign/actor.default.tmb.gif"}, {"url": "/celebrity/chuck_couch/", "name": "Chuck Couch", "thumbnailImg": "https://d2a5cgar23scu2.cloudfront.net/static/images/redesign/actor.default.tmb.gif"}, {"url": "/celebrity/perce_pearce/", "name": "Perce Pearce", "thumbnailImg": "https://d2a5cgar23scu2.cloudfront.net/static/images/redesign/actor.default.tmb.gif"}], "directors": [{"url": "/celebrity/david_hand/", "name": "David Hand", "thumbnailImg": "https://d2a5cgar23scu2.cloudfront.net/static/images/redesign/actor.default.tmb.gif"}, {"url": "/celebrity/graham_heid/", "name": "Graham Heid", "thumbnailImg": "https://d2a5cgar23scu2.cloudfront.net/static/images/redesign/actor.default.tmb.gif"}, {"url": "/celebrity/perce_pearce/", "name": "Perce Pearce", "thumbnailImg": "https://d2a5cgar23scu2.cloudfront.net/static/images/redesign/actor.default.tmb.gif"}, {"url": "/celebrity/paul_satterfield/", "name": "Paul Satterfield", "thumbnailImg": "https://d2a5cgar23scu2.cloudfront.net/static/images/redesign/actor.default.tmb.gif"}, {"url": "/celebrity/james_algar/", "name": "James Algar", "thumbnailImg": "https://d2a5cgar23scu2.cloudfront.net/static/images/redesign/actor.default.tmb.gif"}, {"url": "/celebrity/samuel_armstrong/", "name": "Samuel Armstrong", "thumbnailImg": "https://d2a5cgar23scu2.cloudfront.net/static/images/redesign/actor.default.tmb.gif"}, {"url": "/celebrity/bill_roberts/", "name": "Bill Roberts", "thumbnailImg": "https://d2a5cgar23scu2.cloudfront.net/static/images/redesign/actor.default.tmb.gif"}, {"url": "/celebrity/david_d_hand/", "name": "David D. Hand", "thumbnailImg": "https://d2a5cgar23scu2.cloudfront.net/static/images/redesign/actor.default.tmb.gif"}, {"url": "/celebrity/norman_wright_8/", "name": "Norman Wright", "thumbnailImg": "https://d2a5cgar23scu2.cloudfront.net/static/images/redesign/actor.default.tmb.gif"}], "creators": [], "producers": [{"url": "/celebrity/walt_disney/", "name": "Walt Disney", "thumbnailImg": "https://resizing.flixster.com/LSoN_IPA17uTor-mQWNn8QNL0pI=/80x80/v1.cjs0MjI0MDtqOzE4Nzk1OzIwNDg7NDUwOzU5OQ"}, {"url": "/celebrity/david_hand/", "name": "David Hand", "thumbnailImg": "https://d2a5cgar23scu2.cloudfront.net/static/images/redesign/actor.default.tmb.gif"}], "castItems": [{"person": {"url": "/celebrity/bobby-stewart/", "name": "Bobby Stewart", "thumbnailImg": "https://resizing.flixster.com/gQO05wppRUUNLTtLR3fHHiKwUlI=/80x80/v1.cDsxMTU2MDE0MztqOzE4ODU2OzIwNDg7NDAwOzQ0OA"}, "characters": [{"name": "Baby Bambi"}]}, {"person": {"url": "/celebrity/paul_behn/", "name": "Paul Behn", "thumbnailImg": "https://d2a5cgar23scu2.cloudfront.net/static/images/redesign/actor.default.tmb.gif"}}, {"person": {"url": "/celebrity/paula_winslowe/", "name": "Paula Winslowe", "thumbnailImg": "https://d2a5cgar23scu2.cloudfront.net/static/images/redesign/actor.default.tmb.gif"}, "characters": [{"name": "Bambi's Mother/Pheasant"}]}, {"person": {"url": "/celebrity/peter-behn/", "name": "Peter Behn", "thumbnailImg": "https://d2a5cgar23scu2.cloudfront.net/static/images/redesign/actor.default.tmb.gif"}, "characters": [{"name": "Young Thumper"}]}, {"person": {"url": "/celebrity/cammie-king/", "name": "Cammie King", "thumbnailImg": "https://d2a5cgar23scu2.cloudfront.net/static/images/redesign/actor.default.tmb.gif"}, "characters": [{"name": "Young Faline"}]}, {"person": {"url": "/celebrity/stan_alexander/", "name": "Stan Alexander", "thumbnailImg": "https://resizing.flixster.com/JvollRV6pPH7GlYG-n8OmatlxD0=/80x80/v1.cDsxMTU2MDE2NjtqOzE4ODc5OzIwNDg7MzAwOzIyNA"}, "characters": [{"name": "Young Flower"}]}, {"person": {"url": "/celebrity/hardy_albright/", "name": "Hardy Albright", "thumbnailImg": "https://d2a5cgar23scu2.cloudfront.net/static/images/redesign/actor.default.tmb.gif"}}, {"person": {"url": "/celebrity/donnie_dunagan/", "name": "Donnie Dunagan", "thumbnailImg": "https://resizing.flixster.com/PnP6Qlv-0smNhac3mMyRkdOGfkQ=/80x80/v1.cDsxMTU2MDE0NztqOzE4ODYwOzIwNDg7NjY7OTM"}, "characters": [{"name": "Young Bambi"}]}, {"person": {"url": "/celebrity/hardie_albright/", "name": "Hardie Albright", "thumbnailImg": "https://resizing.flixster.com/7e2bo2aNwMFw1z7R8Uo1Tuesn6c=/80x80/v1.cDsxMTU2MDE1ODtqOzE4ODcxOzIwNDg7NjQwOzQ3Ng"}, "characters": [{"name": "Adolescent Bambi"}]}, {"person": {"url": "/celebrity/perce_pearce/", "name": "Perce Pearce", "thumbnailImg": "https://d2a5cgar23scu2.cloudfront.net/static/images/redesign/actor.default.tmb.gif"}}, {"person": {"url": "/celebrity/john-sutherland/", "name": "John Sutherland", "thumbnailImg": "https://resizing.flixster.com/8q8Ja0_fasE0IvoIUkBs_i0cd7I=/80x80/v1.cDsxMTU2MDE3MTtqOzE4ODg0OzIwNDg7MTUwOzE1MA"}, "characters": [{"name": "Adult Bambi"}]}, {"person": {"url": "/celebrity/tim_davis/", "name": "Tim Davis", "thumbnailImg": "https://d2a5cgar23scu2.cloudfront.net/static/images/redesign/actor.default.tmb.gif"}, "characters": [{"name": "Adult Thumper/Adolescent Flower"}]}, {"person": {"url": "/celebrity/sam_edwards/", "name": "Sam Edwards", "thumbnailImg": "https://d2a5cgar23scu2.cloudfront.net/static/images/redesign/actor.default.tmb.gif"}, "characters": [{"name": "Adult Thumper"}]}, {"person": {"url": "/celebrity/sterling_holloway/", "name": "Sterling Holloway", "thumbnailImg": "https://resizing.flixster.com/_7UisqbAzrHYwL3n9734dn5r7uE=/80x80/v1.cDsxMDA5MjAwNztqOzE4ODI4OzIwNDg7MTYwOzExOQ"}, "characters": [{"name": "Adult Flower"}]}, {"person": {"url": "/celebrity/ann_gillis/", "name": "Ann Gillis", "thumbnailImg": "https://resizing.flixster.com/f0p7uhb3J43c8rgfhw9mb-1GjP4=/80x80/v1.cDsxMjYxMjczMDtqOzE4ODE1OzIwNDg7MjkzOzI4Mw"}, "characters": [{"name": "Adult Faline"}]}, {"person": {"url": "/celebrity/bambi/", "name": "Bambi", "thumbnailImg": "https://d2a5cgar23scu2.cloudfront.net/static/images/redesign/actor.default.tmb.gif"}}]}, "title": "Bambi", "adjustedScore": 97.4251458198315, "ratings": {"critics_rating": "Certified Fresh", "audience_score": 73, "dvdReleaseDate": 1109664000000, "critics_score": 90, "theaterReleaseDate": -863542800000, "audience_rating": "Upright"}, "videoClips": {"mainTrailer": {"hlsUrl": "http://video.internetvideoarchive.net/video.m3u8?cmd=6&publishedid=334451&customerid=300120&e=1619087083864&sub=RTO&fmt=11&h=f30a54a55cbf9691e654af8f97ea8cf3", "seconds": 7, "minutes": 1, "id": 11252828, "title": "Bambi", "thumbUrl": "http://content.internetvideoarchive.com/content/photos/10474/334451_074.jpg", "mp4Url": "http://video.internetvideoarchive.net/video.mp4?cmd=6&publishedid=334451&customerid=300120&e=1619087083864&sub=RTO&fmt=4&videokbrate=750&h=9b70a6da55fbf30a6e09f9f960e7da9a"}, "size": 2, "videoClips": [{"hlsUrl": "http://video.internetvideoarchive.net/video.m3u8?cmd=6&publishedid=334451&customerid=300120&e=1619087083864&sub=RTO&fmt=11&h=f30a54a55cbf9691e654af8f97ea8cf3", "seconds": 7, "minutes": 1, "id": 11252828, "title": "Bambi", "thumbUrl": "http://content.internetvideoarchive.com/content/photos/10474/334451_074.jpg", "mp4Url": "http://video.internetvideoarchive.net/video.mp4?cmd=6&publishedid=334451&customerid=300120&e=1619087083864&sub=RTO&fmt=4&videokbrate=750&h=9b70a6da55fbf30a6e09f9f960e7da9a"}, {"hlsUrl": "http://video.internetvideoarchive.net/video.m3u8?cmd=6&publishedid=http://link.theplatform.com/s/NGweTC/media/X0rnbiTdKE_T&customerid=300120&e=1619087083864&sub=RTO&fmt=11&h=186e618ba0585470b8a0fb75a540607f", "seconds": 12, "minutes": 1, "id": 11312389, "title": "Bambi: Trailer 1", "thumbUrl": "http://resizing.flixster.com/WE7lGBuR8hV-S-R1dMkXpx8Tpsc=/171x128/v1.bjsyMjgxMzg3O2o7MTg3OTE7MjA0ODsxMDgwOzE5MjA", "mp4Url": "http://video.internetvideoarchive.net/video.mp4?cmd=6&publishedid=http://link.theplatform.com/s/NGweTC/media/X0rnbiTdKE_T&customerid=300120&e=1619087083864&sub=RTO&fmt=4&videokbrate=750&h=3d2cad96d81116286f784894ed938e61"}]}, "isUpcoming": false, "posters": {"original": "https://resizing.flixster.com/IXAtsFRwrUIHrKjFrMwVdZhKqXI=/1998x2664/v1.bTsxMTIwMzg0NDtqOzE4ODYzOzIwNDg7MTk5ODsyNjY0", "detailed": "https://resizing.flixster.com/bLEWqQIy_ONjXJ8Gi6Wb2uQ01lE=/180x240/v1.bTsxMTIwMzg0NDtqOzE4ODYzOzIwNDg7MTk5ODsyNjY0", "profile": "https://resizing.flixster.com/a02g7Ub3nG_LmIAwgkNbqpH8pkw=/120x160/v1.bTsxMTIwMzg0NDtqOzE4ODYzOzIwNDg7MTk5ODsyNjY0", "thumbnail": "https://resizing.flixster.com/m8N5oao0hbErDI-4MJ2h1no4wv4=/54x72/v1.bTsxMTIwMzg0NDtqOzE4ODYzOzIwNDg7MTk5ODsyNjY0"}, "isLimited": false, "mainTrailer": {"thumbUrl": "https://content.internetvideoarchive.com/content/photos/10474/334451_074.jpg", "hlsUrl": "http://video.internetvideoarchive.net/video.m3u8?cmd=6&publishedid=334451&customerid=300120&e=1619087083553&sub=RTO&fmt=11&h=56ba615516e6e88a36de341797f843fc", "id": 11252828, "mp4Url": "http://video.internetvideoarchive.net/video.mp4?cmd=6&publishedid=334451&customerid=300120&e=1619087083553&sub=RTO&fmt=4&videokbrate=750&h=9e5f193c30a0f7793412258dd4f7a732"}, "photos": {"photos": [{"url": "https://resizing.flixster.com/hnbqKXsvO0qhEOcn7Jcogg43Lo4=/1024x512/v1.bjsyNDk1NzU7ajsxODc3MjsyMDQ4OzEzMDA7NjUw", "index": 0, "submittedBy": "RT Staff", "height": 512, "imageId": 249575, "thumbnail": "https://resizing.flixster.com/LECT5aXOuApbZ3cQLPhadcv10uI=/80x80/v1.bjsyNDk1NzU7ajsxODc3MjsyMDQ4OzEzMDA7NjUw", "submittedDate": "2014-07-02", "id": "multiuse-249575", "photoType": "movie", "width": 1024}, {"url": "https://resizing.flixster.com/v-5pT26QOqHaDHG_czNQvE4aPmE=/691x1024/v1.bjs3NDAzMjY7ajsxODgwNDsyMDQ4OzE1ODk7MjM1Ng", "index": 1, "submittedBy": "RT Staff", "height": 1024, "imageId": 740326, "thumbnail": "https://resizing.flixster.com/h87_ca_Eb1RxpiG4EVfGFiarwlA=/80x80/v1.bjs3NDAzMjY7ajsxODgwNDsyMDQ4OzE1ODk7MjM1Ng", "submittedDate": "2015-06-11", "id": "multiuse-740326", "photoType": "movie", "width": 691}, {"url": "https://resizing.flixster.com/Qw7FZjfKl4iEc63zyRgIblPKHNo=/1024x759/v1.bjs3NDAzMjc7ajsxODgwNTsyMDQ4OzI1OTg7MTkyNQ", "index": 2, "submittedBy": "RT Staff", "height": 759, "imageId": 740327, "thumbnail": "https://resizing.flixster.com/7ae3YYBrUsVEGnIP743hddAReAc=/80x80/v1.bjs3NDAzMjc7ajsxODgwNTsyMDQ4OzI1OTg7MTkyNQ", "submittedDate": "2015-06-11", "id": "multiuse-740327", "photoType": "movie", "width": 1024}, {"url": "https://resizing.flixster.com/CD7YB1oGtXJWum38NCoDyqF69Do=/1024x693/v1.bjs3NDAzMjg7ajsxODgwNjsyMDQ4OzIzOTI7MTYxOA", "index": 3, "submittedBy": "RT Staff", "height": 693, "imageId": 740328, "thumbnail": "https://resizing.flixster.com/eoeH7u2FNJDnuN34bpaI6x3aQE0=/80x80/v1.bjs3NDAzMjg7ajsxODgwNjsyMDQ4OzIzOTI7MTYxOA", "submittedDate": "2015-06-11", "id": "multiuse-740328", "photoType": "movie", "width": 1024}, {"url": "https://resizing.flixster.com/IwS0qZO-Pqb257BTL0UEHNbicHc=/1024x760/v1.bjs3NDAzMjk7ajsxODgwNzsyMDQ4OzI1OTg7MTkyOA", "index": 4, "submittedBy": "RT Staff", "height": 760, "imageId": 740329, "thumbnail": "https://resizing.flixster.com/wMURaLm6FpyySJqSe9hMthkyK4g=/80x80/v1.bjs3NDAzMjk7ajsxODgwNzsyMDQ4OzI1OTg7MTkyOA", "submittedDate": "2015-06-11", "id": "multiuse-740329", "photoType": "movie", "width": 1024}, {"url": "https://resizing.flixster.com/OFWuYiYIXgQWjzli-iTV59wz6ks=/1024x768/v1.bjs4NjAwNjI7ajsxODc5NjsyMDQ4OzI4NDQ7MjEzMw", "index": 5, "submittedBy": "RT Staff", "height": 768, "imageId": 860062, "thumbnail": "https://resizing.flixster.com/OU6d89wCe76UO-bHcOuu_T7Fzdk=/80x80/v1.bjs4NjAwNjI7ajsxODc5NjsyMDQ4OzI4NDQ7MjEzMw", "submittedDate": "2015-07-04", "id": "multiuse-860062", "photoType": "movie", "width": 1024}, {"url": "https://resizing.flixster.com/lQ0lwcBU_uu9y-IOpQ8Sf1RFMBA=/1024x576/v1.bjsyMTY1MTIzO2o7MTg4Mjg7MjA0ODsxNjAxOzkwMA", "index": 6, "submittedBy": "RT Staff", "height": 576, "imageId": 2165123, "thumbnail": "https://resizing.flixster.com/iuw-mI_ZC7TUbrTXAGCjOKL9B1k=/80x80/v1.bjsyMTY1MTIzO2o7MTg4Mjg7MjA0ODsxNjAxOzkwMA", "submittedDate": "2019-01-19", "id": "multiuse-2165123", "photoType": "movie", "width": 1024}], "length": 7}, "id": 9375}