{"url": "/m/antz/", "isOnOpening": false, "genreSet": [{"displayName": "Animation", "id": 2}, {"displayName": "Kids & Family", "id": 11}, {"displayName": "Science Fiction & Fantasy", "id": 14}, {"displayName": "Comedy", "id": 6}], "officialUrl": "http://www.antz.com", "isInTheaters": false, "synopsis": "Central Park ant drone Z longs to be an individual of accomplishment, but Z's colony is a society that puts the value of the colony over personal achievement. Young Z sets his sites on the colony's Queen daughter Bala- who is uninterested until Z successfully mounts a revolution within the colony for the advancement of individuality.", "links": {"alternate": "//www.rottentomatoes.com/m/antz/"}, "runningTime": 83, "year": 1998, "trackingType": "DvdOther", "status": "Live", "isPlaying": false, "isOnDVD": true, "runningTimeStr": "1 hr. 23 min.", "ratingSummary": {"topcount": 30, "consensus": "Featuring a stellar voice cast, technically dazzling animation, and loads of good humor, Antz should delight both children and adults.", "topCritics": {"hasScore": true, "numReviews": 30, "meterClass": "certified", "numRotten": 2, "numFresh": 28, "hasReviews": true, "meterValue": 93, "averageRating": 7.333333}, "audience": {"meterScore": 52, "averageScore": 2.959155321121216, "numTotal": 651900, "ratingType": "viewed"}, "allcount": 93, "rottencount": 7, "dvdcount": 8, "allCritics": {"hasScore": true, "numReviews": 93, "meterClass": "certified", "numRotten": 7, "numFresh": 86, "hasReviews": true, "meterValue": 92, "averageRating": 7.61}, "freshcount": 86}, "mpaaRating": "PG", "vanity": "antz", "photos": {"photos": [{"url": "https://resizing.flixster.com/r90I_GQ1voWm7weCAEpSecM0d5c=/1024x1024/v1.bjs5ODI0MTk7ajsxODgwMDsyMDQ4OzEyNzQ7MTI3NA", "index": 0, "submittedBy": "RT Staff", "height": 1024, "imageId": 982419, "thumbnail": "https://resizing.flixster.com/EFhtEMEeFSFv8d83RsAJsVg8yVw=/80x80/v1.bjs5ODI0MTk7ajsxODgwMDsyMDQ4OzEyNzQ7MTI3NA", "submittedDate": "2015-12-14", "id": "multiuse-982419", "photoType": "movie", "width": 1024}], "length": 1}, "studio": "Dreamworks", "purchaseOptions": {"amazon": {"url": "http://www.amazon.com/gp/product/B005MLUF0C/ref=atv_feed_catalog?tag=rottetomao_aiv_mv-20", "isPrime": false, "type": "rent"}, "netflix": {"streamingId": "17236549"}, "vudu": {"url": "https://www.vudu.com/content/movies/details/Antz/13917", "type": "buy"}, "iTunes": {"url": "https://itunes.apple.com/movie/antz/id319778046?uo=5", "price": "9.99"}}, "reviews": {"total": 93, "links": {"alternate": "//www.rottentomatoes.com/m/antz/#reviews", "self": "api.flixster.com/movies/antz/reviews.json?review_type=mob&country=us&page=1", "prev": "api.flixster.com/movies/antz/reviews.json?review_type=mob&country=us&page=0", "next": "api.flixster.com/movies/antz/reviews.json?review_type=mob&country=us&page=2"}, "reviews": [{"isRotten": false, "url": "http://www.commonsensemedia.org/movie-reviews/antz ", "creationDate": 1293029059000, "isFresh": true, "id": 1947939, "quote": "Great effects, but surprisingly violent. Lacks kid appeal.", "links": {"review": "http://www.commonsensemedia.org/movie-reviews/antz "}, "publication": {"url": "", "name": "Common Sense Media"}, "isTop": true, "freshness": "fresh", "critic": {"url": "/critic/nell-minow", "name": "Nell Minow", "id": 13, "thumbnailImage": "https://resizing.flixster.com/0Yu3ChYD_PlERNzLAMX6a0J1DOo=/72x72/v1.YzsxNTc5O2c7MTg3Njk7MjA0ODszODs0OA"}, "original_score": "3/5"}, {"isRotten": false, "url": "http://www.time.com/time/magazine/article/0,9171,989327,00.html", "publication": {"url": "", "name": "TIME Magazine"}, "isTop": true, "creationDate": 1220536686000, "isFresh": true, "freshness": "fresh", "critic": {"url": "/critic/richard-schickel", "name": "Richard Schickel", "id": 351, "thumbnailImage": "https://resizing.flixster.com/VhWGv-Q_HthfrgA3-dlWTiDnwJI=/72x72/v1.YzszNTA3O2o7MTg4MDc7MjA0ODszMDA7MzAw"}, "quote": "Kids may be puzzled by rebellious worker ants chanting Marxist slogans, but their parental guides may welcome the relief from the prevailing blandness of family films.", "id": 1753153, "links": {"review": "http://www.time.com/time/magazine/article/0,9171,989327,00.html"}}, {"isRotten": false, "url": "http://www.timeout.com/film/reviews/78089/antz.html", "publication": {"url": "", "name": "Time Out"}, "isTop": true, "creationDate": 1151147508000, "isFresh": true, "freshness": "fresh", "critic": {"url": "/critic/geoff-andrew", "name": "Geoff Andrew", "id": 12289, "thumbnailImage": "https://d2a5cgar23scu2.cloudfront.net/static/images/redesign/user.none.tmb.jpg"}, "quote": "Visually striking and dynamically shot, this has strong characters and no shortage of incident.", "id": 1518963, "links": {"review": "http://www.timeout.com/film/reviews/78089/antz.html"}}, {"isRotten": false, "url": "http://www.sfgate.com/cgi-bin/article.cgi?f=/c/a/1999/02/12/DD50408.DTL", "creationDate": 1024413304000, "isFresh": true, "id": 729265, "quote": "The filmmakers seem to have deliberately snubbed the traditional audience for animated features.", "links": {"review": "http://www.sfgate.com/cgi-bin/article.cgi?f=/c/a/1999/02/12/DD50408.DTL"}, "publication": {"url": "", "name": "San Francisco Chronicle"}, "isTop": true, "freshness": "fresh", "critic": {"url": "/critic/peter-stack", "name": "Peter Stack", "id": 1222, "thumbnailImage": "https://d2a5cgar23scu2.cloudfront.net/static/images/redesign/user.none.tmb.jpg"}, "original_score": "3/4"}, {"isRotten": false, "isFresh": true, "publication": {"url": "", "name": "Globe and Mail"}, "isTop": true, "creationDate": 1018624387000, "freshness": "fresh", "critic": {"url": "/critic/liam-lacey", "name": "Liam Lacey", "id": 2884, "thumbnailImage": "https://resizing.flixster.com/RVHyelItoRCUkfm9aMWhys9gKd8=/72x72/v1.YzsyODAwO2c7MTg3NzU7MjA0ODsxNTA7MTUw"}, "quote": "It's a perfect picnic, without the pesky human interference.", "id": 304021, "original_score": "3/4", "links": {}}, {"isRotten": false, "url": "http://www.bbc.co.uk/films/2001/12/13/antz_1998_review.shtml", "creationDate": 1008605505000, "isFresh": true, "id": 273559, "quote": "Hilarious stuff, superbly achieving that elusive goal of being entertaining kids fare and having a lot to offer the adults.", "links": {"review": "http://www.bbc.co.uk/films/2001/12/13/antz_1998_review.shtml"}, "publication": {"url": "", "name": "BBC.com"}, "isTop": true, "freshness": "fresh", "critic": {"url": "/critic/danny-graydon", "name": "Danny Graydon", "id": 4436, "thumbnailImage": "https://d2a5cgar23scu2.cloudfront.net/static/images/redesign/user.none.tmb.jpg"}, "original_score": "4/5"}, {"isRotten": true, "url": "http://www.boxofficeprophets.com/column/index.cfm?columnID=20073", "creationDate": 1585312160000, "isFresh": false, "id": 2679683, "quote": "[Antz is] a bizarre, tonally dissonant mess of a movie. Apparently we were willing to overlook such issues 22 years ago.", "links": {"review": "http://www.boxofficeprophets.com/column/index.cfm?columnID=20073"}, "publication": {"name": "Box Office Prophets"}, "isTop": false, "freshness": "rotten", "critic": {"url": "/critic/sean-collier", "name": "Sean Collier", "id": 23158, "thumbnailImage": "https://resizing.flixster.com/90ka-3hWxr2OHmUvD8JqSESUJMk=/72x72/v1.YzszMDg5O2o7MTg3OTQ7MjA0ODszMDA7MzAw"}, "original_score": "4/10"}, {"isRotten": false, "url": "https://54disneyreviews.com/2017/05/20/dreamworks-5-antz/", "creationDate": 1552434232000, "isFresh": true, "id": 2566584, "quote": "In a world of cookie-cutter movies at least it tries a bunch of weird stuff.", "links": {"review": "https://54disneyreviews.com/2017/05/20/dreamworks-5-antz/"}, "publication": {"url": "", "name": "rachelsreviews.net"}, "isTop": false, "freshness": "fresh", "critic": {"url": "/critic/rachel-wagner", "name": "Rachel Wagner", "id": 23964, "thumbnailImage": "https://resizing.flixster.com/CvuVoWlOH-LcGgLgTU2V23hxVvM=/72x72/v1.YzszMjU3O2o7MTg3ODI7MjA0ODszMDA7MzAw"}, "original_score": "C+"}, {"isRotten": true, "url": "https://pnabarro.wordpress.com/2014/09/19/antz/", "creationDate": 1543711889000, "isFresh": false, "id": 2536763, "quote": "Amid all the ingenuity and smartness, the work fails to move and contains little wonderment - ironically appropriating the zealous industry of its on-screen ants. ", "links": {"review": "https://pnabarro.wordpress.com/2014/09/19/antz/"}, "publication": {"url": "", "name": "Patrick Nabarro"}, "isTop": false, "freshness": "rotten", "critic": {"url": "/critic/pj-nabarro", "name": "PJ Nabarro", "id": 23462, "thumbnailImage": "https://resizing.flixster.com/265FY97ZPzUl48aEXLRB9bdT_fo=/72x72/v1.YzszMTc4O2o7MTg3OTM7MjA0ODszMDA7MzAw"}, "original_score": "3/5"}, {"isRotten": true, "url": "https://www.alternateending.com/2018/07/antz-1998.html", "creationDate": 1532844197000, "isFresh": false, "id": 2493676, "quote": "It's the noble attempt by the doomed PDI to announce its worthiness to the world", "links": {"review": "https://www.alternateending.com/2018/07/antz-1998.html"}, "publication": {"url": "", "name": "Alternate Ending"}, "isTop": false, "freshness": "rotten", "critic": {"url": "/critic/tim-brayton", "name": "Tim Brayton", "id": 12682, "thumbnailImage": "https://resizing.flixster.com/t87aEPD3_0heWdT2Cx2CpPwgZ7k=/72x72/v1.YzszODU2O2o7MTg3OTY7MjA0ODszMDA7MzAw"}, "original_score": "2.5/5"}, {"isRotten": false, "url": "http://boxoffice.com/reviews/2008/08/antz.php", "creationDate": 1224337030000, "isFresh": true, "id": 1770000, "quote": "A Engaging and awe-inspiring animation once again elevates Shrek's world to fantastic heights, and the laughs are just as freewheeling as we have come to expect.", "links": {"review": "http://boxoffice.com/reviews/2008/08/antz.php"}, "publication": {"url": "", "name": "Boxoffice Magazine"}, "isTop": false, "freshness": "fresh", "critic": {"url": "/critic/kevin-courrier", "name": "Kevin Courrier", "id": 1157, "thumbnailImage": "https://d2a5cgar23scu2.cloudfront.net/static/images/redesign/user.none.tmb.jpg"}, "original_score": "4/5"}, {"isRotten": false, "url": "http://movies.tvguide.com/antz/review/133532", "publication": {"url": "", "name": "TV Guide"}, "isTop": false, "creationDate": 1220536575000, "isFresh": true, "freshness": "fresh", "quote": "By any standard, the film is a remarkable technical achievement.", "id": 1753152, "original_score": "3/4", "links": {"review": "http://movies.tvguide.com/antz/review/133532"}}]}, "casts": {"screenwriters": [{"url": "/celebrity/todd_alcott/", "name": "Todd Alcott", "thumbnailImg": "https://d2a5cgar23scu2.cloudfront.net/static/images/redesign/actor.default.tmb.gif"}, {"url": "/celebrity/chris_weitz/", "name": "Chris Weitz", "thumbnailImg": "https://resizing.flixster.com/1nBTUFIqOwiYpBKFPIwkZUI1obQ=/80x80/v1.cjszMDg3MjtqOzE4NzY3OzIwNDg7NjAwOzQ2OA"}, {"url": "/celebrity/paul_weitz/", "name": "Paul Weitz", "thumbnailImg": "https://resizing.flixster.com/PwBQCrNiw5ixnzOzKlAMZZj55vE=/80x80/v1.cDsxMTQ1MzcwNztqOzE4ODg5OzIwNDg7NDcxOzI1Mw"}], "directors": [{"url": "/celebrity/eric_darnell/", "name": "Eric Darnell", "thumbnailImg": "https://d2a5cgar23scu2.cloudfront.net/static/images/redesign/actor.default.tmb.gif"}, {"url": "/celebrity/771861028/", "name": "Tim Johnson", "thumbnailImg": "https://d2a5cgar23scu2.cloudfront.net/static/images/redesign/actor.default.tmb.gif"}], "creators": [], "producers": [{"url": "/celebrity/brad_lewis/", "name": "Brad Lewis", "thumbnailImg": "https://resizing.flixster.com/EwlMnkz3M7d6DYUiEPgEnibsPos=/80x80/v1.cDsxMjc2NzU2OTtqOzE4ODExOzIwNDg7MTAyNDs3Njg"}, {"url": "/celebrity/aron_warner/", "name": "Aron Warner", "thumbnailImg": "https://resizing.flixster.com/kYmORmeOdN2a-HwD8a5rV0gXtsY=/80x80/v1.cDsxMjcxMTc5OTtqOzE4Nzk2OzIwNDg7MjAwOzE4NQ"}, {"url": "/celebrity/patty_wooton/", "name": "Patty Wooton", "thumbnailImg": "https://d2a5cgar23scu2.cloudfront.net/static/images/redesign/actor.default.tmb.gif"}], "castItems": [{"person": {"url": "/celebrity/woody_allen/", "name": "Woody Allen", "thumbnailImg": "https://resizing.flixster.com/xC5ojkm2DK1HPK2pxToYfofUD9M=/80x80/v1.cjs0MjIzODtqOzE4NzkzOzIwNDg7NDE0OzYwMA"}, "characters": [{"name": "Z"}]}, {"person": {"url": "/celebrity/sharon_stone/", "name": "Sharon Stone", "thumbnailImg": "https://resizing.flixster.com/NGAReZj_IUZB9MUcg33ChD_jlOA=/80x80/v1.cjs0MDIzMztqOzE4NzY4OzIwNDg7NDAwOzYwMA"}, "characters": [{"name": "Princess Bala"}]}, {"person": {"url": "/celebrity/gene_hackman/", "name": "Gene Hackman", "thumbnailImg": "https://resizing.flixster.com/kmp0yLarXsTg2egDtgsxi1Yo7lI=/80x80/v1.cjs0Mjg5MztqOzE4NzczOzIwNDg7MzkzOzU5NA"}, "characters": [{"name": "Gen. Mandible"}]}, {"person": {"url": "/celebrity/sylvester_stallone/", "name": "Sylvester Stallone", "thumbnailImg": "https://resizing.flixster.com/7YpBaDmKFM1bjyEfQhDBGYpartM=/80x80/v1.cjs0Nzc3MDtqOzE4NzkwOzIwNDg7MTA1NjsxMDU2"}, "characters": [{"name": "Weaver"}]}, {"person": {"url": "/celebrity/dan_aykroyd/", "name": "Dan Aykroyd", "thumbnailImg": "https://resizing.flixster.com/Jiltm7co6MtUnGTVbUerMqgns2o=/80x80/v1.cDsxMzYwMjE4NDtqOzE4ODIxOzIwNDg7MjA2OzMyOA"}, "characters": [{"name": "Chip"}]}, {"person": {"url": "/celebrity/jennifer_lopez_2/", "name": "Jennifer Lopez", "thumbnailImg": "https://resizing.flixster.com/mvS1rxqXZGh8zAIkUmRG6Cl7z3g=/80x80/v1.cjs0MDYxODtqOzE4NzkzOzIwNDg7Mjc1OzIzMA"}, "characters": [{"name": "Azteca"}]}, {"person": {"url": "/celebrity/danny_glover/", "name": "Danny Glover", "thumbnailImg": "https://resizing.flixster.com/Rg1HvPK0C2GB15-9d-s2ju5jb0Q=/80x80/v1.cjs1MDA5MDtqOzE4NzcwOzIwNDg7MTk1MDszMDAw"}, "characters": [{"name": "Barbatus"}]}, {"person": {"url": "/celebrity/jane_curtin/", "name": "Jane Curtin", "thumbnailImg": "https://resizing.flixster.com/4409hi7zH71wZEayn1c7qN-t2dc=/80x80/v1.cjs0NDA3MztqOzE4NzgzOzIwNDg7Mzk1OzM1Mg"}, "characters": [{"name": "Muffy"}]}, {"person": {"url": "/celebrity/anne_bancroft/", "name": "Anne Bancroft", "thumbnailImg": "https://resizing.flixster.com/TsrdTlXGg_D3d2Oe9qa74VQdino=/80x80/v1.cDsxMDE2MDg2NztqOzE4ODM5OzIwNDg7Mjk0OzQwMA"}, "characters": [{"name": "Queen"}]}, {"person": {"url": "/celebrity/john_mahoney/", "name": "John Mahoney", "thumbnailImg": "https://resizing.flixster.com/YFVlF7d2EMOqKWNtyMBlYGdTKUw=/80x80/v1.cDs1MDk3MzMxO2o7MTg3Nzk7MjA0ODsxODg7MjUw"}, "characters": [{"name": "Drunk Scout"}]}, {"person": {"url": "/celebrity/paul_mazursky/", "name": "Paul Mazursky", "thumbnailImg": "https://resizing.flixster.com/ZZFVG571QVOo43_609s5zl5I0bA=/80x80/v1.cDsxMzc4Njc4ODtqOzE4NzkyOzIwNDg7MjQwOzI0MA"}, "characters": [{"name": "Psychologist"}]}, {"person": {"url": "/celebrity/grant_shaud/", "name": "Grant Shaud", "thumbnailImg": "https://resizing.flixster.com/UVlMM3L95L_Hi94--RsXhGSFO5o=/80x80/v1.cDsxMTkzMzg3NDtqOzE4Nzc3OzIwNDg7Mjg1OzQwMA"}, "characters": [{"name": "Foreman"}]}, {"person": {"url": "/celebrity/christopher_walken/", "name": "Christopher Walken", "thumbnailImg": "https://resizing.flixster.com/Yu14KpVzCgq08H4IyPVyBhJmToU=/80x80/v1.cjs0MDQ4NDtqOzE4Nzk0OzIwNDg7Mjc1OzIzMA"}, "characters": [{"name": "Col. Cutter"}]}]}, "title": "Antz", "adjustedScore": 96.97609561752988, "ratings": {"critics_rating": "Certified Fresh", "audience_score": 52, "dvdReleaseDate": 922176000000, "critics_score": 92, "theaterReleaseDate": 907311600000, "audience_rating": "Spilled"}, "videoClips": {"mainTrailer": {"hlsUrl": "http://video.internetvideoarchive.net/video.m3u8?cmd=6&publishedid=7696&customerid=300120&e=1619087106639&sub=RTO&fmt=11&h=4ff46e308b32c7319dc0cb2765d6928a", "seconds": 33, "minutes": 1, "id": 10906608, "title": "Antz", "thumbUrl": "http://content.internetvideoarchive.com/content/photos/183/00769511_.jpg", "mp4Url": "http://video.internetvideoarchive.net/video.mp4?cmd=6&publishedid=7696&customerid=300120&e=1619087106639&sub=RTO&fmt=4&videokbrate=750&h=d7a52d3de1f01997271a56d039511135"}, "size": 12, "videoClips": [{"hlsUrl": "http://video.internetvideoarchive.net/video.m3u8?cmd=6&publishedid=7696&customerid=300120&e=1619087106638&sub=RTO&fmt=11&h=474f7e6e2d31cb1a404373bd8df06e8b", "seconds": 33, "minutes": 1, "id": 10906608, "title": "Antz", "thumbUrl": "http://content.internetvideoarchive.com/content/photos/183/00769511_.jpg", "mp4Url": "http://video.internetvideoarchive.net/video.mp4?cmd=6&publishedid=7696&customerid=300120&e=1619087106638&sub=RTO&fmt=4&videokbrate=750&h=e5c7532493800d580c264d5f79a1ea6b"}, {"hlsUrl": "http://video.internetvideoarchive.net/video.m3u8?cmd=6&publishedid=http://link.theplatform.com/s/NGweTC/media/hTK0Q1mYQz0o&customerid=300120&e=1619087106638&sub=RTO&fmt=11&h=8cc6ce023b587ad41993f6ccaf4cfc68", "seconds": 25, "minutes": 2, "id": 11307945, "title": "Antz: Trailer 1", "thumbUrl": "http://resizing.flixster.com/t5Vhbbb1pTFXuMsOdLXi5eHhlwg=/171x128/v1.bjsyMDAxMzUwO2o7MTg3ODg7MjA0ODsxMDgwOzE5MjA", "mp4Url": "http://video.internetvideoarchive.net/video.mp4?cmd=6&publishedid=http://link.theplatform.com/s/NGweTC/media/hTK0Q1mYQz0o&customerid=300120&e=1619087106638&sub=RTO&fmt=4&videokbrate=750&h=804e82e3114d119cc644d7254d2157a7"}, {"hlsUrl": "http://video.internetvideoarchive.net/video.m3u8?cmd=6&publishedid=http://link.theplatform.com/s/NGweTC/media/lza_3dAj1Df9&customerid=300120&e=1619087106638&sub=RTO&fmt=11&h=221dddb275a63612f031ecabe75937c1", "seconds": 25, "minutes": 3, "id": 11320000, "title": "Antz: Official Clip - The Yowch Dance", "thumbUrl": "http://resizing.flixster.com/_pmMfbRbkjX2kv5ZM5-XxqSTqdk=/171x128/v1.bjsyNTExNjAwO2o7MTg4Mzk7MjA0ODsxMDgwOzE5MjA", "mp4Url": "http://video.internetvideoarchive.net/video.mp4?cmd=6&publishedid=http://link.theplatform.com/s/NGweTC/media/lza_3dAj1Df9&customerid=300120&e=1619087106638&sub=RTO&fmt=4&videokbrate=750&h=b7820bc21cff08c51455316dffb078eb"}, {"hlsUrl": "http://video.internetvideoarchive.net/video.m3u8?cmd=6&publishedid=http://link.theplatform.com/s/NGweTC/media/TSGahmRZrVtL&customerid=300120&e=1619087106638&sub=RTO&fmt=11&h=6e762cb88e0f0989ec34ec0fbd07ec4c", "seconds": 31, "minutes": 2, "id": 11320001, "title": "Antz: Official Clip - Kidnapping The Princess", "thumbUrl": "http://resizing.flixster.com/W3XE6jH1l9ffys7K31wbd0ayEEU=/171x128/v1.bjsyNTExNjAxO2o7MTg4Mzk7MjA0ODsxMDgwOzE5MjA", "mp4Url": "http://video.internetvideoarchive.net/video.mp4?cmd=6&publishedid=http://link.theplatform.com/s/NGweTC/media/TSGahmRZrVtL&customerid=300120&e=1619087106638&sub=RTO&fmt=4&videokbrate=750&h=dc1a2b4fa8e2c7502e9cdaf4c87c11d9"}, {"hlsUrl": "http://video.internetvideoarchive.net/video.m3u8?cmd=6&publishedid=http://link.theplatform.com/s/NGweTC/media/AulQL_b_1GB3&customerid=300120&e=1619087106638&sub=RTO&fmt=11&h=d04341b781300a5bc7e24610ed10a832", "seconds": 9, "minutes": 2, "id": 11320002, "title": "Antz: Official Clip - Stomped Flat", "thumbUrl": "http://resizing.flixster.com/YvJmgl6iPmSv-hBZZ4DNfC9MEOw=/171x128/v1.bjsyNTExNjAyO2o7MTg4Mzk7MjA0ODsxMDgwOzE5MjA", "mp4Url": "http://video.internetvideoarchive.net/video.mp4?cmd=6&publishedid=http://link.theplatform.com/s/NGweTC/media/AulQL_b_1GB3&customerid=300120&e=1619087106638&sub=RTO&fmt=4&videokbrate=750&h=d33f407225567fe205e73fafa2e00474"}, {"hlsUrl": "http://video.internetvideoarchive.net/video.m3u8?cmd=6&publishedid=http://link.theplatform.com/s/NGweTC/media/r_xvaTWqkVTI&customerid=300120&e=1619087106638&sub=RTO&fmt=11&h=1f2f6d71d0174249ec17e2bdaab06fb0", "seconds": 56, "minutes": 2, "id": 11320003, "title": "Antz: Official Clip - The Mad General Mandible", "thumbUrl": "http://resizing.flixster.com/O6FdIloaeu4qHAiBy3IjXi9YxUQ=/171x128/v1.bjsyNTExNjAzO2o7MTg4Mzk7MjA0ODsxMDgwOzE5MjA", "mp4Url": "http://video.internetvideoarchive.net/video.mp4?cmd=6&publishedid=http://link.theplatform.com/s/NGweTC/media/r_xvaTWqkVTI&customerid=300120&e=1619087106638&sub=RTO&fmt=4&videokbrate=750&h=1510061876b116447cf47e205defcb49"}, {"hlsUrl": "http://video.internetvideoarchive.net/video.m3u8?cmd=6&publishedid=http://link.theplatform.com/s/NGweTC/media/PGaOqV6C78SB&customerid=300120&e=1619087106638&sub=RTO&fmt=11&h=30142ebb6e81ae1dfb40a3c681653927", "seconds": 59, "minutes": 1, "id": 11320004, "title": "Antz: Official Clip - Flooding The Colony", "thumbUrl": "http://resizing.flixster.com/8aPxuwTcvXR2HBMuqWw4djHwWBg=/171x128/v1.bjsyNTExNjA0O2o7MTg4Mzk7MjA0ODsxMDgwOzE5MjA", "mp4Url": "http://video.internetvideoarchive.net/video.mp4?cmd=6&publishedid=http://link.theplatform.com/s/NGweTC/media/PGaOqV6C78SB&customerid=300120&e=1619087106638&sub=RTO&fmt=4&videokbrate=750&h=24ee2b0d6c0edfc0d445db11cf9c4e86"}, {"hlsUrl": "http://video.internetvideoarchive.net/video.m3u8?cmd=6&publishedid=http://link.theplatform.com/s/NGweTC/media/hm588jeQh3qS&customerid=300120&e=1619087106638&sub=RTO&fmt=11&h=749f2d062337f1440a5d9ca5cc669569", "seconds": 4, "minutes": 2, "id": 11320005, "title": "Antz: Official Clip - The Termite War", "thumbUrl": "http://resizing.flixster.com/d8P5XD6X8ljrklQ6Wt6qyfrWQ5w=/171x128/v1.bjsyNTExNjA1O2o7MTg4Mzk7MjA0ODsxMDgwOzE5MjA", "mp4Url": "http://video.internetvideoarchive.net/video.mp4?cmd=6&publishedid=http://link.theplatform.com/s/NGweTC/media/hm588jeQh3qS&customerid=300120&e=1619087106638&sub=RTO&fmt=4&videokbrate=750&h=26adae03658ffc3c65c2bfef7cd25200"}, {"hlsUrl": "http://video.internetvideoarchive.net/video.m3u8?cmd=6&publishedid=http://link.theplatform.com/s/NGweTC/media/5_FjaPmOqUJT&customerid=300120&e=1619087106638&sub=RTO&fmt=11&h=11fb98cde63e52013b47fbde0a2865c7", "seconds": 49, "minutes": 2, "id": 11320006, "title": "Antz: Official Clip - You Are Insignificant", "thumbUrl": "http://resizing.flixster.com/qhbkXg9hIfh2epYG-7wssQ-ARrs=/171x128/v1.bjsyNTExNjA2O2o7MTg4Mzk7MjA0ODsxMDgwOzE5MjA", "mp4Url": "http://video.internetvideoarchive.net/video.mp4?cmd=6&publishedid=http://link.theplatform.com/s/NGweTC/media/5_FjaPmOqUJT&customerid=300120&e=1619087106638&sub=RTO&fmt=4&videokbrate=750&h=6ef381dde376e6cefba32be4c3249f7c"}, {"hlsUrl": "http://video.internetvideoarchive.net/video.m3u8?cmd=6&publishedid=http://link.theplatform.com/s/NGweTC/media/IZsTj7myl1uX&customerid=300120&e=1619087106638&sub=RTO&fmt=11&h=630eac9a3f047681abc3aa5c00360b51", "seconds": 18, "minutes": 2, "id": 11320007, "title": "Antz: Official Clip - Weaver Fills in for Z", "thumbUrl": "http://resizing.flixster.com/hlhd3ijmRNSgnXiAIKd0bNVwaQ0=/171x128/v1.bjsyNTExNjA3O2o7MTg4Mzk7MjA0ODsxMDgwOzE5MjA", "mp4Url": "http://video.internetvideoarchive.net/video.mp4?cmd=6&publishedid=http://link.theplatform.com/s/NGweTC/media/IZsTj7myl1uX&customerid=300120&e=1619087106638&sub=RTO&fmt=4&videokbrate=750&h=c28977bd6efe93ba8954ae7716a1c9a2"}, {"hlsUrl": "http://video.internetvideoarchive.net/video.m3u8?cmd=6&publishedid=http://link.theplatform.com/s/NGweTC/media/hgxYdaX94kST&customerid=300120&e=1619087106638&sub=RTO&fmt=11&h=0ca8c42c9f2a40de7bcdc662bdfd4afa", "seconds": 38, "minutes": 2, "id": 11320008, "title": "Antz: Official Clip - Chip and Miffy", "thumbUrl": "http://resizing.flixster.com/qBEDkBaG7KS71aFuUvxZoRrnhQk=/171x128/v1.bjsyNTExNjA4O2o7MTg4Mzk7MjA0ODsxMDgwOzE5MjA", "mp4Url": "http://video.internetvideoarchive.net/video.mp4?cmd=6&publishedid=http://link.theplatform.com/s/NGweTC/media/hgxYdaX94kST&customerid=300120&e=1619087106639&sub=RTO&fmt=4&videokbrate=750&h=37978e5df52c681630a24d94a79ab196"}, {"hlsUrl": "http://video.internetvideoarchive.net/video.m3u8?cmd=6&publishedid=http://link.theplatform.com/s/NGweTC/media/2zMZbCl_iDg_&customerid=300120&e=1619087106639&sub=RTO&fmt=11&h=2a9a99aa5608cd26578797c2358a5a5c", "seconds": 0, "minutes": 2, "id": 11320009, "title": "Antz: Official Clip - A Ladder Of Ants", "thumbUrl": "http://resizing.flixster.com/rob9GHGeI5srrBneAMQWSxOzMzA=/171x128/v1.bjsyNTExNjA5O2o7MTg4Mzk7MjA0ODsxMDgwOzE5MjA", "mp4Url": "http://video.internetvideoarchive.net/video.mp4?cmd=6&publishedid=http://link.theplatform.com/s/NGweTC/media/2zMZbCl_iDg_&customerid=300120&e=1619087106639&sub=RTO&fmt=4&videokbrate=750&h=1c6b727fa3ef4f121ab4f9f93305622c"}]}, "isUpcoming": false, "posters": {"original": "https://resizing.flixster.com/k658Peaj0OjblZRkuvsf12h_2Gg=/1224x1632/v1.bTsxMTIwNjk2MztqOzE4ODc3OzIwNDg7MTIyNDsxNjMy", "detailed": "https://resizing.flixster.com/A8VxJyXKLUJQjmEOjny5lP4yIa4=/180x240/v1.bTsxMTIwNjk2MztqOzE4ODc3OzIwNDg7MTIyNDsxNjMy", "profile": "https://resizing.flixster.com/OprERmZtd0WzTIZyeJXXzQ_d_0A=/120x160/v1.bTsxMTIwNjk2MztqOzE4ODc3OzIwNDg7MTIyNDsxNjMy", "thumbnail": "https://resizing.flixster.com/uJJV4_e6kXXttS0AMsLLkiWBTPI=/54x72/v1.bTsxMTIwNjk2MztqOzE4ODc3OzIwNDg7MTIyNDsxNjMy"}, "isLimited": false, "mainTrailer": {"thumbUrl": "https://content.internetvideoarchive.com/content/photos/183/00769511_.jpg", "hlsUrl": "http://video.internetvideoarchive.net/video.m3u8?cmd=6&publishedid=7696&customerid=300120&e=1619087106272&sub=RTO&fmt=11&h=742d233b8e0a461bb8b8a5d468304ae3", "id": 10906608, "mp4Url": "http://video.internetvideoarchive.net/video.mp4?cmd=6&publishedid=7696&customerid=300120&e=1619087106272&sub=RTO&fmt=4&videokbrate=750&h=36e744fd90574b05be32aa8d0c8718a3"}, "advisory": "for mild language and menacing action", "id": 10718}