{"url": "/m/spy_kids/", "isOnOpening": false, "genreSet": [{"displayName": "Action & Adventure", "id": 1}, {"displayName": "Kids & Family", "id": 11}, {"displayName": "Mystery & Suspense", "id": 13}, {"displayName": "Comedy", "id": 6}], "officialUrl": "http://www.spykids.com", "isInTheaters": false, "synopsis": "Gregorio and Ingrid are the two greatest secret agents the world has ever known: masters of disguise, mavens of invention, able to stop wars before they even start. Working for separate countries, they are sent to eliminate their most dangerous enemy...each other. But in an exotic corner of the world when they finally come face to face, they fall in love instead and embark on the most dangerous mission they have ever faced: raising a family. Now, nine years later, after their retirement, having exchanged the adventure of espionage for parenthood, Gregorio and Ingrid Cortez are called back into action. When their former colleagues, the world's most formidable spies, start disappearing one by one, the Cortez's are forced to take on techno-wizard Fegan Floop and his evil, egg-headed sidekick, Minion. But when the unthinkable happens and they too disappear, there are only two people in the world who can rescue them...their kids. Armed with a bag of high tech gadgets and out-of-this world transportation, Carmen and Juni will bravely jet through the air, dive under the seas and crisscross the globe in a series of thrilling adventures on a mission to stop Floop, save their parents...and maybe even the world. Sometimes the biggest heroes are the smallest ones.", "links": {"alternate": "//www.rottentomatoes.com/m/spy_kids/"}, "runningTime": 88, "year": 2001, "trackingType": "DvdOther", "status": "Live", "isPlaying": false, "isOnDVD": true, "runningTimeStr": "1 hr. 28 min.", "ratingSummary": {"topcount": 35, "consensus": "A kinetic and fun movie that's sure to thrill children of all ages.", "topCritics": {"hasScore": true, "numReviews": 35, "meterClass": "certified", "numRotten": 2, "numFresh": 33, "hasReviews": true, "meterValue": 94, "averageRating": 7.537879}, "audience": {"meterScore": 46, "averageScore": 2.6165056228637695, "numTotal": 427327, "ratingType": "viewed"}, "allcount": 128, "rottencount": 9, "dvdcount": 8, "allCritics": {"hasScore": true, "numReviews": 128, "meterClass": "certified", "numRotten": 9, "numFresh": 119, "hasReviews": true, "meterValue": 93, "averageRating": 7.24}, "freshcount": 119}, "mpaaRating": "PG", "vanity": "spy_kids", "photos": {"photos": [{"url": "https://resizing.flixster.com/xFnlWZc820-qbMuRK-PpSd1IPog=/550x413/v1.bjsxMDAxNTg7ajsxODc5OTsyMDQ4OzU1MDs0MTM", "index": 0, "submittedBy": "RT Staff", "height": 413, "imageId": 100158, "thumbnail": "https://resizing.flixster.com/hqmtZMWzCW50Agimo9v754IVdAM=/80x80/v1.bjsxMDAxNTg7ajsxODc5OTsyMDQ4OzU1MDs0MTM", "submittedDate": "2014-07-01", "id": "multiuse-100158", "photoType": "movie", "width": 550}, {"url": "https://resizing.flixster.com/ioFRZYY_Zy9J1plhSAX_AbmPRSY=/600x450/v1.bjsxMDAxNjA7ajsxODgwMTsyMDQ4OzYwMDs0NTA", "index": 1, "submittedBy": "RT Staff", "height": 450, "imageId": 100160, "thumbnail": "https://resizing.flixster.com/3OJnLS0wU_5LoJFTY0ylddx9Lqc=/80x80/v1.bjsxMDAxNjA7ajsxODgwMTsyMDQ4OzYwMDs0NTA", "submittedDate": "2014-07-01", "id": "multiuse-100160", "photoType": "movie", "width": 600}, {"url": "https://resizing.flixster.com/A3_8hIyc1NiHPQ5OYfrwoLd5X-c=/768x384/v1.bjsxMDAxNjE7ajsxODgwMjsyMDQ4Ozc2ODszODQ", "index": 2, "submittedBy": "RT Staff", "height": 384, "imageId": 100161, "thumbnail": "https://resizing.flixster.com/n0r5-GUqIEts6LUl8yQ61cH8E9Q=/80x80/v1.bjsxMDAxNjE7ajsxODgwMjsyMDQ4Ozc2ODszODQ", "submittedDate": "2014-07-01", "id": "multiuse-100161", "photoType": "movie", "width": 768}, {"url": "https://resizing.flixster.com/pR759HAeMTM60DyAurOm9-nQYtk=/1024x768/v1.bjsxMDAxNjI7ajsxODgwMzsyMDQ4OzEwMjQ7NzY4", "index": 3, "submittedBy": "RT Staff", "height": 768, "imageId": 100162, "thumbnail": "https://resizing.flixster.com/cbpEghie2279Pf42sZYC4-_2zMk=/80x80/v1.bjsxMDAxNjI7ajsxODgwMzsyMDQ4OzEwMjQ7NzY4", "submittedDate": "2014-07-01", "id": "multiuse-100162", "photoType": "movie", "width": 1024}, {"url": "https://resizing.flixster.com/9VyToEFzPCJNUoPUpOfaz9oPTPQ=/768x576/v1.bjsxMDAxNjM7ajsxODgwNDsyMDQ4Ozc2ODs1NzY", "index": 4, "submittedBy": "RT Staff", "height": 576, "imageId": 100163, "thumbnail": "https://resizing.flixster.com/axS0_3S2iSAFUJXxcLwdFY1EqdY=/80x80/v1.bjsxMDAxNjM7ajsxODgwNDsyMDQ4Ozc2ODs1NzY", "submittedDate": "2014-07-01", "id": "multiuse-100163", "photoType": "movie", "width": 768}, {"url": "https://resizing.flixster.com/oRg5FsQaYmRzW3M0h57k1-60404=/394x600/v1.aDsyMzU0NjtqOzE4Nzc2OzIwNDg7NDYwOzcwMA", "index": 5, "submittedBy": "RT Staff", "height": 600, "imageId": 23546, "thumbnail": "https://resizing.flixster.com/6MVXBi5gD4G6ZExtV9GT3xep29g=/80x80/v1.aDsyMzU0NjtqOzE4Nzc2OzIwNDg7NDYwOzcwMA", "submittedDate": "2010-03-29", "id": "movie-23546", "photoType": "movie", "width": 394}, {"url": "https://resizing.flixster.com/RNuT4XYlYybc4sFkr9GGzhYk6Gw=/394x600/v1.aDsyMTUxNztqOzE4NzcyOzIwNDg7NDYwOzcwMA", "index": 6, "submittedBy": "RT Staff", "height": 600, "imageId": 21517, "thumbnail": "https://resizing.flixster.com/0D7ZJB0Ax6P_2QCg2J_gZZUE-aY=/80x80/v1.aDsyMTUxNztqOzE4NzcyOzIwNDg7NDYwOzcwMA", "submittedDate": "2010-03-29", "id": "movie-21517", "photoType": "movie", "width": 394}, {"url": "https://resizing.flixster.com/FROS4top-Ni-MRGW4BBgSOrAWmQ=/600x394/v1.aDsxOTI5NjtqOzE4ODAxOzIwNDg7NzAwOzQ2MA", "index": 7, "submittedBy": "RT Staff", "height": 394, "imageId": 19296, "thumbnail": "https://resizing.flixster.com/-9PBwDjqeS9PyatwGJyyI-CW7hc=/80x80/v1.aDsxOTI5NjtqOzE4ODAxOzIwNDg7NzAwOzQ2MA", "submittedDate": "2010-03-29", "id": "movie-19296", "photoType": "movie", "width": 600}, {"url": "https://resizing.flixster.com/9ScrZsYpOQs6FZ3RWjiNNjNehrY=/600x394/v1.aDsxNjg1ODtqOzE4NzkzOzIwNDg7NzAwOzQ2MA", "index": 8, "submittedBy": "RT Staff", "height": 394, "imageId": 16858, "thumbnail": "https://resizing.flixster.com/_WpW0qo2RpiKi7CJma0kAYgoudw=/80x80/v1.aDsxNjg1ODtqOzE4NzkzOzIwNDg7NzAwOzQ2MA", "submittedDate": "2010-03-29", "id": "movie-16858", "photoType": "movie", "width": 600}, {"url": "https://resizing.flixster.com/0DMSafVwE_VUQLsQL0F9jFmjhjU=/600x394/v1.aDsxNDE1NztqOzE4NzkyOzIwNDg7NzAwOzQ2MA", "index": 9, "submittedBy": "RT Staff", "height": 394, "imageId": 14157, "thumbnail": "https://resizing.flixster.com/R8SlZwefGF-8loQdNRy5qPEwpUM=/80x80/v1.aDsxNDE1NztqOzE4NzkyOzIwNDg7NzAwOzQ2MA", "submittedDate": "2010-03-29", "id": "movie-14157", "photoType": "movie", "width": 600}, {"url": "https://resizing.flixster.com/hfM3-ZhkKpUxNLmYL5yO2-9Cq1M=/600x394/v1.aDsxMTIyNTtqOzE4Nzg1OzIwNDg7NzAwOzQ2MA", "index": 10, "submittedBy": "RT Staff", "height": 394, "imageId": 11225, "thumbnail": "https://resizing.flixster.com/IeyhBBdhxLPQvP1BP4HpuUOJ0uY=/80x80/v1.aDsxMTIyNTtqOzE4Nzg1OzIwNDg7NzAwOzQ2MA", "submittedDate": "2010-03-29", "id": "movie-11225", "photoType": "movie", "width": 600}, {"url": "https://resizing.flixster.com/-wq87O3AK4XLISmVfXwu_AGHZlY=/600x394/v1.aDs4MTIwO2o7MTg3ODU7MjA0ODs3MDA7NDYw", "index": 11, "submittedBy": "RT Staff", "height": 394, "imageId": 8120, "thumbnail": "https://resizing.flixster.com/oJl2a72yAvrAW2ObtPYk0tthQpc=/80x80/v1.aDs4MTIwO2o7MTg3ODU7MjA0ODs3MDA7NDYw", "submittedDate": "2010-03-29", "id": "movie-8120", "photoType": "movie", "width": 600}, {"url": "https://resizing.flixster.com/P-HfejnVH_S54mIplgt8p7KlSNU=/600x394/v1.aDs0ODg1O2o7MTg3OTA7MjA0ODs3MDA7NDYw", "index": 12, "submittedBy": "RT Staff", "height": 394, "imageId": 4885, "thumbnail": "https://resizing.flixster.com/XpRToIJxflE_oxHrcWlzR0Rz0Fk=/80x80/v1.aDs0ODg1O2o7MTg3OTA7MjA0ODs3MDA7NDYw", "submittedDate": "2010-03-29", "id": "movie-4885", "photoType": "movie", "width": 600}, {"url": "https://resizing.flixster.com/Umt58WQWwpwnYpINMZAmowUhwGA=/600x394/v1.aDsxNTE0O2o7MTg3OTQ7MjA0ODs3MDA7NDYw", "index": 13, "submittedBy": "RT Staff", "height": 394, "imageId": 1514, "thumbnail": "https://resizing.flixster.com/xx20Cjay5_jCqil8IRtk-5oYdu4=/80x80/v1.aDsxNTE0O2o7MTg3OTQ7MjA0ODs3MDA7NDYw", "submittedDate": "2010-03-29", "id": "movie-1514", "photoType": "movie", "width": 600}], "length": 14}, "studio": "Dimension Films", "purchaseOptions": {"amazon": {"url": "http://www.amazon.com/gp/product/B006HGZH5E/ref=atv_feed_catalog?tag=rottetomao_aiv_mv-20", "isPrime": false, "type": "rent"}, "netflix": {"streamingId": "60020916"}, "vudu": {"url": "https://www.vudu.com/content/movies/details/Spy-Kids/298460", "type": "buy"}, "iTunes": {"url": "https://itunes.apple.com/movie/spy-kids/id436276488?uo=5", "price": "7.99"}}, "reviews": {"total": 128, "links": {"alternate": "//www.rottentomatoes.com/m/spy_kids/#reviews", "self": "api.flixster.com/movies/spy-kids/reviews.json?review_type=mob&country=us&page=1", "prev": "api.flixster.com/movies/spy-kids/reviews.json?review_type=mob&country=us&page=0", "next": "api.flixster.com/movies/spy-kids/reviews.json?review_type=mob&country=us&page=2"}, "reviews": [{"isRotten": false, "url": "http://www.commonsensemedia.org/movie-reviews/spy-kids ", "creationDate": 1293566706000, "isFresh": true, "id": 1949471, "quote": "Just the right combination of fantasy and comedy.", "links": {"review": "http://www.commonsensemedia.org/movie-reviews/spy-kids "}, "publication": {"url": "", "name": "Common Sense Media"}, "isTop": true, "freshness": "fresh", "critic": {"url": "/critic/nell-minow", "name": "Nell Minow", "id": 13, "thumbnailImage": "https://resizing.flixster.com/0Yu3ChYD_PlERNzLAMX6a0J1DOo=/72x72/v1.YzsxNTc5O2c7MTg3Njk7MjA0ODszODs0OA"}, "original_score": "4/5"}, {"isRotten": false, "isFresh": true, "publication": {"url": "", "name": "Variety"}, "isTop": true, "creationDate": 1238148937000, "freshness": "fresh", "critic": {"url": "/critic/lael-loewenstein", "name": "Lael Loewenstein", "id": 1164, "thumbnailImage": "https://d2a5cgar23scu2.cloudfront.net/static/images/redesign/user.none.tmb.jpg"}, "quote": "Fulfills kids' empowerment fantasies and features enough techno-wizardry and cool f/x to satisfy those weaned on videogames.", "id": 1808941, "links": {}}, {"isRotten": false, "url": "http://www.timeout.com/film/reviews/75203/spy_kids.html", "publication": {"url": "", "name": "Time Out"}, "isTop": true, "creationDate": 1139483795000, "isFresh": true, "freshness": "fresh", "critic": {"url": "/critic/derek-adams", "name": "Derek Adams", "id": 12349, "thumbnailImage": "https://d2a5cgar23scu2.cloudfront.net/static/images/redesign/user.none.tmb.jpg"}, "quote": "In terms of its family ethos, this makes an interesting comparison with the Addams Family films.", "id": 1480635, "links": {"review": "http://www.timeout.com/film/reviews/75203/spy_kids.html"}}, {"isRotten": false, "url": "http://www.decentfilms.com/sections/reviews/1732", "creationDate": 1020967799000, "isFresh": true, "id": 312031, "quote": "I've been trying to think what was the last popcorn movie &#151; let alone the last popcorn &#147;family&#148; movie &#151; that was as much sheer fun as Spy Kids.", "links": {"review": "http://www.decentfilms.com/sections/reviews/1732"}, "publication": {"name": "Decent Films Guide"}, "isTop": true, "freshness": "fresh", "critic": {"url": "/critic/steven-d-greydanus", "name": "Steven D. Greydanus", "id": 5612, "thumbnailImage": "https://resizing.flixster.com/TpXNeP2Bw4Ci0Knwz0ug2Ok6rWw=/72x72/v1.YzsyODA4O2c7MTg3ODM7MjA0ODsxNTA7MTUw"}, "original_score": "A"}, {"isRotten": false, "url": "http://www.washingtonpost.com/wp-srv/entertainment/movies/reviews/spykidshunter.htm", "publication": {"url": "", "name": "Washington Post"}, "isTop": true, "creationDate": 1010333649000, "isFresh": true, "freshness": "fresh", "critic": {"url": "/critic/stephen-hunter", "name": "Stephen Hunter", "id": 1267, "thumbnailImage": "https://resizing.flixster.com/zi_41n9GGNeXGyqMfexa8Tu-D4w=/72x72/v1.YzsxNjU4O2c7MTg4MDM7MjA0ODszODs0Mg"}, "quote": "As a piece of almost dadaist filmmaking, Spy Kids is great fun with its continual spirit of invention.", "id": 277147, "links": {"review": "http://www.washingtonpost.com/wp-srv/entertainment/movies/reviews/spykidshunter.htm"}}, {"isRotten": true, "url": "http://www.bbc.co.uk/films/2001/04/04/spy_kids_2001_review.shtml", "creationDate": 987447752000, "isFresh": false, "id": 212517, "quote": "The action itself -- despite some bright, funny moments -- is often quite ordinary.", "links": {"review": "http://www.bbc.co.uk/films/2001/04/04/spy_kids_2001_review.shtml"}, "publication": {"url": "", "name": "BBC.com"}, "isTop": true, "freshness": "rotten", "critic": {"url": "/critic/michael-thomson", "name": "Michael Thomson", "id": 3966, "thumbnailImage": "https://d2a5cgar23scu2.cloudfront.net/static/images/redesign/user.none.tmb.jpg"}, "original_score": "3/5"}, {"isRotten": false, "url": "https://www.thenation.com/article/archive/mexico-multiplex/", "publication": {"url": "", "name": "The Nation"}, "isTop": false, "creationDate": 1582595364000, "isFresh": true, "freshness": "fresh", "critic": {"url": "/critic/b-ruby-rich", "name": "B. Ruby Rich", "id": 17118, "thumbnailImage": "https://resizing.flixster.com/iPALQJKwJYRquHpepjPXHEYOPCQ=/72x72/v1.YzszNjA3O2o7MTg3NzI7MjA0ODszMDA7MzAw"}, "quote": "Spy Kids is no doubt the very film that Rodriguez wishes he could have seen as a kid and that he's now determined to give his own children.", "id": 2672130, "links": {"review": "https://www.thenation.com/article/archive/mexico-multiplex/"}}, {"isRotten": false, "url": "http://bluray.ign.com/articles/118/1185994p1.html", "creationDate": 1327888663000, "isFresh": true, "id": 2055524, "quote": "The visual effects don't really hold up 10 years later, but Spy Kids is still a charming, energetic, inventive kids' flick that balances its goofier side with its a sense of dramatic maturity.", "links": {"review": "http://bluray.ign.com/articles/118/1185994p1.html"}, "publication": {"name": "IGN DVD"}, "isTop": false, "freshness": "fresh", "critic": {"url": "/critic/rl-shaffer-11121", "name": "R.L. Shaffer", "id": 11121, "thumbnailImage": "https://resizing.flixster.com/L4DMVQEP9tEH7yO1PgMexvX8CVY=/72x72/v1.YzsyMjUxO2o7MTg3NjY7MjA0ODsyNTA7MjI1"}, "original_score": "8/10"}, {"isRotten": false, "url": "http://cinema-crazed.com/blog/2002/09/29/spy-kids-2001/", "publication": {"url": "", "name": "Cinema Crazed"}, "isTop": false, "creationDate": 1241000148000, "isFresh": true, "freshness": "fresh", "critic": {"url": "/critic/felix-vasquez-jr", "name": "Felix Vasquez Jr.", "id": 11967, "thumbnailImage": "https://resizing.flixster.com/eHTD-Qdfru_x4Uk0lQxyaIDQ_UI=/72x72/v1.YzsyMjA0O2o7MTg4MDk7MjA0ODsxMDA7MTAw"}, "quote": "The kids play off each other very well and never miss a beat with perfect-timed humor and acting.", "id": 1816688, "links": {"review": "http://cinema-crazed.com/blog/2002/09/29/spy-kids-2001/"}}, {"isRotten": false, "url": "http://www.newsreview.com/sacramento/Content?oid=6100", "creationDate": 1218104159000, "isFresh": true, "id": 1746902, "quote": "This year's most unlikely-and most successful-exhilarating family-type entertainment.", "links": {"review": "http://www.newsreview.com/sacramento/Content?oid=6100"}, "publication": {"url": "", "name": "Sacramento News & Review"}, "isTop": false, "freshness": "fresh", "critic": {"url": "/critic/mark-halverson", "name": "Mark Halverson", "id": 3308, "thumbnailImage": "https://d2a5cgar23scu2.cloudfront.net/static/images/redesign/user.none.tmb.jpg"}, "original_score": "4/5"}, {"isRotten": false, "isFresh": true, "publication": {"url": "", "name": "Film Threat"}, "isTop": false, "creationDate": 1169297419000, "freshness": "fresh", "critic": {"url": "/critic/michael-dequina", "name": "Michael Dequina", "id": 1202, "thumbnailImage": "https://d2a5cgar23scu2.cloudfront.net/static/images/redesign/user.none.tmb.jpg"}, "quote": "The entire ensemble of old pros play their designated roles well; standing out are Cumming, whose trademark impishness fits this role like a glove; and Danny Trejo, playing a nice guy for a change and pulling it off wonderfully.", "id": 1571874, "original_score": "3.5/5", "links": {}}, {"isRotten": false, "url": "http://www.combustiblecelluloid.com/spykids.shtml", "publication": {"name": "Combustible Celluloid"}, "isTop": false, "creationDate": 1148638589000, "isFresh": true, "freshness": "fresh", "critic": {"url": "/critic/jeffrey-m-anderson", "name": "Jeffrey M. Anderson", "id": 35, "thumbnailImage": "https://resizing.flixster.com/Uj3a7Dt46qXBzImXqnFWM9M1zg4=/72x72/v1.YzsyNDkxO2c7MTg3ODE7MjA0ODsxNTI7MTY4"}, "quote": "The coolest kid flick in ages.", "id": 1509189, "links": {"review": "http://www.combustiblecelluloid.com/spykids.shtml"}}]}, "casts": {"screenwriters": [{"url": "/celebrity/robert_rodriguez/", "name": "Robert Rodriguez", "thumbnailImg": "https://resizing.flixster.com/O2yWAjnDIhC-iIEqru71eLi8ZGg=/80x80/v1.cjs0MDY3MTtqOzE4ODAxOzIwNDg7Mjc1OzIzMA"}], "directors": [{"url": "/celebrity/robert_rodriguez/", "name": "Robert Rodriguez", "thumbnailImg": "https://resizing.flixster.com/O2yWAjnDIhC-iIEqru71eLi8ZGg=/80x80/v1.cjs0MDY3MTtqOzE4ODAxOzIwNDg7Mjc1OzIzMA"}], "creators": [], "producers": [{"url": "/celebrity/elizabeth_avellan/", "name": "Elizabeth Avellan", "thumbnailImg": "https://d2a5cgar23scu2.cloudfront.net/static/images/redesign/actor.default.tmb.gif"}, {"url": "/celebrity/tamee_smith_zimmerman/", "name": "Tamee Smith-Zimmerman", "thumbnailImg": "https://d2a5cgar23scu2.cloudfront.net/static/images/redesign/actor.default.tmb.gif"}, {"url": "/celebrity/robert_rodriguez/", "name": "Robert Rodriguez", "thumbnailImg": "https://resizing.flixster.com/O2yWAjnDIhC-iIEqru71eLi8ZGg=/80x80/v1.cjs0MDY3MTtqOzE4ODAxOzIwNDg7Mjc1OzIzMA"}], "castItems": [{"person": {"url": "/celebrity/antonio_banderas/", "name": "Antonio Banderas", "thumbnailImg": "https://resizing.flixster.com/F2Jl1PQHbPzeoAppBuXBsH4-vzA=/80x80/v1.cjs0MDMxODtqOzE4ODA4OzIwNDg7Mjc1OzIzMA"}, "characters": [{"name": "Gregorio Cortez"}]}, {"person": {"url": "/celebrity/carla_gugino/", "name": "Carla Gugino", "thumbnailImg": "https://resizing.flixster.com/rqxHoQRv7wdYMmkDSHUnHkJfuiQ=/80x80/v1.cjs0NTg0MTtqOzE4Nzk2OzIwNDg7Mzk1OzM1Mg"}, "characters": [{"name": "Ingrid Cortez"}]}, {"person": {"url": "/celebrity/alexa_vega/", "name": "Alexa PenaVega", "thumbnailImg": "https://resizing.flixster.com/fij-fopgs4LAEQLL5bbVRdttqYg=/80x80/v1.cDsxMzg1ODA5NztqOzE4ODIyOzIwNDg7NTkwOzc5OQ"}, "characters": [{"name": "Carmen Cortez"}]}, {"person": {"url": "/celebrity/daryl_sabara/", "name": "Daryl Sabara", "thumbnailImg": "https://resizing.flixster.com/M5IpVgSk8kaOnY2lWAGptn5FZ_w=/80x80/v1.cDs2Nzg0MDQ0O2o7MTg4Njc7MjA0ODsyNjE7NDAw"}, "characters": [{"name": "Juni Cortez"}]}, {"person": {"url": "/celebrity/alan_cumming/", "name": "Alan Cumming", "thumbnailImg": "https://resizing.flixster.com/DbNHZ-rQb49wHnH4HJiClQTczww=/80x80/v1.cjs0OTA1NTtqOzE4NzcwOzIwNDg7MTgyMTsxOTgz"}, "characters": [{"name": "Fegan Floop"}]}, {"person": {"url": "/celebrity/tony_shalhoub/", "name": "Tony Shalhoub", "thumbnailImg": "https://resizing.flixster.com/vbB-CgJIQ03WTddVEdvr7BeHzJ8=/80x80/v1.cjs0OTQzODtqOzE4NzkzOzIwNDg7MjA2MjszMDAw"}, "characters": [{"name": "Alexander Minion"}]}, {"person": {"url": "/celebrity/teri_hatcher/", "name": "Teri Hatcher", "thumbnailImg": "https://resizing.flixster.com/uqIPJJPXsuThUWLwerzei2_25ow=/80x80/v1.cjs0MDM3OTtqOzE4Nzc5OzIwNDg7Mjc1OzIzMA"}, "characters": [{"name": "Ms. Gradenko"}]}, {"person": {"url": "/celebrity/cheech_marin/", "name": "Cheech Marin", "thumbnailImg": "https://resizing.flixster.com/AH2p3B6svyPAjKx70ARv_nlQoQE=/80x80/v1.cjs0MDQwOTtqOzE4ODA5OzIwNDg7Mjc1OzIzMA"}, "characters": [{"name": "Felix Gumm"}]}, {"person": {"url": "/celebrity/robert_patrick/", "name": "Robert Patrick", "thumbnailImg": "https://resizing.flixster.com/hPglaIW0Euaey2ftqpQMpF2DZ2o=/80x80/v1.cjs0MDQzNDtqOzE4Nzg5OzIwNDg7Mjc1OzIzMA"}, "characters": [{"name": "Mr. Lisp"}]}, {"person": {"url": "/celebrity/danny_trejo/", "name": "Danny Trejo", "thumbnailImg": "https://resizing.flixster.com/f4OH6YvIZQjb2gVaDC7AURrRL8E=/80x80/v1.cjs0MzA5MjtqOzE4NzkyOzIwNDg7NDU3OzQwNw"}, "characters": [{"name": "Uncle Machete"}]}, {"person": {"url": "/celebrity/tom_savini/", "name": "Tom Savini", "thumbnailImg": "https://resizing.flixster.com/-kqm72KL8Gw3Fy7FymGn5phA2kU=/80x80/v1.cDsxMzU4MTg5MjtqOzE4ODI0OzIwNDg7NjcwOzQwNA"}}, {"person": {"url": "/celebrity/george_clooney/", "name": "George Clooney", "thumbnailImg": "https://resizing.flixster.com/8_aw5466b4GXgKi4VjseICtDVdQ=/80x80/v1.cjs0MDM0MjtqOzE4Nzg3OzIwNDg7Mjc1OzIzMA"}, "characters": [{"name": "Devlin"}]}, {"person": {"url": "/celebrity/mike_judge/", "name": "Mike Judge", "thumbnailImg": "https://resizing.flixster.com/KgF01S-MBfOzbex3vuqNtpsh5BM=/80x80/v1.cDsxMTExNTM0MTtqOzE4ODc0OzIwNDg7MzUwOzI2Mw"}, "characters": [{"name": "Donnagon/Donnamight"}]}, {"person": {"url": "/celebrity/richard_linklater/", "name": "Richard Linklater", "thumbnailImg": "https://resizing.flixster.com/aAN42s-ryRtyQ-1oTsb7W9EIq4c=/80x80/v1.cjs0OTIyNjtwOzE4ODA2OzIwNDg7MTMxODsxNTEw"}, "characters": [{"name": "Cool Spy"}]}, {"person": {"url": "/celebrity/guillermo_navarro/", "name": "Guillermo Navarro", "thumbnailImg": "https://d2a5cgar23scu2.cloudfront.net/static/images/redesign/actor.default.tmb.gif"}, "characters": [{"name": "Pastor"}]}, {"person": {"url": "/celebrity/johnny_reno/", "name": "Johnny Reno", "thumbnailImg": "https://d2a5cgar23scu2.cloudfront.net/static/images/redesign/actor.default.tmb.gif"}, "characters": [{"name": "Agent Johnny"}]}, {"person": {"url": "/celebrity/shannon_shea/", "name": "Shannon Shea", "thumbnailImg": "https://d2a5cgar23scu2.cloudfront.net/static/images/redesign/actor.default.tmb.gif"}, "characters": [{"name": "FoOglie No.1/Flower"}]}, {"person": {"url": "/celebrity/norman_cabrera/", "name": "Norman Cabrera", "thumbnailImg": "https://d2a5cgar23scu2.cloudfront.net/static/images/redesign/actor.default.tmb.gif"}, "characters": [{"name": "FoOglie No.2/Tall & Skinny"}]}, {"person": {"url": "/celebrity/trant_batey/", "name": "Trant Batey", "thumbnailImg": "https://d2a5cgar23scu2.cloudfront.net/static/images/redesign/actor.default.tmb.gif"}, "characters": [{"name": "FoOglie No.3/Too Too"}]}, {"person": {"url": "/celebrity/andy_w_bossley/", "name": "Andy W. Bossley", "thumbnailImg": "https://d2a5cgar23scu2.cloudfront.net/static/images/redesign/actor.default.tmb.gif"}, "characters": [{"name": "Brat"}]}, {"person": {"url": "/celebrity/jeff_dashnaw/", "name": "Jeff Dashnaw", "thumbnailImg": "https://d2a5cgar23scu2.cloudfront.net/static/images/redesign/actor.default.tmb.gif"}, "characters": [{"name": "Brat's Dad"}]}, {"person": {"url": "/celebrity/evan_sabba/", "name": "Evan Sabba", "thumbnailImg": "https://d2a5cgar23scu2.cloudfront.net/static/images/redesign/actor.default.tmb.gif"}, "characters": [{"name": "\"Intruder\" Spy Kid"}]}, {"person": {"url": "/celebrity/kara_slack/", "name": "Kara Slack", "thumbnailImg": "https://d2a5cgar23scu2.cloudfront.net/static/images/redesign/actor.default.tmb.gif"}, "characters": [{"name": "Carmen's Friend"}]}, {"person": {"url": "/celebrity/ermahn_ospina/", "name": "Ermahn Ospina", "thumbnailImg": "https://d2a5cgar23scu2.cloudfront.net/static/images/redesign/actor.default.tmb.gif"}, "characters": [{"name": "Cab Driver"}]}, {"person": {"url": "/celebrity/emilio_navarro_mackissack/", "name": "Emilio Navarro Mackissack", "thumbnailImg": "https://d2a5cgar23scu2.cloudfront.net/static/images/redesign/actor.default.tmb.gif"}, "characters": [{"name": "Excited Kid at Playground"}]}, {"person": {"url": "/celebrity/evan_sabara/", "name": "Evan Sabara", "thumbnailImg": "https://d2a5cgar23scu2.cloudfront.net/static/images/redesign/actor.default.tmb.gif"}, "characters": [{"name": "`Intruder' Spy Kid"}]}, {"person": {"url": "/celebrity/rachel_duhame/", "name": "Rachel Duhame", "thumbnailImg": "https://d2a5cgar23scu2.cloudfront.net/static/images/redesign/actor.default.tmb.gif"}, "characters": [{"name": "President's Robot Daughter"}]}, {"person": {"url": "/celebrity/houston_hooker/", "name": "Houston Hooker", "thumbnailImg": "https://d2a5cgar23scu2.cloudfront.net/static/images/redesign/actor.default.tmb.gif"}, "characters": [{"name": "Lisp's Robot Son"}]}, {"person": {"url": "/celebrity/louis_black/", "name": "Louis Black", "thumbnailImg": "https://d2a5cgar23scu2.cloudfront.net/static/images/redesign/actor.default.tmb.gif"}, "characters": [{"name": "Financier"}]}, {"person": {"url": "/celebrity/charles_ramirez_berg/", "name": "Charles Ramirez-Berg", "thumbnailImg": "https://d2a5cgar23scu2.cloudfront.net/static/images/redesign/actor.default.tmb.gif"}, "characters": [{"name": "Financier"}]}, {"person": {"url": "/celebrity/dick_clark/", "name": "Dick Clark", "thumbnailImg": "https://resizing.flixster.com/tSesUxM6qsHyPE_TnUABMvdoZpk=/80x80/v1.cjsxNTcwO2o7MTg4MDU7MjA0ODs2NTI7NDA3"}, "characters": [{"name": "Financier"}]}, {"person": {"url": "/celebrity/steve_havens/", "name": "Steve Havens", "thumbnailImg": "https://d2a5cgar23scu2.cloudfront.net/static/images/redesign/actor.default.tmb.gif"}, "characters": [{"name": "Financier"}]}, {"person": {"url": "/celebrity/roberto_santibanez/", "name": "Roberto Santibanez", "thumbnailImg": "https://d2a5cgar23scu2.cloudfront.net/static/images/redesign/actor.default.tmb.gif"}, "characters": [{"name": "Financier"}]}, {"person": {"url": "/celebrity/julio_villareal/", "name": "Julio Villareal", "thumbnailImg": "https://d2a5cgar23scu2.cloudfront.net/static/images/redesign/actor.default.tmb.gif"}, "characters": [{"name": "Spy Driver"}]}, {"person": {"url": "/celebrity/becca_rodriguez/", "name": "Becca Rodriguez", "thumbnailImg": "https://d2a5cgar23scu2.cloudfront.net/static/images/redesign/actor.default.tmb.gif"}, "characters": [{"name": "Spy Bridesmaid"}]}, {"person": {"url": "/celebrity/patricia_vonne/", "name": "Patricia Vonne", "thumbnailImg": "https://resizing.flixster.com/YvEnCiWVtYp3fc3tJ4vgz2v8FLU=/80x80/v1.cDsxMzYxNzAwMztqOzE4NzkwOzIwNDg7OTY7OTY"}, "characters": [{"name": "Spy Bridesmaid"}]}, {"person": {"url": "/celebrity/angela_lanza/", "name": "Angela Lanza", "thumbnailImg": "https://d2a5cgar23scu2.cloudfront.net/static/images/redesign/actor.default.tmb.gif"}, "characters": [{"name": "Newscaster"}]}, {"person": {"url": "/celebrity/julio_villarreal/", "name": "Julio Villarreal", "thumbnailImg": "https://resizing.flixster.com/airjkts5LEu6P2GLmgnI8QcAdJo=/80x80/v1.cDsxMjkzNjgxOTtqOzE4ODE4OzIwNDg7NTAwOzM3Mw"}, "characters": [{"name": "Spy Driver"}]}]}, "title": "Spy Kids", "adjustedScore": 96.93987248954136, "ratings": {"critics_rating": "Certified Fresh", "audience_score": 46, "dvdReleaseDate": 1000796400000, "critics_score": 93, "theaterReleaseDate": 985939200000, "audience_rating": "Spilled"}, "videoClips": {"mainTrailer": {"hlsUrl": "http://video.internetvideoarchive.net/video.m3u8?cmd=6&publishedid=829419&customerid=300120&e=1619087113592&sub=RTO&fmt=11&h=8aff51751d9e6ca7b2a632294622f8b0", "seconds": 10, "minutes": 2, "id": 11185641, "title": "Spy Kids", "thumbUrl": "http://content.internetvideoarchive.com/content/photos/9514/735537_015.jpg", "mp4Url": "http://video.internetvideoarchive.net/video.mp4?cmd=6&publishedid=829419&customerid=300120&e=1619087113592&sub=RTO&fmt=4&videokbrate=750&h=1fc4b2c96b5d10b89ed8f156d2aa4c81"}, "size": 1, "videoClips": [{"hlsUrl": "http://video.internetvideoarchive.net/video.m3u8?cmd=6&publishedid=829419&customerid=300120&e=1619087113592&sub=RTO&fmt=11&h=8aff51751d9e6ca7b2a632294622f8b0", "seconds": 10, "minutes": 2, "id": 11185641, "title": "Spy Kids", "thumbUrl": "http://content.internetvideoarchive.com/content/photos/9514/735537_015.jpg", "mp4Url": "http://video.internetvideoarchive.net/video.mp4?cmd=6&publishedid=829419&customerid=300120&e=1619087113592&sub=RTO&fmt=4&videokbrate=750&h=1fc4b2c96b5d10b89ed8f156d2aa4c81"}]}, "isUpcoming": false, "posters": {"original": "https://resizing.flixster.com/hYjmbrHu8SakbIQoW_GKHsKUC3w=/1500x2000/v1.bTsxMTIwNDE3MztqOzE4ODc3OzIwNDg7MTUwMDsyMDAw", "detailed": "https://resizing.flixster.com/CNnYkH7pTmOtM5crbpuogPNgXLY=/180x240/v1.bTsxMTIwNDE3MztqOzE4ODc3OzIwNDg7MTUwMDsyMDAw", "profile": "https://resizing.flixster.com/0No-egha2dkOJvnMRWqb2EEfVzY=/120x160/v1.bTsxMTIwNDE3MztqOzE4ODc3OzIwNDg7MTUwMDsyMDAw", "thumbnail": "https://resizing.flixster.com/cpnPYZwhurc_tArbA-2Yeu01B3A=/54x72/v1.bTsxMTIwNDE3MztqOzE4ODc3OzIwNDg7MTUwMDsyMDAw"}, "isLimited": false, "mainTrailer": {"thumbUrl": "https://content.internetvideoarchive.com/content/photos/9514/735537_015.jpg", "hlsUrl": "http://video.internetvideoarchive.net/video.m3u8?cmd=6&publishedid=829419&customerid=300120&e=1619087113104&sub=RTO&fmt=11&h=885ab7e553b29d7dc752f6a5ad23757b", "id": 11185641, "mp4Url": "http://video.internetvideoarchive.net/video.mp4?cmd=6&publishedid=829419&customerid=300120&e=1619087113104&sub=RTO&fmt=4&videokbrate=750&h=4f6559711b9b3fd4b7d7ed3d8fe48c33"}, "advisory": "for action sequences and brief language", "id": 10344}