{"url": "/m/summer_hours/", "isOnOpening": false, "boxoffice": "$1.6M", "genreSet": [{"displayName": "Drama", "id": 9}, {"displayName": "Kids & Family", "id": 11}, {"displayName": "Art House & International", "id": 4}], "officialUrl": "http://www.lheuredete-film.mk2.com/", "isInTheaters": false, "synopsis": "Three siblings must come to terms with their mother's mortality as they decide what to do with her valuable belongings in this warm family drama from filmmaker Olivier Assayas. H\u00e9l\u00e8ne Berthier (Edith Scob) is about to turn 75, and her children are gathering at her home in the country for a party. Adrienne (Juliette Binoche) has flown in from New York City, where she lives with her boyfriend, James (Kyle Eastwood). J\u00e9r\u00e9mie (J\u00e9r\u00e9mie Renier) has taken a rare break from his globe-trotting business interests to stop by with his wife (Val\u00e9rie Bonneton). And Fr\u00e9d\u00e9ric (Charles Berling), the only one who lives close enough to visit regularly, has also come with his spouse, Lisa (Dominique Reymond). H\u00e9l\u00e8ne has inherited a large and valuable collection of art from her brother, and with her health beginning to fail, she approaches Fr\u00e9d\u00e9ric and asks that he, J\u00e9r\u00e9mie, and Adrienne come up with a plan to deal with the pieces after her death. Fr\u00e9d\u00e9ric wants to keep the collection together and see if they can persuade a gallery to purchase and present them as a set. J\u00e9r\u00e9mie and Adrienne have other ideas, but as he's pondering a business opportunity in China and she's planning on settling in America for good, they don't have as much influence over the final decision as Fr\u00e9d\u00e9ric. L'Heure d'\u00c9t\u00e9 (aka Summer Hours) was produced in part by the celebrated French art gallery Mus\u00e9e d'Orsay, and was one of a handful of films created to honor the museum in its 20th anniversary year.", "links": {"alternate": "//www.rottentomatoes.com/m/summer_hours/"}, "runningTime": 102, "year": 2009, "trackingType": "DvdOther", "status": "Live", "isPlaying": false, "isOnDVD": true, "runningTimeStr": "1 hr. 42 min.", "ratingSummary": {"topcount": 43, "consensus": "Olivier Assayas' contemplative family drama handles lofty ideas about art and culture with elegance and lightness.", "topCritics": {"hasScore": true, "numReviews": 43, "meterClass": "certified", "numRotten": 1, "numFresh": 42, "hasReviews": true, "meterValue": 98, "averageRating": 8.019762}, "audience": {"meterScore": 69, "averageScore": 3.3492722511291504, "numTotal": 19199, "ratingType": "viewed"}, "allcount": 107, "rottencount": 6, "dvdcount": 4, "allCritics": {"hasScore": true, "numReviews": 106, "meterClass": "certified", "numRotten": 6, "numFresh": 100, "hasReviews": true, "meterValue": 94, "averageRating": 7.77}, "freshcount": 100}, "mpaaRating": "Unrated", "vanity": "summer_hours", "studio": "IFC Films", "purchaseOptions": {"amazon": {"url": "http://www.amazon.com/gp/product/B00590J41C/ref=atv_feed_catalog?tag=rottetomao_aiv_mv-20", "isPrime": false, "type": "buy"}, "netflix": {"streamingId": "70095141"}, "iTunes": {"url": "https://itunes.apple.com/movie/summer-hours/id372312429?uo=5", "price": "9.99"}}, "reviews": {"total": 107, "links": {"alternate": "//www.rottentomatoes.com/m/summer_hours/#reviews", "self": "api.flixster.com/movies/lheure-dete/reviews.json?review_type=mob&country=us&page=1", "prev": "api.flixster.com/movies/lheure-dete/reviews.json?review_type=mob&country=us&page=0", "next": "api.flixster.com/movies/lheure-dete/reviews.json?review_type=mob&country=us&page=2"}, "reviews": [{"isRotten": false, "url": "http://www.filmcomment.com/article/summer-hours-review", "publication": {"url": "", "name": "Film Comment Magazine"}, "isTop": true, "creationDate": 1384733283000, "isFresh": true, "freshness": "fresh", "critic": {"url": "/critic/frederic-bonnaud", "name": "Fr\u00e9d\u00e9ric Bonnaud", "id": 15707, "thumbnailImage": "https://d2a5cgar23scu2.cloudfront.net/static/images/redesign/user.none.tmb.jpg"}, "quote": "( ... ) Summer Hours is Assayas's best film set on home turf-the one that best puts things in perspective and loudly proclaims that one must know how to shed dead skin to go on living.", "id": 2175128, "links": {"review": "http://www.filmcomment.com/article/summer-hours-review"}}, {"isRotten": false, "url": "http://www.variety.com/review/VE1117936554.html?categoryid=31&cs=1", "publication": {"url": "", "name": "Variety"}, "isTop": true, "creationDate": 1261009647000, "isFresh": true, "freshness": "fresh", "critic": {"url": "/critic/derek-elley", "name": "Derek Elley", "id": 3087, "thumbnailImage": "https://resizing.flixster.com/G-pbyJUn0uCTTom1Q5FNSFvNXbo=/72x72/v1.YzsxNTE0O2o7MTg3OTQ7MjA0ODszODs0MQ"}, "quote": "Assayas' script is more allusive than demonstrative, with a distinct whiff of Eric Rohmer in its conversational blocks separated by fadeouts.", "id": 1861000, "links": {"review": "http://www.variety.com/review/VE1117936554.html?categoryid=31&cs=1"}}, {"isRotten": false, "url": "http://web.mac.com/moviecritic1/Site/Summer_Hours.html", "publication": {"url": "", "name": "Film.com"}, "isTop": true, "creationDate": 1251045457000, "isFresh": true, "freshness": "fresh", "critic": {"url": "/critic/jonathan-f-richards", "name": "Jonathan F. Richards", "id": 2779, "thumbnailImage": "https://resizing.flixster.com/3d0ui7UamYjYNFtFf405Abo0owo=/72x72/v1.YzsxNTEwO2o7MTg3OTA7MjA0ODszODs0OA"}, "quote": "n Summer Hours, Olivier Assayas's gently provocative rumination on family and possessions, a trio of siblings wrestles with the problem of what to do with the old homestead once Mother is gone.", "id": 1839988, "links": {"review": "http://web.mac.com/moviecritic1/Site/Summer_Hours.html"}}, {"isRotten": false, "isFresh": true, "publication": {"url": "", "name": "Hollywood Reporter"}, "isTop": true, "creationDate": 1245434533000, "freshness": "fresh", "critic": {"url": "/critic/ray-bennett", "name": "Ray Bennett", "id": 8732, "thumbnailImage": "https://d2a5cgar23scu2.cloudfront.net/static/images/redesign/user.none.tmb.jpg"}, "quote": "Evocative look at a family trying to decide what to do with its treasures.", "id": 1828279, "links": {}}, {"isRotten": false, "url": "http://www.theglobeandmail.com/news/arts/summer-hours/article1187304/", "creationDate": 1245434374000, "isFresh": true, "id": 1828277, "quote": "Where a Hollywood film of a family feuding over a fabulous estate would surely end with a slapped face and an infantry charge of lawyers, Assayas's work concludes with a smile and a shrug. Life goes on. What else can it do?", "links": {"review": "http://www.theglobeandmail.com/news/arts/summer-hours/article1187304/"}, "publication": {"url": "", "name": "Globe and Mail"}, "isTop": true, "freshness": "fresh", "critic": {"url": "/critic/stephen-cole", "name": "Stephen Cole", "id": 472, "thumbnailImage": "https://d2a5cgar23scu2.cloudfront.net/static/images/redesign/user.none.tmb.jpg"}, "original_score": "4/4"}, {"isRotten": false, "url": "http://www.thestar.com/entertainment/article/653327", "creationDate": 1245427972000, "isFresh": true, "id": 1828226, "quote": "Performances in this small and profoundly eloquent film are superb, yet none redirects attention from Assayas's earnest meditation on the ravaging effects of a shrinking world on family traditions and entrenched personal relationships.", "links": {"review": "http://www.thestar.com/entertainment/article/653327"}, "publication": {"url": "", "name": "Toronto Star"}, "isTop": true, "freshness": "fresh", "critic": {"url": "/critic/greg-quill", "name": "Greg Quill", "id": 13273, "thumbnailImage": "https://d2a5cgar23scu2.cloudfront.net/static/images/redesign/user.none.tmb.jpg"}, "original_score": "3.5/4"}, {"isRotten": false, "url": "http://www.fromthefrontrow.net/2009/06/review-summer-hours.html", "creationDate": 1559853174000, "isFresh": true, "id": 2594741, "quote": "A profound and affecting film that is both inspiring and unforgettable.", "links": {"review": "http://www.fromthefrontrow.net/2009/06/review-summer-hours.html"}, "publication": {"url": "", "name": "From the Front Row"}, "isTop": false, "freshness": "fresh", "critic": {"url": "/critic/matthew-lucas", "name": "Matthew Lucas", "id": 25079, "thumbnailImage": "https://resizing.flixster.com/hC9DIwh8TBZinZWNombChPlC53Y=/72x72/v1.YzszMzgzO2o7MTg3NzM7MjA0ODszMDA7MzAw"}, "original_score": "3.5/4"}, {"isRotten": false, "url": "http://www.patheos.com/blogs/evetushnet/2018/08/and-all-her-paths-are-peace-short-movie-reviews.html", "publication": {"url": "", "name": "Patheos"}, "isTop": false, "creationDate": 1536277690000, "isFresh": true, "freshness": "fresh", "critic": {"url": "/critic/eve-tushnet", "name": "Eve Tushnet", "id": 22507, "thumbnailImage": "https://d2a5cgar23scu2.cloudfront.net/static/images/redesign/user.none.tmb.jpg"}, "quote": "I love films which capture that atmosphere of late summer, lazy and sultry and shadowed by the coming autumn. So I found this very moving.", "id": 2507774, "links": {"review": "http://www.patheos.com/blogs/evetushnet/2018/08/and-all-her-paths-are-peace-short-movie-reviews.html"}}, {"isRotten": false, "url": "http://cinema-scope.com/cinema-scope-magazine/l%E2%80%99heure-d%E2%80%99ete-olivier-assayas-france/", "publication": {"url": "", "name": "Cinema Scope"}, "isTop": false, "creationDate": 1507679261000, "isFresh": true, "freshness": "fresh", "critic": {"url": "/critic/jay-kuehner", "name": "Jay Kuehner", "id": 13754, "thumbnailImage": "https://d2a5cgar23scu2.cloudfront.net/static/images/redesign/user.none.tmb.jpg"}, "quote": "In crafting his own objet d'art, Assayas has paid careful consideration to the fine aesthetic practiced in Taiwan, particularly that of Hou Hsiao-hsie.", "id": 2425898, "links": {"review": "http://cinema-scope.com/cinema-scope-magazine/l%E2%80%99heure-d%E2%80%99ete-olivier-assayas-france/"}}, {"isRotten": false, "url": "http://stopsmilingonline.com/story_detail.php?id=1160", "publication": {"url": "", "name": "Stop Smiling"}, "isTop": false, "creationDate": 1503532758000, "isFresh": true, "freshness": "fresh", "critic": {"url": "/critic/eric-hynes", "name": "Eric Hynes", "id": 13723, "thumbnailImage": "https://d2a5cgar23scu2.cloudfront.net/static/images/redesign/user.none.tmb.jpg"}, "quote": "Avoiding easy conflict and histrionics, Summer Hours instead shows loving siblings, relatives and friends negotiating differences the best that they can. ", "id": 2413014, "links": {"review": "http://stopsmilingonline.com/story_detail.php?id=1160"}}, {"isRotten": false, "isFresh": true, "publication": {"url": "", "name": "The Nation"}, "isTop": false, "creationDate": 1426621588000, "freshness": "fresh", "critic": {"url": "/critic/stuart-klawans", "name": "Stuart Klawans", "id": 354, "thumbnailImage": "https://d2a5cgar23scu2.cloudfront.net/static/images/redesign/user.none.tmb.jpg"}, "quote": "Olivier Assayas's new meditation on French domestic life, the wisely ironic Summer Hours, begins with children's games and ends with adolescent partying and pairing off -- that is, the real business of life", "id": 2251953, "links": {}}, {"isRotten": false, "url": "http://www.eastbayexpress.com/ebx/looking-for-mr-goodbot/Content?oid=1369834", "publication": {"url": "", "name": "East Bay Express"}, "isTop": false, "creationDate": 1314393650000, "isFresh": true, "freshness": "fresh", "critic": {"url": "/critic/kelly-vance", "name": "Kelly Vance", "id": 9851, "thumbnailImage": "https://resizing.flixster.com/SDjwbvYucRJWE95k7sQywsTS-Iw=/72x72/v1.YzsxNzY0O2c7MTg3NzQ7MjA0ODszODs0Mg"}, "quote": "Has the feel, if not the look, of an old man's film, a meditation on the passing of time.", "id": 2006024, "links": {"review": "http://www.eastbayexpress.com/ebx/looking-for-mr-goodbot/Content?oid=1369834"}}]}, "casts": {"screenwriters": [{"url": "/celebrity/olivier_assaya/", "name": "Olivier Assayas", "thumbnailImg": "https://resizing.flixster.com/BhZUagMToFEwafkjOpV4NbowwWs=/80x80/v1.cDs5NjE0MTAyO2o7MTg4MTg7MjA0ODsxNTA7MTgw"}], "directors": [{"url": "/celebrity/olivier_assaya/", "name": "Olivier Assayas", "thumbnailImg": "https://resizing.flixster.com/BhZUagMToFEwafkjOpV4NbowwWs=/80x80/v1.cDs5NjE0MTAyO2o7MTg4MTg7MjA0ODsxNTA7MTgw"}], "creators": [], "producers": [{"url": "/celebrity/charles_gillibert/", "name": "Charles Gillibert", "thumbnailImg": "https://d2a5cgar23scu2.cloudfront.net/static/images/redesign/actor.default.tmb.gif"}, {"url": "/celebrity/nathanael-karmitz/", "name": "Nathana\u00ebl Karmitz", "thumbnailImg": "https://d2a5cgar23scu2.cloudfront.net/static/images/redesign/actor.default.tmb.gif"}, {"url": "/celebrity/marin_karmitz/", "name": "Marin Karmitz", "thumbnailImg": "https://d2a5cgar23scu2.cloudfront.net/static/images/redesign/actor.default.tmb.gif"}], "castItems": [{"person": {"url": "/celebrity/charles_berling/", "name": "Charles Berling", "thumbnailImg": "https://resizing.flixster.com/kKw1-zcJ4CGZzBZ6L70rAO3o28I=/80x80/v1.cDsxMTA3MTA5NDtqOzE4ODYyOzIwNDg7NDYzOzMwOQ"}, "characters": [{"name": "Frederic"}]}, {"person": {"url": "/celebrity/juliette_binoche/", "name": "Juliette Binoche", "thumbnailImg": "https://resizing.flixster.com/Lz_hTv-m7LfO-jCveJJ7zjdK6s4=/80x80/v1.cjszNDU1NjtqOzE4ODA2OzIwNDg7NDM2OzY1Mg"}, "characters": [{"name": "Adrienne"}]}, {"person": {"url": "/celebrity/jeremie-renier/", "name": "J\u00e9r\u00e9mie Renier", "thumbnailImg": "https://resizing.flixster.com/hNO1t20gPFMYArurijCbaGDWL3U=/80x80/v1.cDsxMzcyOTQ5NztqOzE4ODMwOzIwNDg7NDAwOzQ0Ng"}, "characters": [{"name": "J\u00e9r\u00e9mie"}]}, {"person": {"url": "/celebrity/dominique_reymond/", "name": "Dominique Reymond", "thumbnailImg": "https://resizing.flixster.com/N4kInoTi04pXACObjNkYIRcNprU=/80x80/v1.cDsxMTA3MTE5ODtqOzE4ODc2OzIwNDg7MjI0OzMwMA"}, "characters": [{"name": "Lisa"}]}, {"person": {"url": "/celebrity/edith_scob/", "name": "Edith Scob", "thumbnailImg": "https://resizing.flixster.com/NsOMBR4Sz_y4uLrHsCDROmkg_0Q=/80x80/v1.cDsxMTc3MTkwMjtqOzE4ODAzOzIwNDg7NDIwOzQ1OA"}, "characters": [{"name": "H\u00e9l\u00e8ne"}]}, {"person": {"url": "/celebrity/valerie_bonneton/", "name": "Val\u00e9rie Bonneton", "thumbnailImg": "https://resizing.flixster.com/Qx37AVoJZLPWYMm0kAAXIG_mBpk=/80x80/v1.cDsxMDExNTcyMTtqOzE4ODI4OzIwNDg7MTIwOzE4MA"}, "characters": [{"name": "Angela"}]}, {"person": {"url": "/celebrity/isabelle_sadoyan/", "name": "Isabelle Sadoyan", "thumbnailImg": "https://d2a5cgar23scu2.cloudfront.net/static/images/redesign/actor.default.tmb.gif"}, "characters": [{"name": "Eloise"}]}, {"person": {"url": "/celebrity/kyle_eastwood/", "name": "Kyle Eastwood", "thumbnailImg": "https://resizing.flixster.com/oMjMffE7-lIYjT4xo8-zf0S_GdQ=/80x80/v1.cjs0MTI2MDtqOzE4ODA1OzIwNDg7NDAwOzYwMA"}, "characters": [{"name": "James"}]}, {"person": {"url": "/celebrity/alice_de_lencquesaing/", "name": "Alice de Lencquesaing", "thumbnailImg": "https://d2a5cgar23scu2.cloudfront.net/static/images/redesign/actor.default.tmb.gif"}, "characters": [{"name": "Sylvie"}]}, {"person": {"url": "/celebrity/emile_berling/", "name": "Emile Berling", "thumbnailImg": "https://resizing.flixster.com/jukyPXuRZqe54cfSoDHpqHTBokE=/80x80/v1.cDsxMTEyNDE5NjtqOzE4ODY0OzIwNDg7NDM0OzI4OQ"}, "characters": [{"name": "Pierre"}]}, {"person": {"url": "/celebrity/jean_baptiste_malartre/", "name": "Jean-Baptiste Malartre", "thumbnailImg": "https://d2a5cgar23scu2.cloudfront.net/static/images/redesign/actor.default.tmb.gif"}, "characters": [{"name": "Michel Waldemar"}]}, {"person": {"url": "/celebrity/gilles_arbona/", "name": "Gilles Arbona", "thumbnailImg": "https://d2a5cgar23scu2.cloudfront.net/static/images/redesign/actor.default.tmb.gif"}, "characters": [{"name": "Ma\u00eetre Lambert"}]}, {"person": {"url": "/celebrity/max_ricat/", "name": "Max Ricat", "thumbnailImg": "https://d2a5cgar23scu2.cloudfront.net/static/images/redesign/actor.default.tmb.gif"}, "characters": [{"name": "Max"}]}, {"person": {"url": "/celebrity/eric-elmosnino/", "name": "Eric Elmosnino", "thumbnailImg": "https://d2a5cgar23scu2.cloudfront.net/static/images/redesign/actor.default.tmb.gif"}}, {"person": {"url": "/celebrity/marc_voinchet/", "name": "Marc Voinchet", "thumbnailImg": "https://d2a5cgar23scu2.cloudfront.net/static/images/redesign/actor.default.tmb.gif"}}, {"person": {"url": "/celebrity/sara_martins/", "name": "Sara Martins", "thumbnailImg": "https://d2a5cgar23scu2.cloudfront.net/static/images/redesign/actor.default.tmb.gif"}}]}, "title": "L'Heure d'\u00e9t\u00e9 (Summer Hours)", "adjustedScore": 96.91028478677882, "ratings": {"critics_rating": "Certified Fresh", "audience_score": 69, "dvdReleaseDate": 1271746800000, "critics_score": 94, "theaterReleaseDate": 1242370800000, "audience_rating": "Upright"}, "videoClips": {"mainTrailer": {"hlsUrl": "http://video.internetvideoarchive.net/video.m3u8?cmd=6&publishedid=747328&customerid=300120&e=1619087116828&sub=RTO&fmt=11&h=6ef0dc058017324d84ddd8d918ce5c2a", "seconds": 11, "minutes": 2, "id": 11007803, "title": "Summer Hours", "thumbUrl": "http://content.internetvideoarchive.com/content/photos/5602/747328_059.jpg", "mp4Url": "http://video.internetvideoarchive.net/video.mp4?cmd=6&publishedid=747328&customerid=300120&e=1619087116828&sub=RTO&fmt=4&videokbrate=750&h=b5a59c7cc61fa20e5bcb03b8f0e65a1b"}, "size": 1, "videoClips": [{"hlsUrl": "http://video.internetvideoarchive.net/video.m3u8?cmd=6&publishedid=747328&customerid=300120&e=1619087116828&sub=RTO&fmt=11&h=6ef0dc058017324d84ddd8d918ce5c2a", "seconds": 11, "minutes": 2, "id": 11007803, "title": "Summer Hours", "thumbUrl": "http://content.internetvideoarchive.com/content/photos/5602/747328_059.jpg", "mp4Url": "http://video.internetvideoarchive.net/video.mp4?cmd=6&publishedid=747328&customerid=300120&e=1619087116828&sub=RTO&fmt=4&videokbrate=750&h=b5a59c7cc61fa20e5bcb03b8f0e65a1b"}]}, "isUpcoming": false, "posters": {"original": "https://resizing.flixster.com/nR8ga_mxdWk0dCvNBjQmloezJwI=/450x600/v1.bTsxMTU1Mjg5ODtqOzE4ODU2OzIwNDg7NDUwOzYwMA", "detailed": "https://resizing.flixster.com/4uroSWAeNdVH77h_lCixsi4offA=/180x240/v1.bTsxMTU1Mjg5ODtqOzE4ODU2OzIwNDg7NDUwOzYwMA", "profile": "https://resizing.flixster.com/Mzq0N9dq5y9Xi7GKwKnIfBe9YF4=/120x160/v1.bTsxMTU1Mjg5ODtqOzE4ODU2OzIwNDg7NDUwOzYwMA", "thumbnail": "https://resizing.flixster.com/SBLibrFO9yxtiuvOF5Q83sWMf68=/54x72/v1.bTsxMTU1Mjg5ODtqOzE4ODU2OzIwNDg7NDUwOzYwMA"}, "isLimited": false, "mainTrailer": {"thumbUrl": "https://content.internetvideoarchive.com/content/photos/5602/747328_059.jpg", "hlsUrl": "http://video.internetvideoarchive.net/video.m3u8?cmd=6&publishedid=747328&customerid=300120&e=1619087116319&sub=RTO&fmt=11&h=08ecd1d422bd282ee0a9e8a5076ace15", "id": 11007803, "mp4Url": "http://video.internetvideoarchive.net/video.mp4?cmd=6&publishedid=747328&customerid=300120&e=1619087116319&sub=RTO&fmt=4&videokbrate=750&h=d831f2fb4b48bba64528218482fa6c83"}, "photos": {"photos": [{"url": "https://resizing.flixster.com/3rRtV5glY-hkRpq53wGRu60UIm0=/1024x768/v1.bjs5ODQ2OTtqOzE4Nzc1OzIwNDg7MjAwMDsxNTAw", "index": 0, "submittedBy": "RT Staff", "height": 768, "imageId": 98469, "thumbnail": "https://resizing.flixster.com/mdyJ-f0o-aUxkWlTBOEWvZDg0JY=/80x80/v1.bjs5ODQ2OTtqOzE4Nzc1OzIwNDg7MjAwMDsxNTAw", "submittedDate": "2014-06-30", "id": "multiuse-98469", "photoType": "movie", "width": 1024}, {"url": "https://resizing.flixster.com/y0CBu6r26S_u-IkVqAUryVE5_qQ=/1024x767/v1.bjs5ODQ3MDtqOzE4Nzc2OzIwNDg7MTIwMDs4OTk", "index": 1, "submittedBy": "RT Staff", "height": 767, "imageId": 98470, "thumbnail": "https://resizing.flixster.com/syU2I8Xfc_L6MhP4DJV47lLsSGI=/80x80/v1.bjs5ODQ3MDtqOzE4Nzc2OzIwNDg7MTIwMDs4OTk", "submittedDate": "2014-06-30", "id": "multiuse-98470", "photoType": "movie", "width": 1024}, {"url": "https://resizing.flixster.com/uiWsCeg3vRlGnsKB1bfjKdCZjLA=/1024x683/v1.bjs5ODQ3MTtqOzE4Nzc3OzIwNDg7NTkwNjszOTM4", "index": 2, "submittedBy": "RT Staff", "height": 683, "imageId": 98471, "thumbnail": "https://resizing.flixster.com/EiRVN2It3y2b074HcBMrWGZVAWU=/80x80/v1.bjs5ODQ3MTtqOzE4Nzc3OzIwNDg7NTkwNjszOTM4", "submittedDate": "2014-06-30", "id": "multiuse-98471", "photoType": "movie", "width": 1024}, {"url": "https://resizing.flixster.com/8AQbZ4zMXGHoU0aofOjpPfZdzME=/1024x768/v1.bjs5ODQ3MztqOzE4Nzc5OzIwNDg7MTIwMDs5MDA", "index": 3, "submittedBy": "RT Staff", "height": 768, "imageId": 98473, "thumbnail": "https://resizing.flixster.com/wgNO72yObkfijiyJXQoCwpDd9fo=/80x80/v1.bjs5ODQ3MztqOzE4Nzc5OzIwNDg7MTIwMDs5MDA", "submittedDate": "2014-06-30", "id": "multiuse-98473", "photoType": "movie", "width": 1024}, {"url": "https://resizing.flixster.com/66tmsuTJ0w5tfYZV3o32Q9_zNxg=/1024x768/v1.bjs5ODQ3NDtqOzE4NzgwOzIwNDg7MTIwMDs5MDA", "index": 4, "submittedBy": "RT Staff", "height": 768, "imageId": 98474, "thumbnail": "https://resizing.flixster.com/SqoJffcp4pEH-vOa87WTkDWCGq4=/80x80/v1.bjs5ODQ3NDtqOzE4NzgwOzIwNDg7MTIwMDs5MDA", "submittedDate": "2014-06-30", "id": "multiuse-98474", "photoType": "movie", "width": 1024}, {"url": "https://resizing.flixster.com/L706MjTnPtUSEy3IgdeQXey--7U=/1024x576/v1.bjsyNzE2MzcxO2o7MTg4Nzc7MjA0ODsxOTIwOzEwODA", "index": 5, "submittedBy": "RT Staff", "height": 576, "imageId": 2716371, "thumbnail": "https://resizing.flixster.com/GLx5PYgzU5vLcEtrpdgFJAHISbM=/80x80/v1.bjsyNzE2MzcxO2o7MTg4Nzc7MjA0ODsxOTIwOzEwODA", "submittedDate": "2021-04-02", "id": "multiuse-2716371", "photoType": "movie", "width": 1024}, {"url": "https://resizing.flixster.com/pma0DUXtiOCvFuTykE-C56SLBv0=/406x600/v1.aDsyNTY5NztqOzE4NzY3OzIwNDg7NDQxOzY1Mg", "index": 6, "submittedBy": "RT Staff", "height": 600, "imageId": 25697, "thumbnail": "https://resizing.flixster.com/xisxJxsaKPfrd7T4dHaQSJMVSIs=/80x80/v1.aDsyNTY5NztqOzE4NzY3OzIwNDg7NDQxOzY1Mg", "submittedDate": "2010-03-29", "id": "movie-25697", "photoType": "movie", "width": 406}, {"url": "https://resizing.flixster.com/xgLzRjToyWBZwrXSNH6562yiMyY=/600x457/v1.aDsyMzgyNztqOzE4Nzg3OzIwNDg7NjUyOzQ5Nw", "index": 7, "submittedBy": "RT Staff", "height": 457, "imageId": 23827, "thumbnail": "https://resizing.flixster.com/8JG01kcGDSzsEUH3yDcMmqz9tFs=/80x80/v1.aDsyMzgyNztqOzE4Nzg3OzIwNDg7NjUyOzQ5Nw", "submittedDate": "2010-03-29", "id": "movie-23827", "photoType": "movie", "width": 600}, {"url": "https://resizing.flixster.com/6p8TlL0GvKMOJiDdEoWr8sAaoU4=/395x600/v1.aDsyMTc5ODtqOzE4NzgzOzIwNDg7NDI5OzY1Mg", "index": 8, "submittedBy": "RT Staff", "height": 600, "imageId": 21798, "thumbnail": "https://resizing.flixster.com/SANklc8xbAu8TqJ-qdTl0bmTr1o=/80x80/v1.aDsyMTc5ODtqOzE4NzgzOzIwNDg7NDI5OzY1Mg", "submittedDate": "2010-03-29", "id": "movie-21798", "photoType": "movie", "width": 395}, {"url": "https://resizing.flixster.com/gRvddvuFbcLkFU7BmgFREvq9YWw=/600x400/v1.aDsxOTU3NztqOzE4NzY3OzIwNDg7NjUyOzQzNQ", "index": 9, "submittedBy": "RT Staff", "height": 400, "imageId": 19577, "thumbnail": "https://resizing.flixster.com/6QAp7pABbjH3YM0jIreq-Ga5hdM=/80x80/v1.aDsxOTU3NztqOzE4NzY3OzIwNDg7NjUyOzQzNQ", "submittedDate": "2010-03-29", "id": "movie-19577", "photoType": "movie", "width": 600}, {"url": "https://resizing.flixster.com/EJSuXFqLu-WFOxvd-cCvzeFouao=/600x399/v1.aDsxNzEzOTtqOzE4ODA0OzIwNDg7NjUyOzQzNA", "index": 10, "submittedBy": "RT Staff", "height": 399, "imageId": 17139, "thumbnail": "https://resizing.flixster.com/oCOcqUOFqbFc1__fNMYLkjtwY_w=/80x80/v1.aDsxNzEzOTtqOzE4ODA0OzIwNDg7NjUyOzQzNA", "submittedDate": "2010-03-29", "id": "movie-17139", "photoType": "movie", "width": 600}, {"url": "https://resizing.flixster.com/BikySFg3t99_ZnufOeBLA4nGY2o=/600x398/v1.aDsxNDQzODtqOzE4ODAzOzIwNDg7NjUyOzQzMw", "index": 11, "submittedBy": "RT Staff", "height": 398, "imageId": 14438, "thumbnail": "https://resizing.flixster.com/1eWXG6V_uG5FDPkhmoBp3JBjSLY=/80x80/v1.aDsxNDQzODtqOzE4ODAzOzIwNDg7NjUyOzQzMw", "submittedDate": "2010-03-29", "id": "movie-14438", "photoType": "movie", "width": 600}, {"url": "https://resizing.flixster.com/1_sulVLL9VJPTtlnR14FcIcXGnE=/600x400/v1.aDsxMTUwNjtqOzE4Nzk2OzIwNDg7NjUyOzQzNQ", "index": 12, "submittedBy": "RT Staff", "height": 400, "imageId": 11506, "thumbnail": "https://resizing.flixster.com/V9lC3H7uLaQKmCCVJs7xLn3Asgo=/80x80/v1.aDsxMTUwNjtqOzE4Nzk2OzIwNDg7NjUyOzQzNQ", "submittedDate": "2010-03-29", "id": "movie-11506", "photoType": "movie", "width": 600}, {"url": "https://resizing.flixster.com/hNkRjX8R7uGZlt188sczg_CEESM=/600x400/v1.aDs4NDAxO2o7MTg3OTY7MjA0ODs2NTI7NDM1", "index": 13, "submittedBy": "RT Staff", "height": 400, "imageId": 8401, "thumbnail": "https://resizing.flixster.com/g-oRPhGXrgCz-ErkyTmnNTAa--E=/80x80/v1.aDs4NDAxO2o7MTg3OTY7MjA0ODs2NTI7NDM1", "submittedDate": "2010-03-29", "id": "movie-8401", "photoType": "movie", "width": 600}, {"url": "https://resizing.flixster.com/sVhrRPnbx7SB_8hRFzGH6SIeXDw=/600x450/v1.aDs1MTY2O2o7MTg4MDE7MjA0ODs2NTI7NDg5", "index": 14, "submittedBy": "RT Staff", "height": 450, "imageId": 5166, "thumbnail": "https://resizing.flixster.com/fGJ5U-sL-WXVkV1uvM5hKqVLZqk=/80x80/v1.aDs1MTY2O2o7MTg4MDE7MjA0ODs2NTI7NDg5", "submittedDate": "2010-03-29", "id": "movie-5166", "photoType": "movie", "width": 600}, {"url": "https://resizing.flixster.com/VTQzSvc_el1aI0uogDjsPnJtfgc=/600x398/v1.aDsxNzk0O2o7MTg4MDQ7MjA0ODs2NTI7NDMy", "index": 15, "submittedBy": "RT Staff", "height": 398, "imageId": 1794, "thumbnail": "https://resizing.flixster.com/-COzJ7kxKubRuKUA8q0iEBWDUew=/80x80/v1.aDsxNzk0O2o7MTg4MDQ7MjA0ODs2NTI7NDMy", "submittedDate": "2010-03-29", "id": "movie-1794", "photoType": "movie", "width": 600}], "length": 16}, "id": 770782156}