{"url": "/m/bugs_life/", "isOnOpening": false, "genreSet": [{"displayName": "Animation", "id": 2}, {"displayName": "Kids & Family", "id": 11}, {"displayName": "Science Fiction & Fantasy", "id": 14}], "officialUrl": "http://www.abugslife.com", "isInTheaters": false, "synopsis": "John Lasseter, director of Pixar's movie phenomenon Toy Story, has set new standards in computer animation with this effort, another Disney-released children's epic entitled A Bug's Life. Blending classic Disney storytelling characters and the mysterious underground world of bugs, Lasseter has created a film that can be enjoyed by all audiences, and another franchise in the process. A Bug's Life is a computerized retelling of the Aesop fable The Ant and the Grasshopper, made as a cartoon-short by the one-and-only, Walt Disney, in the mid-'30s. However, A Bug's Life has modernized the story with many new twists and celebrity voices. The story focuses on a colony of ants who seasonally gather food for themselves and a wild gang of rowdy grasshoppers. When bumbling worker ant Flik (David Foley) destroys the food supply, the angry grasshoppers, lead by the maniacally warped Hopper (Kevin Spacey), threaten to kill the ants if they don't produce a new supply of food by the time they return -- an impossible feat. Flik leaves the anthill in search of help in the form of bigger bugs, and to wage war against the grasshoppers. What he doesn't know is he has actually discovered a group of down-on-their-luck traveling circus insects in need of a job. When the ants realize that their heroes are really circus performers (and the circus bugs realize these grasshoppers are really big and mean), the situation goes from bad to worse. Ultimately, the ants use their large numbers to overcome the grasshoppers. ~ Chris Gore, Rovi", "links": {"alternate": "//www.rottentomatoes.com/m/bugs_life/"}, "runningTime": 96, "year": 1998, "trackingType": "DvdOther", "status": "Live", "isPlaying": false, "isOnDVD": true, "runningTimeStr": "1 hr. 36 min.", "ratingSummary": {"topcount": 26, "consensus": "A Bug's Life is a rousing adventure that blends animated thrills with witty dialogue and memorable characters - and another smashing early success for Pixar.", "topCritics": {"hasScore": true, "numReviews": 26, "meterClass": "certified", "numRotten": 1, "numFresh": 25, "hasReviews": true, "meterValue": 96, "averageRating": 7.791667}, "audience": {"meterScore": 72, "averageScore": 3.2885735034942627, "numTotal": 982169, "ratingType": "viewed"}, "allcount": 88, "rottencount": 7, "dvdcount": 17, "allCritics": {"hasScore": true, "numReviews": 88, "meterClass": "certified", "numRotten": 7, "numFresh": 81, "hasReviews": true, "meterValue": 92, "averageRating": 7.87}, "freshcount": 81}, "mpaaRating": "G", "vanity": "bugs_life", "studio": "Buena Vista Pictures", "purchaseOptions": {"amazon": {"url": "http://www.amazon.com/gp/product/B0049IJPX2/ref=atv_feed_catalog?tag=rottetomao_aiv_mv-20", "isPrime": false, "type": "rent"}, "vudu": {"url": "https://www.vudu.com/content/movies/details/A-Bugs-Life/13949", "type": "buy"}, "iTunes": {"url": "https://itunes.apple.com/movie/a-bugs-life/id188837736?uo=5", "price": "19.99"}}, "reviews": {"total": 88, "links": {"alternate": "//www.rottentomatoes.com/m/bugs_life/#reviews", "self": "api.flixster.com/movies/a-bugs-life/reviews.json?review_type=mob&country=us&page=1", "prev": "api.flixster.com/movies/a-bugs-life/reviews.json?review_type=mob&country=us&page=0", "next": "api.flixster.com/movies/a-bugs-life/reviews.json?review_type=mob&country=us&page=2"}, "reviews": [{"isRotten": false, "isFresh": true, "publication": {"url": "", "name": "Entertainment Weekly"}, "isTop": true, "creationDate": 1315421206000, "freshness": "fresh", "critic": {"url": "/critic/owen-gleiberman", "name": "Owen Gleiberman", "id": 763, "thumbnailImage": "https://resizing.flixster.com/BdR6uSdr6A_wR_LG6yDw8yDUAIk=/72x72/v1.YzsyNzE4O2c7MTg3ODM7MjA0ODsxNTA7MTUw"}, "quote": "A Bug's Life may be the single most amazing film I've ever seen that I couldn't fall in love with.", "id": 2008735, "original_score": "B", "links": {}}, {"isRotten": false, "isFresh": true, "publication": {"url": "", "name": "Wall Street Journal"}, "isTop": true, "creationDate": 1309004106000, "freshness": "fresh", "critic": {"url": "/critic/joe-morgenstern", "name": "Joe Morgenstern", "id": 12088, "thumbnailImage": "https://resizing.flixster.com/bJIrcAX9fqTOFcu3mX0nvukyq8o=/72x72/v1.YzsyNjI4O2c7MTg3ODM7MjA0ODsxNTA7MTUw"}, "quote": "This animated fable teems with vivid creatures standing on their own countless feet.", "id": 1993605, "links": {}}, {"isRotten": false, "url": "http://www.commonsensemedia.org/movie-reviews/bugs-life ", "creationDate": 1292994741000, "isFresh": true, "id": 1947754, "quote": "Cute animated tale with some mild peril and scary bugs.", "links": {"review": "http://www.commonsensemedia.org/movie-reviews/bugs-life "}, "publication": {"url": "", "name": "Common Sense Media"}, "isTop": true, "freshness": "fresh", "critic": {"url": "/critic/nell-minow", "name": "Nell Minow", "id": 13, "thumbnailImage": "https://resizing.flixster.com/0Yu3ChYD_PlERNzLAMX6a0J1DOo=/72x72/v1.YzsxNTc5O2c7MTg3Njk7MjA0ODszODs0OA"}, "original_score": "5/5"}, {"isRotten": false, "isFresh": true, "publication": {"url": "", "name": "Sight & Sound"}, "isTop": true, "creationDate": 1278470186000, "freshness": "fresh", "critic": {"url": "/critic/leslie-felperin", "name": "Leslie Felperin", "id": 4094, "thumbnailImage": "https://d2a5cgar23scu2.cloudfront.net/static/images/redesign/user.none.tmb.jpg"}, "quote": "The rest of the film has similar fun mixing bug-world givens with anthropomorphism.", "id": 1907442, "links": {}}, {"isRotten": false, "url": "http://www.decentfilms.com/sections/reviews/1977", "creationDate": 1225275342000, "isFresh": true, "id": 1777181, "quote": "Entertaining computer-animated fantasy epic.", "links": {"review": "http://www.decentfilms.com/sections/reviews/1977"}, "publication": {"name": "Decent Films Guide"}, "isTop": true, "freshness": "fresh", "critic": {"url": "/critic/steven-d-greydanus", "name": "Steven D. Greydanus", "id": 5612, "thumbnailImage": "https://resizing.flixster.com/TpXNeP2Bw4Ci0Knwz0ug2Ok6rWw=/72x72/v1.YzsyODA4O2c7MTg3ODM7MjA0ODsxNTA7MTUw"}, "original_score": "B"}, {"isRotten": false, "url": "http://www.time.com/time/magazine/article/0,9171,989666,00.html?promoid=googlep", "publication": {"url": "", "name": "TIME Magazine"}, "isTop": true, "creationDate": 1220274010000, "isFresh": true, "freshness": "fresh", "critic": {"url": "/critic/richard-corliss", "name": "Richard Corliss", "id": 1227, "thumbnailImage": "https://resizing.flixster.com/tvlKOiED6ZR55pcIRwNevFIDvfs=/72x72/v1.YzsxNjUyO2c7MTg3OTc7MjA0ODszODszOQ"}, "quote": "The plot matures handsomely; the characters neatly converge and combust; the gags pay off with emotional resonance.", "id": 1752600, "links": {"review": "http://www.time.com/time/magazine/article/0,9171,989666,00.html?promoid=googlep"}}, {"isRotten": false, "url": "http://gonewiththetwins.com/new/bugs-life-1998/", "creationDate": 1599805388000, "isFresh": true, "id": 2722986, "quote": "Creatively pokes fun at the activities and traits of insects that audiences are familiar with for intelligent bouts of visual humor.", "links": {"review": "http://gonewiththetwins.com/new/bugs-life-1998/"}, "publication": {"url": "", "name": "Gone With The Twins"}, "isTop": false, "freshness": "fresh", "critic": {"url": "/critic/mike-massie", "name": "Mike Massie", "id": 27168, "thumbnailImage": "https://resizing.flixster.com/cKCY6tR9EskewGPlb8BlnvWesZU=/72x72/v1.YzszNjc3O2o7MTg3OTc7MjA0ODszMDA7MzAw"}, "original_score": "6/10"}, {"isRotten": false, "url": "https://thefilmfrenzy.com/2019/06/19/ranking-the-pixar-pix/", "creationDate": 1560992134000, "isFresh": true, "id": 2598627, "quote": "The same year's Antz is the better film (at least for adults), though there's plenty to enjoy in what over the long term has been revealed as a relatively minor Pixar project.", "links": {"review": "https://thefilmfrenzy.com/2019/06/19/ranking-the-pixar-pix/"}, "publication": {"url": "", "name": "Film Frenzy"}, "isTop": false, "freshness": "fresh", "critic": {"url": "/critic/matt-brunson", "name": "Matt Brunson", "id": 5777, "thumbnailImage": "https://resizing.flixster.com/sC65Fi_OccWCWRwVukoyOybQHtA=/72x72/v1.YzsxNzI4O2o7MTg3ODM7MjA0ODszODs0Mg"}, "original_score": "3/4"}, {"isRotten": false, "url": "https://rachelsreviews.net/2015/05/11/pixar-review-7-bugs-life/", "creationDate": 1556581508000, "isFresh": true, "id": 2581720, "quote": "The writing all around is really good.", "links": {"review": "https://rachelsreviews.net/2015/05/11/pixar-review-7-bugs-life/"}, "publication": {"url": "", "name": "rachelsreviews.net"}, "isTop": false, "freshness": "fresh", "critic": {"url": "/critic/rachel-wagner", "name": "Rachel Wagner", "id": 23964, "thumbnailImage": "https://resizing.flixster.com/CvuVoWlOH-LcGgLgTU2V23hxVvM=/72x72/v1.YzszMjU3O2o7MTg3ODI7MjA0ODszMDA7MzAw"}, "original_score": "B"}, {"isRotten": false, "url": "http://antagonie.blogspot.com/2015/08/microcosmos.html", "creationDate": 1451774874000, "isFresh": true, "id": 2302410, "quote": "An entirely beguiling little adventure that advancing technology and a vastly different marketplace haven't robbed of its merits.", "links": {"review": "http://antagonie.blogspot.com/2015/08/microcosmos.html"}, "publication": {"name": "Antagony & Ecstasy"}, "isTop": false, "freshness": "fresh", "critic": {"url": "/critic/tim-brayton", "name": "Tim Brayton", "id": 12682, "thumbnailImage": "https://resizing.flixster.com/t87aEPD3_0heWdT2Cx2CpPwgZ7k=/72x72/v1.YzszODU2O2o7MTg3OTY7MjA0ODszMDA7MzAw"}, "original_score": "8/10"}, {"isRotten": false, "url": "http://www.film4.com/reviews/1998/bugs-life-a", "publication": {"url": "", "name": "Film4"}, "isTop": false, "creationDate": 1329512954000, "isFresh": true, "freshness": "fresh", "critic": {"url": "/critic/film4-staff", "name": "Film4 Staff", "id": 23439, "thumbnailImage": "https://d2a5cgar23scu2.cloudfront.net/static/images/redesign/user.none.tmb.jpg"}, "quote": "The colours are vivid, the detail incredible and the vocal performances, led by Foley, are fine. Happily, it works on both a child's and adult's level.", "id": 2059499, "links": {"review": "http://www.film4.com/reviews/1998/bugs-life-a"}}, {"isRotten": false, "isFresh": true, "publication": {"url": "", "name": "Apollo Guide"}, "isTop": false, "creationDate": 1245256971000, "freshness": "fresh", "critic": {"url": "/critic/brian-webster", "name": "Brian Webster", "id": 31, "thumbnailImage": "https://resizing.flixster.com/qZKe4pUa0iIVF-l5l0jVROI06FA=/72x72/v1.YzsxNTg0O2c7MTg3NzQ7MjA0ODszODs0OA"}, "quote": "Promotes the classic American ethos of individualism without seeming preachy or narrow-minded, creating characters we enjoy, a story that's fun and visuals that sparkle.", "id": 1827479, "original_score": "75/100", "links": {}}]}, "casts": {"screenwriters": [{"url": "/celebrity/andrew_stanton/", "name": "Andrew Stanton", "thumbnailImg": "https://resizing.flixster.com/1SwCbZ6Mt15CgLQGUV5b4YL6efk=/80x80/v1.cjszNjU0MjtqOzE4NzY3OzIwNDg7NDM2OzYwMA"}, {"url": "/celebrity/don_mcenery/", "name": "Don McEnery", "thumbnailImg": "https://d2a5cgar23scu2.cloudfront.net/static/images/redesign/actor.default.tmb.gif"}, {"url": "/celebrity/bob_shaw/", "name": "Bob Shaw", "thumbnailImg": "https://d2a5cgar23scu2.cloudfront.net/static/images/redesign/actor.default.tmb.gif"}, {"url": "/celebrity/donald_mcenery/", "name": "Donald McEnery", "thumbnailImg": "https://d2a5cgar23scu2.cloudfront.net/static/images/redesign/actor.default.tmb.gif"}], "directors": [{"url": "/celebrity/john_lasseter/", "name": "John Lasseter", "thumbnailImg": "https://resizing.flixster.com/YH2BScDBD1lJQ_Df6EAh0HRCjio=/80x80/v1.cjs0ODE5MDtqOzE4ODA1OzIwNDg7NTQwOzcyMA"}, {"url": "/celebrity/andrew_stanton/", "name": "Andrew Stanton", "thumbnailImg": "https://resizing.flixster.com/1SwCbZ6Mt15CgLQGUV5b4YL6efk=/80x80/v1.cjszNjU0MjtqOzE4NzY3OzIwNDg7NDM2OzYwMA"}], "creators": [], "producers": [{"url": "/celebrity/darla_k_anderson/", "name": "Darla K. Anderson", "thumbnailImg": "https://resizing.flixster.com/nd4HbU95TEKJy1x66VyFouabobM=/80x80/v1.cDsxNDA3MTI3ODtqOzE4ODQwOzIwNDg7NzUwOzQ2OQ"}, {"url": "/celebrity/kevin_reher/", "name": "Kevin Reher", "thumbnailImg": "https://d2a5cgar23scu2.cloudfront.net/static/images/redesign/actor.default.tmb.gif"}], "castItems": [{"person": {"url": "/celebrity/kevin_spacey/", "name": "Kevin Spacey", "thumbnailImg": "https://resizing.flixster.com/EPz5uiMT-Qv3FaLWvLseGzeuCKc=/80x80/v1.cjs0OTMxMjtqOzE4ODAyOzIwNDg7MjIzNjsyMjg0"}, "characters": [{"name": "Hopper"}]}, {"person": {"url": "/celebrity/david_foley/", "name": "Dave Foley", "thumbnailImg": "https://resizing.flixster.com/41EHoyI_FvranFpUhE33HZhpwXg=/80x80/v1.cjs0NDcyODtqOzE4ODA4OzIwNDg7NDQyOzM5NA"}, "characters": [{"name": "Flik"}]}, {"person": {"url": "/celebrity/julia_louisdreyfus/", "name": "Julia Louis-Dreyfus", "thumbnailImg": "https://resizing.flixster.com/rt8kYcxpiAICVBybO6cp3FyPXrI=/80x80/v1.cjs0OTI2OTtqOzE4ODA0OzIwNDg7MTg5OTsyMTg5"}, "characters": [{"name": "Princess Atta"}]}, {"person": {"url": "/celebrity/richard_kind/", "name": "Richard Kind", "thumbnailImg": "https://resizing.flixster.com/fP4_AHC9gAVhYziFkPfoJjziOsk=/80x80/v1.cjszNjQzNztqOzE4Nzk3OzIwNDg7NDYzOzYwMA"}, "characters": [{"name": "Molt"}]}, {"person": {"url": "/celebrity/1004233-phyllis_diller/", "name": "Phyllis Diller", "thumbnailImg": "https://resizing.flixster.com/qkBk0c95vr992kIxhOCSrUmFc90=/80x80/v1.cDs5MDA2ODMxO2o7MTg4MTU7MjA0ODszNjA7MjQ5"}, "characters": [{"name": "Queen"}]}, {"person": {"url": "/celebrity/denis_leary/", "name": "Denis Leary", "thumbnailImg": "https://resizing.flixster.com/Y5gO4eGNT7sxK_193EPH2aYtoMA=/80x80/v1.cjs0MDU0NztqOzE4NzY3OzIwNDg7Mjc1OzIzMA"}, "characters": [{"name": "Francis"}]}, {"person": {"url": "/celebrity/madeline_kahn/", "name": "Madeline Kahn", "thumbnailImg": "https://resizing.flixster.com/LeAP_9_kTFth4VQUeP9Pwr3OFg0=/80x80/v1.cDsxMTAxNjAwNztqOzE4ODU0OzIwNDg7MTk2OzMwMA"}, "characters": [{"name": "Gypsy"}]}, {"person": {"url": "/celebrity/hayden_panettiere/", "name": "Hayden Panettiere", "thumbnailImg": "https://resizing.flixster.com/r9kCzKP6XGFTUnhcbVJ90dds6Iw=/80x80/v1.cjs0MDc3MztqOzE4NzY4OzIwNDg7Mjc1OzIzMA"}, "characters": [{"name": "Princess Dot"}]}, {"person": {"url": "/celebrity/david_hyde_pierce/", "name": "David Hyde Pierce", "thumbnailImg": "https://resizing.flixster.com/oVINKfubm5Fmx2ugch3-gsjAv7I=/80x80/v1.cjs0Njc2MztqOzE4NzczOzIwNDg7NDIyOzQyMg"}, "characters": [{"name": "Slim"}]}, {"person": {"url": "/celebrity/joe-ranft/", "name": "Joe Ranft", "thumbnailImg": "https://d2a5cgar23scu2.cloudfront.net/static/images/redesign/actor.default.tmb.gif"}, "characters": [{"name": "Heimlich"}]}, {"person": {"url": "/celebrity/ezra_buzzington/", "name": "Jonathan Harris", "thumbnailImg": "https://resizing.flixster.com/nicZc5coeao7BtO8xQ3hay5ORak=/80x80/v1.cDsxMTI1NjgyMztqOzE4ODc4OzIwNDg7NDMwOzU0Ng"}, "characters": [{"name": "Manny"}]}, {"person": {"url": "/celebrity/bonnie_hunt/", "name": "Bonnie Hunt", "thumbnailImg": "https://resizing.flixster.com/8vBZjiXpYctshYdAI8Ff6hRBZ70=/80x80/v1.cjsxNjg3MDtqOzE4ODA1OzIwNDg7NTk3OzY1Mg"}, "characters": [{"name": "Rosie"}]}, {"person": {"url": "/celebrity/michael_mcshane/", "name": "Michael McShane", "thumbnailImg": "https://resizing.flixster.com/dEFeZi8BLlYeVJq__-S6uoXPdAs=/80x80/v1.cjs0NjQxODtqOzE4Nzg4OzIwNDg7NTAzOzQ0OA"}, "characters": [{"name": "Tuck & Roll"}]}, {"person": {"url": "/celebrity/john_ratzenberger/", "name": "John Ratzenberger", "thumbnailImg": "https://resizing.flixster.com/ihIhgntxMVx077KMvAVMLlv1CQA=/80x80/v1.cjs0NjQ2OTtqOzE4Nzk0OzIwNDg7MzUzOzMxNA"}, "characters": [{"name": "P.T. Flea"}]}, {"person": {"url": "/celebrity/brad_garrett/", "name": "Brad Garrett", "thumbnailImg": "https://resizing.flixster.com/TYDbX51HBREQkdSOxMpgxdAncI4=/80x80/v1.cjszNzE4NDtqOzE4Nzc5OzIwNDg7Mzg5OzYwMA"}, "characters": [{"name": "Dim"}]}, {"person": {"url": "/celebrity/roddy_mcdowall/", "name": "Roddy McDowall", "thumbnailImg": "https://resizing.flixster.com/PLPFsZwNxjGHFd4XD_tGDQVs3Tc=/80x80/v1.cDsxMTA2NjEzNjtqOzE4ODU0OzIwNDg7NTgwOzg3OQ"}, "characters": [{"name": "Mr. Soil"}]}, {"person": {"url": "/celebrity/edie_mcclurg/", "name": "Edie McClurg", "thumbnailImg": "https://resizing.flixster.com/-B_D720PBgp_nc-n23eG0KrHQnk=/80x80/v1.cDs3MTQ1MDc5O2o7MTg4NzE7MjA0ODs5MzsxNDA"}, "characters": [{"name": "Dr. Flora"}]}, {"person": {"url": "/celebrity/alex_rocco/", "name": "Alex Rocco", "thumbnailImg": "https://resizing.flixster.com/73mQtlQaE87oOxzgqLMDXgqVjLk=/80x80/v1.cjs0NTQ3ODtqOzE4NzkzOzIwNDg7MjAwOzE3OA"}, "characters": [{"name": "Thorny"}]}, {"person": {"url": "/celebrity/david_ossman/", "name": "David Ossman", "thumbnailImg": "https://d2a5cgar23scu2.cloudfront.net/static/images/redesign/actor.default.tmb.gif"}, "characters": [{"name": "Cornelius"}]}, {"person": {"url": "/celebrity/kelsey_mulrooney/", "name": "Kelsey Mulrooney", "thumbnailImg": "https://resizing.flixster.com/1JSo39x10SpRf3m81JiNeFslT18=/80x80/v1.cDsxMjA3NzAxNztqOzE4Nzc2OzIwNDg7NTQxOzgwNA"}}, {"person": {"url": "/celebrity/christina_milian/", "name": "Christina Milian", "thumbnailImg": "https://resizing.flixster.com/Mxl9vw7bSnLm6ahkk-8Mv-jXvE0=/80x80/v1.cjs0NzExODtqOzE4NzY4OzIwNDg7NDI4OzQyOA"}}, {"person": {"url": "/celebrity/ashley_tisdale/", "name": "Ashley Tisdale", "thumbnailImg": "https://resizing.flixster.com/8LA3vQGfYGm2h9BdLsV4SQl6UNs=/80x80/v1.cjs0NTcwODtqOzE4Nzk4OzIwNDg7MzQ2OzMwOA"}, "characters": [{"name": "Lead Blueberry Scout"}]}]}, "title": "A Bug's Life", "adjustedScore": 96.65480015422182, "ratings": {"critics_rating": "Certified Fresh", "audience_score": 72, "dvdReleaseDate": 924591600000, "critics_score": 92, "theaterReleaseDate": 911548800000, "audience_rating": "Upright"}, "videoClips": {"mainTrailer": {"hlsUrl": "http://video.internetvideoarchive.net/video.m3u8?cmd=6&publishedid=http://link.theplatform.com/s/NGweTC/media/MLhMjFd1oTcX&customerid=300120&e=1619087132065&sub=RTO&fmt=11&h=f0cc906d45b17e5689a174d52cc78e9e", "seconds": 4, "minutes": 1, "id": 11302460, "title": "A Bug's Life: Teaser Trailer 1", "thumbUrl": "http://resizing.flixster.com/9VMqU1PXneL3OJiqZTNv4IxwlhY=/171x128/v1.bjsxNzY1ODg2O2o7MTg3ODU7MjA0ODsxMDgwOzE5MjA", "mp4Url": "http://video.internetvideoarchive.net/video.mp4?cmd=6&publishedid=http://link.theplatform.com/s/NGweTC/media/MLhMjFd1oTcX&customerid=300120&e=1619087132065&sub=RTO&fmt=4&videokbrate=750&h=e87acce487bca0c7a225fc50b6eacc72"}, "size": 2, "videoClips": [{"hlsUrl": "http://video.internetvideoarchive.net/video.m3u8?cmd=6&publishedid=http://link.theplatform.com/s/NGweTC/media/MLhMjFd1oTcX&customerid=300120&e=1619087132065&sub=RTO&fmt=11&h=f0cc906d45b17e5689a174d52cc78e9e", "seconds": 4, "minutes": 1, "id": 11302460, "title": "A Bug's Life: Teaser Trailer 1", "thumbUrl": "http://resizing.flixster.com/9VMqU1PXneL3OJiqZTNv4IxwlhY=/171x128/v1.bjsxNzY1ODg2O2o7MTg3ODU7MjA0ODsxMDgwOzE5MjA", "mp4Url": "http://video.internetvideoarchive.net/video.mp4?cmd=6&publishedid=http://link.theplatform.com/s/NGweTC/media/MLhMjFd1oTcX&customerid=300120&e=1619087132065&sub=RTO&fmt=4&videokbrate=750&h=e87acce487bca0c7a225fc50b6eacc72"}, {"hlsUrl": "http://video.internetvideoarchive.net/video.m3u8?cmd=6&publishedid=http://link.theplatform.com/s/NGweTC/media/qPPuaOe0LZmp&customerid=300120&e=1619087132065&sub=RTO&fmt=11&h=366f37527d4bb97287401d84393c6e1d", "seconds": 14, "minutes": 1, "id": 11302461, "title": "A Bug's Life: Trailer 1", "thumbUrl": "http://resizing.flixster.com/KrYD0vrnZVzU0RGSydf2sk7ZFbM=/171x128/v1.bjsxNzY1ODg4O2o7MTg3ODU7MjA0ODsxMDgwOzE5MjA", "mp4Url": "http://video.internetvideoarchive.net/video.mp4?cmd=6&publishedid=http://link.theplatform.com/s/NGweTC/media/qPPuaOe0LZmp&customerid=300120&e=1619087132065&sub=RTO&fmt=4&videokbrate=750&h=ba9aa0c6569518f62d82cd8cd79fa789"}]}, "isUpcoming": false, "posters": {"original": "https://resizing.flixster.com/YHHg3t6T59BU-ijbPmjvwp0YunQ=/1536x2048/v1.bTsxMTIwNzI5NDtqOzE4ODkzOzIwNDg7MTUzNjsyMDQ4", "detailed": "https://resizing.flixster.com/TAGLmDfPCxgHlfXY1W4KPsLMR74=/180x240/v1.bTsxMTIwNzI5NDtqOzE4ODkzOzIwNDg7MTUzNjsyMDQ4", "profile": "https://resizing.flixster.com/pSyDFVnM9NOjMsthG09Vw_OlHuM=/120x160/v1.bTsxMTIwNzI5NDtqOzE4ODkzOzIwNDg7MTUzNjsyMDQ4", "thumbnail": "https://resizing.flixster.com/zybUtG_oDfyIrqPoL8xGZQnVzJA=/54x72/v1.bTsxMTIwNzI5NDtqOzE4ODkzOzIwNDg7MTUzNjsyMDQ4"}, "isLimited": false, "mainTrailer": {"thumbUrl": "https://resizing.flixster.com/9VMqU1PXneL3OJiqZTNv4IxwlhY=/171x128/v1.bjsxNzY1ODg2O2o7MTg3ODU7MjA0ODsxMDgwOzE5MjA", "hlsUrl": "http://video.internetvideoarchive.net/video.m3u8?cmd=6&publishedid=http://link.theplatform.com/s/NGweTC/media/MLhMjFd1oTcX&customerid=300120&e=1619087131610&sub=RTO&fmt=11&h=fe20c7e85fe69b2390ecf27eae6ac14a", "id": 11302460, "mp4Url": "http://video.internetvideoarchive.net/video.mp4?cmd=6&publishedid=http://link.theplatform.com/s/NGweTC/media/MLhMjFd1oTcX&customerid=300120&e=1619087131610&sub=RTO&fmt=4&videokbrate=750&h=d3cd55fbfa349b01bc5b614006761b60"}, "photos": {"photos": [{"url": "https://resizing.flixster.com/8TpLEWpdFMTd7dX2CqpY2JcxSSw=/1024x768/v1.bjsxMjU0NDI7ajsxODc5MzsyMDQ4OzE2Mjk7MTIyMg", "index": 0, "submittedBy": "RT Staff", "height": 768, "imageId": 125442, "thumbnail": "https://resizing.flixster.com/0b0T_gOxLOIGP3SIIW5aZrqz6Wo=/80x80/v1.bjsxMjU0NDI7ajsxODc5MzsyMDQ4OzE2Mjk7MTIyMg", "submittedDate": "2014-07-01", "id": "multiuse-125442", "photoType": "movie", "width": 1024}, {"url": "https://resizing.flixster.com/JAWyE1EawI6mH1s7X3LGziawgOw=/1024x768/v1.bjsxMjU0NDM7ajsxODc5NDsyMDQ4OzE2MDk7MTIwNg", "index": 1, "submittedBy": "RT Staff", "height": 768, "imageId": 125443, "thumbnail": "https://resizing.flixster.com/0Yiu6vHKdzaylCbWqT6b-0B9rvE=/80x80/v1.bjsxMjU0NDM7ajsxODc5NDsyMDQ4OzE2MDk7MTIwNg", "submittedDate": "2014-07-01", "id": "multiuse-125443", "photoType": "movie", "width": 1024}, {"url": "https://resizing.flixster.com/rhoEZLl1mcCbs1s8Kng4-JC1chY=/768x1024/v1.bjsxMjU0NDQ7ajsxODc5NTsyMDQ4OzEyMDM7MTYwNA", "index": 2, "submittedBy": "RT Staff", "height": 1024, "imageId": 125444, "thumbnail": "https://resizing.flixster.com/1qwGHAOE2LqYRtr08A3bYkxo2HA=/80x80/v1.bjsxMjU0NDQ7ajsxODc5NTsyMDQ4OzEyMDM7MTYwNA", "submittedDate": "2014-07-01", "id": "multiuse-125444", "photoType": "movie", "width": 768}, {"url": "https://resizing.flixster.com/3AhCs_2-3c3bpSmKoles8nCuOdY=/1024x768/v1.bjsxMjU0NDU7ajsxODc5NjsyMDQ4OzE2NDM7MTIzMg", "index": 3, "submittedBy": "RT Staff", "height": 768, "imageId": 125445, "thumbnail": "https://resizing.flixster.com/ebrRhNjj01VsuShYzQpQZ0Nvw30=/80x80/v1.bjsxMjU0NDU7ajsxODc5NjsyMDQ4OzE2NDM7MTIzMg", "submittedDate": "2014-07-01", "id": "multiuse-125445", "photoType": "movie", "width": 1024}, {"url": "https://resizing.flixster.com/QhYX-qVFvf2Y5pgqpvBXFrKbN5M=/1024x768/v1.bjsxMjU0NDY7ajsxODc5NzsyMDQ4OzE2MTU7MTIxMQ", "index": 4, "submittedBy": "RT Staff", "height": 768, "imageId": 125446, "thumbnail": "https://resizing.flixster.com/bEcDIElzjA4DApoXGbkraloCvyo=/80x80/v1.bjsxMjU0NDY7ajsxODc5NzsyMDQ4OzE2MTU7MTIxMQ", "submittedDate": "2014-07-01", "id": "multiuse-125446", "photoType": "movie", "width": 1024}, {"url": "https://resizing.flixster.com/kqernv0BFRkgLGJAqqzdkEmT0Dc=/1024x768/v1.bjsxMjU0NDc7ajsxODc5ODsyMDQ4OzE2MjI7MTIxNg", "index": 5, "submittedBy": "RT Staff", "height": 768, "imageId": 125447, "thumbnail": "https://resizing.flixster.com/zh-iev_lXuPb4KGwyWLQAEqbTNE=/80x80/v1.bjsxMjU0NDc7ajsxODc5ODsyMDQ4OzE2MjI7MTIxNg", "submittedDate": "2014-07-01", "id": "multiuse-125447", "photoType": "movie", "width": 1024}, {"url": "https://resizing.flixster.com/CG7rGYPBC3-iL5Xrrk8iE8APIC8=/1024x512/v1.bjsxMjU0NDg7ajsxODc5OTsyMDQ4OzIyNTg7MTEyOQ", "index": 6, "submittedBy": "RT Staff", "height": 512, "imageId": 125448, "thumbnail": "https://resizing.flixster.com/5yMwb7wQuSG6Wk71TgDz0PxjnwE=/80x80/v1.bjsxMjU0NDg7ajsxODc5OTsyMDQ4OzIyNTg7MTEyOQ", "submittedDate": "2014-07-01", "id": "multiuse-125448", "photoType": "movie", "width": 1024}, {"url": "https://resizing.flixster.com/HB74KaXMhE2aPdD5Q_BZnB5a3uM=/1024x768/v1.bjsxMjU0NDk7ajsxODgwMDsyMDQ4OzE2MDg7MTIwNg", "index": 7, "submittedBy": "RT Staff", "height": 768, "imageId": 125449, "thumbnail": "https://resizing.flixster.com/jrToLmzC2YG8T1-wG1dvP4yNOf0=/80x80/v1.bjsxMjU0NDk7ajsxODgwMDsyMDQ4OzE2MDg7MTIwNg", "submittedDate": "2014-07-01", "id": "multiuse-125449", "photoType": "movie", "width": 1024}, {"url": "https://resizing.flixster.com/kFB0PYu5AsVjhvOq8fVXwGn4HYw=/1024x768/v1.bjsxMjU0NjQ7ajsxODc3MDsyMDQ4OzE1NzU7MTE4MQ", "index": 8, "submittedBy": "RT Staff", "height": 768, "imageId": 125464, "thumbnail": "https://resizing.flixster.com/2p_RC_Ee_dOPjWYA-RLTtuYhtis=/80x80/v1.bjsxMjU0NjQ7ajsxODc3MDsyMDQ4OzE1NzU7MTE4MQ", "submittedDate": "2014-07-01", "id": "multiuse-125464", "photoType": "movie", "width": 1024}, {"url": "https://resizing.flixster.com/xbRmT-XwRSXBjMAVMg46iZCIOyM=/768x1024/v1.bjsxMjU0NjU7ajsxODc3MTsyMDQ4OzExODE7MTU3NQ", "index": 9, "submittedBy": "RT Staff", "height": 1024, "imageId": 125465, "thumbnail": "https://resizing.flixster.com/F_PdHz4HZNyzSjHtQ375zYJ_6_o=/80x80/v1.bjsxMjU0NjU7ajsxODc3MTsyMDQ4OzExODE7MTU3NQ", "submittedDate": "2014-07-01", "id": "multiuse-125465", "photoType": "movie", "width": 768}, {"url": "https://resizing.flixster.com/sUkr4eaRH8d3Gj2f4U4lggY61s8=/1024x768/v1.bjsxMjU0NjY7ajsxODc3MjsyMDQ4OzE1NzQ7MTE4MQ", "index": 10, "submittedBy": "RT Staff", "height": 768, "imageId": 125466, "thumbnail": "https://resizing.flixster.com/Sd2tmdv0OiJrb9jJbwXFDdukeeU=/80x80/v1.bjsxMjU0NjY7ajsxODc3MjsyMDQ4OzE1NzQ7MTE4MQ", "submittedDate": "2014-07-01", "id": "multiuse-125466", "photoType": "movie", "width": 1024}, {"url": "https://resizing.flixster.com/yotpLF52CNso5UD1l1T65aBtCSs=/1024x768/v1.bjsxMjU0Njc7ajsxODc3MzsyMDQ4OzE1NzQ7MTE4MQ", "index": 11, "submittedBy": "RT Staff", "height": 768, "imageId": 125467, "thumbnail": "https://resizing.flixster.com/rNbXxTJdoaccdFtRe2lxOJZspYs=/80x80/v1.bjsxMjU0Njc7ajsxODc3MzsyMDQ4OzE1NzQ7MTE4MQ", "submittedDate": "2014-07-01", "id": "multiuse-125467", "photoType": "movie", "width": 1024}, {"url": "https://resizing.flixster.com/OoATHPQQ8Rjfi9VK83LyprMbjMo=/1024x768/v1.bjsxMjU0Njg7ajsxODc3NDsyMDQ4OzE1NzQ7MTE4MQ", "index": 12, "submittedBy": "RT Staff", "height": 768, "imageId": 125468, "thumbnail": "https://resizing.flixster.com/9FXj_6a5fna9_48qxImFr5PlQOY=/80x80/v1.bjsxMjU0Njg7ajsxODc3NDsyMDQ4OzE1NzQ7MTE4MQ", "submittedDate": "2014-07-01", "id": "multiuse-125468", "photoType": "movie", "width": 1024}, {"url": "https://resizing.flixster.com/pjn7kGN_ueoVwQKe5qm3g2AfnFM=/1024x512/v1.bjsxMjU0Njk7ajsxODc3NTsyMDQ4OzE0NjI7NzMx", "index": 13, "submittedBy": "RT Staff", "height": 512, "imageId": 125469, "thumbnail": "https://resizing.flixster.com/XmG4lnVHK1_cJrBfzKONrYRjlRM=/80x80/v1.bjsxMjU0Njk7ajsxODc3NTsyMDQ4OzE0NjI7NzMx", "submittedDate": "2014-07-01", "id": "multiuse-125469", "photoType": "movie", "width": 1024}, {"url": "https://resizing.flixster.com/XL_QKLybMaqzWz40ubBHXGm37fU=/1024x672/v1.bjsxMjU0NzA7ajsxODc3NjsyMDQ4OzE3NzU7MTE2NQ", "index": 14, "submittedBy": "RT Staff", "height": 672, "imageId": 125470, "thumbnail": "https://resizing.flixster.com/sBeillNRoIrB0L4nYaUa3V6fn84=/80x80/v1.bjsxMjU0NzA7ajsxODc3NjsyMDQ4OzE3NzU7MTE2NQ", "submittedDate": "2014-07-01", "id": "multiuse-125470", "photoType": "movie", "width": 1024}, {"url": "https://resizing.flixster.com/5li2I2pfIvrbT300_JhhfTtyH0Q=/1024x576/v1.bjsxNzYxMDY1O2o7MTg4MjA7MjA0ODsxOTIwOzEwODA", "index": 15, "submittedBy": "RT Staff", "height": 576, "imageId": 1761065, "thumbnail": "https://resizing.flixster.com/3-MyYvZurlquLsecCz8qxGxrQwI=/80x80/v1.bjsxNzYxMDY1O2o7MTg4MjA7MjA0ODsxOTIwOzEwODA", "submittedDate": "2017-10-27", "id": "multiuse-1761065", "photoType": "movie", "width": 1024}, {"url": "https://resizing.flixster.com/5xdkuu9Zb-2pkXLbYcnpUzHrcrc=/1024x576/v1.bjsxNzYxMDY2O2o7MTg4MjE7MjA0ODsxOTIwOzEwODA", "index": 16, "submittedBy": "RT Staff", "height": 576, "imageId": 1761066, "thumbnail": "https://resizing.flixster.com/CKaqNWYbGq3WBDCvKfXdlH2D8CA=/80x80/v1.bjsxNzYxMDY2O2o7MTg4MjE7MjA0ODsxOTIwOzEwODA", "submittedDate": "2017-10-27", "id": "multiuse-1761066", "photoType": "movie", "width": 1024}, {"url": "https://resizing.flixster.com/nGll0BhPlr_4mOO50vg9fE-ADF0=/1024x576/v1.bjsxOTk5OTcyO2o7MTg4MjU7MjA0ODsxOTIwOzEwODA", "index": 17, "submittedBy": "RT Staff", "height": 576, "imageId": 1999972, "thumbnail": "https://resizing.flixster.com/_pofkdXubGoH_trO9dQ-BIX8EFM=/80x80/v1.bjsxOTk5OTcyO2o7MTg4MjU7MjA0ODsxOTIwOzEwODA", "submittedDate": "2018-07-17", "id": "multiuse-1999972", "photoType": "movie", "width": 1024}, {"url": "https://resizing.flixster.com/oGjfv3RH-QSfvfBM9URzeVTFCnU=/1024x569/v1.bjsyMzg0ODQ2O2o7MTg4NjM7MjA0ODsyNTYwOzE0MjI", "index": 18, "submittedBy": "RT Staff", "height": 569, "imageId": 2384846, "thumbnail": "https://resizing.flixster.com/nxdt04abt7w8hlBkN0mNKDvlAc4=/80x80/v1.bjsyMzg0ODQ2O2o7MTg4NjM7MjA0ODsyNTYwOzE0MjI", "submittedDate": "2019-10-09", "id": "multiuse-2384846", "photoType": "movie", "width": 1024}, {"url": "https://resizing.flixster.com/CcOm8kc2sj1oQteNjRt54fBZclg=/682x1023/v1.bjsyMzg0ODQ3O2o7MTg4NjQ7MjA0ODsyMDAwOzMwMDA", "index": 19, "submittedBy": "RT Staff", "height": 1023, "imageId": 2384847, "thumbnail": "https://resizing.flixster.com/dpYFpztt6KAExQpzVVDK0qFhg1U=/80x80/v1.bjsyMzg0ODQ3O2o7MTg4NjQ7MjA0ODsyMDAwOzMwMDA", "submittedDate": "2019-10-09", "id": "multiuse-2384847", "photoType": "movie", "width": 682}], "length": 20}, "id": 9749}