{"url": "/m/klaus/", "isOnOpening": false, "genreSet": [{"displayName": "Animation", "id": 2}, {"displayName": "Kids & Family", "id": 11}, {"displayName": "Science Fiction & Fantasy", "id": 14}, {"displayName": "Comedy", "id": 6}], "runningTime": 98, "isInTheaters": false, "synopsis": "When Jesper (Jason Schwartzman) distinguishes himself as the postal academy's worst student, he is stationed on a frozen island above the Arctic Circle, where the feuding locals hardly exchange words let alone letters. Jesper is about to give up when he finds an ally in local teacher Alva (Rashida Jones), and discovers Klaus (Oscar winner J.K. Simmons), a mysterious carpenter who lives alone in a cabin full of handmade toys. These unlikely friendships return laughter to Smeerensburg, forging a new legacy of generous neighbors, magical lore and stockings hung by the chimney with care.", "links": {"alternate": "//www.rottentomatoes.com/m/klaus/"}, "year": 2019, "trackingType": "DvdOther", "status": "Live", "isPlaying": false, "isOnDVD": true, "runningTimeStr": "1 hr. 38 min.", "ratingSummary": {"topcount": 16, "consensus": "Beautiful hand-drawn animation and a humorous, heartwarming narrative make Klaus an instant candidate for holiday classic status.", "topCritics": {"hasScore": true, "numReviews": 16, "meterClass": "certified", "numRotten": 2, "numFresh": 14, "hasReviews": true, "meterValue": 88, "averageRating": 6.5}, "audience": {"meterScore": 100, "averageScore": 5, "numTotal": 5, "ratingType": "viewed"}, "allcount": 68, "rottencount": 4, "dvdcount": 0, "allCritics": {"hasScore": true, "numReviews": 68, "meterClass": "certified", "numRotten": 4, "numFresh": 64, "hasReviews": true, "meterValue": 94, "averageRating": 7.62}, "freshcount": 64}, "mpaaRating": "PG", "vanity": "klaus", "photos": {"photos": [{"url": "https://resizing.flixster.com/IUJc-QUXc7wjlh6iH1ZcHKMPdQg=/1024x554/v1.bjsyMzY0MDkyO2o7MTg4MDk7MjA0ODszODQwOzIwNzY", "index": 0, "submittedBy": "RT Staff", "height": 554, "imageId": 2364092, "thumbnail": "https://resizing.flixster.com/vBOxfAZl9ioYGZI0bo3G7j1hjJM=/80x80/v1.bjsyMzY0MDkyO2o7MTg4MDk7MjA0ODszODQwOzIwNzY", "submittedDate": "2019-09-19", "id": "multiuse-2364092", "photoType": "movie", "width": 1024}, {"url": "https://resizing.flixster.com/ehK2ys3dmIjqlFsq7S8z5pFX69M=/1024x576/v1.bjsyMzk5MDkzO2o7MTg4NDU7MjA0ODsyNTYwOzE0NDA", "index": 1, "submittedBy": "RT Staff", "height": 576, "imageId": 2399093, "thumbnail": "https://resizing.flixster.com/DzcaAdxegku9lCGZ4Gps1WS0WiI=/80x80/v1.bjsyMzk5MDkzO2o7MTg4NDU7MjA0ODsyNTYwOzE0NDA", "submittedDate": "2019-11-07", "id": "multiuse-2399093", "photoType": "movie", "width": 1024}, {"url": "https://resizing.flixster.com/6SqgwfPqRsqXEynNtT2tsCzIFuo=/1024x554/v1.bjsyMzk5MTA4O2o7MTg4NjA7MjA0ODszMDAwOzE2MjI", "index": 2, "submittedBy": "RT Staff", "height": 554, "imageId": 2399108, "thumbnail": "https://resizing.flixster.com/_MRp83XxzCDAC9Fl0NFNM5yk7Ok=/80x80/v1.bjsyMzk5MTA4O2o7MTg4NjA7MjA0ODszMDAwOzE2MjI", "submittedDate": "2019-11-07", "id": "multiuse-2399108", "photoType": "movie", "width": 1024}, {"url": "https://resizing.flixster.com/DMe5GoQrxOqNSMUjVAlIHd0saIs=/1024x554/v1.bjsyMzk5MTA5O2o7MTg4NjE7MjA0ODszMDAwOzE2MjI", "index": 3, "submittedBy": "RT Staff", "height": 554, "imageId": 2399109, "thumbnail": "https://resizing.flixster.com/RwX4Ma3vAuK6gAh6yk96ooB0J1U=/80x80/v1.bjsyMzk5MTA5O2o7MTg4NjE7MjA0ODszMDAwOzE2MjI", "submittedDate": "2019-11-07", "id": "multiuse-2399109", "photoType": "movie", "width": 1024}, {"url": "https://resizing.flixster.com/L07PjtHzHrdODrt5tv8bTwzSfXU=/1024x554/v1.bjsyMzk5MTEwO2o7MTg4NjI7MjA0ODszMDAwOzE2MjI", "index": 4, "submittedBy": "RT Staff", "height": 554, "imageId": 2399110, "thumbnail": "https://resizing.flixster.com/kzIGlQUCh9lVGSs5JKkulbd4Z9s=/80x80/v1.bjsyMzk5MTEwO2o7MTg4NjI7MjA0ODszMDAwOzE2MjI", "submittedDate": "2019-11-07", "id": "multiuse-2399110", "photoType": "movie", "width": 1024}, {"url": "https://resizing.flixster.com/vDGmwSRv_yt9LcYzPQRWQ9NpFOM=/1024x554/v1.bjsyMzk5MTExO2o7MTg4NjM7MjA0ODszMDAwOzE2MjI", "index": 5, "submittedBy": "RT Staff", "height": 554, "imageId": 2399111, "thumbnail": "https://resizing.flixster.com/YUmjAihr8OjY1CGJehX6cRR57g8=/80x80/v1.bjsyMzk5MTExO2o7MTg4NjM7MjA0ODszMDAwOzE2MjI", "submittedDate": "2019-11-07", "id": "multiuse-2399111", "photoType": "movie", "width": 1024}, {"url": "https://resizing.flixster.com/UL5OXQWcBO5msyl9qYje1zRg5zM=/1024x554/v1.bjsyMzk5MTEyO2o7MTg4NjQ7MjA0ODszMDAwOzE2MjI", "index": 6, "submittedBy": "RT Staff", "height": 554, "imageId": 2399112, "thumbnail": "https://resizing.flixster.com/UZvNyyPquA0krmJQNkIN-tHoKeM=/80x80/v1.bjsyMzk5MTEyO2o7MTg4NjQ7MjA0ODszMDAwOzE2MjI", "submittedDate": "2019-11-07", "id": "multiuse-2399112", "photoType": "movie", "width": 1024}, {"url": "https://resizing.flixster.com/NqrkE0xkNd2GZt9MgpGbeXanQoU=/1024x554/v1.bjsyMzY0MDkzO2o7MTg4MTA7MjA0ODszODQwOzIwNzY", "index": 7, "submittedBy": "RT Staff", "height": 554, "imageId": 2364093, "thumbnail": "https://resizing.flixster.com/hOzJ0e9VLUisJBUqFkx5A-6tLgA=/80x80/v1.bjsyMzY0MDkzO2o7MTg4MTA7MjA0ODszODQwOzIwNzY", "submittedDate": "2019-09-19", "id": "multiuse-2364093", "photoType": "movie", "width": 1024}], "length": 8}, "studio": "Netflix", "purchaseOptions": {"netflix": {"streamingId": "80183187"}}, "reviews": {"total": 68, "links": {"alternate": "//www.rottentomatoes.com/m/klaus/#reviews", "self": "api.flixster.com/movies/klaus/reviews.json?review_type=mob&country=us&page=1", "prev": "api.flixster.com/movies/klaus/reviews.json?review_type=mob&country=us&page=0", "next": "api.flixster.com/movies/klaus/reviews.json?review_type=mob&country=us&page=2"}, "reviews": [{"isRotten": false, "url": "https://chicago.suntimes.com/2019/11/28/20982807/mandalorian-review-servant-klaus-merry-happy-whatever-noelle-netflix-appletvplus-amazon-disneyplus", "creationDate": 1575334602000, "isFresh": true, "id": 2650647, "quote": "The wonderful Rashida Jones voices a teacher who could become a love interest for Jesper. And any movie that casts Norm Macdonald as a cynical boat captain who sounds exactly like Norm MacDdnald is all right by me.", "links": {"review": "https://chicago.suntimes.com/2019/11/28/20982807/mandalorian-review-servant-klaus-merry-happy-whatever-noelle-netflix-appletvplus-amazon-disneyplus"}, "publication": {"url": "", "name": "Chicago Sun-Times"}, "isTop": true, "freshness": "fresh", "critic": {"url": "/critic/richard-roeper", "name": "Richard Roeper", "id": 3822, "thumbnailImage": "https://resizing.flixster.com/LZRWdJtfUkOX3bGAj94P6jBsRW4=/72x72/v1.YzsyNjQ1O2c7MTg4MDA7MjA0ODsxNTA7MTUw"}, "original_score": "3/4"}, {"isRotten": false, "url": "https://www.vulture.com/2019/11/netflixs-klaus-a-delightfully-weird-animated-holiday-movie.html", "publication": {"url": "", "name": "New York Magazine/Vulture"}, "isTop": true, "creationDate": 1574708654000, "isFresh": true, "freshness": "fresh", "critic": {"url": "/critic/bilge-ebiri", "name": "Bilge Ebiri", "id": 2973, "thumbnailImage": "https://resizing.flixster.com/QG6QmEIlTIxad404ki9Yp163MqM=/72x72/v1.YzszNjY4O2o7MTg3ODg7MjA0ODs0MDA7NDAw"}, "quote": "It's awkward and weird, and yet all that awkwardness and weirdness give it personality and charm and a freewheeling, nonsensical quality that feels refreshing.", "id": 2648770, "links": {"review": "https://www.vulture.com/2019/11/netflixs-klaus-a-delightfully-weird-animated-holiday-movie.html"}}, {"isRotten": false, "url": "https://www.salon.com/2019/11/16/klaus-review-christmas-netflix/", "publication": {"url": "", "name": "Salon.com"}, "isTop": true, "creationDate": 1574119436000, "isFresh": true, "freshness": "fresh", "critic": {"url": "/critic/ashlie-d-stevens", "name": "Ashlie D. Stevens", "id": 25442, "thumbnailImage": "https://d2a5cgar23scu2.cloudfront.net/static/images/redesign/user.none.tmb.jpg"}, "quote": "Though there are some narrative blips in Klaus born out of a premise that is maybe just a little too complex for a 97-minute film, the movie is absolutely beautiful.", "id": 2646855, "links": {"review": "https://www.salon.com/2019/11/16/klaus-review-christmas-netflix/"}}, {"isRotten": true, "url": "https://www.indiewire.com/2019/11/klaus-review-netflix-1202190368/", "creationDate": 1574106008000, "isFresh": false, "id": 2646737, "quote": "None of the characters in Klaus are as delightful as they are well-drawn, and Pablos' film never earns the holiday spirit it tries to manufacture down the home stretch.", "links": {"review": "https://www.indiewire.com/2019/11/klaus-review-netflix-1202190368/"}, "publication": {"url": "", "name": "indieWire"}, "isTop": true, "freshness": "rotten", "critic": {"url": "/critic/david-ehrlich", "name": "David Ehrlich", "id": 14059, "thumbnailImage": "https://resizing.flixster.com/ImkZ1yZDq1JNikfrfolWoJQweUI=/72x72/v1.YzsyNjk4O2c7MTg4MDg7MjA0ODsxNTA7MTUw"}, "original_score": "C+"}, {"isRotten": false, "url": "https://www.pajiba.com/film_reviews/review-netflix-presents-a-new-holiday-classic-with-their-santa-tale-klaus-.php", "publication": {"url": "", "name": "Pajiba"}, "isTop": true, "creationDate": 1573902013000, "isFresh": true, "freshness": "fresh", "critic": {"url": "/critic/kristy-puchko", "name": "Kristy Puchko", "id": 15579, "thumbnailImage": "https://resizing.flixster.com/HeeRTDW88Bcfpvp2cysk8hS_xDI=/72x72/v1.YzszODM2O2o7MTg3NzY7MjA0ODs5NDk7OTQ5"}, "quote": "Sure to become a holiday favorite in many homes, it's warm, sweet, and fantastically funny. ", "id": 2646471, "links": {"review": "https://www.pajiba.com/film_reviews/review-netflix-presents-a-new-holiday-classic-with-their-santa-tale-klaus-.php"}}, {"isRotten": false, "url": "https://lwlies.com/reviews/klaus/", "creationDate": 1573766364000, "isFresh": true, "id": 2645685, "quote": "Its very construction inspires hope, that there's new life to be found in a dying method.", "links": {"review": "https://lwlies.com/reviews/klaus/"}, "publication": {"url": "", "name": "Little White Lies"}, "isTop": true, "freshness": "fresh", "critic": {"url": "/critic/kambole-campbell", "name": "Kambole Campbell", "id": 22686, "thumbnailImage": "https://resizing.flixster.com/vagP4DB-O-HUfqDFgkXvyqmfVVo=/72x72/v1.YzsyOTkwO2o7MTg3ODU7MjA0ODsyMDAwOzIwMDA"}, "original_score": "3/5"}, {"isRotten": false, "url": "http://cinemasight.com/review-klaus-2019/", "creationDate": 1608145093000, "isFresh": true, "id": 2751667, "quote": "An engaging re-imagining of the Santa Claus origin mythos is handled beautifully.", "links": {"review": "http://cinemasight.com/review-klaus-2019/"}, "publication": {"url": "", "name": "Cinema Sight"}, "isTop": false, "freshness": "fresh", "critic": {"url": "/critic/wesley-lovell", "name": "Wesley Lovell", "id": 58, "thumbnailImage": "https://resizing.flixster.com/V7qux9S41FEAzbG7mffEgZiaKH4=/72x72/v1.YzsyMDEwO2c7MTg3OTU7MjA0ODs3NTsxMDA"}, "original_score": "3.5/4"}, {"isRotten": false, "url": "https://polvora.com.mx/2019/11/10/critica-klaus-netflix/", "publication": {"url": "", "name": "P\u00f3lvora"}, "isTop": false, "creationDate": 1594242715000, "isFresh": true, "freshness": "fresh", "critic": {"url": "/critic/ricardo-gallegos", "name": "Ricardo Gallegos", "id": 27195, "thumbnailImage": "https://resizing.flixster.com/oDNFTjGW-Iv2KJZdETidCV20hOs=/72x72/v1.YzszNjkyO2o7MTg3Njc7MjA0ODszMDA7MzAw"}, "quote": "Bold and creative, Klaus should be highlighted for its artistic achievement. [Full review in Spanish]", "id": 2702775, "links": {"review": "https://polvora.com.mx/2019/11/10/critica-klaus-netflix/"}}, {"isRotten": false, "url": "https://macguff.in/film-reviews/klaus/", "creationDate": 1594223269000, "isFresh": true, "id": 2702598, "quote": "Klaus is a bundle of good-natured fun, and anyone who says otherwise deserves a piece of coal in their stocking. ", "links": {"review": "https://macguff.in/film-reviews/klaus/"}, "publication": {"url": "", "name": "The MacGuffin"}, "isTop": false, "freshness": "fresh", "critic": {"url": "/critic/allen-almachar", "name": "Allen Almachar", "id": 27251, "thumbnailImage": "https://resizing.flixster.com/685wa0E3pM9hb-0fDGyxkU_RFPI=/72x72/v1.YzszNzIzO2o7MTg3OTg7MjA0ODszMDA7MzAw"}, "original_score": "B+"}, {"isRotten": false, "url": "https://www.filmcompanion.in/streaming/15-animated-films-on-streaming-you-can-watch-with-kids/", "publication": {"url": "http://https://www.filmcompanion.in/", "name": "Film Companion"}, "isTop": false, "creationDate": 1590533068000, "isFresh": true, "freshness": "fresh", "critic": {"url": "/critic/ruhaan-shah", "name": "Ruhaan Shah", "id": 26971, "thumbnailImage": "https://d2a5cgar23scu2.cloudfront.net/static/images/redesign/user.none.tmb.jpg"}, "quote": "There is warmth in the wintry village and compassion amidst grudging communities. ", "id": 2692396, "links": {"publication": "http://https://www.filmcompanion.in/", "review": "https://www.filmcompanion.in/streaming/15-animated-films-on-streaming-you-can-watch-with-kids/"}}, {"isRotten": false, "url": "http://www.orcasound.com/2020/05/10/klaus/", "creationDate": 1589565008000, "isFresh": true, "id": 2690358, "quote": "A heartwarming take on the Christmas origin story. You will alternate between laughing and being moved by the film. ", "links": {"review": "http://www.orcasound.com/2020/05/10/klaus/"}, "publication": {"url": "", "name": "Orca Sound"}, "isTop": false, "freshness": "fresh", "critic": {"url": "/critic/carey-ann-pawsey", "name": "Carey-Ann Pawsey", "id": 22665, "thumbnailImage": "https://d2a5cgar23scu2.cloudfront.net/static/images/redesign/user.none.tmb.jpg"}, "original_score": "4/5"}, {"isRotten": false, "url": "https://www.hypable.com/netflix-klaus-movie-review/", "creationDate": 1585063820000, "isFresh": true, "id": 2678899, "quote": "Klaus has a simple message we would all do well to remember: \"A true selfless act always sparks another.\"", "links": {"review": "https://www.hypable.com/netflix-klaus-movie-review/"}, "publication": {"url": "", "name": "Hypable"}, "isTop": false, "freshness": "fresh", "critic": {"url": "/critic/karen-rought", "name": "Karen Rought", "id": 21125, "thumbnailImage": "https://resizing.flixster.com/IRaKBWlhz3thLGMkJHCHfTGINVs=/72x72/v1.YzszMjE4O2o7MTg3ODg7MjA0ODszMDA7MzAw"}, "original_score": "3.5/5"}]}, "casts": {"screenwriters": [{"url": "/celebrity/jim_mahoney/", "name": "Jim Mahoney", "thumbnailImg": "https://d2a5cgar23scu2.cloudfront.net/static/images/redesign/actor.default.tmb.gif"}, {"url": "/celebrity/zach_lewis_2/", "name": "Zach Lewis", "thumbnailImg": "https://d2a5cgar23scu2.cloudfront.net/static/images/redesign/actor.default.tmb.gif"}], "directors": [{"url": "/celebrity/sergio_pablos/", "name": "Sergio Pablos", "thumbnailImg": "https://d2a5cgar23scu2.cloudfront.net/static/images/redesign/actor.default.tmb.gif"}], "creators": [], "producers": [], "castItems": [{"person": {"url": "/celebrity/jason_schwartzman/", "name": "Jason Schwartzman", "thumbnailImg": "https://resizing.flixster.com/PJHhE00KyxY__OzeGD05Up7wrEY=/80x80/v1.cjszODc5MztqOzE4NzY4OzIwNDg7NDUzOzY1Mg"}}, {"person": {"url": "/celebrity/jk_simmons/", "name": "J.K. Simmons", "thumbnailImg": "https://resizing.flixster.com/CXpjtld2uqGH2m-OY7BVEFF48xo=/80x80/v1.cjs0OTE2NTtqOzE4NzkwOzIwNDg7MTkwNjsxOTU4"}}, {"person": {"url": "/celebrity/1191049-rashida_jones/", "name": "Rashida Jones", "thumbnailImg": "https://resizing.flixster.com/nUSU4LOj_Mcr1eOWOPm3aCF_HoU=/80x80/v1.cjs0ODE4OTtqOzE4ODA0OzIwNDg7NjgyOzEwMjM"}}, {"person": {"url": "/celebrity/will_sasso/", "name": "Will Sasso", "thumbnailImg": "https://resizing.flixster.com/NL03N7G5oB32XVOnzqHorfo9eeA=/80x80/v1.cDs0ODY1OTIzO2o7MTg4MDQ7MjA0ODszMzA7MjY2"}}, {"person": {"url": "/celebrity/neda_margrethe_labba/", "name": "Neda Margrethe Labba", "thumbnailImg": "https://d2a5cgar23scu2.cloudfront.net/static/images/redesign/actor.default.tmb.gif"}}, {"person": {"url": "/celebrity/sergio_pablos/", "name": "Sergio Pablos", "thumbnailImg": "https://d2a5cgar23scu2.cloudfront.net/static/images/redesign/actor.default.tmb.gif"}}, {"person": {"url": "/celebrity/norm_mcdonald/", "name": "Norm Macdonald", "thumbnailImg": "https://resizing.flixster.com/1_0_FeuUSw5XEiBFNuWiENkCrSg=/80x80/v1.cjs0MzgxMjtqOzE4NzkyOzIwNDg7Mzk5OzM1NQ"}}, {"person": {"url": "/celebrity/with_joan_cusack/", "name": "Joan Cusack", "thumbnailImg": "https://resizing.flixster.com/kiRfQ6CNR45Cd4U841Dx4bW2cP8=/80x80/v1.cjs0OTIyMTtqOzE4ODAxOzIwNDg7MTg2ODsxOTc5"}}]}, "title": "Klaus", "adjustedScore": 96.14778382131698, "ratings": {"critics_rating": "Certified Fresh", "audience_score": 100, "dvdReleaseDate": 1573804800000, "critics_score": 94, "theaterReleaseDate": 1573200000000, "audience_rating": "Upright"}, "videoClips": {"mainTrailer": {"hlsUrl": "http://video.internetvideoarchive.net/video.m3u8?cmd=6&publishedid=http://link.theplatform.com/s/NGweTC/media/KUY6mjexYIb9&customerid=300120&e=1619087144939&sub=RTO&fmt=11&h=5ec7fe909512ad5d479ede69c1bca4a6", "seconds": 44, "minutes": 0, "id": 11316865, "title": "Klaus: Movie Clip - Family Feuds", "thumbUrl": "http://resizing.flixster.com/tw5V94A45xN6vFzaYe1GqPt7wvw=/171x128/v1.bjsyNDEyNjg2O2o7MTg4Mzc7MjA0ODsxMDgwOzE5MjA", "mp4Url": "http://video.internetvideoarchive.net/video.mp4?cmd=6&publishedid=http://link.theplatform.com/s/NGweTC/media/KUY6mjexYIb9&customerid=300120&e=1619087144939&sub=RTO&fmt=4&videokbrate=750&h=d8b01319218a1a055deaf0ce1a8492d7"}, "size": 2, "videoClips": [{"hlsUrl": "http://video.internetvideoarchive.net/video.m3u8?cmd=6&publishedid=http://link.theplatform.com/s/NGweTC/media/KUY6mjexYIb9&customerid=300120&e=1619087144939&sub=RTO&fmt=11&h=5ec7fe909512ad5d479ede69c1bca4a6", "seconds": 44, "minutes": 0, "id": 11316865, "title": "Klaus: Movie Clip - Family Feuds", "thumbUrl": "http://resizing.flixster.com/tw5V94A45xN6vFzaYe1GqPt7wvw=/171x128/v1.bjsyNDEyNjg2O2o7MTg4Mzc7MjA0ODsxMDgwOzE5MjA", "mp4Url": "http://video.internetvideoarchive.net/video.mp4?cmd=6&publishedid=http://link.theplatform.com/s/NGweTC/media/KUY6mjexYIb9&customerid=300120&e=1619087144939&sub=RTO&fmt=4&videokbrate=750&h=d8b01319218a1a055deaf0ce1a8492d7"}, {"hlsUrl": "http://video.internetvideoarchive.net/video.m3u8?cmd=6&publishedid=http://link.theplatform.com/s/NGweTC/media/92rRsidQ3vgy&customerid=300120&e=1619087144939&sub=RTO&fmt=11&h=25f6d86cc1b4e90c57e7436024d80ff5", "seconds": 31, "minutes": 2, "id": 11313897, "title": "Klaus: Trailer 1", "thumbUrl": "http://resizing.flixster.com/Uj-c5tUYEGPtFs_-2aD2OlUFfII=/171x128/v1.bjsyMzg1NTk0O2o7MTg4Mzc7MjA0ODsxMDgwOzE5MjA", "mp4Url": "http://video.internetvideoarchive.net/video.mp4?cmd=6&publishedid=http://link.theplatform.com/s/NGweTC/media/92rRsidQ3vgy&customerid=300120&e=1619087144939&sub=RTO&fmt=4&videokbrate=750&h=16384f0d1cd1c1ab3487c3e05ad48d12"}]}, "isUpcoming": false, "posters": {"original": "https://resizing.flixster.com/FvrGka2PFwfnoQJQwKL9DKKS_C4=/1500x2222/v1.bTsxMzIwNzQ5ODtqOzE4ODI1OzIwNDg7MTUwMDsyMjIy", "detailed": "https://resizing.flixster.com/kQHfRJNU6Vt38kkV3VYGhyleFfM=/180x267/v1.bTsxMzIwNzQ5ODtqOzE4ODI1OzIwNDg7MTUwMDsyMjIy", "profile": "https://resizing.flixster.com/mTuUuQZo_42aDLDedvJJ_06PaH8=/120x178/v1.bTsxMzIwNzQ5ODtqOzE4ODI1OzIwNDg7MTUwMDsyMjIy", "thumbnail": "https://resizing.flixster.com/jM3ClISQbmoy1VoWhE9hYB-H4E8=/54x80/v1.bTsxMzIwNzQ5ODtqOzE4ODI1OzIwNDg7MTUwMDsyMjIy"}, "isLimited": true, "mainTrailer": {"thumbUrl": "https://resizing.flixster.com/tw5V94A45xN6vFzaYe1GqPt7wvw=/171x128/v1.bjsyNDEyNjg2O2o7MTg4Mzc7MjA0ODsxMDgwOzE5MjA", "hlsUrl": "http://video.internetvideoarchive.net/video.m3u8?cmd=6&publishedid=http://link.theplatform.com/s/NGweTC/media/KUY6mjexYIb9&customerid=300120&e=1619087144717&sub=RTO&fmt=11&h=05807ffe94fbdb0fb8da4c8316e65cd6", "id": 11316865, "mp4Url": "http://video.internetvideoarchive.net/video.mp4?cmd=6&publishedid=http://link.theplatform.com/s/NGweTC/media/KUY6mjexYIb9&customerid=300120&e=1619087144717&sub=RTO&fmt=4&videokbrate=750&h=e11b2d6d891abd2321557c55c0969201"}, "advisory": "for rude humor and mild action", "id": 771511531}