{"url": "/m/the_witches/", "isOnOpening": false, "genreSet": [{"displayName": "Horror", "id": 10}, {"displayName": "Kids & Family", "id": 11}, {"displayName": "Science Fiction & Fantasy", "id": 14}], "runningTime": 91, "isInTheaters": false, "synopsis": "A little boy and his kindly grandmother thwart the efforts of a coven of witches to rid Britain of children by turning them into mice.", "links": {"alternate": "//www.rottentomatoes.com/m/the_witches/"}, "year": 1990, "trackingType": "DvdOther", "status": "Live", "isPlaying": false, "isOnDVD": true, "runningTimeStr": "1 hr. 31 min.", "ratingSummary": {"topcount": 16, "consensus": "With a deliciously wicked performance from Angelica Huston and imaginative puppetry by Jim Henson's creature shop, Nicolas Roeg's dark and witty movie captures the spirit of Roald Dahl's writing like few other adaptations.", "topCritics": {"hasScore": true, "numReviews": 16, "meterClass": "certified", "numRotten": 1, "numFresh": 15, "hasReviews": true, "meterValue": 94, "averageRating": 8.09375}, "audience": {"meterScore": 70, "averageScore": 3.2396185398101807, "numTotal": 59436, "ratingType": "viewed"}, "allcount": 43, "rottencount": 3, "dvdcount": 1, "allCritics": {"hasScore": true, "numReviews": 43, "meterClass": "certified", "numRotten": 3, "numFresh": 40, "hasReviews": true, "meterValue": 93, "averageRating": 7.55}, "freshcount": 40}, "mpaaRating": "PG", "vanity": "the_witches", "studio": "Warner Bros. Pictures", "purchaseOptions": {"amazon": {"url": "http://www.amazon.com/gp/product/B002SQCR32/ref=atv_feed_catalog?tag=rottetomao_aiv_mv-20", "isPrime": false, "type": "buy"}, "vudu": {"url": "https://www.vudu.com/content/movies/details/The-Witches/9240", "type": "buy"}, "flixster": {"url": "the-witches", "movieId": "ID: 2000000676; SKU:432751; Type: B (SD Buy)", "type": "buy"}, "iTunes": {"url": "https://itunes.apple.com/movie/the-witches-1990/id328294686?uo=5", "price": "12.99"}}, "reviews": {"total": 43, "links": {"alternate": "//www.rottentomatoes.com/m/the_witches/#reviews", "self": "api.flixster.com/movies/the-witches/reviews.json?review_type=mob&country=us&page=1", "prev": "api.flixster.com/movies/the-witches/reviews.json?review_type=mob&country=us&page=0", "next": "api.flixster.com/movies/the-witches/reviews.json?review_type=mob&country=us&page=2"}, "reviews": [{"isRotten": true, "url": "https://www.reelviews.net/reelviews/witches-the", "creationDate": 1597171700000, "isFresh": false, "id": 2712592, "quote": "The Witches feels like a throwaway feature rather than a fully-realized fantasy adventure...", "links": {"review": "https://www.reelviews.net/reelviews/witches-the"}, "publication": {"url": "", "name": "ReelViews"}, "isTop": true, "freshness": "rotten", "critic": {"url": "/critic/james-berardinelli", "name": "James Berardinelli", "id": 117, "thumbnailImage": "https://resizing.flixster.com/JsmeY6tEIWX9qWB0kv31lgrjBxs=/72x72/v1.YzsyNzIzO2c7MTg3ODg7MjA0ODsxNTA7MTUw"}, "original_score": "2.5/4"}, {"isRotten": false, "url": "http://community.seattletimes.nwsource.com/archive/?date=19900824&slug=1089520", "creationDate": 1385440684000, "isFresh": true, "id": 2176496, "quote": "It's not a film for small children. But for precocious first-graders with a warped sense of humor and an appetite for chills, thrills and spills, nothing could be better.", "links": {"review": "http://community.seattletimes.nwsource.com/archive/?date=19900824&slug=1089520"}, "publication": {"url": "", "name": "Seattle Times"}, "isTop": true, "freshness": "fresh", "critic": {"url": "/critic/michael-upchurch", "name": "Michael Upchurch", "id": 13098, "thumbnailImage": "https://d2a5cgar23scu2.cloudfront.net/static/images/redesign/user.none.tmb.jpg"}, "original_score": "4/4"}, {"isRotten": false, "url": "http://articles.latimes.com/1990-08-24/entertainment/ca-981_1_fantasy-movie", "publication": {"url": "", "name": "Los Angeles Times"}, "isTop": true, "creationDate": 1385439126000, "isFresh": true, "freshness": "fresh", "critic": {"url": "/critic/michael-wilmington", "name": "Michael Wilmington", "id": 258, "thumbnailImage": "https://resizing.flixster.com/69YruALURyjMc-SeJwdCRhDpmc0=/72x72/v1.YzsxNjAzO2c7MTg3OTM7MjA0ODszODs0Nw"}, "quote": "Real darkness seethes beneath the \"Once upon a time\" surface, mostly due to Henson's seemingly curious selection of the brilliant and audacious Roeg to direct.", "id": 2176484, "links": {"review": "http://articles.latimes.com/1990-08-24/entertainment/ca-981_1_fantasy-movie"}}, {"isRotten": false, "url": "http://www.filmvault.com/filmvault/austin/w/witchesthe1.html", "publication": {"url": "", "name": "Austin Chronicle"}, "isTop": true, "creationDate": 1385438849000, "isFresh": true, "freshness": "fresh", "critic": {"url": "/critic/ada-calhoun", "name": "Ada Calhoun", "id": 15846, "thumbnailImage": "https://d2a5cgar23scu2.cloudfront.net/static/images/redesign/user.none.tmb.jpg"}, "quote": "Based on a Roald Dahl book, Nicholas Roeg's The Witches is a film surprisingly faithful to the creepiness of the original.", "id": 2176481, "links": {"review": "http://www.filmvault.com/filmvault/austin/w/witchesthe1.html"}}, {"isRotten": false, "url": "http://articles.philly.com/1990-08-24/entertainment/25931719_1_witches-comfort-and-joy-high-priestess", "creationDate": 1385172412000, "isFresh": true, "id": 2176216, "quote": "The Witches is a slow-to-get-going but ultimately entertaining yarn about a nasty coven conspiring to turn Britain's entire populace of single-digiters into mice.", "links": {"review": "http://articles.philly.com/1990-08-24/entertainment/25931719_1_witches-comfort-and-joy-high-priestess"}, "publication": {"name": "Philadelphia Inquirer"}, "isTop": true, "freshness": "fresh", "critic": {"url": "/critic/steven-rea", "name": "Steven Rea", "id": 1273, "thumbnailImage": "https://resizing.flixster.com/b5K_zZfXHlHsWIjlrUu66uaoINU=/72x72/v1.YzsyMjczO2o7MTg3ODg7MjA0ODs4MDs4MA"}, "original_score": "3/4"}, {"isRotten": false, "url": "http://articles.chicagotribune.com/1990-08-28/features/9003120371_1_mai-zetterling-nicolas-roeg-jasen-fisher", "creationDate": 1385172078000, "isFresh": true, "id": 2176213, "quote": "There are moments of genuine charm and solid invention, but it`s a film that doesn't believe enough in itself.", "links": {"review": "http://articles.chicagotribune.com/1990-08-28/features/9003120371_1_mai-zetterling-nicolas-roeg-jasen-fisher"}, "publication": {"url": "", "name": "Chicago Tribune"}, "isTop": true, "freshness": "fresh", "critic": {"url": "/critic/dave-kehr", "name": "Dave Kehr", "id": 15, "thumbnailImage": "https://resizing.flixster.com/9JKqg6sYG8Ma4MxlrqIMwc3jppc=/72x72/v1.YzszNjQ3O2o7MTg3Njc7MjA0ODszMDA7MzAw"}, "original_score": "3/4"}, {"isRotten": false, "url": "http://gonewiththetwins.com/new/witches-1990/", "creationDate": 1601017265000, "isFresh": true, "id": 2728805, "quote": "Jim Henson's various puppet creations are delightfully macabre yet deviously inventive, invitingly combining the whimsical with the horrifying.", "links": {"review": "http://gonewiththetwins.com/new/witches-1990/"}, "publication": {"url": "", "name": "Gone With The Twins"}, "isTop": false, "freshness": "fresh", "critic": {"url": "/critic/mike-massie", "name": "Mike Massie", "id": 27168, "thumbnailImage": "https://resizing.flixster.com/cKCY6tR9EskewGPlb8BlnvWesZU=/72x72/v1.YzszNjc3O2o7MTg3OTc7MjA0ODszMDA7MzAw"}, "original_score": "6/10"}, {"isRotten": false, "url": "https://weliveentertainment.com/welivefilm/in-house-reviews-spree-sputnik-tony-hawk-more/", "creationDate": 1597360856000, "isFresh": true, "id": 2713291, "quote": "Better than a simple round of hocus pocus, The Witches casts the right kind of spell.", "links": {"publication": "http://weliveentertainment.com/", "review": "https://weliveentertainment.com/welivefilm/in-house-reviews-spree-sputnik-tony-hawk-more/"}, "publication": {"url": "http://weliveentertainment.com/", "name": "We Live Entertainment"}, "isTop": false, "freshness": "fresh", "critic": {"url": "/critic/aaron-neuwirth", "name": "Aaron Neuwirth", "id": 16030, "thumbnailImage": "https://resizing.flixster.com/l4t2YqPKI2oM4e03ocoX6vxDDMY=/72x72/v1.YzszODAyO2o7MTg3ODc7MjA0ODszMDA7MzAw"}, "original_score": "8/10"}, {"isRotten": true, "url": "https://cdnc.ucr.edu/?a=d&d=SCS19900831.1.63&srpos=1&e=-------en--20-SCS-1--txt-txIN-Henson+%22the+witches%22-------1", "publication": {"url": "http://www.santacruzsentinel.com", "name": "Santa Cruz Sentinel"}, "isTop": false, "creationDate": 1597172434000, "isFresh": false, "freshness": "rotten", "critic": {"url": "/critic/rick-chatenever", "name": "Rick Chatenever", "id": 13952, "thumbnailImage": "https://d2a5cgar23scu2.cloudfront.net/static/images/redesign/user.none.tmb.jpg"}, "quote": "\"The Witches\" is more fun for parents than kids and not all that much fun for anyone.", "id": 2712603, "links": {"publication": "http://www.santacruzsentinel.com", "review": "https://cdnc.ucr.edu/?a=d&d=SCS19900831.1.63&srpos=1&e=-------en--20-SCS-1--txt-txIN-Henson+%22the+witches%22-------1"}}, {"isRotten": false, "url": "https://buffalonews.com/news/witches-springs-from-strange-brew-a-darker-henson-and-a-lighter-roeg-are-nearly-the/article_32ca103e-cf70-5a1c-abf3-b60d7c9879d3.html", "creationDate": 1597172240000, "isFresh": true, "id": 2712598, "quote": "One of the damndest creative collaborations to hit movies since Laurence Olivier and Marilyn Monroe pretended to vamp each other in \"The Prince and the Showgirl.\"", "links": {"review": "https://buffalonews.com/news/witches-springs-from-strange-brew-a-darker-henson-and-a-lighter-roeg-are-nearly-the/article_32ca103e-cf70-5a1c-abf3-b60d7c9879d3.html"}, "publication": {"url": "", "name": "Buffalo News"}, "isTop": false, "freshness": "fresh", "critic": {"url": "/critic/jeff-simon", "name": "Jeff Simon", "id": 18333, "thumbnailImage": "https://d2a5cgar23scu2.cloudfront.net/static/images/redesign/user.none.tmb.jpg"}, "original_score": "3/4"}, {"isRotten": false, "url": "https://www.tampabay.com/archive/1990/08/31/suffer-the-children/", "publication": {"url": "", "name": "Tampa Bay Times"}, "isTop": false, "creationDate": 1597171575000, "isFresh": true, "freshness": "fresh", "critic": {"url": "/critic/steve-persall", "name": "Steve Persall", "id": 3876, "thumbnailImage": "https://resizing.flixster.com/gJuOr1oASZJ1SQURBPZ-FK21L6w=/72x72/v1.YzsxNzEwO2c7MTg3NjU7MjA0ODszODs0Mg"}, "quote": "The Witches is a delectably creepy movie guaranteed to keep night lights burning bright.", "id": 2712590, "links": {"review": "https://www.tampabay.com/archive/1990/08/31/suffer-the-children/"}}, {"isRotten": false, "url": "https://archive.org/stream/outweek/OutWeek%2066#page/n81/mode/2up", "publication": {"url": "", "name": "OutWeek"}, "isTop": false, "creationDate": 1590097350000, "isFresh": true, "freshness": "fresh", "critic": {"url": "/critic/madame-x", "name": "Madame X", "id": 27073, "thumbnailImage": "https://d2a5cgar23scu2.cloudfront.net/static/images/redesign/user.none.tmb.jpg"}, "quote": "The movie is a delight from beginning to end, not least because women occupy center stage.", "id": 2691562, "links": {"review": "https://archive.org/stream/outweek/OutWeek%2066#page/n81/mode/2up"}}]}, "casts": {"screenwriters": [{"url": "/celebrity/1144840-allan_scott/", "name": "Allan Scott", "thumbnailImg": "https://d2a5cgar23scu2.cloudfront.net/static/images/redesign/actor.default.tmb.gif"}], "directors": [{"url": "/celebrity/nicolas_roeg/", "name": "Nicolas Roeg", "thumbnailImg": "https://resizing.flixster.com/cMZds3t-nJw9J1TZEbKGRFzxdCw=/80x80/v1.cDsxMTE3MzM1NTtqOzE4ODg0OzIwNDg7NTAwOzM3NQ"}], "creators": [], "producers": [{"url": "/celebrity/mark_shivas/", "name": "Mark Shivas", "thumbnailImg": "https://d2a5cgar23scu2.cloudfront.net/static/images/redesign/actor.default.tmb.gif"}, {"url": "/celebrity/dusty_symonds/", "name": "Dusty Symonds", "thumbnailImg": "https://d2a5cgar23scu2.cloudfront.net/static/images/redesign/actor.default.tmb.gif"}], "castItems": [{"person": {"url": "/celebrity/anjelicahuston/", "name": "Anjelica Huston", "thumbnailImg": "https://resizing.flixster.com/mWjDsR5WunClFKSaTG4iyh3vzGo=/80x80/v1.cjs0Nzg4NztqOzE4NzcyOzIwNDg7MzY2OzM2Ng"}, "characters": [{"name": "Miss Eva Ernst/Grand High Witch"}]}, {"person": {"url": "/celebrity/mai_zetterling/", "name": "Mai Zetterling", "thumbnailImg": "https://resizing.flixster.com/J90iWlykbasqKuGV6K7i9saMPc8=/80x80/v1.cDsxMDQxODc0ODtqOzE4ODczOzIwNDg7NTAwOzY2Nw"}, "characters": [{"name": "Helga Eveshim"}]}, {"person": {"url": "/celebrity/jasen_fisher/", "name": "Jasen Fisher", "thumbnailImg": "https://resizing.flixster.com/r-kzaSzPDDG7BQoGQGLwZ9mse9g=/80x80/v1.cDs2ODM2OTM5O2o7MTg4ODg7MjA0ODsxNjA7MTIw"}, "characters": [{"name": "Luca Eveshim"}]}, {"person": {"url": "/celebrity/rowan_atkinson/", "name": "Rowan Atkinson", "thumbnailImg": "https://resizing.flixster.com/lNN3u8jv3Q2hv8LvkbbPfy75kB4=/80x80/v1.cDsxMTc0NTIzNTtqOzE4Nzc1OzIwNDg7NTI4OzgwMA"}, "characters": [{"name": "Mr. Stringer"}]}, {"person": {"url": "/celebrity/bill_paterson/", "name": "Bill Paterson", "thumbnailImg": "https://resizing.flixster.com/6pCpor5FLZZbKbI7xocrIY_-2bo=/80x80/v1.cDs1NjY2MDk2O2o7MTg3OTY7MjA0ODsyNjA7MzA5"}, "characters": [{"name": "Albert Jenkins"}]}, {"person": {"url": "/celebrity/brenda_blethyn/", "name": "Brenda Blethyn", "thumbnailImg": "https://resizing.flixster.com/MZQ-2RRdLQvHF_FiXKLOmLnlyZE=/80x80/v1.cjszNTUwO2o7MTg4MDU7MjA0ODs0MzQ7NjUy"}, "characters": [{"name": "Mrs. Jenkins"}]}, {"person": {"url": "/celebrity/jane_horrocks/", "name": "Jane Horrocks", "thumbnailImg": "https://resizing.flixster.com/gJp2AMX_ER0wSz72hKLSjA2VwNA=/80x80/v1.cDsxMDg1NjU2NTtqOzE4ODQ1OzIwNDg7NDk0OzI1Mw"}, "characters": [{"name": "Miss Ann Irvine"}]}, {"person": {"url": "/celebrity/charlie_potter/", "name": "Charlie Potter", "thumbnailImg": "https://d2a5cgar23scu2.cloudfront.net/static/images/redesign/actor.default.tmb.gif"}, "characters": [{"name": "Bruno Jenkins"}]}, {"person": {"url": "/celebrity/anne-lambton/", "name": "Anne Lambton", "thumbnailImg": "https://resizing.flixster.com/1fAYD9QhTO-S2C8ORKhiSTo56_U=/80x80/v1.cDsxMjI0NTkwODtqOzE4Nzg0OzIwNDg7MjQ2OzIzNA"}, "characters": [{"name": "The Woman in Black"}]}, {"person": {"url": "/celebrity/sukie_smith/", "name": "Sukie Smith", "thumbnailImg": "https://resizing.flixster.com/4eIJihFnCnG3tLJs7ynkC1-Sdi0=/80x80/v1.cDsxMjQ0Mzc1MTtqOzE4ODEwOzIwNDg7MTkxOzE5NQ"}, "characters": [{"name": "Marlene"}]}, {"person": {"url": "/celebrity/rose_english/", "name": "Rose English", "thumbnailImg": "https://d2a5cgar23scu2.cloudfront.net/static/images/redesign/actor.default.tmb.gif"}, "characters": [{"name": "Dora"}]}, {"person": {"url": "/celebrity/jenny_runacre/", "name": "Jenny Runacre", "thumbnailImg": "https://resizing.flixster.com/bWnnatleJTiqXj99exraRzuOLHA=/80x80/v1.cDsxMTA3MTE3MjtqOzE4ODUwOzIwNDg7MjUwOzEzOQ"}, "characters": [{"name": "Elsie"}]}, {"person": {"url": "/celebrity/annabel_brooks/", "name": "Annabel Brooks", "thumbnailImg": "https://d2a5cgar23scu2.cloudfront.net/static/images/redesign/actor.default.tmb.gif"}, "characters": [{"name": "Nicola"}]}, {"person": {"url": "/celebrity/emma_relph/", "name": "Emma Relph", "thumbnailImg": "https://d2a5cgar23scu2.cloudfront.net/static/images/redesign/actor.default.tmb.gif"}, "characters": [{"name": "Millie"}]}, {"person": {"url": "/celebrity/nora_connolly/", "name": "Nora Connolly", "thumbnailImg": "https://d2a5cgar23scu2.cloudfront.net/static/images/redesign/actor.default.tmb.gif"}, "characters": [{"name": "Beatrice"}]}, {"person": {"url": "/celebrity/rosamond_greenwood/", "name": "Rosamond Greenwood", "thumbnailImg": "https://d2a5cgar23scu2.cloudfront.net/static/images/redesign/actor.default.tmb.gif"}, "characters": [{"name": "Janice"}]}, {"person": {"url": "/celebrity/rosamud_greenwood/", "name": "Rosamud Greenwood", "thumbnailImg": "https://d2a5cgar23scu2.cloudfront.net/static/images/redesign/actor.default.tmb.gif"}, "characters": [{"name": "Janice"}]}, {"person": {"url": "/celebrity/angelique_rockas/", "name": "Angelique Rockas", "thumbnailImg": "https://resizing.flixster.com/kPGsJ0NxbF-qPK22pTZbIlyek8A=/80x80/v1.cjs0MjQzMjtqOzE4ODA3OzIwNDg7NzE5OzExMzE"}, "characters": [{"name": "Henrietta"}]}, {"person": {"url": "/celebrity/anjelique_rockas/", "name": "Anjelique Rockas", "thumbnailImg": "https://d2a5cgar23scu2.cloudfront.net/static/images/redesign/actor.default.tmb.gif"}, "characters": [{"name": "Henrietta"}]}, {"person": {"url": "/celebrity/jim_carter/", "name": "Jim Carter", "thumbnailImg": "https://resizing.flixster.com/ng3NInn3G8svbu-vs86TJbpGdkE=/80x80/v1.cjs0NDQzMjtqOzE4NzgyOzIwNDg7MTAzMTs5MTk"}, "characters": [{"name": "Head Chef"}]}, {"person": {"url": "/celebrity/roberta_taylor/", "name": "Roberta Taylor", "thumbnailImg": "https://d2a5cgar23scu2.cloudfront.net/static/images/redesign/actor.default.tmb.gif"}, "characters": [{"name": "Witch Chef"}]}, {"person": {"url": "/celebrity/brian_hawksley/", "name": "Brian Hawksley", "thumbnailImg": "https://d2a5cgar23scu2.cloudfront.net/static/images/redesign/actor.default.tmb.gif"}, "characters": [{"name": "Elderly Waiter"}]}, {"person": {"url": "/celebrity/debra_gillett/", "name": "Debra Gillett", "thumbnailImg": "https://d2a5cgar23scu2.cloudfront.net/static/images/redesign/actor.default.tmb.gif"}, "characters": [{"name": "Waitress"}]}, {"person": {"url": "/celebrity/darcy_flynn/", "name": "Darcy Flynn", "thumbnailImg": "https://d2a5cgar23scu2.cloudfront.net/static/images/redesign/actor.default.tmb.gif"}, "characters": [{"name": "Luke's Mother"}]}, {"person": {"url": "/celebrity/vincent_marzello/", "name": "Vincent Marzello", "thumbnailImg": "https://d2a5cgar23scu2.cloudfront.net/static/images/redesign/actor.default.tmb.gif"}, "characters": [{"name": "Luke's Father"}]}, {"person": {"url": "/celebrity/serena_harragin/", "name": "Serena Harragin", "thumbnailImg": "https://d2a5cgar23scu2.cloudfront.net/static/images/redesign/actor.default.tmb.gif"}, "characters": [{"name": "Doctor"}]}, {"person": {"url": "/celebrity/greta_nordra/", "name": "Greta Nordra", "thumbnailImg": "https://d2a5cgar23scu2.cloudfront.net/static/images/redesign/actor.default.tmb.gif"}, "characters": [{"name": "Norwegian Witch"}]}, {"person": {"url": "/celebrity/elsie_eide/", "name": "Elsie Eide", "thumbnailImg": "https://d2a5cgar23scu2.cloudfront.net/static/images/redesign/actor.default.tmb.gif"}, "characters": [{"name": "Erica"}]}, {"person": {"url": "/celebrity/kirstin_steinsland/", "name": "Kirstin Steinsland", "thumbnailImg": "https://d2a5cgar23scu2.cloudfront.net/static/images/redesign/actor.default.tmb.gif"}, "characters": [{"name": "Child Helga"}]}, {"person": {"url": "/celebrity/merete_armand/", "name": "Merete Armand", "thumbnailImg": "https://d2a5cgar23scu2.cloudfront.net/static/images/redesign/actor.default.tmb.gif"}, "characters": [{"name": "Erica's Mother"}]}, {"person": {"url": "/celebrity/ola_otnes/", "name": "Ola Otnes", "thumbnailImg": "https://d2a5cgar23scu2.cloudfront.net/static/images/redesign/actor.default.tmb.gif"}, "characters": [{"name": "Erica's Father"}]}, {"person": {"url": "/celebrity/ann_tirard/", "name": "Ann Tirard", "thumbnailImg": "https://d2a5cgar23scu2.cloudfront.net/static/images/redesign/actor.default.tmb.gif"}, "characters": [{"name": "Lady #1"}]}, {"person": {"url": "/celebrity/leila_hoffman/", "name": "Leila Hoffman", "thumbnailImg": "https://d2a5cgar23scu2.cloudfront.net/static/images/redesign/actor.default.tmb.gif"}, "characters": [{"name": "Lady #2"}]}, {"person": {"url": "/celebrity/johan_sverre/", "name": "Johan Sverre", "thumbnailImg": "https://d2a5cgar23scu2.cloudfront.net/static/images/redesign/actor.default.tmb.gif"}, "characters": [{"name": "Policeman"}]}, {"person": {"url": "/celebrity/arvid_ones/", "name": "Arvid Ones", "thumbnailImg": "https://d2a5cgar23scu2.cloudfront.net/static/images/redesign/actor.default.tmb.gif"}, "characters": [{"name": "Policeman"}]}, {"person": {"url": "/celebrity/sverre_rossummoen/", "name": "Sverre Rossummoen", "thumbnailImg": "https://d2a5cgar23scu2.cloudfront.net/static/images/redesign/actor.default.tmb.gif"}, "characters": [{"name": "Policeman"}]}]}, "title": "The Witches", "adjustedScore": 95.56973857891198, "ratings": {"critics_rating": "Certified Fresh", "audience_score": 70, "dvdReleaseDate": 930034800000, "critics_score": 93, "theaterReleaseDate": 635155200000, "audience_rating": "Upright"}, "videoClips": {"mainTrailer": {"hlsUrl": "http://video.internetvideoarchive.net/video.m3u8?cmd=6&publishedid=1145&customerid=300120&e=1619087170018&sub=RTO&fmt=11&h=d2f01fb10601a97facfc004788e1ee07", "seconds": 19, "minutes": 1, "id": 10901239, "title": "The Witches", "thumbUrl": "http://content.internetvideoarchive.com/content/photos/031/1145_018.jpg", "mp4Url": "http://video.internetvideoarchive.net/video.mp4?cmd=6&publishedid=1145&customerid=300120&e=1619087170018&sub=RTO&fmt=4&videokbrate=750&h=e147b487514c1b478a2183c02a79ac6e"}, "size": 1, "videoClips": [{"hlsUrl": "http://video.internetvideoarchive.net/video.m3u8?cmd=6&publishedid=1145&customerid=300120&e=1619087170018&sub=RTO&fmt=11&h=d2f01fb10601a97facfc004788e1ee07", "seconds": 19, "minutes": 1, "id": 10901239, "title": "The Witches", "thumbUrl": "http://content.internetvideoarchive.com/content/photos/031/1145_018.jpg", "mp4Url": "http://video.internetvideoarchive.net/video.mp4?cmd=6&publishedid=1145&customerid=300120&e=1619087170018&sub=RTO&fmt=4&videokbrate=750&h=e147b487514c1b478a2183c02a79ac6e"}]}, "isUpcoming": false, "posters": {"original": "https://resizing.flixster.com/i-HhAf0zMa9fPGdQy7k765Rc6yA=/1500x2000/v1.bTsxMTIwNzQ1MztqOzE4ODcyOzIwNDg7MTUwMDsyMDAw", "detailed": "https://resizing.flixster.com/hDf-0BaxQY15grBnwGt5UPNlHSU=/180x240/v1.bTsxMTIwNzQ1MztqOzE4ODcyOzIwNDg7MTUwMDsyMDAw", "profile": "https://resizing.flixster.com/UmrIp4YIG5zYKrk1M7y0FquTwcI=/120x160/v1.bTsxMTIwNzQ1MztqOzE4ODcyOzIwNDg7MTUwMDsyMDAw", "thumbnail": "https://resizing.flixster.com/SbbCf_6ZZS6YocCx5irHdLTC52U=/54x72/v1.bTsxMTIwNzQ1MztqOzE4ODcyOzIwNDg7MTUwMDsyMDAw"}, "isLimited": false, "mainTrailer": {"thumbUrl": "https://content.internetvideoarchive.com/content/photos/031/1145_018.jpg", "hlsUrl": "http://video.internetvideoarchive.net/video.m3u8?cmd=6&publishedid=1145&customerid=300120&e=1619087169438&sub=RTO&fmt=11&h=399debe8becde3ed25ecaf97911cae25", "id": 10901239, "mp4Url": "http://video.internetvideoarchive.net/video.mp4?cmd=6&publishedid=1145&customerid=300120&e=1619087169438&sub=RTO&fmt=4&videokbrate=750&h=e9704b369d5cd51efd31647789895649"}, "photos": {"photos": [{"url": "https://resizing.flixster.com/oYjE6A7wqb0RRHpS51BeSMK3sE0=/687x1024/v1.bjsxNzk3Nzc7ajsxODc2OTsyMDQ4OzIwMTQ7MzAwMA", "index": 0, "submittedBy": "RT Staff", "height": 1024, "imageId": 179777, "thumbnail": "https://resizing.flixster.com/Z9v-AglW8kyeKzwrZjPXrXfbVHw=/80x80/v1.bjsxNzk3Nzc7ajsxODc2OTsyMDQ4OzIwMTQ7MzAwMA", "submittedDate": "2014-07-02", "id": "multiuse-179777", "photoType": "movie", "width": 687}, {"url": "https://resizing.flixster.com/zeG7go1fwZdKq9RBpUySQDyIepM=/1024x768/v1.bjsxNzk3Nzg7ajsxODc3MDsyMDQ4OzMwMDA7MjI1MA", "index": 1, "submittedBy": "RT Staff", "height": 768, "imageId": 179778, "thumbnail": "https://resizing.flixster.com/G06E_cdBW7bx1Nbp9qvg_Pz3p4U=/80x80/v1.bjsxNzk3Nzg7ajsxODc3MDsyMDQ4OzMwMDA7MjI1MA", "submittedDate": "2014-07-02", "id": "multiuse-179778", "photoType": "movie", "width": 1024}, {"url": "https://resizing.flixster.com/8lUlWRycA4Q3CCcW8rPrOfUlMpA=/720x483/v1.bjsxNzk3Nzk7ajsxODc3MTsyMDQ4OzcyMDs0ODM", "index": 2, "submittedBy": "RT Staff", "height": 483, "imageId": 179779, "thumbnail": "https://resizing.flixster.com/Mx_URTjiebOQrsR3V27OsjRTwok=/80x80/v1.bjsxNzk3Nzk7ajsxODc3MTsyMDQ4OzcyMDs0ODM", "submittedDate": "2014-07-02", "id": "multiuse-179779", "photoType": "movie", "width": 720}, {"url": "https://resizing.flixster.com/WZbUabjbGsauTGkwcn00bL-teBA=/720x478/v1.bjsxNzk3ODA7ajsxODc3MjsyMDQ4OzcyMDs0Nzg", "index": 3, "submittedBy": "RT Staff", "height": 478, "imageId": 179780, "thumbnail": "https://resizing.flixster.com/CCb3XV2rLcRegqQgO-nYlo7uuGE=/80x80/v1.bjsxNzk3ODA7ajsxODc3MjsyMDQ4OzcyMDs0Nzg", "submittedDate": "2014-07-02", "id": "multiuse-179780", "photoType": "movie", "width": 720}, {"url": "https://resizing.flixster.com/dpPeEE7bJnfCVbOMbN-hH0s3TKo=/720x483/v1.bjsxNzk3ODE7ajsxODc3MzsyMDQ4OzcyMDs0ODM", "index": 4, "submittedBy": "RT Staff", "height": 483, "imageId": 179781, "thumbnail": "https://resizing.flixster.com/K4-8NwhDQat9uYko5kvxkXX1Kfo=/80x80/v1.bjsxNzk3ODE7ajsxODc3MzsyMDQ4OzcyMDs0ODM", "submittedDate": "2014-07-02", "id": "multiuse-179781", "photoType": "movie", "width": 720}, {"url": "https://resizing.flixster.com/HCyYL2CR0vEnTpOBVlfh2_NbDv4=/720x478/v1.bjsxNzk3ODQ7ajsxODc3NjsyMDQ4OzcyMDs0Nzg", "index": 5, "submittedBy": "RT Staff", "height": 478, "imageId": 179784, "thumbnail": "https://resizing.flixster.com/oO2rLaKuoNRMWAbbzDrHi7Axn4Y=/80x80/v1.bjsxNzk3ODQ7ajsxODc3NjsyMDQ4OzcyMDs0Nzg", "submittedDate": "2014-07-02", "id": "multiuse-179784", "photoType": "movie", "width": 720}, {"url": "https://resizing.flixster.com/4z1YTKfJn-loQmv6gHIG_inJ8KE=/720x480/v1.bjsxNzk3ODU7ajsxODc3NzsyMDQ4OzcyMDs0ODA", "index": 6, "submittedBy": "RT Staff", "height": 480, "imageId": 179785, "thumbnail": "https://resizing.flixster.com/gHVbZN8kz5LeS0eme5Tw4mzbyvQ=/80x80/v1.bjsxNzk3ODU7ajsxODc3NzsyMDQ4OzcyMDs0ODA", "submittedDate": "2014-07-02", "id": "multiuse-179785", "photoType": "movie", "width": 720}, {"url": "https://resizing.flixster.com/5aKzLqFvJgsimKLuqnMVwAVFc8U=/584x888/v1.bjs3MzQ0OTM7ajsxODc3NjsyMDQ4OzU4NDs4ODg", "index": 7, "submittedBy": "RT Staff", "height": 888, "imageId": 734493, "thumbnail": "https://resizing.flixster.com/CalKQ6rAaig-r5weNxYPNWawbiI=/80x80/v1.bjs3MzQ0OTM7ajsxODc3NjsyMDQ4OzU4NDs4ODg", "submittedDate": "2015-06-11", "id": "multiuse-734493", "photoType": "movie", "width": 584}], "length": 8}, "id": 10115}