{"url": "/m/first_position_2011/", "isOnOpening": false, "boxoffice": "$0.9M", "genreSet": [{"displayName": "Art House & International", "id": 4}, {"displayName": "Comedy", "id": 6}, {"displayName": "Documentary", "id": 8}, {"displayName": "Drama", "id": 9}, {"displayName": "Kids & Family", "id": 11}, {"displayName": "Special Interest", "id": 15}], "officialUrl": "http://www.balletdocumentary.com/", "isInTheaters": false, "synopsis": "Every year, thousands of aspiring dancers enter one of the world's most prestigious ballet competitions, the Youth America Grand Prix, where lifelong dreams are at stake. In the final round, with hundreds competing for only a handful of elite scholarships and contracts, practice and discipline are paramount, and nothing short of perfection is expected. Bess Kargman's award-winning documentary, First Position, follows six young dancers as they prepare for a chance to enter the world of professional ballet, struggling through bloodied feet, near exhaustion and debilitating injuries, all while navigating the drama of adolescence. A showcase of awe-inspiring talent, tenacity and passion, First Position paints a thrilling and moving portrait of the most gifted young ballet stars of tomorrow. -- (C) IFC", "links": {"alternate": "//www.rottentomatoes.com/m/first_position_2011/"}, "runningTime": 90, "year": 2012, "trackingType": "DvdOther", "status": "Live", "isPlaying": false, "isOnDVD": true, "runningTimeStr": "1 hr. 30 min.", "ratingSummary": {"topcount": 36, "consensus": "An upbeat and visually dramatic documentary of children's ballet, First Position displays the potential of the human spirit when fostered at a young age.", "topCritics": {"hasScore": true, "numReviews": 36, "meterClass": "certified", "numRotten": 4, "numFresh": 32, "hasReviews": true, "meterValue": 89, "averageRating": 6.925926}, "audience": {"meterScore": 84, "averageScore": 4.063310623168945, "numTotal": 11668, "ratingType": "viewed"}, "allcount": 76, "rottencount": 5, "dvdcount": 0, "allCritics": {"hasScore": true, "numReviews": 76, "meterClass": "certified", "numRotten": 5, "numFresh": 71, "hasReviews": true, "meterValue": 93, "averageRating": 7.32}, "freshcount": 71}, "mpaaRating": "Unrated", "vanity": "first_position_2011", "studio": "Sundance Selects", "purchaseOptions": {"amazon": {"url": "http://www.amazon.com/gp/product/B008JAG6RE/ref=atv_feed_catalog?tag=rottetomao_aiv_mv-20", "isPrime": false, "type": "rent"}, "iTunes": {"url": "https://itunes.apple.com/movie/first-position/id542588344?uo=5", "price": "9.99"}}, "reviews": {"total": 76, "links": {"alternate": "//www.rottentomatoes.com/m/first_position_2011/#reviews", "self": "api.flixster.com/movies/first-position-2011/reviews.json?review_type=mob&country=us&page=1", "prev": "api.flixster.com/movies/first-position-2011/reviews.json?review_type=mob&country=us&page=0", "next": "api.flixster.com/movies/first-position-2011/reviews.json?review_type=mob&country=us&page=2"}, "reviews": [{"isRotten": false, "url": "http://www.standard.co.uk/goingout/film/first-position--film-review-8569744.html", "creationDate": 1365779071000, "isFresh": true, "id": 2137404, "quote": "Anyone with an interest in dance should enjoy this documentary ...", "links": {"review": "http://www.standard.co.uk/goingout/film/first-position--film-review-8569744.html"}, "publication": {"url": "", "name": "London Evening Standard"}, "isTop": true, "freshness": "fresh", "critic": {"url": "/critic/derek-malcolm", "name": "Derek Malcolm", "id": 368, "thumbnailImage": "https://d2a5cgar23scu2.cloudfront.net/static/images/redesign/user.none.tmb.jpg"}, "original_score": "3/5"}, {"isRotten": true, "url": "http://www.littlewhitelies.co.uk/theatrical-reviews/first-position-23618", "creationDate": 1365728881000, "isFresh": false, "id": 2137263, "quote": "Settles for heartwarming \"follow your dreams\" platitudes rather than following the cold realities of being a dancer.", "links": {"review": "http://www.littlewhitelies.co.uk/theatrical-reviews/first-position-23618"}, "publication": {"url": "", "name": "Little White Lies"}, "isTop": true, "freshness": "rotten", "critic": {"url": "/critic/david-jenkins", "name": "David Jenkins", "id": 12304, "thumbnailImage": "https://d2a5cgar23scu2.cloudfront.net/static/images/redesign/user.none.tmb.jpg"}, "original_score": "2/5"}, {"isRotten": true, "url": "http://www.guardian.co.uk/film/2013/apr/11/first-position-review", "creationDate": 1365723813000, "isFresh": false, "id": 2137247, "quote": "A blandly feelgood documentary about aspiring young ballet dancers.", "links": {"review": "http://www.guardian.co.uk/film/2013/apr/11/first-position-review"}, "publication": {"url": "", "name": "Guardian"}, "isTop": true, "freshness": "rotten", "critic": {"url": "/critic/peter-bradshaw", "name": "Peter Bradshaw", "id": 408, "thumbnailImage": "https://d2a5cgar23scu2.cloudfront.net/static/images/redesign/user.none.tmb.jpg"}, "original_score": "1/5"}, {"isRotten": false, "url": "http://www.ft.com/intl/cms/s/2/2f61a764-a291-11e2-9b70-00144feabdc0.html?ftcamp=published_links%2Frss%2Flife-arts_film-television%2Ffeed%2F%2Fproduct#axzz2QBSE2wbN", "creationDate": 1365708215000, "isFresh": true, "id": 2137125, "quote": "A griping documentary following several ballet hopefuls as they prepare for an international competition.", "links": {"review": "http://www.ft.com/intl/cms/s/2/2f61a764-a291-11e2-9b70-00144feabdc0.html?ftcamp=published_links%2Frss%2Flife-arts_film-television%2Ffeed%2F%2Fproduct#axzz2QBSE2wbN"}, "publication": {"url": "", "name": "Financial Times"}, "isTop": true, "freshness": "fresh", "critic": {"url": "/critic/antonia-quirke", "name": "Antonia Quirke", "id": 10415, "thumbnailImage": "https://d2a5cgar23scu2.cloudfront.net/static/images/redesign/user.none.tmb.jpg"}, "original_score": "3/5"}, {"isRotten": false, "url": "http://www.timeout.com/london/film/first-position", "creationDate": 1365616327000, "isFresh": true, "id": 2136933, "quote": "Undeniably effective as drama, as we ponder the varying degrees of ambition and talent driving these young people to push their bodies beyond the limit in the hope of grasping a future in the spotlight.", "links": {"review": "http://www.timeout.com/london/film/first-position"}, "publication": {"url": "", "name": "Time Out"}, "isTop": true, "freshness": "fresh", "critic": {"url": "/critic/trevor-johnston", "name": "Trevor Johnston", "id": 12292, "thumbnailImage": "https://d2a5cgar23scu2.cloudfront.net/static/images/redesign/user.none.tmb.jpg"}, "original_score": "3/5"}, {"isRotten": false, "url": "http://www.empireonline.com/reviews/reviewcomplete.asp?FID=138115", "creationDate": 1365434988000, "isFresh": true, "id": 2136778, "quote": "A touching look at ballet's battle-hardened youngsters.", "links": {"review": "http://www.empireonline.com/reviews/reviewcomplete.asp?FID=138115"}, "publication": {"url": "", "name": "Empire Magazine"}, "isTop": true, "freshness": "fresh", "critic": {"url": "/critic/patrick-peters", "name": "Patrick Peters", "id": 3982, "thumbnailImage": "https://d2a5cgar23scu2.cloudfront.net/static/images/redesign/user.none.tmb.jpg"}, "original_score": "3/5"}, {"isRotten": false, "url": "https://macguff.in/macguffin-content/film-review-first-position/", "creationDate": 1596220467000, "isFresh": true, "id": 2710038, "quote": "Director Bess Kargman has given us a documentary that doesn't present much beyond what we have seen in other films like it, but is an entertaining and enjoyable experience nonetheless. ", "links": {"review": "https://macguff.in/macguffin-content/film-review-first-position/"}, "publication": {"url": "", "name": "The MacGuffin"}, "isTop": false, "freshness": "fresh", "critic": {"url": "/critic/allen-almachar", "name": "Allen Almachar", "id": 27251, "thumbnailImage": "https://resizing.flixster.com/685wa0E3pM9hb-0fDGyxkU_RFPI=/72x72/v1.YzszNzIzO2o7MTg3OTg7MjA0ODszMDA7MzAw"}, "original_score": "B"}, {"isRotten": false, "url": "http://behindthelensonline.net/site/reviews/first-position/", "publication": {"url": "", "name": "Behind The Lens"}, "isTop": false, "creationDate": 1574741299000, "isFresh": true, "freshness": "fresh", "critic": {"url": "/critic/debbie-lynn-elias-23430", "name": "Debbie Lynn Elias", "id": 23430, "thumbnailImage": "https://resizing.flixster.com/lM9_r6adB49JEGLefzN80gmhSPI=/72x72/v1.YzszMTgyO2o7MTg3OTc7MjA0ODszMDA7MzAw"}, "quote": "A beautiful film, First Position will keep you on your toes.", "id": 2649048, "links": {"review": "http://behindthelensonline.net/site/reviews/first-position/"}}, {"isRotten": false, "url": "https://cine-vue.com/2013/04/film-review-first-position.html", "creationDate": 1550021495000, "isFresh": true, "id": 2558203, "quote": "Whilst the filmmaking is pedestrian, the dancers -- to paraphrase Joan's teacher -- \"fly\"... Kargman may not earn first position, but these dancers most certainly do.", "links": {"review": "https://cine-vue.com/2013/04/film-review-first-position.html"}, "publication": {"url": "", "name": "CineVue"}, "isTop": false, "freshness": "fresh", "critic": {"url": "/critic/jo-anne-titmarsh", "name": "Jo-Anne Titmarsh", "id": 15473, "thumbnailImage": "https://d2a5cgar23scu2.cloudfront.net/static/images/redesign/user.none.tmb.jpg"}, "original_score": "3/5"}, {"isRotten": false, "url": "http://www.laduenews.com/diversions/arts-entertainment/first-position-movie-review/article_7c9d7ed0-ab3a-11e1-803d-0019bb30f31a.html", "creationDate": 1541722482000, "isFresh": true, "id": 2530459, "quote": "This movie is, hands down, one of the most beautiful, informative and satisfying documentaries I have ever seen.", "links": {"publication": "http://laduenews.com", "review": "http://www.laduenews.com/diversions/arts-entertainment/first-position-movie-review/article_7c9d7ed0-ab3a-11e1-803d-0019bb30f31a.html"}, "publication": {"url": "http://laduenews.com", "name": "Ladue News"}, "isTop": false, "freshness": "fresh", "critic": {"url": "/critic/debbie-baldwin", "name": "Debbie Baldwin", "id": 10927, "thumbnailImage": "https://d2a5cgar23scu2.cloudfront.net/static/images/redesign/user.none.tmb.jpg"}, "original_score": "8/10"}, {"isRotten": false, "url": "https://www.heyuguys.com/eiff-2012-first-position-review/", "creationDate": 1534206668000, "isFresh": true, "id": 2497219, "quote": "First Position may be too slight, too sincere and too plain faced to truly invest in. But for those in need of something that bestows a voice both unto children with a clear focus and passion, it succeeds. ", "links": {"review": "https://www.heyuguys.com/eiff-2012-first-position-review/"}, "publication": {"url": "", "name": "HeyUGuys"}, "isTop": false, "freshness": "fresh", "critic": {"url": "/critic/jamie-neish", "name": "Jamie Neish", "id": 14490, "thumbnailImage": "https://d2a5cgar23scu2.cloudfront.net/static/images/redesign/user.none.tmb.jpg"}, "original_score": "4/5"}, {"isRotten": false, "url": "https://www.heraldsun.com.au/entertainment/movies/leigh-paatsch/what-to-stream-on-netflix-stan-foxtel-now-this-week/news-story/db7a7c868e26312450aa7cab0614dda2", "creationDate": 1533928756000, "isFresh": true, "id": 2496665, "quote": "It is edge-of-the-seat stuff by the close of the film, and not just because of the high stakes in play for all involved.", "links": {"review": "https://www.heraldsun.com.au/entertainment/movies/leigh-paatsch/what-to-stream-on-netflix-stan-foxtel-now-this-week/news-story/db7a7c868e26312450aa7cab0614dda2"}, "publication": {"url": "", "name": "Herald Sun (Australia)"}, "isTop": false, "freshness": "fresh", "critic": {"url": "/critic/leigh-paatsch", "name": "Leigh Paatsch", "id": 13081, "thumbnailImage": "https://d2a5cgar23scu2.cloudfront.net/static/images/redesign/user.none.tmb.jpg"}, "original_score": "4/5"}]}, "casts": {"screenwriters": [], "directors": [{"url": "/celebrity/bess_kargman/", "name": "Bess Kargman", "thumbnailImg": "https://d2a5cgar23scu2.cloudfront.net/static/images/redesign/actor.default.tmb.gif"}], "creators": [], "producers": [{"url": "/celebrity/bess_kargman/", "name": "Bess Kargman", "thumbnailImg": "https://d2a5cgar23scu2.cloudfront.net/static/images/redesign/actor.default.tmb.gif"}], "castItems": [{"person": {"url": "/celebrity/miko_fogarty/", "name": "Miko Fogarty", "thumbnailImg": "https://d2a5cgar23scu2.cloudfront.net/static/images/redesign/actor.default.tmb.gif"}}, {"person": {"url": "/celebrity/jules_fogarty/", "name": "Jules Fogarty", "thumbnailImg": "https://d2a5cgar23scu2.cloudfront.net/static/images/redesign/actor.default.tmb.gif"}}, {"person": {"url": "/celebrity/joan_sebastian_zamora_4/", "name": "Joan Sebastian Zamora", "thumbnailImg": "https://d2a5cgar23scu2.cloudfront.net/static/images/redesign/actor.default.tmb.gif"}}, {"person": {"url": "/celebrity/aran-bell/", "name": "Aran Bell", "thumbnailImg": "https://d2a5cgar23scu2.cloudfront.net/static/images/redesign/actor.default.tmb.gif"}}, {"person": {"url": "/celebrity/michaela_deprince_4/", "name": "Michaela DePrince", "thumbnailImg": "https://d2a5cgar23scu2.cloudfront.net/static/images/redesign/actor.default.tmb.gif"}}, {"person": {"url": "/celebrity/rebecca_houseknecht/", "name": "Rebecca Houseknecht", "thumbnailImg": "https://d2a5cgar23scu2.cloudfront.net/static/images/redesign/actor.default.tmb.gif"}}, {"person": {"url": "/celebrity/gaya_bommer_yemini/", "name": "Gaya Bommer Yemini", "thumbnailImg": "https://d2a5cgar23scu2.cloudfront.net/static/images/redesign/actor.default.tmb.gif"}}, {"person": {"url": "/celebrity/jules_jarvis_fogarty/", "name": "Jules Jarvis Fogarty", "thumbnailImg": "https://d2a5cgar23scu2.cloudfront.net/static/images/redesign/actor.default.tmb.gif"}}, {"person": {"url": "/celebrity/denys_ganio/", "name": "Denys Ganio", "thumbnailImg": "https://d2a5cgar23scu2.cloudfront.net/static/images/redesign/actor.default.tmb.gif"}}, {"person": {"url": "/celebrity/viktor_kabaniaev/", "name": "Viktor Kabaniaev", "thumbnailImg": "https://d2a5cgar23scu2.cloudfront.net/static/images/redesign/actor.default.tmb.gif"}}, {"person": {"url": "/celebrity/michelle_lees/", "name": "Michelle Lees", "thumbnailImg": "https://d2a5cgar23scu2.cloudfront.net/static/images/redesign/actor.default.tmb.gif"}}, {"person": {"url": "/celebrity/flavio_salazar/", "name": "Flavio Salazar", "thumbnailImg": "https://d2a5cgar23scu2.cloudfront.net/static/images/redesign/actor.default.tmb.gif"}}, {"person": {"url": "/celebrity/bo_spassoff/", "name": "Bo Spassoff", "thumbnailImg": "https://d2a5cgar23scu2.cloudfront.net/static/images/redesign/actor.default.tmb.gif"}}, {"person": {"url": "/celebrity/stephanie_spassoff/", "name": "Stephanie Spassoff", "thumbnailImg": "https://d2a5cgar23scu2.cloudfront.net/static/images/redesign/actor.default.tmb.gif"}}, {"person": {"url": "/celebrity/larissa_saveliev/", "name": "Larissa Saveliev", "thumbnailImg": "https://d2a5cgar23scu2.cloudfront.net/static/images/redesign/actor.default.tmb.gif"}}]}, "title": "First Position", "adjustedScore": 95.17575727185736, "ratings": {"critics_rating": "Certified Fresh", "audience_score": 84, "dvdReleaseDate": 1351580400000, "critics_score": 93, "theaterReleaseDate": 1336114800000, "audience_rating": "Upright"}, "videoClips": {"mainTrailer": {"hlsUrl": "http://video.internetvideoarchive.net/video.m3u8?cmd=6&publishedid=169244&customerid=300120&e=1619087173916&sub=RTO&fmt=11&h=d1a724cdde4c288b0a0346c4d6df1dcb", "seconds": 22, "minutes": 2, "id": 11163027, "title": "First Position", "thumbUrl": "http://content.internetvideoarchive.com/content/photos/7679/169244_080.jpg", "mp4Url": "http://video.internetvideoarchive.net/video.mp4?cmd=6&publishedid=169244&customerid=300120&e=1619087173916&sub=RTO&fmt=4&videokbrate=750&h=0fbbc7ed7c06c12a6ddc7f6bf19ebb52"}, "size": 1, "videoClips": [{"hlsUrl": "http://video.internetvideoarchive.net/video.m3u8?cmd=6&publishedid=169244&customerid=300120&e=1619087173916&sub=RTO&fmt=11&h=d1a724cdde4c288b0a0346c4d6df1dcb", "seconds": 22, "minutes": 2, "id": 11163027, "title": "First Position", "thumbUrl": "http://content.internetvideoarchive.com/content/photos/7679/169244_080.jpg", "mp4Url": "http://video.internetvideoarchive.net/video.mp4?cmd=6&publishedid=169244&customerid=300120&e=1619087173916&sub=RTO&fmt=4&videokbrate=750&h=0fbbc7ed7c06c12a6ddc7f6bf19ebb52"}]}, "isUpcoming": false, "posters": {"original": "https://resizing.flixster.com/8ULhF1Vg0cnJaWZ79tH8HC1k-D8=/509x755/v1.bTsxMTE2NDI1NTtqOzE4ODc0OzIwNDg7NTA5Ozc1NQ", "detailed": "https://resizing.flixster.com/jy3L-Ur-jemFoMEFFEwx2vTaxJs=/180x267/v1.bTsxMTE2NDI1NTtqOzE4ODc0OzIwNDg7NTA5Ozc1NQ", "profile": "https://resizing.flixster.com/y7Tgc1O_PLG-8lVA8DB8sWXxif4=/120x178/v1.bTsxMTE2NDI1NTtqOzE4ODc0OzIwNDg7NTA5Ozc1NQ", "thumbnail": "https://resizing.flixster.com/zc9KWQscjdd0lLSxNnBplRIjiBE=/54x80/v1.bTsxMTE2NDI1NTtqOzE4ODc0OzIwNDg7NTA5Ozc1NQ"}, "isLimited": true, "mainTrailer": {"thumbUrl": "https://content.internetvideoarchive.com/content/photos/7679/169244_080.jpg", "hlsUrl": "http://video.internetvideoarchive.net/video.m3u8?cmd=6&publishedid=169244&customerid=300120&e=1619087173655&sub=RTO&fmt=11&h=00c1e2edad161ffd5d43dba9ba8b5312", "id": 11163027, "mp4Url": "http://video.internetvideoarchive.net/video.mp4?cmd=6&publishedid=169244&customerid=300120&e=1619087173655&sub=RTO&fmt=4&videokbrate=750&h=41dfdb0c3092ab336441c935a27cb19c"}, "photos": {"photos": [{"url": "https://resizing.flixster.com/lUF1YKo2d1RoitjdpynrR_n0Sus=/1024x768/v1.bjs0NjU4NTtqOzE4Nzc1OzIwNDg7MTAyNDs3Njg", "index": 0, "submittedBy": "RT Staff", "height": 768, "imageId": 46585, "thumbnail": "https://resizing.flixster.com/dE8O_LR4lMbu4wgIjsaNzd-zhos=/80x80/v1.bjs0NjU4NTtqOzE4Nzc1OzIwNDg7MTAyNDs3Njg", "submittedDate": "2014-06-30", "id": "multiuse-46585", "photoType": "movie", "width": 1024}, {"url": "https://resizing.flixster.com/IK9HePLM8x7JCw8nRRSrpWoWPvc=/1024x768/v1.bjs0NjU4NjtqOzE4Nzc2OzIwNDg7MTAyNDs3Njg", "index": 1, "submittedBy": "RT Staff", "height": 768, "imageId": 46586, "thumbnail": "https://resizing.flixster.com/v4nM19UU2cVIMO6jMpHLhQ5nYC8=/80x80/v1.bjs0NjU4NjtqOzE4Nzc2OzIwNDg7MTAyNDs3Njg", "submittedDate": "2014-06-30", "id": "multiuse-46586", "photoType": "movie", "width": 1024}, {"url": "https://resizing.flixster.com/jMaJJuGFlR7XZj8eb_FDopuUatU=/1024x512/v1.bjs0NjU4NztqOzE4Nzc3OzIwNDg7MTUwMDs3NTA", "index": 2, "submittedBy": "RT Staff", "height": 512, "imageId": 46587, "thumbnail": "https://resizing.flixster.com/qx0Of3Q1zy4U_b2xNPt6K3j2vrA=/80x80/v1.bjs0NjU4NztqOzE4Nzc3OzIwNDg7MTUwMDs3NTA", "submittedDate": "2014-06-30", "id": "multiuse-46587", "photoType": "movie", "width": 1024}, {"url": "https://resizing.flixster.com/Brzj8F2z7XjCX7NjHp8hrVEUSjQ=/1024x768/v1.bjs0NjU4ODtqOzE4Nzc4OzIwNDg7MTAyNDs3Njg", "index": 3, "submittedBy": "RT Staff", "height": 768, "imageId": 46588, "thumbnail": "https://resizing.flixster.com/ZlOuAr4tCygD75XBaulVWtSnHlE=/80x80/v1.bjs0NjU4ODtqOzE4Nzc4OzIwNDg7MTAyNDs3Njg", "submittedDate": "2014-06-30", "id": "multiuse-46588", "photoType": "movie", "width": 1024}, {"url": "https://resizing.flixster.com/y6dGekywMrJqjQOUyzhbACuFmms=/585x585/v1.bjsyMjMxOTY1O2o7MTg4MDA7MjA0ODs1ODU7NTg1", "index": 4, "submittedBy": "RT Staff", "height": 585, "imageId": 2231965, "thumbnail": "https://resizing.flixster.com/EqMz_RPWO1urTP7dq4c_zpOqCUE=/80x80/v1.bjsyMjMxOTY1O2o7MTg4MDA7MjA0ODs1ODU7NTg1", "submittedDate": "2019-04-10", "id": "multiuse-2231965", "photoType": "movie", "width": 585}, {"url": "https://resizing.flixster.com/bXu1qxjAjj881HVBvBmR5AokwAc=/1024x576/v1.bjsyNTcxNTI3O2o7MTg4NDE7MjA0ODsxMjgwOzcyMA", "index": 5, "submittedBy": "RT Staff", "height": 576, "imageId": 2571527, "thumbnail": "https://resizing.flixster.com/VvkHbbz87LtC9eM_XFljRohp-Qk=/80x80/v1.bjsyNTcxNTI3O2o7MTg4NDE7MjA0ODsxMjgwOzcyMA", "submittedDate": "2020-08-02", "id": "multiuse-2571527", "photoType": "movie", "width": 1024}, {"url": "https://resizing.flixster.com/S-BHFq7vqfq9DnDfUuobhHupRiY=/405x600/v1.aDs4ODM5NTtqOzE4NzgxOzIwNDg7NTA5Ozc1NQ", "index": 6, "submittedBy": "RT Staff", "height": 600, "imageId": 88395, "thumbnail": "https://resizing.flixster.com/3yGhmARBqGgXUo0zcbAxQHPihg4=/80x80/v1.aDs4ODM5NTtqOzE4NzgxOzIwNDg7NTA5Ozc1NQ", "submittedDate": "2012-03-30", "caption": "", "id": "movie-88395", "photoType": "movie", "width": 405}, {"url": "https://resizing.flixster.com/cye4I39HC_t3GhlUWSR3BTLD3Wc=/600x351/v1.aDs4ODM5NjtqOzE4NzgyOzIwNDg7MTAwMDs1ODU", "index": 7, "submittedBy": "RT Staff", "height": 351, "imageId": 88396, "thumbnail": "https://resizing.flixster.com/1c8XG360s5X8LHuwXvO-Ym7sSAQ=/80x80/v1.aDs4ODM5NjtqOzE4NzgyOzIwNDg7MTAwMDs1ODU", "submittedDate": "2012-03-30", "caption": "", "id": "movie-88396", "photoType": "movie", "width": 600}, {"url": "https://resizing.flixster.com/a8zPb-xeE9GH8H0_tKtFEdZSUA4=/337x600/v1.aDs4ODM5NztqOzE4NzgzOzIwNDg7NzE4OzEyODA", "index": 8, "submittedBy": "RT Staff", "height": 600, "imageId": 88397, "thumbnail": "https://resizing.flixster.com/_cdvbBN2nfseX0IPxsXSMeMDvdI=/80x80/v1.aDs4ODM5NztqOzE4NzgzOzIwNDg7NzE4OzEyODA", "submittedDate": "2012-03-30", "caption": "", "id": "movie-88397", "photoType": "movie", "width": 337}, {"url": "https://resizing.flixster.com/IhK8u9VJNZqZBYKMAK3ZgVrH9a0=/600x338/v1.aDs4ODM5ODtqOzE4Nzg0OzIwNDg7OTk5OzU2Mg", "index": 9, "submittedBy": "RT Staff", "height": 338, "imageId": 88398, "thumbnail": "https://resizing.flixster.com/CYOqM_8SrrnASAQXkRPM5sJu49Q=/80x80/v1.aDs4ODM5ODtqOzE4Nzg0OzIwNDg7OTk5OzU2Mg", "submittedDate": "2012-03-30", "caption": "", "id": "movie-88398", "photoType": "movie", "width": 600}, {"url": "https://resizing.flixster.com/X_2oI5LvlSvpMOeZOWAlx2hGIW0=/600x338/v1.aDs4ODM5OTtqOzE4Nzg1OzIwNDg7MTkyMDsxMDgw", "index": 10, "submittedBy": "RT Staff", "height": 338, "imageId": 88399, "thumbnail": "https://resizing.flixster.com/JUYAOKp7R_P6RkkeyedZrMKG6Sw=/80x80/v1.aDs4ODM5OTtqOzE4Nzg1OzIwNDg7MTkyMDsxMDgw", "submittedDate": "2012-03-30", "caption": "", "id": "movie-88399", "photoType": "movie", "width": 600}, {"url": "https://resizing.flixster.com/HtHWeEXCf2aZMFwvvXuHQyUv1kQ=/600x337/v1.aDs4ODQwMDtqOzE4Nzg2OzIwNDg7MTE2NDs2NTQ", "index": 11, "submittedBy": "RT Staff", "height": 337, "imageId": 88400, "thumbnail": "https://resizing.flixster.com/jWyiltLE_6l5gxadWuSYx-WvpE8=/80x80/v1.aDs4ODQwMDtqOzE4Nzg2OzIwNDg7MTE2NDs2NTQ", "submittedDate": "2012-03-30", "caption": "", "id": "movie-88400", "photoType": "movie", "width": 600}, {"url": "https://resizing.flixster.com/5CVEt5C390PKXv1PdQaGUGMvFuc=/600x340/v1.aDs4ODQwMTtqOzE4Nzg3OzIwNDg7MTkwMzsxMDc4", "index": 12, "submittedBy": "RT Staff", "height": 340, "imageId": 88401, "thumbnail": "https://resizing.flixster.com/pw9wBIID_d7rcsoxbwAnQOhMSck=/80x80/v1.aDs4ODQwMTtqOzE4Nzg3OzIwNDg7MTkwMzsxMDc4", "submittedDate": "2012-03-30", "caption": "", "id": "movie-88401", "photoType": "movie", "width": 600}, {"url": "https://resizing.flixster.com/3XcdthzLpszDMgfkxeqJuKV6H0w=/600x419/v1.aDs4ODQwMjtqOzE4Nzg4OzIwNDg7MzY0MjsyNTQ0", "index": 13, "submittedBy": "RT Staff", "height": 419, "imageId": 88402, "thumbnail": "https://resizing.flixster.com/Of8CIgiG1RHL2pV_eoinUTL2viQ=/80x80/v1.aDs4ODQwMjtqOzE4Nzg4OzIwNDg7MzY0MjsyNTQ0", "submittedDate": "2012-03-30", "caption": "", "id": "movie-88402", "photoType": "movie", "width": 600}], "length": 14}, "id": 771253805}