{"url": "/m/lassie/", "isOnOpening": false, "boxoffice": "$0.5M", "genreSet": [{"displayName": "Action & Adventure", "id": 1}, {"displayName": "Kids & Family", "id": 11}], "officialUrl": "http://www.lassiethefilm.com/", "isInTheaters": false, "synopsis": "Set in 1938, a loyal collie travels more than 1,000 miles from northern Scotland to Yorkshire to return to her young friend. The dog, having been sold to a wealthy Duke because the boy's father was out of work, runs away and braves starvation and treacherous conditions to follow the pull of her heart toward the family who loves her.", "links": {"alternate": "//www.rottentomatoes.com/m/lassie/"}, "runningTime": 100, "year": 2006, "trackingType": "DvdOther", "status": "Live", "isPlaying": false, "isOnDVD": true, "runningTimeStr": "1 hr. 40 min.", "ratingSummary": {"topcount": 32, "consensus": "A beautifully-made retelling of the classic collie tale, one need not be a dog-lover to fall for Lassie.", "topCritics": {"hasScore": true, "numReviews": 32, "meterClass": "certified", "numRotten": 0, "numFresh": 32, "hasReviews": true, "meterValue": 100, "averageRating": 7.335938}, "audience": {"meterScore": 63, "averageScore": 2.9682579040527344, "numTotal": 48202, "ratingType": "viewed"}, "allcount": 70, "rottencount": 5, "dvdcount": 2, "allCritics": {"hasScore": true, "numReviews": 70, "meterClass": "certified", "numRotten": 5, "numFresh": 65, "hasReviews": true, "meterValue": 93, "averageRating": 7.32}, "freshcount": 65}, "mpaaRating": "PG", "vanity": "lassie", "photos": {"photos": [{"url": "https://resizing.flixster.com/kV0vOgU7fzeF56-Cfhuh6JCA04A=/300x200/v1.bjszNzUyOTk7ajsxODgxMzsyMDQ4OzMwMDsyMDA", "index": 0, "submittedBy": "RT Staff", "height": 200, "imageId": 375299, "thumbnail": "https://resizing.flixster.com/vIp3WKmtDUO_bNqYdM_7yLSEoV0=/80x80/v1.bjszNzUyOTk7ajsxODgxMzsyMDQ4OzMwMDsyMDA", "submittedDate": "2014-07-05", "id": "multiuse-375299", "photoType": "movie", "width": 300}, {"url": "https://resizing.flixster.com/gktIyaJPL4g1-xypf6WGvijcSUU=/300x200/v1.bjsyOTU5NDU7ajsxODc5MzsyMDQ4OzMwMDsyMDA", "index": 1, "submittedBy": "RT Staff", "height": 200, "imageId": 295945, "thumbnail": "https://resizing.flixster.com/QGi2RncMt1vKm8EQ2OGZypOQd7M=/80x80/v1.bjsyOTU5NDU7ajsxODc5MzsyMDQ4OzMwMDsyMDA", "submittedDate": "2014-07-03", "id": "multiuse-295945", "photoType": "movie", "width": 300}, {"url": "https://resizing.flixster.com/Yc-TJxllSh9duYwp-jN-P6C9FPQ=/300x200/v1.bjsyOTU5NDY7ajsxODc5NDsyMDQ4OzMwMDsyMDA", "index": 2, "submittedBy": "RT Staff", "height": 200, "imageId": 295946, "thumbnail": "https://resizing.flixster.com/wSt3aH6pBEK4HIem2ApgSPDeoiQ=/80x80/v1.bjsyOTU5NDY7ajsxODc5NDsyMDQ4OzMwMDsyMDA", "submittedDate": "2014-07-03", "id": "multiuse-295946", "photoType": "movie", "width": 300}, {"url": "https://resizing.flixster.com/0jipkEYdmSjybW5r_s4nX_YOvos=/512x384/v1.bjsyNzA5NTM7ajsxODc3NjsyMDQ4OzUxMjszODQ", "index": 3, "submittedBy": "RT Staff", "height": 384, "imageId": 270953, "thumbnail": "https://resizing.flixster.com/h2K41KzI6faNiFtVUFj5eWWuzJ4=/80x80/v1.bjsyNzA5NTM7ajsxODc3NjsyMDQ4OzUxMjszODQ", "submittedDate": "2014-07-03", "id": "multiuse-270953", "photoType": "movie", "width": 512}], "length": 4}, "studio": "Roadside/Samuel Goldwyn Films", "purchaseOptions": {"amazon": {"url": "http://www.amazon.com/gp/product/B00GHW058C/ref=atv_feed_catalog?tag=rottetomao_aiv_mv-20", "isPrime": false, "type": "buy"}, "vudu": {"url": "http://www.vudu.com/movies/#!content/194385/Lassie", "type": "buy"}}, "reviews": {"total": 70, "links": {"alternate": "//www.rottentomatoes.com/m/lassie/#reviews", "self": "api.flixster.com/movies/lassie/reviews.json?review_type=mob&country=us&page=1", "prev": "api.flixster.com/movies/lassie/reviews.json?review_type=mob&country=us&page=0", "next": "api.flixster.com/movies/lassie/reviews.json?review_type=mob&country=us&page=2"}, "reviews": [{"isRotten": false, "isFresh": true, "publication": {"url": "", "name": "Chicago Tribune"}, "isTop": true, "creationDate": 1167162153000, "freshness": "fresh", "critic": {"url": "/critic/michael-wilmington", "name": "Michael Wilmington", "id": 258, "thumbnailImage": "https://resizing.flixster.com/69YruALURyjMc-SeJwdCRhDpmc0=/72x72/v1.YzsxNjAzO2c7MTg3OTM7MjA0ODszODs0Nw"}, "quote": " Dog and movie lovers, take note: Lassie has come home.", "id": 1564195, "original_score": "3.5/4", "links": {}}, {"isRotten": false, "url": "http://onfilm.chicagoreader.com/movies/capsules/30249_LASSIE_STURRIDGE", "publication": {"url": "", "name": "Chicago Reader"}, "isTop": true, "creationDate": 1167162095000, "isFresh": true, "freshness": "fresh", "critic": {"url": "/critic/jonathan-rosenbaum", "name": "Jonathan Rosenbaum", "id": 18, "thumbnailImage": "https://resizing.flixster.com/1cTHA-AhKpzD72gBEOroQDcNEeE=/72x72/v1.YzszNjQ4O2o7MTg3Njg7MjA0ODszMDA7MzAw"}, "quote": "It's a welcome throwback to the carefully crafted family films of the studio era.", "id": 1564194, "links": {"review": "http://onfilm.chicagoreader.com/movies/capsules/30249_LASSIE_STURRIDGE"}}, {"isRotten": false, "url": "http://www.decentfilms.com/sections/reviews/2701", "creationDate": 1157712719000, "isFresh": true, "id": 1537136, "quote": "Knows that kids live in a grown-up world, that they are not isolated from such realities as unemployment or war, and can relate to the problems of adult characters as well as those of children and animals.", "links": {"review": "http://www.decentfilms.com/sections/reviews/2701"}, "publication": {"name": "Decent Films Guide"}, "isTop": true, "freshness": "fresh", "critic": {"url": "/critic/steven-d-greydanus", "name": "Steven D. Greydanus", "id": 5612, "thumbnailImage": "https://resizing.flixster.com/TpXNeP2Bw4Ci0Knwz0ug2Ok6rWw=/72x72/v1.YzsyODA4O2c7MTg3ODM7MjA0ODsxNTA7MTUw"}, "original_score": "A-"}, {"isRotten": false, "isFresh": true, "publication": {"url": "", "name": "Ebert & Roeper"}, "isTop": true, "creationDate": 1157491919000, "freshness": "fresh", "critic": {"url": "/critic/richard-roeper", "name": "Richard Roeper", "id": 3822, "thumbnailImage": "https://resizing.flixster.com/LZRWdJtfUkOX3bGAj94P6jBsRW4=/72x72/v1.YzsyNjQ1O2c7MTg4MDA7MjA0ODsxNTA7MTUw"}, "quote": "I think just one of the best family films of the year.", "id": 1536820, "links": {}}, {"isRotten": false, "url": "http://www.guidelive.com/pls/portal/url/page/LSDallasPageGroup/MovieDetail?item_id=48586", "creationDate": 1157194775000, "isFresh": true, "id": 1536353, "quote": "...The collie that became a star back in 1943 can still make you cry and cheer in the all-new Lassie.", "links": {"review": "http://www.guidelive.com/pls/portal/url/page/LSDallasPageGroup/MovieDetail?item_id=48586"}, "publication": {"url": "", "name": "Dallas Morning News"}, "isTop": true, "freshness": "fresh", "critic": {"url": "/critic/nancy-churnin", "name": "Nancy Churnin", "id": 3364, "thumbnailImage": "https://resizing.flixster.com/BFxB2du-yGxnWKIV9LXh7I3kOEc=/72x72/v1.YzsxNjk2O2o7MTg3OTY7MjA0ODszODszNQ"}, "original_score": "B+"}, {"isRotten": false, "isFresh": true, "publication": {"url": "", "name": "Arizona Republic"}, "isTop": true, "creationDate": 1157194775000, "freshness": "fresh", "critic": {"url": "/critic/kathy-cano-murillo", "name": "Kathy Cano Murillo", "id": 8086, "thumbnailImage": "https://resizing.flixster.com/NJKfNVsAD3VJ9qUXNOZOZ0AcEnc=/72x72/v1.YzsxNzUyO2o7MTg4MDc7MjA0ODszODs0MA"}, "quote": "Lassie proves to be top dog in her latest feature film.", "id": 1536354, "original_score": "3/5", "links": {}}, {"isRotten": false, "url": "https://theindependentcritic.com/lassie", "creationDate": 1600009309000, "isFresh": true, "id": 2723989, "quote": "Without a doubt, the best kind of family film that exists. ", "links": {"review": "https://theindependentcritic.com/lassie"}, "publication": {"url": "", "name": "TheIndependentCritic.com"}, "isTop": false, "freshness": "fresh", "critic": {"url": "/critic/richard-propes-27470", "name": "Richard Propes", "id": 27470, "thumbnailImage": "https://resizing.flixster.com/9RafzdrYTvTWxFzPswX4QYwPgK8=/72x72/v1.YzszODAzO2o7MTg3ODg7MjA0ODszMDA7MzAw"}, "original_score": "3.5/4.0"}, {"isRotten": false, "url": "http://behindthelensonline.net/site/reviews/lassie/", "publication": {"url": "", "name": "Behind The Lens"}, "isTop": false, "creationDate": 1573612030000, "isFresh": true, "freshness": "fresh", "critic": {"url": "/critic/debbie-lynn-elias-23430", "name": "Debbie Lynn Elias", "id": 23430, "thumbnailImage": "https://resizing.flixster.com/lM9_r6adB49JEGLefzN80gmhSPI=/72x72/v1.YzszMTgyO2o7MTg3OTc7MjA0ODszMDA7MzAw"}, "quote": "Lassie has finally come home -- Come home to the big screen and back into our hearts where she belongs.", "id": 2644991, "links": {"review": "http://behindthelensonline.net/site/reviews/lassie/"}}, {"isRotten": false, "url": "http://www.commonsensemedia.org/movie-reviews/Lassie.html ", "creationDate": 1293943228000, "isFresh": true, "id": 1950497, "quote": "Schmaltzy return for classic cinema canine.", "links": {"review": "http://www.commonsensemedia.org/movie-reviews/Lassie.html "}, "publication": {"url": "", "name": "Common Sense Media"}, "isTop": false, "freshness": "fresh", "critic": {"url": "/critic/jane-boursaw", "name": "Jane Boursaw", "id": 13989, "thumbnailImage": "https://d2a5cgar23scu2.cloudfront.net/static/images/redesign/user.none.tmb.jpg"}, "original_score": "3/5"}, {"isRotten": false, "url": "http://www.screenwize.com/archives/96", "creationDate": 1255223002000, "isFresh": true, "id": 1849597, "quote": "This story of a boy and his dog comes home to its roots in Yorkshire with a beautifully sensitive and traditional rendering. Using the original 1938 short story as its source, writer & director Charles Sturridge %u2013 best known for his superb work on Br", "links": {"review": "http://www.screenwize.com/archives/96"}, "publication": {"url": "", "name": "Screenwize"}, "isTop": false, "freshness": "fresh", "critic": {"url": "/critic/simon-weaving", "name": "Simon Weaving", "id": 13335, "thumbnailImage": "https://resizing.flixster.com/4cAkoV5tkW2xtg0Ns8qxomqD05E=/72x72/v1.YzsxODE5O2c7MTg3ODQ7MjA0ODszODs0Mg"}, "original_score": "3.5/5"}, {"isRotten": false, "url": "http://www.colesmithey.com/capsules/2006/09/lassie.html", "creationDate": 1240281140000, "isFresh": true, "id": 1814133, "quote": "Writer/director Charles Sturridge adapts the heart-warming story with strict attention to its modest emotional underpinnings of family, devotion, and a beautiful collie.", "links": {"review": "http://www.colesmithey.com/capsules/2006/09/lassie.html"}, "publication": {"name": "ColeSmithey.com"}, "isTop": false, "freshness": "fresh", "critic": {"url": "/critic/cole-smithey", "name": "Cole Smithey", "id": 3041, "thumbnailImage": "https://resizing.flixster.com/5KxvopKA55f2rpedJavspuLZBaI=/72x72/v1.YzsyNjMzO2c7MTg3ODg7MjA0ODsxNTA7MTUw"}, "original_score": "B"}, {"isRotten": false, "url": "http://www.windowtothemovies.com/af2006-2.html#lassie", "creationDate": 1167519638000, "isFresh": true, "id": 1567848, "quote": "An ode to the beleaguered people who face hardships, physical and emotional, with hopeful optimism.", "links": {"review": "http://www.windowtothemovies.com/af2006-2.html#lassie"}, "publication": {"name": "Window to the Movies"}, "isTop": false, "freshness": "fresh", "critic": {"url": "/critic/jeffrey-chen", "name": "Jeffrey Chen", "id": 5942, "thumbnailImage": "https://d2a5cgar23scu2.cloudfront.net/static/images/redesign/user.none.tmb.jpg"}, "original_score": "7/10"}]}, "casts": {"screenwriters": [{"url": "/celebrity/charles_sturridge/", "name": "Charles Sturridge", "thumbnailImg": "https://d2a5cgar23scu2.cloudfront.net/static/images/redesign/actor.default.tmb.gif"}], "directors": [{"url": "/celebrity/charles_sturridge/", "name": "Charles Sturridge", "thumbnailImg": "https://d2a5cgar23scu2.cloudfront.net/static/images/redesign/actor.default.tmb.gif"}], "creators": [], "producers": [{"url": "/celebrity/ed-guiney/", "name": "Ed Guiney", "thumbnailImg": "https://d2a5cgar23scu2.cloudfront.net/static/images/redesign/actor.default.tmb.gif"}, {"url": "/celebrity/charles_sturridge/", "name": "Charles Sturridge", "thumbnailImg": "https://d2a5cgar23scu2.cloudfront.net/static/images/redesign/actor.default.tmb.gif"}, {"url": "/celebrity/francesca-barra/", "name": "Francesca Barra", "thumbnailImg": "https://d2a5cgar23scu2.cloudfront.net/static/images/redesign/actor.default.tmb.gif"}, {"url": "/celebrity/samuel_hadida/", "name": "Samuel Hadida", "thumbnailImg": "https://d2a5cgar23scu2.cloudfront.net/static/images/redesign/actor.default.tmb.gif"}, {"url": "/celebrity/victor-hadida/", "name": "Victor Hadida", "thumbnailImg": "https://d2a5cgar23scu2.cloudfront.net/static/images/redesign/actor.default.tmb.gif"}, {"url": "/celebrity/selwyn-roberts/", "name": "Selwyn Roberts", "thumbnailImg": "https://d2a5cgar23scu2.cloudfront.net/static/images/redesign/actor.default.tmb.gif"}, {"url": "/celebrity/chris_allies/", "name": "Chris Allies", "thumbnailImg": "https://d2a5cgar23scu2.cloudfront.net/static/images/redesign/actor.default.tmb.gif"}], "castItems": [{"person": {"url": "/celebrity/peter_otoole/", "name": "Peter O'Toole", "thumbnailImg": "https://resizing.flixster.com/bZuQagUBaWoNY4uCmQRCECq9wxQ=/80x80/v1.cDsxMTIxOTk0NDtqOzE4ODUzOzIwNDg7NTE5OzM2Mw"}, "characters": [{"name": "The Duke"}]}, {"person": {"url": "/celebrity/samantha_morton/", "name": "Samantha Morton", "thumbnailImg": "https://resizing.flixster.com/PrpO1Y0fbyvt2L0r349eq844xTo=/80x80/v1.cDsxMTI1ODQ3ODtqOzE4ODY4OzIwNDg7MjUwOzMwMA"}, "characters": [{"name": "Sarah Carraclough"}]}, {"person": {"url": "/celebrity/1009556-john_lynch/", "name": "John Lynch", "thumbnailImg": "https://resizing.flixster.com/BsVRPEBoD32NmN-u0wbgtJoAEQ8=/80x80/v1.cDsxNDAyOTk3OTtqOzE4ODA2OzIwNDg7MTAyNDs3Njg"}, "characters": [{"name": "Sam Carraclough"}]}, {"person": {"url": "/celebrity/peter_dinklage/", "name": "Peter Dinklage", "thumbnailImg": "https://resizing.flixster.com/GRrtXiWn3spZjB871BIVOl-SBC0=/80x80/v1.cjs0OTIzNztqOzE4NzcyOzIwNDg7MTk1NTsyMTU3"}, "characters": [{"name": "Rowlie"}]}, {"person": {"url": "/celebrity/jonathan_mason/", "name": "Jonathan Mason", "thumbnailImg": "https://d2a5cgar23scu2.cloudfront.net/static/images/redesign/actor.default.tmb.gif"}, "characters": [{"name": "Joe Carraclough"}]}, {"person": {"url": "/celebrity/hester_odgers/", "name": "Hester Odgers", "thumbnailImg": "https://d2a5cgar23scu2.cloudfront.net/static/images/redesign/actor.default.tmb.gif"}, "characters": [{"name": "Cilla"}]}, {"person": {"url": "/celebrity/ian_hart/", "name": "Ian Hart", "thumbnailImg": "https://resizing.flixster.com/6_tIfZknWFTEDOfHX0m_9xbcLqo=/80x80/v1.cjs0OTM3ODtqOzE4Nzc4OzIwNDg7MjQ0ODsyNDk1"}}, {"person": {"url": "/celebrity/ken_drury/", "name": "Ken Drury", "thumbnailImg": "https://d2a5cgar23scu2.cloudfront.net/static/images/redesign/actor.default.tmb.gif"}, "characters": [{"name": "Campbell"}]}, {"person": {"url": "/celebrity/gregor_fisher/", "name": "Gregor Fisher", "thumbnailImg": "https://resizing.flixster.com/7LUu5K0kzei2ubDqdsAeqg-Bni8=/80x80/v1.cDsxMTEwMjAyMTtqOzE4ODc0OzIwNDg7ODQ7MTAx"}, "characters": [{"name": "Mapes"}]}, {"person": {"url": "/celebrity/edward_fox/", "name": "Edward Fox", "thumbnailImg": "https://resizing.flixster.com/S2_IoZgzpljnF9WE8wNSj40iERI=/80x80/v1.cDsxMTU3NTMwNztwOzE4ODU1OzIwNDg7NDE1OzMwMw"}, "characters": [{"name": "Hulton"}]}, {"person": {"url": "/celebrity/robert_hardy/", "name": "Robert Hardy", "thumbnailImg": "https://resizing.flixster.com/DF-9lCLiZAbcCvDCmJPFWjFXhxU=/80x80/v1.cDs5ODE3MjMzO2o7MTg4MjE7MjA0ODsyOTI7MzQw"}, "characters": [{"name": "Mr. Justice Murray"}]}, {"person": {"url": "/celebrity/celyn_jones/", "name": "Celyn Jones", "thumbnailImg": "https://d2a5cgar23scu2.cloudfront.net/static/images/redesign/actor.default.tmb.gif"}, "characters": [{"name": "Snickers"}]}, {"person": {"url": "/celebrity/jamie_lee/", "name": "Jamie Lee", "thumbnailImg": "https://d2a5cgar23scu2.cloudfront.net/static/images/redesign/actor.default.tmb.gif"}, "characters": [{"name": "Tom"}]}, {"person": {"url": "/celebrity/nicholas_lyndhurst/", "name": "Nicholas Lyndhurst", "thumbnailImg": "https://resizing.flixster.com/2OtygdHufdtuo-_us019Fn3vI0E=/80x80/v1.cDsxMzg2ODgwMDtqOzE4ODE1OzIwNDg7NDYwOzI4OA"}, "characters": [{"name": "Buckle"}]}, {"person": {"url": "/celebrity/kelly_macdonald/", "name": "Kelly Macdonald", "thumbnailImg": "https://resizing.flixster.com/9LqDI-uvs8_1pelu7yNB8J8DUP8=/80x80/v1.cjs0OTM4MDtqOzE4NzgwOzIwNDg7MjAwMjsxOTQw"}, "characters": [{"name": "Jeanie"}]}, {"person": {"url": "/celebrity/steve_pemberton/", "name": "Steve Pemberton", "thumbnailImg": "https://resizing.flixster.com/yWfx0caDh0QnHD9tkf8FNhhCvrQ=/80x80/v1.cDs2MzUwOTIxO2o7MTg4NjQ7MjA0ODsxMjgwOzEwMjQ"}, "characters": [{"name": "Edward Hynes"}]}, {"person": {"url": "/celebrity/brian_pettifer/", "name": "Brian Pettifer", "thumbnailImg": "https://resizing.flixster.com/IWFxda7G-ARLjzXQ6lzTf8sy9po=/80x80/v1.cjs0NTY5ODtqOzE4Nzg4OzIwNDg7NDU5OzQwOQ"}, "characters": [{"name": "O'Donnell"}]}, {"person": {"url": "/celebrity/jemma_redgrave/", "name": "Jemma Redgrave", "thumbnailImg": "https://resizing.flixster.com/Xps-EgmXYWwHGDXPAV9bcmUJBco=/80x80/v1.cDszNDU1MTYxO2o7MTg4NjU7MjA0ODsxNTA7MjAw"}, "characters": [{"name": "Daisy"}]}, {"person": {"url": "/celebrity/gerry_obrien/", "name": "Gerry O'Brien", "thumbnailImg": "https://d2a5cgar23scu2.cloudfront.net/static/images/redesign/actor.default.tmb.gif"}, "characters": [{"name": "Watson"}]}, {"person": {"url": "/celebrity/1014735-john_standing/", "name": "John Standing", "thumbnailImg": "https://d2a5cgar23scu2.cloudfront.net/static/images/redesign/actor.default.tmb.gif"}, "characters": [{"name": "French"}]}, {"person": {"url": "/celebrity/eamonn_hunt/", "name": "Eamonn Hunt", "thumbnailImg": "https://d2a5cgar23scu2.cloudfront.net/static/images/redesign/actor.default.tmb.gif"}, "characters": [{"name": "Alf Patterson"}]}, {"person": {"url": "/celebrity/jim_roche/", "name": "Jim Roche", "thumbnailImg": "https://d2a5cgar23scu2.cloudfront.net/static/images/redesign/actor.default.tmb.gif"}, "characters": [{"name": "Miner"}]}, {"person": {"url": "/celebrity/angela_thorne/", "name": "Angela Thorne", "thumbnailImg": "https://d2a5cgar23scu2.cloudfront.net/static/images/redesign/actor.default.tmb.gif"}, "characters": [{"name": "Dr. Gull"}]}, {"person": {"url": "/celebrity/gabrielle_lloyd/", "name": "Gabrielle Lloyd", "thumbnailImg": "https://d2a5cgar23scu2.cloudfront.net/static/images/redesign/actor.default.tmb.gif"}, "characters": [{"name": "Miss Branson"}]}, {"person": {"url": "/celebrity/peter-wight/", "name": "Peter Wight", "thumbnailImg": "https://resizing.flixster.com/aoUuBO2bBqS_UZv7h788RGjXR_0=/80x80/v1.cDsxMTI5OTE0ODtqOzE4ODU4OzIwNDg7MTk1OzI0NQ"}, "characters": [{"name": "Dr. Jarrett"}]}, {"person": {"url": "/celebrity/paul_meade/", "name": "Paul Meade", "thumbnailImg": "https://d2a5cgar23scu2.cloudfront.net/static/images/redesign/actor.default.tmb.gif"}, "characters": [{"name": "Policeman"}]}, {"person": {"url": "/celebrity/susie_lamb/", "name": "Susie Lamb", "thumbnailImg": "https://d2a5cgar23scu2.cloudfront.net/static/images/redesign/actor.default.tmb.gif"}, "characters": [{"name": "Martha"}]}, {"person": {"url": "/celebrity/terence_orr/", "name": "Terence Orr", "thumbnailImg": "https://d2a5cgar23scu2.cloudfront.net/static/images/redesign/actor.default.tmb.gif"}, "characters": [{"name": "Butler"}]}, {"person": {"url": "/celebrity/alec_heggie/", "name": "Alec Heggie", "thumbnailImg": "https://d2a5cgar23scu2.cloudfront.net/static/images/redesign/actor.default.tmb.gif"}, "characters": [{"name": "Truck Driver"}]}, {"person": {"url": "/celebrity/finlay_welsh/", "name": "Finlay Welsh", "thumbnailImg": "https://d2a5cgar23scu2.cloudfront.net/static/images/redesign/actor.default.tmb.gif"}, "characters": [{"name": "Scottish Policeman"}]}, {"person": {"url": "/celebrity/may_veale_smith/", "name": "May Veale Smith", "thumbnailImg": "https://d2a5cgar23scu2.cloudfront.net/static/images/redesign/actor.default.tmb.gif"}, "characters": [{"name": "Mother"}]}, {"person": {"url": "/celebrity/samatha_mcshane/", "name": "Samatha McShane", "thumbnailImg": "https://d2a5cgar23scu2.cloudfront.net/static/images/redesign/actor.default.tmb.gif"}, "characters": [{"name": "Nell"}]}, {"person": {"url": "/celebrity/robert_carr/", "name": "Robert Carr", "thumbnailImg": "https://d2a5cgar23scu2.cloudfront.net/static/images/redesign/actor.default.tmb.gif"}, "characters": [{"name": "McBane"}]}, {"person": {"url": "/celebrity/christine_ozanne/", "name": "Christine Ozanne", "thumbnailImg": "https://d2a5cgar23scu2.cloudfront.net/static/images/redesign/actor.default.tmb.gif"}, "characters": [{"name": "Martron"}]}, {"person": {"url": "/celebrity/dermot_ward/", "name": "Dermot Ward", "thumbnailImg": "https://d2a5cgar23scu2.cloudfront.net/static/images/redesign/actor.default.tmb.gif"}, "characters": [{"name": "Court Usher"}]}, {"person": {"url": "/celebrity/alan_stanford/", "name": "Alan Stanford", "thumbnailImg": "https://d2a5cgar23scu2.cloudfront.net/static/images/redesign/actor.default.tmb.gif"}, "characters": [{"name": "Defence Barrister"}]}, {"person": {"url": "/celebrity/david_parnell/", "name": "David Parnell", "thumbnailImg": "https://d2a5cgar23scu2.cloudfront.net/static/images/redesign/actor.default.tmb.gif"}, "characters": [{"name": "Sergeant of the Court"}]}, {"person": {"url": "/celebrity/peter_halliday/", "name": "Peter Halliday", "thumbnailImg": "https://d2a5cgar23scu2.cloudfront.net/static/images/redesign/actor.default.tmb.gif"}, "characters": [{"name": "Vicar"}]}, {"person": {"url": "/celebrity/ian_mercer/", "name": "Ian Mercer", "thumbnailImg": "https://d2a5cgar23scu2.cloudfront.net/static/images/redesign/actor.default.tmb.gif"}, "characters": [{"name": "Yorkshire Policeman"}]}]}, "title": "Lassie", "adjustedScore": 94.73589256540737, "ratings": {"critics_rating": "Certified Fresh", "audience_score": 63, "dvdReleaseDate": 1163491200000, "critics_score": 93, "theaterReleaseDate": 1157094000000, "audience_rating": "Upright"}, "videoClips": {"mainTrailer": {"hlsUrl": "http://video.internetvideoarchive.net/video.m3u8?cmd=6&publishedid=983358&customerid=300120&e=1619087190981&sub=RTO&fmt=11&h=7be19fb2e8746af90271a2ada9040968", "seconds": 0, "minutes": 2, "id": 10890689, "title": "Lassie", "thumbUrl": "http://content.internetvideoarchive.com/content/photos/959/983358_064.jpg", "mp4Url": "http://video.internetvideoarchive.net/video.mp4?cmd=6&publishedid=983358&customerid=300120&e=1619087190981&sub=RTO&fmt=4&videokbrate=750&h=a293aa47aa1df2fab12d36cfbf2e1d14"}, "size": 1, "videoClips": [{"hlsUrl": "http://video.internetvideoarchive.net/video.m3u8?cmd=6&publishedid=983358&customerid=300120&e=1619087190981&sub=RTO&fmt=11&h=7be19fb2e8746af90271a2ada9040968", "seconds": 0, "minutes": 2, "id": 10890689, "title": "Lassie", "thumbUrl": "http://content.internetvideoarchive.com/content/photos/959/983358_064.jpg", "mp4Url": "http://video.internetvideoarchive.net/video.mp4?cmd=6&publishedid=983358&customerid=300120&e=1619087190981&sub=RTO&fmt=4&videokbrate=750&h=a293aa47aa1df2fab12d36cfbf2e1d14"}]}, "isUpcoming": false, "posters": {"original": "https://resizing.flixster.com/4HPn54F_3hHzfQ9n03JustTJfco=/768x1024/v1.bTsxMTYxODg4NTtqOzE4ODc0OzIwNDg7NzY4OzEwMjQ", "detailed": "https://resizing.flixster.com/rEsYGxjz5t8IwBqsXV-qluI7qj0=/180x240/v1.bTsxMTYxODg4NTtqOzE4ODc0OzIwNDg7NzY4OzEwMjQ", "profile": "https://resizing.flixster.com/h3aMaO7JULqrdtSCRiu72DmkEOI=/120x160/v1.bTsxMTYxODg4NTtqOzE4ODc0OzIwNDg7NzY4OzEwMjQ", "thumbnail": "https://resizing.flixster.com/MDA9c4vw5dxtyvNbFZUzZ_tXheE=/54x72/v1.bTsxMTYxODg4NTtqOzE4ODc0OzIwNDg7NzY4OzEwMjQ"}, "isLimited": false, "mainTrailer": {"thumbUrl": "https://content.internetvideoarchive.com/content/photos/959/983358_064.jpg", "hlsUrl": "http://video.internetvideoarchive.net/video.m3u8?cmd=6&publishedid=983358&customerid=300120&e=1619087190351&sub=RTO&fmt=11&h=4ebe69743ba71c1ccd25c8309e52708e", "id": 10890689, "mp4Url": "http://video.internetvideoarchive.net/video.mp4?cmd=6&publishedid=983358&customerid=300120&e=1619087190351&sub=RTO&fmt=4&videokbrate=750&h=756ddf511ee726e6e0c5c03cad1bc416"}, "advisory": "for some mild violent content and language", "id": 287864935}