{"url": "/m/duma/", "isOnOpening": false, "boxoffice": "$0.8M", "genreSet": [{"displayName": "Drama", "id": 9}, {"displayName": "Action & Adventure", "id": 1}, {"displayName": "Kids & Family", "id": 11}], "officialUrl": "http://dumamovie.warnerbros.com/", "isInTheaters": false, "synopsis": "When 10-old Xan and his father Peter come across an orphaned cheetah cub, they name their new friend \"Duma,\" the Swahili name for cheetah, and he quickly becomes a member of the family. But, when Duma is almost fully grown, to Xan's dismay, his father tells him that it's time to take his friend to his real home before he grows too old to survive in his native habitat. Xan reluctantly agrees, but their plans must be put on hold when his father suddenly falls ill and Xan and his mother must move to Johannesburg. When Duma escapes and pays a disastrous visit to Xan's school, the two of them must flee the city to keep Duma from being put into captivity. Not knowing where to go, Xan gets an idea -- he'll carry out the plan his dad had outlined, taking Duma home to a safe and lush place hundreds of miles across South Africa, over the scorching Makgadikgadi Salt Pans, through the Okavango Delta and into the Erongo Mountains. Entering the lush jungles of the Okavango Delta, Xan finds himself surrounded by danger -- lions, crocodiles and deadly poisonous creatures. But it's far too late to turn back now as Xan faces the true test of love, attempting to cross the wilds to return his best friend to his rightful home.", "links": {"alternate": "//www.rottentomatoes.com/m/duma/"}, "runningTime": 101, "year": 2005, "trackingType": "DvdOther", "status": "Live", "isPlaying": false, "isOnDVD": true, "runningTimeStr": "1 hr. 41 min.", "ratingSummary": {"topcount": 31, "consensus": "This is an old-fashioned, richly textured family film that will appeal to children and adults alike.", "topCritics": {"hasScore": true, "numReviews": 31, "meterClass": "certified", "numRotten": 3, "numFresh": 28, "hasReviews": true, "meterValue": 90, "averageRating": 7.33871}, "audience": {"meterScore": 80, "averageScore": 3.374324321746826, "numTotal": 20930, "ratingType": "viewed"}, "allcount": 61, "rottencount": 4, "dvdcount": 1, "allCritics": {"hasScore": true, "numReviews": 61, "meterClass": "certified", "numRotten": 4, "numFresh": 57, "hasReviews": true, "meterValue": 93, "averageRating": 7.49}, "freshcount": 57}, "mpaaRating": "PG", "vanity": "duma", "photos": {"photos": [{"url": "https://resizing.flixster.com/TN05yrGpbjpMprKjFAGyCfxC5P8=/300x200/v1.bjsyNzUyODE7ajsxODc4NDsyMDQ4OzMwMDsyMDA", "index": 0, "submittedBy": "RT Staff", "height": 200, "imageId": 275281, "thumbnail": "https://resizing.flixster.com/5mOkHfEDzJuAyDhInTX7W38YwBQ=/80x80/v1.bjsyNzUyODE7ajsxODc4NDsyMDQ4OzMwMDsyMDA", "submittedDate": "2014-07-03", "id": "multiuse-275281", "photoType": "movie", "width": 300}, {"url": "https://resizing.flixster.com/Gn-E-v2vWAe0szm4yky-6xj5WTE=/300x200/v1.bjsyNzUyODI7ajsxODc4NTsyMDQ4OzMwMDsyMDA", "index": 1, "submittedBy": "RT Staff", "height": 200, "imageId": 275282, "thumbnail": "https://resizing.flixster.com/IrInWdi06Yx6zucBXnNvLg1hMlo=/80x80/v1.bjsyNzUyODI7ajsxODc4NTsyMDQ4OzMwMDsyMDA", "submittedDate": "2014-07-03", "id": "multiuse-275282", "photoType": "movie", "width": 300}, {"url": "https://resizing.flixster.com/5AH051YT8Cx91oh0HLz_20ZuJ00=/300x200/v1.bjsyNzUyODM7ajsxODc4NjsyMDQ4OzMwMDsyMDA", "index": 2, "submittedBy": "RT Staff", "height": 200, "imageId": 275283, "thumbnail": "https://resizing.flixster.com/4yPz31KECokp-2Ag28TAsGng4pc=/80x80/v1.bjsyNzUyODM7ajsxODc4NjsyMDQ4OzMwMDsyMDA", "submittedDate": "2014-07-03", "id": "multiuse-275283", "photoType": "movie", "width": 300}, {"url": "https://resizing.flixster.com/Robi7DB-CScsrEun_t93RcFbgmc=/1024x768/v1.bjsyNzUyODQ7ajsxODc4NzsyMDQ4OzIwNDg7MTUzNg", "index": 3, "submittedBy": "RT Staff", "height": 768, "imageId": 275284, "thumbnail": "https://resizing.flixster.com/0CmiT2WZqFdrlqZQro9YhEpuu5c=/80x80/v1.bjsyNzUyODQ7ajsxODc4NzsyMDQ4OzIwNDg7MTUzNg", "submittedDate": "2014-07-03", "id": "multiuse-275284", "photoType": "movie", "width": 1024}, {"url": "https://resizing.flixster.com/6-6vkOIdqwCBb_bhi6osi4-0v2A=/1024x1023/v1.bjsxMjMyOTg2O2o7MTg4MTA7MjA0ODsxNTAwOzE0OTk", "index": 4, "submittedBy": "RT Staff", "height": 1023, "imageId": 1232986, "thumbnail": "https://resizing.flixster.com/JjEBqylz3sJbJfKe6_p3qruvPho=/80x80/v1.bjsxMjMyOTg2O2o7MTg4MTA7MjA0ODsxNTAwOzE0OTk", "submittedDate": "2016-09-18", "id": "multiuse-1232986", "photoType": "movie", "width": 1024}, {"url": "https://resizing.flixster.com/BUBALedtKPqCey7M_lKdOdgd_3o=/600x396/v1.aDsyMDtqOzE4Nzg1OzIwNDg7NzAwOzQ2Mg", "index": 5, "submittedBy": "RT Staff", "height": 396, "imageId": 20, "thumbnail": "https://resizing.flixster.com/uC6IHfFtA_o-yuqiaNop83KmjEo=/80x80/v1.aDsyMDtqOzE4Nzg1OzIwNDg7NzAwOzQ2Mg", "submittedDate": "2010-03-29", "id": "movie-20", "photoType": "movie", "width": 600}], "length": 6}, "studio": "Warner Bros. Pictures", "purchaseOptions": {"amazon": {"url": "http://www.amazon.com/gp/product/B001R7XC0A/ref=atv_feed_catalog?tag=rottetomao_aiv_mv-20", "isPrime": false, "type": "buy"}, "vudu": {"url": "https://www.vudu.com/content/movies/details/Duma/10728", "type": "buy"}, "flixster": {"url": "duma", "movieId": "ID: 2000001439; SKU:431920; Type: B (SD Buy)", "type": "buy"}, "iTunes": {"url": "https://itunes.apple.com/movie/duma/id291179885?uo=5", "price": "9.99"}}, "reviews": {"total": 61, "links": {"alternate": "//www.rottentomatoes.com/m/duma/#reviews", "self": "api.flixster.com/movies/duma/reviews.json?review_type=mob&country=us&page=1", "prev": "api.flixster.com/movies/duma/reviews.json?review_type=mob&country=us&page=0", "next": "api.flixster.com/movies/duma/reviews.json?review_type=mob&country=us&page=2"}, "reviews": [{"isRotten": false, "url": "http://www.denverpost.com/movieshttp://www.denverpost.com/movies/ci_7687658", "publication": {"url": "", "name": "Denver Post"}, "isTop": true, "creationDate": 1202502022000, "isFresh": true, "freshness": "fresh", "critic": {"url": "/critic/michael-booth", "name": "Michael Booth", "id": 6418, "thumbnailImage": "https://resizing.flixster.com/n6gIRqmb_wNhmx-HayBUi3kQd70=/72x72/v1.YzsxNTMwO2o7MTg3NjU7MjA0ODszODs0Ng"}, "quote": "It's a crime what happened to the wonderful African wilderness movie Duma in 2005. Beautifully directed by veteran Carroll Ballard, Duma fell flat in the United States because of bad timing and abysmal marketing.", "id": 1708016, "links": {"review": "http://www.denverpost.com/movieshttp://www.denverpost.com/movies/ci_7687658"}}, {"isRotten": false, "url": "http://www.guidelive.com/pls/portal/url/page/LSDallasPageGroup/MovieDetail?item_id=43574", "creationDate": 1143845380000, "isFresh": true, "id": 1495139, "quote": "For those wishing they still made films like The Black Stallion, today is your lucky day.", "links": {"review": "http://www.guidelive.com/pls/portal/url/page/LSDallasPageGroup/MovieDetail?item_id=43574"}, "publication": {"url": "", "name": "Dallas Morning News"}, "isTop": true, "freshness": "fresh", "critic": {"url": "/critic/nancy-churnin", "name": "Nancy Churnin", "id": 3364, "thumbnailImage": "https://resizing.flixster.com/BFxB2du-yGxnWKIV9LXh7I3kOEc=/72x72/v1.YzsxNjk2O2o7MTg3OTY7MjA0ODszODszNQ"}, "original_score": "B+"}, {"isRotten": false, "url": "http://www.washingtonpost.com/ac2/wp-dyn?node=cityguide/profile&id=1093109&lat=200.0&lon=200.0&displaySearchLocation=&nm=1&categories=Movies", "publication": {"url": "", "name": "Washington Post"}, "isTop": true, "creationDate": 1143770116000, "isFresh": true, "freshness": "fresh", "critic": {"url": "/critic/philip-kennicott", "name": "Philip Kennicott", "id": 4279, "thumbnailImage": "https://d2a5cgar23scu2.cloudfront.net/static/images/redesign/user.none.tmb.jpg"}, "quote": "Visually panoramic, a film that revels in making the expanse of a beautiful place palpable.", "id": 1494799, "links": {"review": "http://www.washingtonpost.com/ac2/wp-dyn?node=cityguide/profile&id=1093109&lat=200.0&lon=200.0&displaySearchLocation=&nm=1&categories=Movies"}}, {"isRotten": false, "url": "http://www.boston.com/ae/movies/articles/2006/03/14/in_duma_journey_to_the_wild_rings_true", "creationDate": 1142681025000, "isFresh": true, "id": 1491143, "quote": "Too suspenseful for the youngest children, but for anyone older than 8 or 9, it evokes nothing less than awe at the harsh beauty of the natural world.", "links": {"review": "http://www.boston.com/ae/movies/articles/2006/03/14/in_duma_journey_to_the_wild_rings_true"}, "publication": {"name": "Boston Globe"}, "isTop": true, "freshness": "fresh", "critic": {"url": "/critic/ty-burr", "name": "Ty Burr", "id": 1294, "thumbnailImage": "https://resizing.flixster.com/Jspvf9TMpa3o_bWJhJspOqlOJrU=/72x72/v1.YzsxNTA3O2c7MTg3ODc7MjA0ODszODs1MQ"}, "original_score": "3.5/4"}, {"isRotten": false, "url": "http://community.seattletimes.nwsource.com/archive/?slug=duma03&date=20060303", "creationDate": 1141429360000, "isFresh": true, "id": 1487856, "quote": "With ravenous alligators and lions on the prowl, Duma delivers familiar adventure, but Ballard refuses to cater to cuteness.", "links": {"review": "http://community.seattletimes.nwsource.com/archive/?slug=duma03&date=20060303"}, "publication": {"url": "", "name": "Seattle Times"}, "isTop": true, "freshness": "fresh", "critic": {"url": "/critic/jeff-shannon", "name": "Jeff Shannon", "id": 4152, "thumbnailImage": "https://d2a5cgar23scu2.cloudfront.net/static/images/redesign/user.none.tmb.jpg"}, "original_score": "3/4"}, {"isRotten": false, "url": "http://www.freep.com/apps/pbcs.dll/article?AID=/20060303/ENT01/603030333/1036/ENT", "creationDate": 1141429188000, "isFresh": true, "id": 1487853, "quote": "Like its title character, Duma has been left to fend for itself by Warner Bros., which is barely releasing it. A successful showing this weekend will prove that there really is an audience for this brand of thoughtful, literate family film.", "links": {"review": "http://www.freep.com/apps/pbcs.dll/article?AID=/20060303/ENT01/603030333/1036/ENT"}, "publication": {"name": "Detroit Free Press"}, "isTop": true, "freshness": "fresh", "critic": {"url": "/critic/john-monaghan", "name": "John Monaghan", "id": 3239, "thumbnailImage": "https://d2a5cgar23scu2.cloudfront.net/static/images/redesign/user.none.tmb.jpg"}, "original_score": "3/4"}, {"isRotten": false, "url": "http://www.commonsensemedia.org/movie-reviews/duma ", "creationDate": 1292698622000, "isFresh": true, "id": 1947074, "quote": "Enchanting coming-of-age story for kids.", "links": {"review": "http://www.commonsensemedia.org/movie-reviews/duma "}, "publication": {"url": "", "name": "Common Sense Media"}, "isTop": false, "freshness": "fresh", "critic": {"url": "/critic/heather-boerner", "name": "Heather Boerner", "id": 12727, "thumbnailImage": "https://d2a5cgar23scu2.cloudfront.net/static/images/redesign/user.none.tmb.jpg"}, "original_score": "4/5"}, {"isRotten": false, "url": "http://cinema-crazed.com/blog/2006/05/27/duma-2005/", "publication": {"url": "", "name": "Cinema Crazed"}, "isTop": false, "creationDate": 1241000182000, "isFresh": true, "freshness": "fresh", "critic": {"url": "/critic/felix-vasquez-jr", "name": "Felix Vasquez Jr.", "id": 11967, "thumbnailImage": "https://resizing.flixster.com/eHTD-Qdfru_x4Uk0lQxyaIDQ_UI=/72x72/v1.YzsyMjA0O2o7MTg4MDk7MjA0ODsxMDA7MTAw"}, "quote": "A pure children's film with an exciting story, genuine characters, and deep messages about life, love, and loss. ", "id": 1817241, "links": {"review": "http://cinema-crazed.com/blog/2006/05/27/duma-2005/"}}, {"isRotten": false, "isFresh": true, "publication": {"url": "", "name": "Christianity Today"}, "isTop": false, "creationDate": 1162426215000, "freshness": "fresh", "critic": {"url": "/critic/mary-lasse", "name": "Mary Lasse", "id": 12216, "thumbnailImage": "https://d2a5cgar23scu2.cloudfront.net/static/images/redesign/user.none.tmb.jpg"}, "quote": "A handcrafted masterpiece.", "id": 1553597, "original_score": "3/4", "links": {}}, {"isRotten": false, "url": "http://www.oneguysopinion.com/Review.php?ID=1861", "creationDate": 1144162845000, "isFresh": true, "id": 1496497, "quote": "It's as good as this sort of thing gets, and deserves to be seen in a proper auditorium rather than on DVD.", "links": {"review": "http://www.oneguysopinion.com/Review.php?ID=1861"}, "publication": {"name": "One Guy's Opinion"}, "isTop": false, "freshness": "fresh", "critic": {"url": "/critic/frank-swietek", "name": "Frank Swietek", "id": 209, "thumbnailImage": "https://d2a5cgar23scu2.cloudfront.net/static/images/redesign/user.none.tmb.jpg"}, "original_score": "B+"}, {"isRotten": false, "url": "http://www.themoviechicks.com/early2006/mcrduma.html", "creationDate": 1143982552000, "isFresh": true, "id": 1496256, "quote": "The film opens with some adorable cheetah cubs, so you're instantly hooked, but there's more to this than just a bunch of cute animals.", "links": {"review": "http://www.themoviechicks.com/early2006/mcrduma.html"}, "publication": {"name": "TheMovieChicks.com"}, "isTop": false, "freshness": "fresh", "critic": {"url": "/critic/cherryl-dawson-and-leigh-ann-palone", "name": "Cherryl Dawson and Leigh Ann Palone", "id": 5763, "thumbnailImage": "https://d2a5cgar23scu2.cloudfront.net/static/images/redesign/user.none.tmb.jpg"}, "original_score": "4/5"}, {"isRotten": false, "url": "http://www.democratandchronicle.com/apps/pbcs.dll/article?AID=/20060310/LIVING0107/603100362/1065/ENT04", "creationDate": 1142044500000, "isFresh": true, "id": 1489563, "quote": "... a beautifully photographed journey that will thrill youngsters and strongly engage adults.", "links": {"review": "http://www.democratandchronicle.com/apps/pbcs.dll/article?AID=/20060310/LIVING0107/603100362/1065/ENT04"}, "publication": {"name": "Rochester Democrat and Chronicle"}, "isTop": false, "freshness": "fresh", "critic": {"url": "/critic/jack-garner", "name": "Jack Garner", "id": 1, "thumbnailImage": "https://resizing.flixster.com/dx-nUBKZbAhzHYcTIASKPGU2NR8=/72x72/v1.YzsxNTc4O2c7MTg3Njg7MjA0ODszODs0MQ"}, "original_score": "9/10"}]}, "casts": {"screenwriters": [{"url": "/celebrity/karen_janszen/", "name": "Karen Janszen", "thumbnailImg": "https://d2a5cgar23scu2.cloudfront.net/static/images/redesign/actor.default.tmb.gif"}, {"url": "/celebrity/mark_st_germain/", "name": "Mark St. Germain", "thumbnailImg": "https://d2a5cgar23scu2.cloudfront.net/static/images/redesign/actor.default.tmb.gif"}], "directors": [{"url": "/celebrity/carroll_ballard/", "name": "Carroll Ballard", "thumbnailImg": "https://d2a5cgar23scu2.cloudfront.net/static/images/redesign/actor.default.tmb.gif"}], "creators": [], "producers": [{"url": "/celebrity/stacy_cohen/", "name": "Stacy Cohen", "thumbnailImg": "https://d2a5cgar23scu2.cloudfront.net/static/images/redesign/actor.default.tmb.gif"}, {"url": "/celebrity/1052278-john_wells/", "name": "John Wells", "thumbnailImg": "https://d2a5cgar23scu2.cloudfront.net/static/images/redesign/actor.default.tmb.gif"}, {"url": "/celebrity/hunt_lowry/", "name": "Hunt Lowry", "thumbnailImg": "https://d2a5cgar23scu2.cloudfront.net/static/images/redesign/actor.default.tmb.gif"}, {"url": "/celebrity/ek-gaylord-ii/", "name": "E.K. Gaylord II", "thumbnailImg": "https://d2a5cgar23scu2.cloudfront.net/static/images/redesign/actor.default.tmb.gif"}, {"url": "/celebrity/kristin-harms/", "name": "Kristin Harms", "thumbnailImg": "https://d2a5cgar23scu2.cloudfront.net/static/images/redesign/actor.default.tmb.gif"}], "castItems": [{"person": {"url": "/celebrity/alex-michaeletos/", "name": "Alex Michaeletos", "thumbnailImg": "https://resizing.flixster.com/Hpp2L4IM3ejuFjqoLIFV82BAhmo=/80x80/v1.cDs5NDg3OTE2O2o7MTg4MTA7MjA0ODs2NTA7NDI3"}}, {"person": {"url": "/celebrity/alexander_michaletos/", "name": "Alexander Michaletos", "thumbnailImg": "https://d2a5cgar23scu2.cloudfront.net/static/images/redesign/actor.default.tmb.gif"}, "characters": [{"name": "Xan"}]}, {"person": {"url": "/celebrity/campbell_scott/", "name": "Campbell Scott", "thumbnailImg": "https://resizing.flixster.com/zEIZpVDaeyWZdoebTZB0zREaf3Q=/80x80/v1.cjs0NTU3ODtqOzE4ODAzOzIwNDg7MzU2OzMxNw"}, "characters": [{"name": "Peter"}]}, {"person": {"url": "/celebrity/mary_makhatho/", "name": "Mary Makhatho", "thumbnailImg": "https://d2a5cgar23scu2.cloudfront.net/static/images/redesign/actor.default.tmb.gif"}, "characters": [{"name": "Thandi"}]}, {"person": {"url": "/celebrity/nthabiseng_kenoshi/", "name": "Nthabiseng Kenoshi", "thumbnailImg": "https://d2a5cgar23scu2.cloudfront.net/static/images/redesign/actor.default.tmb.gif"}, "characters": [{"name": "Lucille"}]}, {"person": {"url": "/celebrity/hope_davis/", "name": "Hope Davis", "thumbnailImg": "https://resizing.flixster.com/0m0vFVTydj3W28WFuCyQVcExQEE=/80x80/v1.cjs0Nzk0MztqOzE4NzgzOzIwNDg7MTE3MjsxMTcy"}, "characters": [{"name": "Kristin"}]}, {"person": {"url": "/celebrity/jennifer_steyn/", "name": "Jennifer Steyn", "thumbnailImg": "https://d2a5cgar23scu2.cloudfront.net/static/images/redesign/actor.default.tmb.gif"}, "characters": [{"name": "Aunt Gwen"}]}, {"person": {"url": "/celebrity/nicky_rebelo/", "name": "Nicky Rebelo", "thumbnailImg": "https://d2a5cgar23scu2.cloudfront.net/static/images/redesign/actor.default.tmb.gif"}, "characters": [{"name": "Coach Nagy"}]}, {"person": {"url": "/celebrity/garth_renecle/", "name": "Garth Renecle", "thumbnailImg": "https://d2a5cgar23scu2.cloudfront.net/static/images/redesign/actor.default.tmb.gif"}, "characters": [{"name": "Hock Bender"}]}, {"person": {"url": "/celebrity/andre_stolz/", "name": "Andre Stolz", "thumbnailImg": "https://d2a5cgar23scu2.cloudfront.net/static/images/redesign/actor.default.tmb.gif"}, "characters": [{"name": "Xan's Teacher"}]}, {"person": {"url": "/celebrity/charlotte_savage/", "name": "Charlotte Savage", "thumbnailImg": "https://d2a5cgar23scu2.cloudfront.net/static/images/redesign/actor.default.tmb.gif"}, "characters": [{"name": "Poetry Student"}]}, {"person": {"url": "/celebrity/ronald_shange/", "name": "Ronald Shange", "thumbnailImg": "https://d2a5cgar23scu2.cloudfront.net/static/images/redesign/actor.default.tmb.gif"}, "characters": [{"name": "Policeman"}]}, {"person": {"url": "/celebrity/eamonn_walker/", "name": "Eamonn Walker", "thumbnailImg": "https://resizing.flixster.com/zyGO2LWN5tWcf9Wc6jG6foOrQ7o=/80x80/v1.cjs0NzM2NDtqOzE4Nzg5OzIwNDg7MjA4OzIwOA"}, "characters": [{"name": "Ripkuna"}]}, {"person": {"url": "/celebrity/nadia_kretschmer/", "name": "Nadia Kretschmer", "thumbnailImg": "https://d2a5cgar23scu2.cloudfront.net/static/images/redesign/actor.default.tmb.gif"}, "characters": [{"name": "Tourist #1"}]}, {"person": {"url": "/celebrity/john_whiteley/", "name": "John Whiteley", "thumbnailImg": "https://d2a5cgar23scu2.cloudfront.net/static/images/redesign/actor.default.tmb.gif"}, "characters": [{"name": "Tourist #2"}]}, {"person": {"url": "/celebrity/clive_scott/", "name": "Clive Scott", "thumbnailImg": "https://d2a5cgar23scu2.cloudfront.net/static/images/redesign/actor.default.tmb.gif"}, "characters": [{"name": "Tourist #3"}]}, {"person": {"url": "/celebrity/catriona_andrew/", "name": "Catriona Andrew", "thumbnailImg": "https://d2a5cgar23scu2.cloudfront.net/static/images/redesign/actor.default.tmb.gif"}, "characters": [{"name": "Tourist #4"}]}, {"person": {"url": "/celebrity/errol_ballantine/", "name": "Errol Ballantine", "thumbnailImg": "https://d2a5cgar23scu2.cloudfront.net/static/images/redesign/actor.default.tmb.gif"}, "characters": [{"name": "White Haired Doctor"}]}, {"person": {"url": "/celebrity/michele_levin/", "name": "Michele Levin", "thumbnailImg": "https://d2a5cgar23scu2.cloudfront.net/static/images/redesign/actor.default.tmb.gif"}, "characters": [{"name": "Doctor's Wife"}]}, {"person": {"url": "/celebrity/sam_nagakane/", "name": "Sam Nagakane", "thumbnailImg": "https://d2a5cgar23scu2.cloudfront.net/static/images/redesign/actor.default.tmb.gif"}, "characters": [{"name": "Old Man In Village"}]}, {"person": {"url": "/celebrity/adelaide_shabalala/", "name": "Adelaide Shabalala", "thumbnailImg": "https://d2a5cgar23scu2.cloudfront.net/static/images/redesign/actor.default.tmb.gif"}, "characters": [{"name": "Medicine Woman"}]}, {"person": {"url": "/celebrity/thokozani_ndaba/", "name": "Thokozani Ndaba", "thumbnailImg": "https://d2a5cgar23scu2.cloudfront.net/static/images/redesign/actor.default.tmb.gif"}, "characters": [{"name": "Rip's Wife"}]}, {"person": {"url": "/celebrity/wright_ngubane/", "name": "Wright Ngubane", "thumbnailImg": "https://d2a5cgar23scu2.cloudfront.net/static/images/redesign/actor.default.tmb.gif"}, "characters": [{"name": "Rip's Son"}]}, {"person": {"url": "/celebrity/bernard_msimang/", "name": "Bernard Msimang", "thumbnailImg": "https://d2a5cgar23scu2.cloudfront.net/static/images/redesign/actor.default.tmb.gif"}, "characters": [{"name": "Rip's Father"}]}, {"person": {"url": "/celebrity/ivy_nkutha/", "name": "Ivy Nkutha", "thumbnailImg": "https://d2a5cgar23scu2.cloudfront.net/static/images/redesign/actor.default.tmb.gif"}, "characters": [{"name": "Rip's Mother"}]}, {"person": {"url": "/celebrity/adelina_anthony/", "name": "Adelina Anthony", "thumbnailImg": "https://d2a5cgar23scu2.cloudfront.net/static/images/redesign/actor.default.tmb.gif"}, "characters": [{"name": "Duma"}]}, {"person": {"url": "/celebrity/vilen_azarov/", "name": "Vilen Azarov", "thumbnailImg": "https://d2a5cgar23scu2.cloudfront.net/static/images/redesign/actor.default.tmb.gif"}, "characters": [{"name": "Duma"}]}, {"person": {"url": "/celebrity/christos_nikitaidis/", "name": "Christos Nikitaidis", "thumbnailImg": "https://d2a5cgar23scu2.cloudfront.net/static/images/redesign/actor.default.tmb.gif"}, "characters": [{"name": "Duma"}]}, {"person": {"url": "/celebrity/1017428-sasha/", "name": "Sasha", "thumbnailImg": "https://d2a5cgar23scu2.cloudfront.net/static/images/redesign/actor.default.tmb.gif"}, "characters": [{"name": "Duma"}]}, {"person": {"url": "/celebrity/savannah/", "name": "Savannah", "thumbnailImg": "https://resizing.flixster.com/LkGRyhcTUc57eIhxsUUYxDRA1co=/80x80/v1.cDsxMjk1NDc4ODtqOzE4Nzg3OzIwNDg7MjA2OzI5Nw"}, "characters": [{"name": "Duma"}]}, {"person": {"url": "/celebrity/billy_shebar/", "name": "Billy Shebar", "thumbnailImg": "https://d2a5cgar23scu2.cloudfront.net/static/images/redesign/actor.default.tmb.gif"}, "characters": [{"name": "Young Duma"}]}]}, "title": "Duma", "adjustedScore": 94.35334058625186, "ratings": {"critics_rating": "Certified Fresh", "audience_score": 80, "dvdReleaseDate": 1147762800000, "critics_score": 93, "theaterReleaseDate": 1128063600000, "audience_rating": "Upright"}, "videoClips": {"mainTrailer": {"hlsUrl": "http://video.internetvideoarchive.net/video.m3u8?cmd=6&publishedid=443779&customerid=300120&e=1619087199296&sub=RTO&fmt=11&h=d7f387117f47745e33d40bb65fbf21f0", "seconds": 39, "minutes": 1, "id": 10893713, "title": "Duma", "thumbUrl": "http://content.internetvideoarchive.com/content/photos/765/443779_008.jpg", "mp4Url": "http://video.internetvideoarchive.net/video.mp4?cmd=6&publishedid=443779&customerid=300120&e=1619087199296&sub=RTO&fmt=4&videokbrate=750&h=b3dcd2df1d9a43d37f677290dcddd090"}, "size": 1, "videoClips": [{"hlsUrl": "http://video.internetvideoarchive.net/video.m3u8?cmd=6&publishedid=443779&customerid=300120&e=1619087199296&sub=RTO&fmt=11&h=d7f387117f47745e33d40bb65fbf21f0", "seconds": 39, "minutes": 1, "id": 10893713, "title": "Duma", "thumbUrl": "http://content.internetvideoarchive.com/content/photos/765/443779_008.jpg", "mp4Url": "http://video.internetvideoarchive.net/video.mp4?cmd=6&publishedid=443779&customerid=300120&e=1619087199296&sub=RTO&fmt=4&videokbrate=750&h=b3dcd2df1d9a43d37f677290dcddd090"}]}, "isUpcoming": false, "posters": {"original": "https://resizing.flixster.com/CcResaKNykiB5mtgu5rHLyAVSk8=/1536x2048/v1.bTsxMTIwMzc5NjtqOzE4ODYwOzIwNDg7MTUzNjsyMDQ4", "detailed": "https://resizing.flixster.com/QIXBjWxeqZE0SOG0LOr1PS8ADSY=/180x240/v1.bTsxMTIwMzc5NjtqOzE4ODYwOzIwNDg7MTUzNjsyMDQ4", "profile": "https://resizing.flixster.com/eumbAjJXExGaGWnuFKIfI4N3cK4=/120x160/v1.bTsxMTIwMzc5NjtqOzE4ODYwOzIwNDg7MTUzNjsyMDQ4", "thumbnail": "https://resizing.flixster.com/dqxLuzLQMVHPwUnRYv91n08FUNo=/54x72/v1.bTsxMTIwMzc5NjtqOzE4ODYwOzIwNDg7MTUzNjsyMDQ4"}, "isLimited": true, "mainTrailer": {"thumbUrl": "https://content.internetvideoarchive.com/content/photos/765/443779_008.jpg", "hlsUrl": "http://video.internetvideoarchive.net/video.m3u8?cmd=6&publishedid=443779&customerid=300120&e=1619087198864&sub=RTO&fmt=11&h=4bf70aaf0b47b3c8a35d644f65bc14d6", "id": 10893713, "mp4Url": "http://video.internetvideoarchive.net/video.mp4?cmd=6&publishedid=443779&customerid=300120&e=1619087198864&sub=RTO&fmt=4&videokbrate=750&h=1076f4df50f490d1ea9ac3a4b9f55843"}, "advisory": "for mild adventure peril", "id": 8269}