{"url": "/m/1019187-sleeping_beauty/", "isOnOpening": false, "genreSet": [{"displayName": "Animation", "id": 2}, {"displayName": "Kids & Family", "id": 11}, {"displayName": "Classics", "id": 5}, {"displayName": "Science Fiction & Fantasy", "id": 14}], "officialUrl": "http://movies.disney.com/sleeping-beauty", "isInTheaters": false, "synopsis": "Disney produced this lavish animated fairy tale, the most expensive cartoon ever made up to its release with a budget of $6 million. When the young princess Aurora is cursed at birth by the evil fairy Maleficent, the baby is kidnapped by a trio of good fairies who raise the girl themselves, hoping to avoid the spell's fulfillment. Nevertheless, at the age of 16, the beautiful Aurora falls into a deep sleep that can only be awakened by a kiss from her betrothed, Prince Phillip. Knowing that Phillip intends to save Aurora, Maleficent takes him prisoner. When the good fairies launch a rescue attempt, Maleficent transforms herself into a spectacular fire-breathing dragon, forcing Phillip to defeat her in mortal combat. Sleeping Beauty (1959) was Oscar nominated for its musical score, which featured adaptations of Tchaikovsky compositions. ~ Karl Williams, Rovi", "links": {"alternate": "//www.rottentomatoes.com/m/1019187-sleeping_beauty/"}, "runningTime": 75, "year": 1959, "trackingType": "DvdOther", "status": "Live", "isPlaying": false, "isOnDVD": true, "runningTimeStr": "1 hr. 15 min.", "ratingSummary": {"topcount": 11, "consensus": "This Disney dreamscape contains moments of grandeur, with its lush colors, magical air, one of the most menacing villains in the Disney canon.", "topCritics": {"hasScore": true, "numReviews": 11, "meterClass": "certified", "numRotten": 1, "numFresh": 10, "hasReviews": true, "meterValue": 91, "averageRating": 7.7}, "audience": {"meterScore": 80, "averageScore": 3.424903631210327, "numTotal": 427838, "ratingType": "viewed"}, "allcount": 44, "rottencount": 5, "dvdcount": 18, "allCritics": {"hasScore": true, "numReviews": 44, "meterClass": "certified", "numRotten": 5, "numFresh": 39, "hasReviews": true, "meterValue": 89, "averageRating": 8.23}, "freshcount": 39}, "mpaaRating": "G", "vanity": "1019187-sleeping_beauty", "studio": "Buena Vista", "purchaseOptions": {"amazon": {"url": "http://www.amazon.com/gp/product/B07WW2FG7P/ref=atv_feed_catalog?tag=rottetomao_aiv_mv-20", "isPrime": false, "type": "buy"}, "vudu": {"url": "https://www.vudu.com/content/movies/details/Sleeping-Beauty-Signature-Edition/1216782", "type": "buy"}, "iTunes": {"url": "https://itunes.apple.com/movie/sleeping-beauty/id676662932?uo=5", "price": "14.99"}}, "reviews": {"total": 44, "links": {"alternate": "//www.rottentomatoes.com/m/1019187-sleeping_beauty/#reviews", "self": "api.flixster.com/movies/sleeping-beauty/reviews.json?review_type=mob&country=us&page=1", "prev": "api.flixster.com/movies/sleeping-beauty/reviews.json?review_type=mob&country=us&page=0", "next": "api.flixster.com/movies/sleeping-beauty/reviews.json?review_type=mob&country=us&page=2"}, "reviews": [{"isRotten": false, "url": "https://newspaperarchive.com/entertainment-clipping-feb-12-1959-1817374/", "publication": {"url": "", "name": "Miami Herald"}, "isTop": true, "creationDate": 1592938238000, "isFresh": true, "freshness": "fresh", "critic": {"url": "/critic/george-bourke", "name": "George Bourke", "id": 27176, "thumbnailImage": "https://d2a5cgar23scu2.cloudfront.net/static/images/redesign/user.none.tmb.jpg"}, "quote": "Sleeping Beauty Is a magnificent achievement, offering suspense, action and happy humor, in a truly giant-size package.", "id": 2698229, "links": {"review": "https://newspaperarchive.com/entertainment-clipping-feb-12-1959-1817374/"}}, {"isRotten": false, "url": "http://www.nydailynews.com/entertainment/movies/sleeping-beauty-enchanting-classic-1959-review-article-1.2512390", "creationDate": 1454003114000, "isFresh": true, "id": 2305626, "quote": "It is a picture that will charm the young and tickle adults, since the old fairy tale has been transferred to the screen by a Disney who kept his tongue in his cheek throughout the film's animation.", "links": {"review": "http://www.nydailynews.com/entertainment/movies/sleeping-beauty-enchanting-classic-1959-review-article-1.2512390"}, "publication": {"url": "", "name": "New York Daily News"}, "isTop": true, "freshness": "fresh", "critic": {"url": "/critic/kate-cameron", "name": "Kate Cameron", "id": 16588, "thumbnailImage": "https://d2a5cgar23scu2.cloudfront.net/static/images/redesign/user.none.tmb.jpg"}, "original_score": "4/4"}, {"isRotten": false, "url": "http://thedissolve.com/reviews/1118-sleeping-beauty/", "creationDate": 1412620005000, "isFresh": true, "id": 2226700, "quote": " At once modernist and classical, Disney's Sleeping Beauty takes characters who look like paper cutouts from magazine cartoons and sets them against backdrops that look like expensive wallpaper patterns. ", "links": {"review": "http://thedissolve.com/reviews/1118-sleeping-beauty/"}, "publication": {"url": "", "name": "The Dissolve"}, "isTop": true, "freshness": "fresh", "critic": {"url": "/critic/noel-murray", "name": "Noel Murray", "id": 4030, "thumbnailImage": "https://d2a5cgar23scu2.cloudfront.net/static/images/redesign/user.none.tmb.jpg"}, "original_score": "4/5"}, {"isRotten": false, "url": "http://onfilm.chicagoreader.com/movies/capsules/11194_SLEEPING_BEAUTY", "publication": {"url": "", "name": "Chicago Reader"}, "isTop": true, "creationDate": 1220485149000, "isFresh": true, "freshness": "fresh", "critic": {"url": "/critic/dave-kehr", "name": "Dave Kehr", "id": 15, "thumbnailImage": "https://resizing.flixster.com/9JKqg6sYG8Ma4MxlrqIMwc3jppc=/72x72/v1.YzszNjQ3O2o7MTg3Njc7MjA0ODszMDA7MzAw"}, "quote": "The masterpiece of the Disney Studios' postwar style.", "id": 1753053, "links": {"review": "http://onfilm.chicagoreader.com/movies/capsules/11194_SLEEPING_BEAUTY"}}, {"isRotten": true, "url": "http://www.time.com/time/magazine/article/0,9171,892301,00.html", "publication": {"url": "", "name": "TIME Magazine"}, "isTop": true, "creationDate": 1220377048000, "isFresh": false, "freshness": "rotten", "quote": "The hero and heroine are sugar sculpture, and the witch looks like a clumsy tracing from a Charles Addams cartoon.", "id": 1752774, "links": {"review": "http://www.time.com/time/magazine/article/0,9171,892301,00.html"}}, {"isRotten": false, "url": "http://www.variety.com/review/VE1117794952.html?categoryid=31&cs=1", "publication": {"url": "", "name": "Variety"}, "isTop": true, "creationDate": 1214993724000, "isFresh": true, "freshness": "fresh", "critic": {"url": "/critic/variety-staff", "name": "Variety Staff", "id": 12507, "thumbnailImage": "https://resizing.flixster.com/8Z-e2stpP9WriX4ZUvtumMg0pB0=/72x72/v1.YzsyNDg3O2c7MTg3Nzc7MjA0ODsxNTI7MTY4"}, "quote": "Mary Costa's rich and expressive voice for the title character gives substance and strength to it.", "id": 1738741, "links": {"review": "http://www.variety.com/review/VE1117794952.html?categoryid=31&cs=1"}}, {"isRotten": false, "url": "http://gonewiththetwins.com/new/sleeping-beauty-1959/", "creationDate": 1598170763000, "isFresh": true, "id": 2715955, "quote": "Perhaps most impressive of all is the dark witch's design and scripting - she's unlike any Disney antagonist before her.", "links": {"review": "http://gonewiththetwins.com/new/sleeping-beauty-1959/"}, "publication": {"url": "", "name": "Gone With The Twins"}, "isTop": false, "freshness": "fresh", "critic": {"url": "/critic/mike-massie", "name": "Mike Massie", "id": 27168, "thumbnailImage": "https://resizing.flixster.com/cKCY6tR9EskewGPlb8BlnvWesZU=/72x72/v1.YzszNjc3O2o7MTg3OTc7MjA0ODszMDA7MzAw"}, "original_score": "9/10"}, {"isRotten": true, "url": "https://archive.macleans.ca/article/1959/8/1/macleans-movies", "publication": {"url": "", "name": "Maclean's Magazine"}, "isTop": false, "creationDate": 1571430909000, "isFresh": false, "freshness": "rotten", "critic": {"url": "/critic/clyde-gilmour", "name": "Clyde Gilmour", "id": 17895, "thumbnailImage": "https://resizing.flixster.com/sPHSWglvMYZi_D_vMZOOrQHqZaY=/72x72/v1.YzszNTU2O2o7MTg3NjY7MjA0ODszMDA7MzAw"}, "quote": "Walt Disney's latest, costliest feature-length cartoon. It probably will make millions in dollars, pounds, marks and other currencies but there is a dismaying monster-horror bigness in this inflated version of the fairy-tale.", "id": 2637191, "links": {"review": "https://archive.macleans.ca/article/1959/8/1/macleans-movies"}}, {"isRotten": false, "url": "http://www.fromthefrontrow.net/2014/10/blu-ray-review-sleeping-beauty.html", "creationDate": 1565141243000, "isFresh": true, "id": 2613075, "quote": "Consistently has the aura of an old fairy tale, lovingly told, and the ingenious use of Tchaikovsky's ballet as the film's score reinforces its timelessness.", "links": {"review": "http://www.fromthefrontrow.net/2014/10/blu-ray-review-sleeping-beauty.html"}, "publication": {"url": "", "name": "From the Front Row"}, "isTop": false, "freshness": "fresh", "critic": {"url": "/critic/matthew-lucas", "name": "Matthew Lucas", "id": 25079, "thumbnailImage": "https://resizing.flixster.com/hC9DIwh8TBZinZWNombChPlC53Y=/72x72/v1.YzszMzgzO2o7MTg3NzM7MjA0ODszMDA7MzAw"}, "original_score": "3.5/4"}, {"isRotten": false, "url": "https://www.youtube.com/watch?v=btypvP3mL6E", "creationDate": 1557298504000, "isFresh": true, "id": 2584464, "quote": "One of Disney's most beautiful films with one of its best villains", "links": {"review": "https://www.youtube.com/watch?v=btypvP3mL6E"}, "publication": {"url": "", "name": "Rachel's Reviews (YouTube)"}, "isTop": false, "freshness": "fresh", "critic": {"url": "/critic/rachel-wagner", "name": "Rachel Wagner", "id": 23964, "thumbnailImage": "https://resizing.flixster.com/CvuVoWlOH-LcGgLgTU2V23hxVvM=/72x72/v1.YzszMjU3O2o7MTg3ODI7MjA0ODszMDA7MzAw"}, "original_score": "9/10"}, {"isRotten": true, "url": "http://archive.spectator.co.uk/article/14th-august-1959/15/cinema", "publication": {"url": "", "name": "The Spectator"}, "isTop": false, "creationDate": 1521067116000, "isFresh": false, "freshness": "rotten", "critic": {"url": "/critic/isabel-quigly", "name": "Isabel Quigly", "id": 16830, "thumbnailImage": "https://d2a5cgar23scu2.cloudfront.net/static/images/redesign/user.none.tmb.jpg"}, "quote": "Sleeping Beauty is frightening, overcoloured, overanimated and overwhelmingly vulgar, with a lot of lugubrious wordage set to Tchaikovsky's music.", "id": 2464612, "links": {"review": "http://archive.spectator.co.uk/article/14th-august-1959/15/cinema"}}, {"isRotten": false, "url": "http://www.dustinputman.com/bluray/59_sleepingbeauty.htm", "creationDate": 1412688695000, "isFresh": true, "id": 2226784, "quote": "A vision of artistry and pure entertainment, \"Sleeping Beauty\" will never, ever grow old.", "links": {"review": "http://www.dustinputman.com/bluray/59_sleepingbeauty.htm"}, "publication": {"url": "", "name": "TheBluFile.com"}, "isTop": false, "freshness": "fresh", "critic": {"url": "/critic/dustin-putman", "name": "Dustin Putman", "id": 1388, "thumbnailImage": "https://resizing.flixster.com/saGnkxe5w0LS-d-0a30Wcgd1CVU=/72x72/v1.YzsyNDc4O2c7MTg3Njg7MjA0ODszODs0Mg"}, "original_score": "4/4"}]}, "casts": {"screenwriters": [{"url": "/celebrity/erdman_penner/", "name": "Erdman Penner", "thumbnailImg": "https://d2a5cgar23scu2.cloudfront.net/static/images/redesign/actor.default.tmb.gif"}, {"url": "/celebrity/milt_banta/", "name": "Milt Banta", "thumbnailImg": "https://d2a5cgar23scu2.cloudfront.net/static/images/redesign/actor.default.tmb.gif"}, {"url": "/celebrity/winston_hibler/", "name": "Winston Hibler", "thumbnailImg": "https://d2a5cgar23scu2.cloudfront.net/static/images/redesign/actor.default.tmb.gif"}, {"url": "/celebrity/ted_sears/", "name": "Ted Sears", "thumbnailImg": "https://d2a5cgar23scu2.cloudfront.net/static/images/redesign/actor.default.tmb.gif"}, {"url": "/celebrity/bill_peet/", "name": "Bill Peet", "thumbnailImg": "https://d2a5cgar23scu2.cloudfront.net/static/images/redesign/actor.default.tmb.gif"}, {"url": "/celebrity/joe_rinaldi/", "name": "Joe Rinaldi", "thumbnailImg": "https://d2a5cgar23scu2.cloudfront.net/static/images/redesign/actor.default.tmb.gif"}, {"url": "/celebrity/1092574-ralph_wright/", "name": "Ralph Wright", "thumbnailImg": "https://d2a5cgar23scu2.cloudfront.net/static/images/redesign/actor.default.tmb.gif"}], "directors": [{"url": "/celebrity/les_clark/", "name": "Les Clark", "thumbnailImg": "https://d2a5cgar23scu2.cloudfront.net/static/images/redesign/actor.default.tmb.gif"}, {"url": "/celebrity/clyde_geronimi/", "name": "Clyde Geronimi", "thumbnailImg": "https://resizing.flixster.com/21qaDVrtabJ-b8PrHoLBKeRFwqM=/80x80/v1.cDsxMTAzMTI4MTtqOzE4ODczOzIwNDg7NDUwOzI0Ng"}, {"url": "/celebrity/wolfgang_reitherman/", "name": "Wolfgang Reitherman", "thumbnailImg": "https://d2a5cgar23scu2.cloudfront.net/static/images/redesign/actor.default.tmb.gif"}, {"url": "/celebrity/eric_larson_2/", "name": "Eric Larson", "thumbnailImg": "https://d2a5cgar23scu2.cloudfront.net/static/images/redesign/actor.default.tmb.gif"}], "creators": [], "producers": [{"url": "/celebrity/walt_disney/", "name": "Walt Disney", "thumbnailImg": "https://resizing.flixster.com/LSoN_IPA17uTor-mQWNn8QNL0pI=/80x80/v1.cjs0MjI0MDtqOzE4Nzk1OzIwNDg7NDUwOzU5OQ"}], "castItems": [{"person": {"url": "/celebrity/eleanor-audley/", "name": "Eleanor Audley", "thumbnailImg": "https://resizing.flixster.com/ZdAnHTkO8DUbvo0YUPvlAB0tO8o=/80x80/v1.cDsxMTAzMTI3NjtqOzE4ODY4OzIwNDg7MjQ5OzE4MQ"}, "characters": [{"name": "Maleficent"}]}, {"person": {"url": "/celebrity/verna-felton/", "name": "Verna Felton", "thumbnailImg": "https://resizing.flixster.com/KT1Ehj0UbQBCn7OCWPyF0_WTjvw=/80x80/v1.cDszOTc1MzEzO2o7MTg3Nzk7MjA0ODsxMDY7MTE2"}, "characters": [{"name": "Flora"}]}, {"person": {"url": "/celebrity/barbara_jo_allen/", "name": "Barbara Jo Allen", "thumbnailImg": "https://resizing.flixster.com/qDWjNiJR2pe7gM3dOFhHqQ1AUNQ=/80x80/v1.cDsxMjg5OTE1MjtwOzE4ODE2OzIwNDg7MjE1OzI0MA"}, "characters": [{"name": "Fauna"}]}, {"person": {"url": "/celebrity/barbara-luddy/", "name": "Barbara Luddy", "thumbnailImg": "https://resizing.flixster.com/srBD0Dg0iZHBxdVyj49VH2OUyyE=/80x80/v1.cDszNDkzMDk4O2o7MTg4Njg7MjA0ODszMDA7MzU3"}, "characters": [{"name": "Merryweather"}]}, {"person": {"url": "/celebrity/taylor_holmes/", "name": "Taylor Holmes", "thumbnailImg": "https://resizing.flixster.com/l_H3OJa55DeXYQGvpbFXyQIsxN8=/80x80/v1.cDszNDU2MzE4O2o7MTg4NTM7MjA0ODsxMDQ7MTA0"}, "characters": [{"name": "King Stefan"}]}, {"person": {"url": "/celebrity/bill_thompson/", "name": "Bill Thompson", "thumbnailImg": "https://resizing.flixster.com/gwqRus8M0krpKVE46eJIQmWsQbI=/80x80/v1.cDszNDU2MzA2O2o7MTg4ODY7MjA0ODs0ODI7NDEw"}, "characters": [{"name": "King Hubert"}]}, {"person": {"url": "/celebrity/candy-candido/", "name": "Candy Candido", "thumbnailImg": "https://resizing.flixster.com/sMvG4RhFmd6wlF4D2NIWLdixaBI=/80x80/v1.cDszNDU2MzQwO2o7MTg4NzU7MjA0ODsyNDA7MjQw"}, "characters": [{"name": "Goons"}]}, {"person": {"url": "/celebrity/mary-costa/", "name": "Mary Costa", "thumbnailImg": "https://resizing.flixster.com/_tOAyJh60kOSi12PkltT7XRQh6c=/80x80/v1.cDsxMTA3NjY1MDtqOzE4ODgzOzIwNDg7MTEzNjs5Mjg"}, "characters": [{"name": "Princess Aurora"}]}, {"person": {"url": "/celebrity/bill_shirley/", "name": "Bill Shirley", "thumbnailImg": "https://resizing.flixster.com/C1eLQf9iX_Sdnh7Vfx0PiE8nvDo=/80x80/v1.cDszNDU2NDI1O2o7MTg4NzA7MjA0ODsxNTA7MjE0"}, "characters": [{"name": "Prince Phillip"}]}, {"person": {"url": "/celebrity/pinto_colvig/", "name": "Pinto Colvig", "thumbnailImg": "https://resizing.flixster.com/yvkk5l245k_AvU5ydbei0d9BNKI=/80x80/v1.cDsxMjY3NzQyMDtqOzE4Nzk2OzIwNDg7Mjg3OzM0MQ"}, "characters": [{"name": "Maleficent's goon"}]}, {"person": {"url": "/celebrity/dal_mckennon/", "name": "Dal McKennon", "thumbnailImg": "https://resizing.flixster.com/EHEFkw8fyEbrTw7MXh3mR__qlP8=/80x80/v1.cDsxMTc5NTA0OTtqOzE4Nzc1OzIwNDg7MTk4OzIwNg"}, "characters": [{"name": "Owl"}]}, {"person": {"url": "/celebrity/marvin_miller/", "name": "Marvin Miller", "thumbnailImg": "https://resizing.flixster.com/E_MoYk7oA14NhO7HDGFCvD6z85o=/80x80/v1.cDsxMjQzOTA4NTtqOzE4Nzc4OzIwNDg7Mzk2OzU4Nw"}, "characters": [{"name": "Narrator"}]}]}, "title": "Sleeping Beauty", "adjustedScore": 93.90500986405057, "ratings": {"critics_rating": "Certified Fresh", "audience_score": 80, "dvdReleaseDate": 1223362800000, "critics_score": 89, "theaterReleaseDate": -344707200000, "audience_rating": "Upright"}, "videoClips": {"mainTrailer": {"hlsUrl": "http://video.internetvideoarchive.net/video.m3u8?cmd=6&publishedid=157655&customerid=300120&e=1619087211981&sub=RTO&fmt=11&h=fd441d62076cfb801b609e66e81ea4f7", "seconds": 8, "minutes": 1, "id": 10887522, "title": "Sleeping Beauty", "thumbUrl": "http://content.internetvideoarchive.com/content/photos/1259/157655_019.jpg", "mp4Url": "http://video.internetvideoarchive.net/video.mp4?cmd=6&publishedid=157655&customerid=300120&e=1619087211981&sub=RTO&fmt=4&videokbrate=750&h=1ad800df8fbcd5a96de61cdeb4be366d"}, "size": 3, "videoClips": [{"hlsUrl": "http://video.internetvideoarchive.net/video.m3u8?cmd=6&publishedid=157655&customerid=300120&e=1619087211981&sub=RTO&fmt=11&h=fd441d62076cfb801b609e66e81ea4f7", "seconds": 8, "minutes": 1, "id": 10887522, "title": "Sleeping Beauty", "thumbUrl": "http://content.internetvideoarchive.com/content/photos/1259/157655_019.jpg", "mp4Url": "http://video.internetvideoarchive.net/video.mp4?cmd=6&publishedid=157655&customerid=300120&e=1619087211981&sub=RTO&fmt=4&videokbrate=750&h=1ad800df8fbcd5a96de61cdeb4be366d"}, {"hlsUrl": "http://video.internetvideoarchive.net/video.m3u8?cmd=6&publishedid=http://link.theplatform.com/s/NGweTC/media/dNYuZN8lyrEk&customerid=300120&e=1619087211981&sub=RTO&fmt=11&h=56ec176879e4b3ad2b21f49e9b05df86", "seconds": 45, "minutes": 0, "id": 11312435, "title": "Sleeping Beauty: Trailer 2", "thumbUrl": "http://resizing.flixster.com/B85XtCWMwcvQ6NtOaDRLiJ8tVaw=/171x128/v1.bjsyMjg0NzY3O2o7MTg3OTE7MjA0ODsxMDgwOzE5MjA", "mp4Url": "http://video.internetvideoarchive.net/video.mp4?cmd=6&publishedid=http://link.theplatform.com/s/NGweTC/media/dNYuZN8lyrEk&customerid=300120&e=1619087211981&sub=RTO&fmt=4&videokbrate=750&h=b11a6c5121780c688bc788b0f87857c8"}, {"hlsUrl": "http://video.internetvideoarchive.net/video.m3u8?cmd=6&publishedid=http://link.theplatform.com/s/NGweTC/media/M1JPPs6_PlKQ&customerid=300120&e=1619087211981&sub=RTO&fmt=11&h=31d1ee9bec752de05fd5831a983656d9", "seconds": 10, "minutes": 3, "id": 11312436, "title": "Sleeping Beauty: Trailer 1", "thumbUrl": "http://resizing.flixster.com/OhYpYquOaPvWqvKAv5Q9fPBtlcM=/171x128/v1.bjsyMjg0NzY4O2o7MTg3OTE7MjA0ODsxMDgwOzE5MjA", "mp4Url": "http://video.internetvideoarchive.net/video.mp4?cmd=6&publishedid=http://link.theplatform.com/s/NGweTC/media/M1JPPs6_PlKQ&customerid=300120&e=1619087211981&sub=RTO&fmt=4&videokbrate=750&h=8eb28b5a97bf060b25cb2f90b1d5f30e"}]}, "isUpcoming": false, "posters": {"original": "https://resizing.flixster.com/Zid11VPwskqf_9gdVLXjDCDznXc=/1365x1820/v1.bTsxMTIxMjk1NztqOzE4ODg2OzIwNDg7MTM2NTsxODIw", "detailed": "https://resizing.flixster.com/YKXbE9uKNwHpZIlgdzNFpQzbGb4=/180x240/v1.bTsxMTIxMjk1NztqOzE4ODg2OzIwNDg7MTM2NTsxODIw", "profile": "https://resizing.flixster.com/bNGHU0EOM_q9-pHLSGYk-27-8m8=/120x160/v1.bTsxMTIxMjk1NztqOzE4ODg2OzIwNDg7MTM2NTsxODIw", "thumbnail": "https://resizing.flixster.com/H6VMmIASP5me9py9i4nR2ijaSBM=/54x72/v1.bTsxMTIxMjk1NztqOzE4ODg2OzIwNDg7MTM2NTsxODIw"}, "isLimited": false, "mainTrailer": {"thumbUrl": "https://content.internetvideoarchive.com/content/photos/1259/157655_019.jpg", "hlsUrl": "http://video.internetvideoarchive.net/video.m3u8?cmd=6&publishedid=157655&customerid=300120&e=1619087211616&sub=RTO&fmt=11&h=ea5fc426032f524a3a835eaa7a5cdcdd", "id": 10887522, "mp4Url": "http://video.internetvideoarchive.net/video.mp4?cmd=6&publishedid=157655&customerid=300120&e=1619087211616&sub=RTO&fmt=4&videokbrate=750&h=ba652ac1e6f8b497caa2da5d79251e97"}, "photos": {"photos": [{"url": "https://resizing.flixster.com/GDKADD4vmCZtGuovkzeQTzkeLl8=/1024x688/v1.bjs3MzU0Nzc7ajsxODgxNTsyMDQ4OzI0NjM7MTY1NQ", "index": 0, "submittedBy": "RT Staff", "height": 688, "imageId": 735477, "thumbnail": "https://resizing.flixster.com/3k1Mvt-0exQE4dqnYRWOk_3X4u0=/80x80/v1.bjs3MzU0Nzc7ajsxODgxNTsyMDQ4OzI0NjM7MTY1NQ", "submittedDate": "2015-06-11", "id": "multiuse-735477", "photoType": "movie", "width": 1024}, {"url": "https://resizing.flixster.com/cKREAaAmoMR4gWoppBpW5x8m-XE=/1024x703/v1.bjs3MzU0Nzg7ajsxODgxNjsyMDQ4OzIyMDE7MTUxMg", "index": 1, "submittedBy": "RT Staff", "height": 703, "imageId": 735478, "thumbnail": "https://resizing.flixster.com/GGyHJhZHCNbJeAvlHhvbSxbRZFs=/80x80/v1.bjs3MzU0Nzg7ajsxODgxNjsyMDQ4OzIyMDE7MTUxMg", "submittedDate": "2015-06-11", "id": "multiuse-735478", "photoType": "movie", "width": 1024}, {"url": "https://resizing.flixster.com/TPJk00LOQ8jHn5oNCJHvy_BZeps=/1024x688/v1.bjs3MzU0Nzk7ajsxODgxNzsyMDQ4OzI0MjA7MTYyNw", "index": 2, "submittedBy": "RT Staff", "height": 688, "imageId": 735479, "thumbnail": "https://resizing.flixster.com/T00raYer68acCWDHgZIlmMFZsI0=/80x80/v1.bjs3MzU0Nzk7ajsxODgxNzsyMDQ4OzI0MjA7MTYyNw", "submittedDate": "2015-06-11", "id": "multiuse-735479", "photoType": "movie", "width": 1024}, {"url": "https://resizing.flixster.com/Ps1ltk2DO1iq08WdljLzFSAvyuI=/1024x688/v1.bjs3MzU0ODA7ajsxODc3MzsyMDQ4OzI0MjA7MTYyNw", "index": 3, "submittedBy": "RT Staff", "height": 688, "imageId": 735480, "thumbnail": "https://resizing.flixster.com/ce52zsvnXTxmAdooVB-HQyPz6s0=/80x80/v1.bjs3MzU0ODA7ajsxODc3MzsyMDQ4OzI0MjA7MTYyNw", "submittedDate": "2015-06-11", "id": "multiuse-735480", "photoType": "movie", "width": 1024}, {"url": "https://resizing.flixster.com/JKAyvqnRzhVm300_4ZdbXbyDQ0c=/764x1024/v1.bjsxNTQyNjE3O2o7MTg3OTk7MjA0ODsyMDAwOzI2ODI", "index": 4, "submittedBy": "RT Staff", "height": 1024, "imageId": 1542617, "thumbnail": "https://resizing.flixster.com/QbPQ6VLViv_e3un6wZXZaNIt2OA=/80x80/v1.bjsxNTQyNjE3O2o7MTg3OTk7MjA0ODsyMDAwOzI2ODI", "submittedDate": "2017-02-21", "id": "multiuse-1542617", "photoType": "movie", "width": 764}, {"url": "https://resizing.flixster.com/elCAy1Bi7n2aRawvdxCnkvhD4kk=/600x321/v1.aDsyMzU3NjtqOzE4ODA2OzIwNDg7NjUyOzM0OQ", "index": 5, "submittedBy": "RT Staff", "height": 321, "imageId": 23576, "thumbnail": "https://resizing.flixster.com/cJVrWjr00gB52H2AGPTs_lA5bAI=/80x80/v1.aDsyMzU3NjtqOzE4ODA2OzIwNDg7NjUyOzM0OQ", "submittedDate": "2010-03-29", "id": "movie-23576", "photoType": "movie", "width": 600}, {"url": "https://resizing.flixster.com/jSd8eaWilNZigww_1icg0liESwk=/600x494/v1.aDsyMTU0NztqOzE4ODAyOzIwNDg7NjUyOzUzNw", "index": 6, "submittedBy": "RT Staff", "height": 494, "imageId": 21547, "thumbnail": "https://resizing.flixster.com/o9ejwOT2tqRXnP5ZSAchHo2LDx4=/80x80/v1.aDsyMTU0NztqOzE4ODAyOzIwNDg7NjUyOzUzNw", "submittedDate": "2010-03-29", "id": "movie-21547", "photoType": "movie", "width": 600}, {"url": "https://resizing.flixster.com/qAYR3T4NKFMeKW_e99IFnNYftIk=/437x600/v1.aDsxOTMyNjtqOzE4Nzg2OzIwNDg7NjUyOzg5NQ", "index": 7, "submittedBy": "RT Staff", "height": 600, "imageId": 19326, "thumbnail": "https://resizing.flixster.com/drl7Hk7GA7d-mBy8NVolpQ4yo0o=/80x80/v1.aDsxOTMyNjtqOzE4Nzg2OzIwNDg7NjUyOzg5NQ", "submittedDate": "2010-03-29", "id": "movie-19326", "photoType": "movie", "width": 437}, {"url": "https://resizing.flixster.com/VEpTQvx9Lb2tTUFt0VQns5AJ1iI=/600x419/v1.aDsxNjg4ODtqOzE4Nzc4OzIwNDg7NjUyOzQ1NQ", "index": 8, "submittedBy": "RT Staff", "height": 419, "imageId": 16888, "thumbnail": "https://resizing.flixster.com/AE3ZKNRMGMAMQhX1MzApr7Fy4Ik=/80x80/v1.aDsxNjg4ODtqOzE4Nzc4OzIwNDg7NjUyOzQ1NQ", "submittedDate": "2010-03-29", "id": "movie-16888", "photoType": "movie", "width": 600}, {"url": "https://resizing.flixster.com/QLqeI7jpYw2GuhwJH9JhJwMoc88=/436x600/v1.aDsxNDE4NztqOzE4Nzc3OzIwNDg7NjUyOzg5Nw", "index": 9, "submittedBy": "RT Staff", "height": 600, "imageId": 14187, "thumbnail": "https://resizing.flixster.com/Xn77_Ftcc4P8QsE2iX0oKR6vgso=/80x80/v1.aDsxNDE4NztqOzE4Nzc3OzIwNDg7NjUyOzg5Nw", "submittedDate": "2010-03-29", "id": "movie-14187", "photoType": "movie", "width": 436}, {"url": "https://resizing.flixster.com/jIhHTeMpaMN57W4kX_6ysHPahEs=/600x456/v1.aDsxMTI1NTtqOzE4NzcwOzIwNDg7NjUyOzQ5Ng", "index": 10, "submittedBy": "RT Staff", "height": 456, "imageId": 11255, "thumbnail": "https://resizing.flixster.com/Clgmwh9xgTGJr40uF1gDglFKY0c=/80x80/v1.aDsxMTI1NTtqOzE4NzcwOzIwNDg7NjUyOzQ5Ng", "submittedDate": "2010-03-29", "id": "movie-11255", "photoType": "movie", "width": 600}, {"url": "https://resizing.flixster.com/PSJfy8iERKVbRHEUm2ohAn93GVg=/600x249/v1.aDs4MTUwO2o7MTg3NzA7MjA0ODs2NTI7Mjcx", "index": 11, "submittedBy": "RT Staff", "height": 249, "imageId": 8150, "thumbnail": "https://resizing.flixster.com/coChaPNE2p4khHABXBN19Yzj_9o=/80x80/v1.aDs4MTUwO2o7MTg3NzA7MjA0ODs2NTI7Mjcx", "submittedDate": "2010-03-29", "id": "movie-8150", "photoType": "movie", "width": 600}, {"url": "https://resizing.flixster.com/tonNm1PkJ1TLUW9V8nyXrHiYnzs=/369x600/v1.aDs0OTE1O2o7MTg3NzU7MjA0ODs2NTI7MTA2MA", "index": 12, "submittedBy": "RT Staff", "height": 600, "imageId": 4915, "thumbnail": "https://resizing.flixster.com/PVmWwQ_m7cUDYhiVC7rpf2ipZwo=/80x80/v1.aDs0OTE1O2o7MTg3NzU7MjA0ODs2NTI7MTA2MA", "submittedDate": "2010-03-29", "id": "movie-4915", "photoType": "movie", "width": 369}, {"url": "https://resizing.flixster.com/3vFFilFIJFzM6gJ_bka0wBNhpfg=/600x539/v1.aDsxNTQzO2o7MTg3Nzg7MjA0ODs2NTI7NTg2", "index": 13, "submittedBy": "RT Staff", "height": 539, "imageId": 1543, "thumbnail": "https://resizing.flixster.com/8-2j6wHzABJG8_lCjf2GmlWx3vY=/80x80/v1.aDsxNTQzO2o7MTg3Nzg7MjA0ODs2NTI7NTg2", "submittedDate": "2010-03-29", "id": "movie-1543", "photoType": "movie", "width": 600}], "length": 14}, "id": 21442}