{"url": "/m/1004151-christmas_story/", "isOnOpening": false, "genreSet": [{"displayName": "Drama", "id": 9}, {"displayName": "Kids & Family", "id": 11}, {"displayName": "Comedy", "id": 6}], "officialUrl": "http://www2.warnerbros.com/achristmasstory/", "isInTheaters": false, "synopsis": "In the 1940's, in the town of Hammond, 9-year-old Ralphie wants one thing for Christmas -- an official Red Ryder BB rifle. When he asks his mother for the BB gun for Christmas, she says, \"No, you'll shoot your eye out\". When he writes an essay about it at school his teacher gives him a C+ with a note saying \"You'll shoot your eye out.\" Next he asks Santa for the gun, Santa's response is familiar, he says, \"You'll shoot your eye out, kid.\" Ralph fears that he'll never get the BB gun for Christmas. But there may be a surprise in store for him.", "links": {"alternate": "//www.rottentomatoes.com/m/1004151-christmas_story/"}, "runningTime": 93, "year": 1983, "trackingType": "DvdOther", "status": "Live", "isPlaying": false, "isOnDVD": true, "runningTimeStr": "1 hr. 33 min.", "ratingSummary": {"topcount": 10, "consensus": "Both warmly nostalgic and darkly humorous, A Christmas Story deserves its status as a holiday perennial.", "topCritics": {"hasScore": true, "numReviews": 10, "meterClass": "certified", "numRotten": 1, "numFresh": 9, "hasReviews": true, "meterValue": 90, "averageRating": 8.583333}, "audience": {"meterScore": 88, "averageScore": 3.7081942558288574, "numTotal": 285694, "ratingType": "viewed"}, "allcount": 57, "rottencount": 6, "dvdcount": 10, "allCritics": {"hasScore": true, "numReviews": 57, "meterClass": "certified", "numRotten": 6, "numFresh": 51, "hasReviews": true, "meterValue": 89, "averageRating": 8.53}, "freshcount": 51}, "mpaaRating": "PG", "vanity": "1004151-christmas_story", "photos": {"photos": [{"url": "https://resizing.flixster.com/3WjgFJEUBNjUCW6RenFpcr7kSfg=/1024x719/v1.bjsxNzc3Mjc7ajsxODc4OTsyMDQ4OzQ5MTY7MzQ1MA", "index": 0, "submittedBy": "RT Staff", "height": 719, "imageId": 177727, "thumbnail": "https://resizing.flixster.com/k5TNB6-T46G6vA9FB49z7qfI4lw=/80x80/v1.bjsxNzc3Mjc7ajsxODc4OTsyMDQ4OzQ5MTY7MzQ1MA", "submittedDate": "2014-07-02", "id": "multiuse-177727", "photoType": "movie", "width": 1024}, {"url": "https://resizing.flixster.com/I_p-zaQQAqwvt7oNoetgCBuPfUA=/685x1024/v1.bjsxNzc3Mjg7ajsxODc5MDsyMDQ4OzIzNTE7MzUxNw", "index": 1, "submittedBy": "RT Staff", "height": 1024, "imageId": 177728, "thumbnail": "https://resizing.flixster.com/UYQ2tU1XwIGmo2sYJ8b8LVfQFkY=/80x80/v1.bjsxNzc3Mjg7ajsxODc5MDsyMDQ4OzIzNTE7MzUxNw", "submittedDate": "2014-07-02", "id": "multiuse-177728", "photoType": "movie", "width": 685}, {"url": "https://resizing.flixster.com/ajC0XqCwi8SRxrw1t4ZJcoAFmUc=/1024x679/v1.bjs3MzQzMDE7ajsxODgwOTsyMDQ4OzIwNjE7MTM2Ng", "index": 2, "submittedBy": "RT Staff", "height": 679, "imageId": 734301, "thumbnail": "https://resizing.flixster.com/EEbJamWemNlK2kN5DF_QhTSquXM=/80x80/v1.bjs3MzQzMDE7ajsxODgwOTsyMDQ4OzIwNjE7MTM2Ng", "submittedDate": "2015-06-11", "id": "multiuse-734301", "photoType": "movie", "width": 1024}, {"url": "https://resizing.flixster.com/s1HhDlJN6i4993a55SQ5dR0VzOA=/680x1024/v1.bjs3MzQzMDI7ajsxODgxMDsyMDQ4OzIzMTU7MzQ4Nw", "index": 3, "submittedBy": "RT Staff", "height": 1024, "imageId": 734302, "thumbnail": "https://resizing.flixster.com/oWDy3vNOuB5Do107Ej80Y6jDPlg=/80x80/v1.bjs3MzQzMDI7ajsxODgxMDsyMDQ4OzIzMTU7MzQ4Nw", "submittedDate": "2015-06-11", "id": "multiuse-734302", "photoType": "movie", "width": 680}, {"url": "https://resizing.flixster.com/a5qPqHTZnA3aJPcAw5Ys0E4b5B4=/1024x719/v1.bjs3MzQzMDM7ajsxODgxMTsyMDQ4OzQ5MTY7MzQ1MA", "index": 4, "submittedBy": "RT Staff", "height": 719, "imageId": 734303, "thumbnail": "https://resizing.flixster.com/jHq7RdcPZpAcoetgw5mSffiHeB8=/80x80/v1.bjs3MzQzMDM7ajsxODgxMTsyMDQ4OzQ5MTY7MzQ1MA", "submittedDate": "2015-06-11", "id": "multiuse-734303", "photoType": "movie", "width": 1024}, {"url": "https://resizing.flixster.com/BxN-WKFbU98mvqlWFCp647mlIq4=/1024x706/v1.bjs3MzQzMDU7ajsxODgxMzsyMDQ4OzIwMjU7MTM5Ng", "index": 5, "submittedBy": "RT Staff", "height": 706, "imageId": 734305, "thumbnail": "https://resizing.flixster.com/-fN7CkeH2fejon-cfSy-SBauXZM=/80x80/v1.bjs3MzQzMDU7ajsxODgxMzsyMDQ4OzIwMjU7MTM5Ng", "submittedDate": "2015-06-11", "id": "multiuse-734305", "photoType": "movie", "width": 1024}, {"url": "https://resizing.flixster.com/XHHcbF02mZsGLt7cTnSvWJsRafc=/691x1024/v1.bjs3MzQzMDY7ajsxODgxNDsyMDQ4OzIzOTU7MzU0Nw", "index": 6, "submittedBy": "RT Staff", "height": 1024, "imageId": 734306, "thumbnail": "https://resizing.flixster.com/AfddKVOtV2i01gaYm-OZ3zg8xhg=/80x80/v1.bjs3MzQzMDY7ajsxODgxNDsyMDQ4OzIzOTU7MzU0Nw", "submittedDate": "2015-06-11", "id": "multiuse-734306", "photoType": "movie", "width": 691}, {"url": "https://resizing.flixster.com/b4H9r8Y-yHUSxYbdz6lW-YDfAVs=/1024x768/v1.bjs5ODg2Njg7ajsxODc5NDsyMDQ4OzE4MzY7MTM3Nw", "index": 7, "submittedBy": "RT Staff", "height": 768, "imageId": 988668, "thumbnail": "https://resizing.flixster.com/mTo_b_PaQ2eUDYrBcROych0yAG4=/80x80/v1.bjs5ODg2Njg7ajsxODc5NDsyMDQ4OzE4MzY7MTM3Nw", "submittedDate": "2015-12-20", "id": "multiuse-988668", "photoType": "movie", "width": 1024}], "length": 8}, "studio": "MGM", "purchaseOptions": {"amazon": {"url": "http://www.amazon.com/gp/product/B002SHT464/ref=atv_feed_catalog?tag=rottetomao_aiv_mv-20", "isPrime": false, "type": "rent"}, "vudu": {"url": "https://www.vudu.com/content/movies/details/A-Christmas-Story/9894", "type": "buy"}, "flixster": {"url": "a-christmas-story", "movieId": "ID: 2000001089; SKU:432286; Type: B (SD Buy)", "type": "buy"}, "iTunes": {"url": "https://itunes.apple.com/movie/a-christmas-story/id297444171?uo=5", "price": "14.99"}}, "reviews": {"total": 57, "links": {"alternate": "//www.rottentomatoes.com/m/1004151-christmas_story/#reviews", "self": "api.flixster.com/movies/a-christmas-story/reviews.json?review_type=mob&country=us&page=1", "prev": "api.flixster.com/movies/a-christmas-story/reviews.json?review_type=mob&country=us&page=0", "next": "api.flixster.com/movies/a-christmas-story/reviews.json?review_type=mob&country=us&page=2"}, "reviews": [{"isRotten": false, "url": "https://www.washingtonpost.com/archive/lifestyle/1983/11/18/christmas-story-family-fare-to-savor/60911d40-1e68-4f5b-9c74-91fda797791a/", "publication": {"url": "", "name": "Washington Post"}, "isTop": true, "creationDate": 1448935011000, "isFresh": true, "freshness": "fresh", "critic": {"url": "/critic/rita-kempley", "name": "Rita Kempley", "id": 17, "thumbnailImage": "https://d2a5cgar23scu2.cloudfront.net/static/images/redesign/user.none.tmb.jpg"}, "quote": "It's a nostalgic comedy featuring a family of eccentrics who lovingly celebrate the holidays and life itself in Midwestern America in the 1940s.", "id": 2296921, "links": {"review": "https://www.washingtonpost.com/archive/lifestyle/1983/11/18/christmas-story-family-fare-to-savor/60911d40-1e68-4f5b-9c74-91fda797791a/"}}, {"isRotten": false, "url": "http://articles.chicagotribune.com/2001-12-21/entertainment/0112210380_1_white-christmas-christmas-eve-christmas-story", "creationDate": 1386206959000, "isFresh": true, "id": 2177680, "quote": "[A] richly remembered tale of Christmas past.", "links": {"review": "http://articles.chicagotribune.com/2001-12-21/entertainment/0112210380_1_white-christmas-christmas-eve-christmas-story"}, "publication": {"url": "", "name": "Chicago Tribune"}, "isTop": true, "freshness": "fresh", "critic": {"url": "/critic/michael-wilmington", "name": "Michael Wilmington", "id": 258, "thumbnailImage": "https://resizing.flixster.com/69YruALURyjMc-SeJwdCRhDpmc0=/72x72/v1.YzsxNjAzO2c7MTg3OTM7MjA0ODszODs0Nw"}, "original_score": "3.5/4"}, {"isRotten": false, "url": "http://www.chicagoreader.com/chicago/a-christmas-story/Film?oid=7891421", "publication": {"url": "", "name": "Chicago Reader"}, "isTop": true, "creationDate": 1354741502000, "isFresh": true, "freshness": "fresh", "critic": {"url": "/critic/j-r-jones", "name": "J. R. Jones", "id": 8085, "thumbnailImage": "https://d2a5cgar23scu2.cloudfront.net/static/images/redesign/user.none.tmb.jpg"}, "quote": "Shepherd provides the voice-over of the grown hero narrating, and his prominence on the sound track forces Clark to focus on visual humor, resulting in some wild Our Gang-style slapstick.", "id": 2117429, "links": {"review": "http://www.chicagoreader.com/chicago/a-christmas-story/Film?oid=7891421"}}, {"isRotten": false, "url": "http://www.commonsensemedia.org/movie-reviews/christmas-story ", "creationDate": 1292994781000, "isFresh": true, "id": 1947755, "quote": "Wonderful antidote to saccharine holiday tales.", "links": {"review": "http://www.commonsensemedia.org/movie-reviews/christmas-story "}, "publication": {"url": "", "name": "Common Sense Media"}, "isTop": true, "freshness": "fresh", "critic": {"url": "/critic/nell-minow", "name": "Nell Minow", "id": 13, "thumbnailImage": "https://resizing.flixster.com/0Yu3ChYD_PlERNzLAMX6a0J1DOo=/72x72/v1.YzsxNTc5O2c7MTg3Njk7MjA0ODszODs0OA"}, "original_score": "5/5"}, {"isRotten": false, "url": "http://www.reelviews.net/php_review_template.php?identifier=919", "creationDate": 1213092940000, "isFresh": true, "id": 1733844, "quote": "If you're a fan of Christmas movies or films that use nostalgia as a driver, A Christmas Story cannot be missed. Then again, if you're in either category, you have probably already seen it.", "links": {"review": "http://www.reelviews.net/php_review_template.php?identifier=919"}, "publication": {"url": "", "name": "ReelViews"}, "isTop": true, "freshness": "fresh", "critic": {"url": "/critic/james-berardinelli", "name": "James Berardinelli", "id": 117, "thumbnailImage": "https://resizing.flixster.com/JsmeY6tEIWX9qWB0kv31lgrjBxs=/72x72/v1.YzsyNzIzO2c7MTg3ODg7MjA0ODsxNTA7MTUw"}, "original_score": "3.5/4"}, {"isRotten": false, "url": "http://www.timeout.com/film/reviews/69232/a_christmas_story.html", "publication": {"url": "", "name": "Time Out"}, "isTop": true, "creationDate": 1151147024000, "isFresh": true, "freshness": "fresh", "critic": {"url": "/critic/don-peretta", "name": "Don Peretta", "id": 16288, "thumbnailImage": "https://d2a5cgar23scu2.cloudfront.net/static/images/redesign/user.none.tmb.jpg"}, "quote": "Delightfully entertaining, with a wryly amusing narration to keep the adults in the audience smirking.", "id": 1518333, "links": {"review": "http://www.timeout.com/film/reviews/69232/a_christmas_story.html"}}, {"isRotten": false, "url": "https://rachelsreviews.net/2014/12/25/bonus-holiday-review-a-christmas-story/", "creationDate": 1556826023000, "isFresh": true, "id": 2582722, "quote": "I think it is one of the best portrayals of childhood ever in the movies.", "links": {"review": "https://rachelsreviews.net/2014/12/25/bonus-holiday-review-a-christmas-story/"}, "publication": {"url": "", "name": "rachelsreviews.net"}, "isTop": false, "freshness": "fresh", "critic": {"url": "/critic/rachel-wagner", "name": "Rachel Wagner", "id": 23964, "thumbnailImage": "https://resizing.flixster.com/CvuVoWlOH-LcGgLgTU2V23hxVvM=/72x72/v1.YzszMjU3O2o7MTg3ODI7MjA0ODszMDA7MzAw"}, "original_score": "A+"}, {"isRotten": false, "url": "https://www.patheos.com/blogs/evetushnet/2018/12/romance-is-not-a-childrens-game-short-book-and-movie-reviews.html", "publication": {"url": "", "name": "Patheos"}, "isTop": false, "creationDate": 1546542243000, "isFresh": true, "freshness": "fresh", "critic": {"url": "/critic/eve-tushnet", "name": "Eve Tushnet", "id": 22507, "thumbnailImage": "https://d2a5cgar23scu2.cloudfront.net/static/images/redesign/user.none.tmb.jpg"}, "quote": "Just a tour de force of holiday agony, outrageous and hilarious.", "id": 2545576, "links": {"review": "https://www.patheos.com/blogs/evetushnet/2018/12/romance-is-not-a-childrens-game-short-book-and-movie-reviews.html"}}, {"isRotten": false, "url": "https://thetyee.ca/Entertainment/2005/12/23/NiceHolidayFilms/", "publication": {"url": "", "name": "The Tyee (British Columbia)"}, "isTop": false, "creationDate": 1503596432000, "isFresh": true, "freshness": "fresh", "critic": {"url": "/critic/dorothy-woodend", "name": "Dorothy Woodend", "id": 19673, "thumbnailImage": "https://resizing.flixster.com/jCYQlAiPlfhoQZhHWIJHIzRaZW0=/72x72/v1.YzsyNzg3O2c7MTg4MDc7MjA0ODsxNTA7MTUw"}, "quote": "Kids and guns, you can't go wrong with that combination. It adds up to a film that is sweet and sappy, yet still entertaining.", "id": 2413184, "links": {"review": "https://thetyee.ca/Entertainment/2005/12/23/NiceHolidayFilms/"}}, {"isRotten": false, "url": "http://cinemaphile2010.blogspot.com/2013/12/a-christmas-story-1983.html", "creationDate": 1388431244000, "isFresh": true, "id": 2181309, "quote": "It takes pause to recognize the collective good nature we owe to one another all year round, and pays that knowledge forward with charm and wistfulness.", "links": {"review": "http://cinemaphile2010.blogspot.com/2013/12/a-christmas-story-1983.html"}, "publication": {"name": "Cinemaphile.org"}, "isTop": false, "freshness": "fresh", "critic": {"url": "/critic/david-keyes", "name": "David Keyes", "id": 83, "thumbnailImage": "https://d2a5cgar23scu2.cloudfront.net/static/images/redesign/user.none.tmb.jpg"}, "original_score": "4/4"}, {"isRotten": false, "url": "http://cinema-crazed.com/blog/2013/12/28/a-christmas-story-1983/", "publication": {"url": "", "name": "Cinema Crazed"}, "isTop": false, "creationDate": 1388320722000, "isFresh": true, "freshness": "fresh", "critic": {"url": "/critic/felix-vasquez-jr", "name": "Felix Vasquez Jr.", "id": 11967, "thumbnailImage": "https://resizing.flixster.com/eHTD-Qdfru_x4Uk0lQxyaIDQ_UI=/72x72/v1.YzsyMjA0O2o7MTg4MDk7MjA0ODsxMDA7MTAw"}, "quote": "Never boring, and holds up wonderfully to repeated viewings.", "id": 2181218, "links": {"review": "http://cinema-crazed.com/blog/2013/12/28/a-christmas-story-1983/"}}, {"isRotten": false, "url": "http://www.csmonitor.com/1983/1229/122907.html", "publication": {"url": "", "name": "Christian Science Monitor"}, "isTop": false, "creationDate": 1386208603000, "isFresh": true, "freshness": "fresh", "critic": {"url": "/critic/david-sterritt", "name": "David Sterritt", "id": 149, "thumbnailImage": "https://resizing.flixster.com/V6dEv--GKwQKKq8IENXNq4Ori4I=/72x72/v1.YzsyMDI3O2o7MTg3Njc7MjA0ODs3Mjs3Mg"}, "quote": "It has a warmth and humor that soar with the season.", "id": 2177685, "links": {"review": "http://www.csmonitor.com/1983/1229/122907.html"}}]}, "casts": {"screenwriters": [{"url": "/celebrity/leigh_brown/", "name": "Leigh Brown", "thumbnailImg": "https://d2a5cgar23scu2.cloudfront.net/static/images/redesign/actor.default.tmb.gif"}, {"url": "/celebrity/bob_clark/", "name": "Bob Clark", "thumbnailImg": "https://d2a5cgar23scu2.cloudfront.net/static/images/redesign/actor.default.tmb.gif"}, {"url": "/celebrity/1140307-jean_shepherd/", "name": "Jean Shepherd", "thumbnailImg": "https://resizing.flixster.com/ry2e5kswuwLGSC77jROQByfaFwQ=/80x80/v1.cDsxMjk4NTM0NTtqOzE4NzkwOzIwNDg7MjQ5OzI2Mw"}], "directors": [{"url": "/celebrity/bob_clark/", "name": "Bob Clark", "thumbnailImg": "https://d2a5cgar23scu2.cloudfront.net/static/images/redesign/actor.default.tmb.gif"}], "creators": [], "producers": [{"url": "/celebrity/bob_clark/", "name": "Bob Clark", "thumbnailImg": "https://d2a5cgar23scu2.cloudfront.net/static/images/redesign/actor.default.tmb.gif"}, {"url": "/celebrity/rene_dupont/", "name": "Rene Dupont", "thumbnailImg": "https://d2a5cgar23scu2.cloudfront.net/static/images/redesign/actor.default.tmb.gif"}, {"url": "/celebrity/don_carmody/", "name": "Don Carmody", "thumbnailImg": "https://d2a5cgar23scu2.cloudfront.net/static/images/redesign/actor.default.tmb.gif"}], "castItems": [{"person": {"url": "/celebrity/peter_billingsley/", "name": "Peter Billingsley", "thumbnailImg": "https://resizing.flixster.com/Mk9-3c7GgOfGSC1-t5i5R2d7Ay4=/80x80/v1.cDsxMDUwNDQwOTtqOzE4ODU1OzIwNDg7NDAwOzI2Ng"}, "characters": [{"name": "Ralphie Parker"}]}, {"person": {"url": "/celebrity/darren_mcgavin/", "name": "Darren McGavin", "thumbnailImg": "https://resizing.flixster.com/sZx6Ykw1ItcXSLKg6MQj8FmulaA=/80x80/v1.cDs0MDI1NjEyO2o7MTg3Njg7MjA0ODs5MjsxNTA"}, "characters": [{"name": "Mr. Parker"}]}, {"person": {"url": "/celebrity/melinda_dillon/", "name": "Melinda Dillon", "thumbnailImg": "https://resizing.flixster.com/HlJkQV37TqSI48aITiHzkpuR70A=/80x80/v1.cDszNTM4MDAwO2o7MTg4NjA7MjA0ODsyMDA7MjUw"}, "characters": [{"name": "Mrs. Parker"}]}, {"person": {"url": "/celebrity/ian_petrella/", "name": "Ian Petrella", "thumbnailImg": "https://resizing.flixster.com/WZLX-LvBmNU0IJzF7L5rUcq_vpU=/80x80/v1.cDsxMzkxMjAxOTtqOzE4ODM1OzIwNDg7MzMzOzQ1MA"}, "characters": [{"name": "Randy Parker"}]}, {"person": {"url": "/celebrity/1144929-scott_schwartz/", "name": "Scott Schwartz", "thumbnailImg": "https://resizing.flixster.com/C8Gcp-9d1Yxy_sisauEWNDmlRpg=/80x80/v1.cDsxMDQ4MzMzNTtqOzE4ODQxOzIwNDg7NzIwOzQ4MA"}, "characters": [{"name": "Flick"}]}, {"person": {"url": "/celebrity/rd_robb/", "name": "R.D. Robb", "thumbnailImg": "https://resizing.flixster.com/Ykay_Jf2lfDDKa8fbdoPKGamy_8=/80x80/v1.cDsxMDQ4MzMzMTtqOzE4ODgyOzIwNDg7NzIwOzQ4MA"}, "characters": [{"name": "Schwartz"}]}, {"person": {"url": "/celebrity/tedde-moore/", "name": "Tedde Moore", "thumbnailImg": "https://resizing.flixster.com/S035tELz0bYwqKMTg6IPNDS6c_M=/80x80/v1.cDsxMzkxMjAxODtqOzE4ODM0OzIwNDg7NDUwOzM0Mw"}, "characters": [{"name": "Miss Shields"}]}, {"person": {"url": "/celebrity/yano-anaya/", "name": "Yano Anaya", "thumbnailImg": "https://d2a5cgar23scu2.cloudfront.net/static/images/redesign/actor.default.tmb.gif"}, "characters": [{"name": "Grover Dill"}]}, {"person": {"url": "/celebrity/zack_ward_2/", "name": "Zack Ward", "thumbnailImg": "https://resizing.flixster.com/hmHbKB9S-Lzuq-_yMw-dnZWjprc=/80x80/v1.cDszOTczMTM2O2o7MTg4MDY7MjA0ODsyNTQ7NDAw"}, "characters": [{"name": "Scut Farcus, The Bully"}]}, {"person": {"url": "/celebrity/jeff_gillen/", "name": "Jeff Gillen", "thumbnailImg": "https://d2a5cgar23scu2.cloudfront.net/static/images/redesign/actor.default.tmb.gif"}, "characters": [{"name": "Santa Claus"}]}, {"person": {"url": "/celebrity/colin_fox/", "name": "Colin Fox", "thumbnailImg": "https://d2a5cgar23scu2.cloudfront.net/static/images/redesign/actor.default.tmb.gif"}, "characters": [{"name": "Ming the Merciless"}]}, {"person": {"url": "/celebrity/paul_hubbard/", "name": "Paul Hubbard", "thumbnailImg": "https://d2a5cgar23scu2.cloudfront.net/static/images/redesign/actor.default.tmb.gif"}, "characters": [{"name": "Flash Gordon"}]}, {"person": {"url": "/celebrity/leslie_carlson/", "name": "Leslie Carlson", "thumbnailImg": "https://resizing.flixster.com/I3JEO4qr8kk1vTzqx4aGet2_VP8=/80x80/v1.cDsxMTk0ODE5MjtqOzE4Nzg1OzIwNDg7MjE4OzIzOQ"}, "characters": [{"name": "Tree Man"}]}, {"person": {"url": "/celebrity/john_wong/", "name": "John Wong", "thumbnailImg": "https://d2a5cgar23scu2.cloudfront.net/static/images/redesign/actor.default.tmb.gif"}, "characters": [{"name": "Chinese Father"}]}, {"person": {"url": "/celebrity/jim_hunter/", "name": "Jim Hunter", "thumbnailImg": "https://d2a5cgar23scu2.cloudfront.net/static/images/redesign/actor.default.tmb.gif"}, "characters": [{"name": "Freight Man"}]}, {"person": {"url": "/celebrity/patty_johnson/", "name": "Patty Johnson", "thumbnailImg": "https://d2a5cgar23scu2.cloudfront.net/static/images/redesign/actor.default.tmb.gif"}, "characters": [{"name": "Head Elf"}]}, {"person": {"url": "/celebrity/drew_hocevar/", "name": "Drew Hocevar", "thumbnailImg": "https://d2a5cgar23scu2.cloudfront.net/static/images/redesign/actor.default.tmb.gif"}, "characters": [{"name": "Male Elf"}]}, {"person": {"url": "/celebrity/david_svoboda/", "name": "David Svoboda", "thumbnailImg": "https://d2a5cgar23scu2.cloudfront.net/static/images/redesign/actor.default.tmb.gif"}, "characters": [{"name": "Goggles"}]}, {"person": {"url": "/celebrity/les-carlson/", "name": "Les Carlson", "thumbnailImg": "https://resizing.flixster.com/-hGJz0jlteH8l9b_seSpiFF98kQ=/80x80/v1.cDsxMzc3NjE4MDtqOzE4ODA0OzIwNDg7Mzk4OzQ2MA"}, "characters": [{"name": "Christmas Tree Man"}]}, {"person": {"url": "/celebrity/chad_dowdell/", "name": "Chad Dowdell", "thumbnailImg": "https://d2a5cgar23scu2.cloudfront.net/static/images/redesign/actor.default.tmb.gif"}, "characters": [{"name": "Sleeping Child (uncredited)"}]}, {"person": {"url": "/celebrity/dwayne_mclean/", "name": "Dwayne McLean", "thumbnailImg": "https://d2a5cgar23scu2.cloudfront.net/static/images/redesign/actor.default.tmb.gif"}, "characters": [{"name": "Black Bart"}]}, {"person": {"url": "/celebrity/tommy_lee_wallace/", "name": "Tommy Lee Wallace", "thumbnailImg": "https://resizing.flixster.com/SJ91GUOTudFSX-d2IbNp9mtpy9Y=/80x80/v1.cDszMDc2OTU2O2o7MTg4ODE7MjA0ODs0NDg7MzM2"}, "characters": [{"name": "Boy in School"}]}, {"person": {"url": "/celebrity/helen_e_kaider/", "name": "Helen E. Kaider", "thumbnailImg": "https://d2a5cgar23scu2.cloudfront.net/static/images/redesign/actor.default.tmb.gif"}, "characters": [{"name": "Wicked Witch"}]}, {"person": {"url": "/celebrity/rocco_bellusci/", "name": "Rocco Bellusci", "thumbnailImg": "https://d2a5cgar23scu2.cloudfront.net/static/images/redesign/actor.default.tmb.gif"}, "characters": [{"name": "Street Kid"}]}, {"person": {"url": "/celebrity/johan_sebastian_wong/", "name": "Johan Sebastian Wong", "thumbnailImg": "https://d2a5cgar23scu2.cloudfront.net/static/images/redesign/actor.default.tmb.gif"}, "characters": [{"name": "Waiter"}]}, {"person": {"url": "/celebrity/fred_lee_own/", "name": "Fred Lee Own", "thumbnailImg": "https://d2a5cgar23scu2.cloudfront.net/static/images/redesign/actor.default.tmb.gif"}, "characters": [{"name": "Waiter #2"}]}, {"person": {"url": "/celebrity/dan_ma/", "name": "Dan Ma", "thumbnailImg": "https://d2a5cgar23scu2.cloudfront.net/static/images/redesign/actor.default.tmb.gif"}, "characters": [{"name": "Waiter"}]}, {"person": {"url": "/celebrity/1140307-jean_shepherd/", "name": "Jean Shepherd", "thumbnailImg": "https://resizing.flixster.com/ry2e5kswuwLGSC77jROQByfaFwQ=/80x80/v1.cDsxMjk4NTM0NTtqOzE4NzkwOzIwNDg7MjQ5OzI2Mw"}, "characters": [{"name": "Ralphie"}]}]}, "title": "A Christmas Story", "adjustedScore": 93.84525457621905, "ratings": {"critics_rating": "Certified Fresh", "audience_score": 88, "dvdReleaseDate": 938502000000, "critics_score": 89, "theaterReleaseDate": 437990400000, "audience_rating": "Upright"}, "videoClips": {"mainTrailer": {"hlsUrl": "http://video.internetvideoarchive.net/video.m3u8?cmd=6&publishedid=4932&customerid=300120&e=1619087221997&sub=RTO&fmt=11&h=160a19967afb1d85af367b195e7b0fd6", "seconds": 3, "minutes": 2, "id": 10905281, "title": "A Christmas Story", "thumbUrl": "http://content.internetvideoarchive.com/content/photos/8334/4932_051.jpg", "mp4Url": "http://video.internetvideoarchive.net/video.mp4?cmd=6&publishedid=4932&customerid=300120&e=1619087221997&sub=RTO&fmt=4&videokbrate=750&h=5445b8352eb719d382d791366b07caad"}, "size": 2, "videoClips": [{"hlsUrl": "http://video.internetvideoarchive.net/video.m3u8?cmd=6&publishedid=4932&customerid=300120&e=1619087221996&sub=RTO&fmt=11&h=7c9179e9dc01e624655745a6c90e1b12", "seconds": 3, "minutes": 2, "id": 10905281, "title": "A Christmas Story", "thumbUrl": "http://content.internetvideoarchive.com/content/photos/8334/4932_051.jpg", "mp4Url": "http://video.internetvideoarchive.net/video.mp4?cmd=6&publishedid=4932&customerid=300120&e=1619087221997&sub=RTO&fmt=4&videokbrate=750&h=5445b8352eb719d382d791366b07caad"}, {"hlsUrl": "http://video.internetvideoarchive.net/video.m3u8?cmd=6&publishedid=http://link.theplatform.com/s/NGweTC/media/kY_Xgh5aYOa3&customerid=300120&e=1619087221997&sub=RTO&fmt=11&h=cc55b6f96d726d6e21a73555b230dc81", "seconds": 20, "minutes": 1, "id": 11303367, "title": "A Christmas Story: Trailer 1", "thumbUrl": "http://resizing.flixster.com/e_6uoE7vVerIFMcvvvD_4GPq2Wk=/171x128/v1.bjsxNzkwNjEyO2o7MTg3ODU7MjA0ODsxMDgwOzE5MjA", "mp4Url": "http://video.internetvideoarchive.net/video.mp4?cmd=6&publishedid=http://link.theplatform.com/s/NGweTC/media/kY_Xgh5aYOa3&customerid=300120&e=1619087221997&sub=RTO&fmt=4&videokbrate=750&h=040f0305caadba801e0bddae676b7f4c"}]}, "isUpcoming": false, "posters": {"original": "https://resizing.flixster.com/J0ZtxRwZogGu_fyO73Dp6sSeK1s=/768x1024/v1.bTsxMTYxNDIxODtqOzE4ODg3OzIwNDg7NzY4OzEwMjQ", "detailed": "https://resizing.flixster.com/vdl_JfSQCU4wBI3uIy0-fBiCmUM=/180x240/v1.bTsxMTYxNDIxODtqOzE4ODg3OzIwNDg7NzY4OzEwMjQ", "profile": "https://resizing.flixster.com/URifowMWXJGw9H1MwZFc6EuuSCg=/120x160/v1.bTsxMTYxNDIxODtqOzE4ODg3OzIwNDg7NzY4OzEwMjQ", "thumbnail": "https://resizing.flixster.com/vTugpR6c_pkJxGcADn9cKA9uwi8=/54x72/v1.bTsxMTYxNDIxODtqOzE4ODg3OzIwNDg7NzY4OzEwMjQ"}, "isLimited": false, "mainTrailer": {"thumbUrl": "https://content.internetvideoarchive.com/content/photos/8334/4932_051.jpg", "hlsUrl": "http://video.internetvideoarchive.net/video.m3u8?cmd=6&publishedid=4932&customerid=300120&e=1619087221480&sub=RTO&fmt=11&h=3267e2495c674349f4350c80674f0852", "id": 10905281, "mp4Url": "http://video.internetvideoarchive.net/video.mp4?cmd=6&publishedid=4932&customerid=300120&e=1619087221480&sub=RTO&fmt=4&videokbrate=750&h=a9d8eefe056e034291203c78bcf763a2"}, "advisory": "", "id": 10030}