{"url": "/m/singin_in_the_rain/", "isOnOpening": false, "genreSet": [{"displayName": "Romance", "id": 18}, {"displayName": "Musical & Performing Arts", "id": 12}, {"displayName": "Classics", "id": 5}, {"displayName": "Comedy", "id": 6}], "officialUrl": "http://www.FathomEvents.com", "isInTheaters": false, "synopsis": "Gene Kelly, Debbie Reynolds and Donald O'Connor star in Singin' in the Rain, one of the greatest and most successful musicals ever filmed - filled with memorable songs, lavish routines and Kelly's fabulous song-and-dance number performed in the rain. Set during the advent of \"talkies,\" Don Lockwood has risen to stardom during Hollywood's silent-movie era - paired with the beautiful, jealous and dumb Lina Lamont. And when Lockwood becomes attracted to young studio singer Kathy Selden, Lamont has her fired. But with the introduction of talking pictures, Lockwood finds his career in jeopardy after audiences laugh when they hear Lamont speak in her shrill voice for the first time... until the studio decides to use Selden to dub her voice.", "links": {"alternate": "//www.rottentomatoes.com/m/singin_in_the_rain/"}, "runningTime": 102, "year": 1952, "trackingType": "DvdOther", "status": "Live", "isPlaying": false, "isOnDVD": true, "runningTimeStr": "1 hr. 42 min.", "ratingSummary": {"topcount": 22, "consensus": "Clever, incisive, and funny, Singin' in the Rain is a masterpiece of the classical Hollywood musical.", "topCritics": {"hasScore": true, "numReviews": 22, "meterClass": "certified", "numRotten": 0, "numFresh": 22, "hasReviews": true, "meterValue": 100, "averageRating": 9.157895}, "audience": {"meterScore": 95, "averageScore": 3.982210874557495, "numTotal": 138398, "ratingType": "viewed"}, "allcount": 64, "rottencount": 0, "dvdcount": 9, "allCritics": {"hasScore": true, "numReviews": 64, "meterClass": "certified", "numRotten": 0, "numFresh": 64, "hasReviews": true, "meterValue": 100, "averageRating": 9.31}, "freshcount": 64}, "mpaaRating": "G", "vanity": "singin_in_the_rain", "studio": "MGM", "purchaseOptions": {"amazon": {"url": "http://www.amazon.com/gp/product/B000NI8F5G/ref=atv_feed_catalog?tag=rottetomao_aiv_mv-20", "isPrime": false, "type": "rent"}, "flixster": {"url": "singin-in-the-rain", "movieId": "ID: 2000001177; SKU:432194; Type: B (SD Buy)", "type": "buy"}, "iTunes": {"url": "https://itunes.apple.com/movie/singin-in-the-rain/id552624705?uo=5", "price": "9.99"}}, "reviews": {"total": 64, "links": {"alternate": "//www.rottentomatoes.com/m/singin_in_the_rain/#reviews", "self": "api.flixster.com/movies/singin-in-the-rain/reviews.json?review_type=mob&country=us&page=1", "prev": "api.flixster.com/movies/singin-in-the-rain/reviews.json?review_type=mob&country=us&page=0", "next": "api.flixster.com/movies/singin-in-the-rain/reviews.json?review_type=mob&country=us&page=2"}, "reviews": [{"isRotten": false, "url": "https://www.thetimes.co.uk/edition/times2/singin-in-the-rain-1952-review-the-finest-movie-musical-of-them-all-s0jsgmgc8", "creationDate": 1571600439000, "isFresh": true, "id": 2637510, "quote": "Is Singin' in the Rain the finest movie musical of them all? There are none better in my book.", "links": {"review": "https://www.thetimes.co.uk/edition/times2/singin-in-the-rain-1952-review-the-finest-movie-musical-of-them-all-s0jsgmgc8"}, "publication": {"url": "", "name": "Times (UK)"}, "isTop": true, "freshness": "fresh", "critic": {"url": "/critic/ed-potton", "name": "Ed Potton", "id": 11404, "thumbnailImage": "https://d2a5cgar23scu2.cloudfront.net/static/images/redesign/user.none.tmb.jpg"}, "original_score": "5/5"}, {"isRotten": false, "url": "https://www.theguardian.com/film/2019/oct/18/singin-in-the-rain-review-gene-kelly-debbie-reynolds-rerelease", "creationDate": 1571413080000, "isFresh": true, "id": 2637003, "quote": "The unstoppable joy of the musical numbers, especially with O'Connor, is what never fails to seduce - perhaps especially in Moses Supposes.", "links": {"review": "https://www.theguardian.com/film/2019/oct/18/singin-in-the-rain-review-gene-kelly-debbie-reynolds-rerelease"}, "publication": {"url": "", "name": "Guardian"}, "isTop": true, "freshness": "fresh", "critic": {"url": "/critic/peter-bradshaw", "name": "Peter Bradshaw", "id": 408, "thumbnailImage": "https://d2a5cgar23scu2.cloudfront.net/static/images/redesign/user.none.tmb.jpg"}, "original_score": "5/5"}, {"isRotten": false, "url": "https://lwlies.com/reviews/singin-in-the-rain/", "creationDate": 1571314611000, "isFresh": true, "id": 2636527, "quote": "Effervescent, life-affirming cinema... an antidote to any ailment, illness, or woes about the state of Hollywood.", "links": {"review": "https://lwlies.com/reviews/singin-in-the-rain/"}, "publication": {"url": "", "name": "Little White Lies"}, "isTop": true, "freshness": "fresh", "critic": {"url": "/critic/ben-flanagan-25100", "name": "Ben Flanagan", "id": 25100, "thumbnailImage": "https://d2a5cgar23scu2.cloudfront.net/static/images/redesign/user.none.tmb.jpg"}, "original_score": "5/5"}, {"isRotten": false, "isFresh": true, "publication": {"url": "", "name": "Independent on Sunday"}, "isTop": true, "creationDate": 1515031030000, "freshness": "fresh", "critic": {"url": "/critic/anthony-lane", "name": "Anthony Lane", "id": 4597, "thumbnailImage": "https://resizing.flixster.com/ASeLeS5Iw1qgeuIvbbVnYyB1scQ=/72x72/v1.YzsyMjgxO2o7MTg3OTY7MjA0ODsxNDQ7MTQ0"}, "quote": "Tap-dancing has never looked so unstoppable, nor so liquid: most tappers clench up and hammer away like road-drills, but these two sway their hips and laugh off the effort.", "id": 2447565, "links": {}}, {"isRotten": false, "url": "http://www.nydailynews.com/entertainment/movies/singin-rain-premieres-1952-article-1.2153848", "publication": {"url": "", "name": "New York Daily News"}, "isTop": true, "creationDate": 1427496142000, "isFresh": true, "freshness": "fresh", "critic": {"url": "/critic/wanda-hale", "name": "Wanda Hale", "id": 16770, "thumbnailImage": "https://d2a5cgar23scu2.cloudfront.net/static/images/redesign/user.none.tmb.jpg"}, "quote": "Singin' in the Rain is another mighty fine MGM Technicolor musical comedy produced by Arthur Freed whose An American in Paris copped seven Academy awards last week.", "id": 2253752, "links": {"review": "http://www.nydailynews.com/entertainment/movies/singin-rain-premieres-1952-article-1.2153848"}}, {"isRotten": false, "url": "http://www.commonsensemedia.org/movie-reviews/Singin-in-Rain.html ", "creationDate": 1293566099000, "isFresh": true, "id": 1949449, "quote": "Often considered the finest musical of all time.", "links": {"review": "http://www.commonsensemedia.org/movie-reviews/Singin-in-Rain.html "}, "publication": {"url": "", "name": "Common Sense Media"}, "isTop": true, "freshness": "fresh", "critic": {"url": "/critic/nell-minow", "name": "Nell Minow", "id": 13, "thumbnailImage": "https://resizing.flixster.com/0Yu3ChYD_PlERNzLAMX6a0J1DOo=/72x72/v1.YzsxNTc5O2c7MTg3Njk7MjA0ODszODs0OA"}, "original_score": "5/5"}, {"isRotten": false, "url": "https://battleshippretension.com/bps-top-100-challenge-13-singin-rain-sarah-brinks/", "publication": {"url": "http://battleshippretension.com", "name": "Battleship Pretension"}, "isTop": false, "creationDate": 1616627304000, "isFresh": true, "freshness": "fresh", "critic": {"url": "/critic/sarah-brinks", "name": "Sarah Brinks", "id": 27680, "thumbnailImage": "https://d2a5cgar23scu2.cloudfront.net/static/images/redesign/user.none.tmb.jpg"}, "quote": "The story overall is simple but the film makes sure the stakes are high enough to justify the character reactions.", "id": 2779338, "links": {"publication": "http://battleshippretension.com", "review": "https://battleshippretension.com/bps-top-100-challenge-13-singin-rain-sarah-brinks/"}}, {"isRotten": false, "url": "https://theindependentcritic.com/singin__in_the_rain", "creationDate": 1600860682000, "isFresh": true, "id": 2727757, "quote": "There are those films in life that simply always put a smile on one's face. Singin' in the Rain is one of the best.", "links": {"review": "https://theindependentcritic.com/singin__in_the_rain"}, "publication": {"url": "", "name": "TheIndependentCritic.com"}, "isTop": false, "freshness": "fresh", "critic": {"url": "/critic/richard-propes-27470", "name": "Richard Propes", "id": 27470, "thumbnailImage": "https://resizing.flixster.com/9RafzdrYTvTWxFzPswX4QYwPgK8=/72x72/v1.YzszODAzO2o7MTg3ODg7MjA0ODszMDA7MzAw"}, "original_score": "4.0/4.0"}, {"isRotten": false, "url": "http://www.solzyatthemovies.com/2020/08/24/singin-in-the-rain-the-best-movie-musical/", "creationDate": 1598281216000, "isFresh": true, "id": 2716155, "quote": "Singin' in the Rain will go down in cinema history as the best movie musical of all-time.", "links": {"review": "http://www.solzyatthemovies.com/2020/08/24/singin-in-the-rain-the-best-movie-musical/"}, "publication": {"url": "", "name": "Solzy at the Movies"}, "isTop": false, "freshness": "fresh", "critic": {"url": "/critic/danielle-solzman", "name": "Danielle Solzman", "id": 20296, "thumbnailImage": "https://resizing.flixster.com/EUjlMfIDKm43xI5olqhZtKjRDts=/72x72/v1.YzszMjA5O2c7MTg3Nzk7MjA0ODsxNTA7MTUw"}, "original_score": "5/5"}, {"isRotten": false, "url": "http://gonewiththetwins.com/new/singin-in-the-rain-1952/", "creationDate": 1598170697000, "isFresh": true, "id": 2715954, "quote": "Simply without equal in the musical genre.", "links": {"review": "http://gonewiththetwins.com/new/singin-in-the-rain-1952/"}, "publication": {"url": "", "name": "Gone With The Twins"}, "isTop": false, "freshness": "fresh", "critic": {"url": "/critic/mike-massie", "name": "Mike Massie", "id": 27168, "thumbnailImage": "https://resizing.flixster.com/cKCY6tR9EskewGPlb8BlnvWesZU=/72x72/v1.YzszNjc3O2o7MTg3OTc7MjA0ODszMDA7MzAw"}, "original_score": "10/10"}, {"isRotten": false, "url": "https://movies8mylife.blogspot.com/2020/05/afi-5-singin-in-rain-1952.html", "creationDate": 1588761185000, "isFresh": true, "id": 2688017, "quote": "I can guarantee this is the only review of Singin' In The Rain that references Natalie Imbruglia's Torn.", "links": {"review": "https://movies8mylife.blogspot.com/2020/05/afi-5-singin-in-rain-1952.html"}, "publication": {"url": "", "name": "ABC Radio (Australia)"}, "isTop": false, "freshness": "fresh", "critic": {"url": "/critic/matt-neal", "name": "Matt Neal", "id": 13862, "thumbnailImage": "https://d2a5cgar23scu2.cloudfront.net/static/images/redesign/user.none.tmb.jpg"}, "original_score": "5/5"}, {"isRotten": false, "url": "https://www.highonfilms.com/25-feel-good-movies-to-watch/", "creationDate": 1585069931000, "isFresh": true, "id": 2678914, "quote": "As much a satire on the ever-changing format of filmmaking as it is a joyful, glorious ode to life itself.", "links": {"review": "https://www.highonfilms.com/25-feel-good-movies-to-watch/"}, "publication": {"url": "", "name": "High on Films"}, "isTop": false, "freshness": "fresh", "critic": {"url": "/critic/shikhar-verma", "name": "Shikhar Verma", "id": 25928, "thumbnailImage": "https://resizing.flixster.com/3YDiAAOuJoV5Dcs6S5iRZ4ojorE=/72x72/v1.YzszNTE4O2o7MTg3NzM7MjA0ODszMDA7MzAw"}, "original_score": "4/5"}]}, "casts": {"screenwriters": [{"url": "/celebrity/betty_comden/", "name": "Betty Comden", "thumbnailImg": "https://d2a5cgar23scu2.cloudfront.net/static/images/redesign/actor.default.tmb.gif"}, {"url": "/celebrity/adolph_green/", "name": "Adolph Green", "thumbnailImg": "https://resizing.flixster.com/Csy88R5PozZmIyMpxroK47ieTiI=/80x80/v1.cDsxMTUxNjY3OTtqOzE4ODYyOzIwNDg7MjMxOzI3OA"}], "directors": [{"url": "/celebrity/stanley_donen/", "name": "Stanley Donen", "thumbnailImg": "https://d2a5cgar23scu2.cloudfront.net/static/images/redesign/actor.default.tmb.gif"}, {"url": "/celebrity/gene_kelly/", "name": "Gene Kelly", "thumbnailImg": "https://resizing.flixster.com/RLUuST6LcDvjIGHgCkvF3sWoE24=/80x80/v1.cDsxMTE0NzI1NTtqOzE4ODg0OzIwNDg7NjM2OzgwMA"}], "creators": [], "producers": [{"url": "/celebrity/1056232-arthur_freed/", "name": "Arthur Freed", "thumbnailImg": "https://d2a5cgar23scu2.cloudfront.net/static/images/redesign/actor.default.tmb.gif"}], "castItems": [{"person": {"url": "/celebrity/gene_kelly/", "name": "Gene Kelly", "thumbnailImg": "https://resizing.flixster.com/RLUuST6LcDvjIGHgCkvF3sWoE24=/80x80/v1.cDsxMTE0NzI1NTtqOzE4ODg0OzIwNDg7NjM2OzgwMA"}, "characters": [{"name": "Don Lockwood"}]}, {"person": {"url": "/celebrity/donald_oconnor/", "name": "Donald O'Connor", "thumbnailImg": "https://resizing.flixster.com/FoL38GNPckx99B-ofal98erSK4I=/80x80/v1.cDs5ODQxNDI1O2o7MTg4MDM7MjA0ODs0NDc7NDYy"}, "characters": [{"name": "Cosmo Brown"}]}, {"person": {"url": "/celebrity/debbie_reynolds/", "name": "Debbie Reynolds", "thumbnailImg": "https://resizing.flixster.com/Y65TuloJ3tQQY0Zurzcf2HuS0oE=/80x80/v1.cjsxMjk1O2o7MTg4MDA7MjA0ODs0OTA7NjUy"}, "characters": [{"name": "Kathy Selden"}]}, {"person": {"url": "/celebrity/jean_hagen/", "name": "Jean Hagen", "thumbnailImg": "https://resizing.flixster.com/NvKik-RFIabeNFaQoXj75-_mHTA=/80x80/v1.cDsxMTU2NTk2NztqOzE4ODc1OzIwNDg7NDU0OzM0Mw"}, "characters": [{"name": "Lina Lamont"}]}, {"person": {"url": "/celebrity/millard_mitchell/", "name": "Millard Mitchell", "thumbnailImg": "https://resizing.flixster.com/HSmWwMlKiJwd4tYc6N6X8bue3cs=/80x80/v1.cDsxMTYwMzE2ODtqOzE4ODYyOzIwNDg7MzkxOzQ4MA"}, "characters": [{"name": "Simpson"}]}, {"person": {"url": "/celebrity/rita_moreno/", "name": "Rita Moreno", "thumbnailImg": "https://resizing.flixster.com/WV6S7xSz8wfycQng1dDQBnnSPRk=/80x80/v1.cjs0MDQxNTtqOzE4NzcwOzIwNDg7Mjc1OzIzMA"}, "characters": [{"name": "Zelda Zanders"}]}, {"person": {"url": "/celebrity/douglas_fowley/", "name": "Douglas Fowley", "thumbnailImg": "https://resizing.flixster.com/OUCtPHov5a0mND-FY8DZ0dqHMUo=/80x80/v1.cDsxMjk4OTI5NjtqOzE4NzgxOzIwNDg7MjY3OzIzNQ"}, "characters": [{"name": "Roscoe Dexter"}]}, {"person": {"url": "/celebrity/madge_blake/", "name": "Madge Blake", "thumbnailImg": "https://resizing.flixster.com/mpja3IQ1WvfmpqnDf7Mqlw7wokg=/80x80/v1.cDsxNDA5MjU2MDtqOzE4ODM4OzIwNDg7MzAxOzQwMA"}, "characters": [{"name": "Dora Bailey"}]}, {"person": {"url": "/celebrity/1044156-king_donovan/", "name": "King Donovan", "thumbnailImg": "https://resizing.flixster.com/ztH0bd8R2_HadqPOo31FQBfx6h8=/80x80/v1.cDsxMzU1NDM1ODtqOzE4ODI5OzIwNDg7MTEzOzEzNA"}, "characters": [{"name": "Rod"}]}, {"person": {"url": "/celebrity/kathleen_freeman/", "name": "Kathleen Freeman", "thumbnailImg": "https://resizing.flixster.com/NunqBuD033BreyEYs7nXTTF6NM8=/80x80/v1.cDs5NzY0MTk3O2o7MTg3OTU7MjA0ODs0NjI7Mjk3"}, "characters": [{"name": "Phoebe Dinsmore"}]}, {"person": {"url": "/celebrity/judy_landon/", "name": "Judy Landon", "thumbnailImg": "https://d2a5cgar23scu2.cloudfront.net/static/images/redesign/actor.default.tmb.gif"}, "characters": [{"name": "Olga Mara"}]}, {"person": {"url": "/celebrity/mae_clarke/", "name": "Mae Clarke", "thumbnailImg": "https://resizing.flixster.com/nzPKlLV4iNK_sLRmoT1RzkrMgkg=/80x80/v1.cDsxMDcwNTU3NjtqOzE4ODc0OzIwNDg7MzgyOzQ2Mg"}, "characters": [{"name": "Hairdresser"}]}, {"person": {"url": "/celebrity/cyd_charisse/", "name": "Cyd Charisse", "thumbnailImg": "https://resizing.flixster.com/KWzNKOCnr8StsCaerBWlLlH6-Kc=/80x80/v1.cDsxMTU2NzY2NztqOzE4ODY1OzIwNDg7NDIzOzU2Nw"}, "characters": [{"name": "Guest Artist"}]}, {"person": {"url": "/celebrity/bobby_watson/", "name": "Bobby Watson", "thumbnailImg": "https://resizing.flixster.com/7O_4IybSgeO7_90Le_fWTbVAQbc=/80x80/v1.cDsxMzkyMDE3OTtqOzE4ODA1OzIwNDg7MzAwOzM4Ng"}, "characters": [{"name": "Diction Coach"}]}, {"person": {"url": "/celebrity/jimmie_thompson/", "name": "Jimmie Thompson", "thumbnailImg": "https://d2a5cgar23scu2.cloudfront.net/static/images/redesign/actor.default.tmb.gif"}, "characters": [{"name": "Male Lead in `Beautiful Girls' Number"}]}, {"person": {"url": "/celebrity/dan_foster/", "name": "Dan Foster", "thumbnailImg": "https://d2a5cgar23scu2.cloudfront.net/static/images/redesign/actor.default.tmb.gif"}, "characters": [{"name": "Assistant Director"}]}, {"person": {"url": "/celebrity/margaret_bert/", "name": "Margaret Bert", "thumbnailImg": "https://d2a5cgar23scu2.cloudfront.net/static/images/redesign/actor.default.tmb.gif"}, "characters": [{"name": "Wardrobe Woman"}]}, {"person": {"url": "/celebrity/john_dodsworth/", "name": "John Dodsworth", "thumbnailImg": "https://d2a5cgar23scu2.cloudfront.net/static/images/redesign/actor.default.tmb.gif"}, "characters": [{"name": "Baron de la May de la Toulon"}]}, {"person": {"url": "/celebrity/stuart_holmes/", "name": "Stuart Holmes", "thumbnailImg": "https://d2a5cgar23scu2.cloudfront.net/static/images/redesign/actor.default.tmb.gif"}, "characters": [{"name": "J.C. Spendrill III"}]}, {"person": {"url": "/celebrity/dennis_ross/", "name": "Dennis Ross", "thumbnailImg": "https://d2a5cgar23scu2.cloudfront.net/static/images/redesign/actor.default.tmb.gif"}, "characters": [{"name": "Don as a Boy"}]}, {"person": {"url": "/celebrity/bill_lewin/", "name": "Bill Lewin", "thumbnailImg": "https://d2a5cgar23scu2.cloudfront.net/static/images/redesign/actor.default.tmb.gif"}, "characters": [{"name": "Bert"}]}, {"person": {"url": "/celebrity/richard_emory/", "name": "Richard Emory", "thumbnailImg": "https://d2a5cgar23scu2.cloudfront.net/static/images/redesign/actor.default.tmb.gif"}, "characters": [{"name": "Phil"}]}, {"person": {"url": "/celebrity/julius-tannen/", "name": "Julius Tannen", "thumbnailImg": "https://d2a5cgar23scu2.cloudfront.net/static/images/redesign/actor.default.tmb.gif"}, "characters": [{"name": "Man on Screen"}]}, {"person": {"url": "/celebrity/dawn_addams/", "name": "Dawn Addams", "thumbnailImg": "https://resizing.flixster.com/rbql7JNOFiImGhTGJ3nqKbPHckk=/80x80/v1.cDsxMTM4OTI4MDtqOzE4ODU2OzIwNDg7NTAwOzI3OQ"}, "characters": [{"name": "Lady in Waiting"}]}, {"person": {"url": "/celebrity/elaine_stewart/", "name": "Elaine Stewart", "thumbnailImg": "https://resizing.flixster.com/WaD18a7iHdfGyNdwGqelPIk3jYY=/80x80/v1.cDs5NTA0MTYxO2o7MTg4MTE7MjA0ODszNjk7NDYy"}, "characters": [{"name": "Ladies in Waiting"}]}, {"person": {"url": "/celebrity/carl_milletaire/", "name": "Carl Milletaire", "thumbnailImg": "https://d2a5cgar23scu2.cloudfront.net/static/images/redesign/actor.default.tmb.gif"}, "characters": [{"name": "Villain"}]}, {"person": {"url": "/celebrity/jimmy_thompson/", "name": "Jimmy Thompson", "thumbnailImg": "https://d2a5cgar23scu2.cloudfront.net/static/images/redesign/actor.default.tmb.gif"}, "characters": [{"name": "Male Lead in \"Beautiful Girls\" Number"}]}, {"person": {"url": "/celebrity/jack_george/", "name": "Jack George", "thumbnailImg": "https://d2a5cgar23scu2.cloudfront.net/static/images/redesign/actor.default.tmb.gif"}, "characters": [{"name": "Orchestra Leader"}]}, {"person": {"url": "/celebrity/wilson_wood/", "name": "Wilson Wood", "thumbnailImg": "https://d2a5cgar23scu2.cloudfront.net/static/images/redesign/actor.default.tmb.gif"}, "characters": [{"name": "Vallee Impersonator"}]}, {"person": {"url": "/celebrity/dorothy_patrick/", "name": "Dorothy Patrick", "thumbnailImg": "https://resizing.flixster.com/ARRgyjAzIaxT5HUVEyagc4uWmzg=/80x80/v1.cDsxMTgyOTY3NztqOzE4Nzk4OzIwNDg7MTk3OzI0OQ"}, "characters": [{"name": "Audience"}]}, {"person": {"url": "/celebrity/william_lester/", "name": "William Lester", "thumbnailImg": "https://d2a5cgar23scu2.cloudfront.net/static/images/redesign/actor.default.tmb.gif"}, "characters": [{"name": "Audience"}]}, {"person": {"url": "/celebrity/charles_evans/", "name": "Charles Evans", "thumbnailImg": "https://d2a5cgar23scu2.cloudfront.net/static/images/redesign/actor.default.tmb.gif"}, "characters": [{"name": "Audience"}]}, {"person": {"url": "/celebrity/joi_lansing/", "name": "Joi Lansing", "thumbnailImg": "https://resizing.flixster.com/2EIx6Fxi54j3Fo1bBa9b5E9_99E=/80x80/v1.cDs5NDgxNDIyO2o7MTg3OTY7MjA0ODszNjM7NDM2"}, "characters": [{"name": "Audience"}]}, {"person": {"url": "/celebrity/bob_watson/", "name": "Bob Watson", "thumbnailImg": "https://d2a5cgar23scu2.cloudfront.net/static/images/redesign/actor.default.tmb.gif"}}, {"person": {"url": "/celebrity/david_sharpe/", "name": "David Sharpe", "thumbnailImg": "https://d2a5cgar23scu2.cloudfront.net/static/images/redesign/actor.default.tmb.gif"}, "characters": [{"name": "Fencer"}]}, {"person": {"url": "/celebrity/russell_saunders/", "name": "Russell Saunders", "thumbnailImg": "https://d2a5cgar23scu2.cloudfront.net/static/images/redesign/actor.default.tmb.gif"}, "characters": [{"name": "Fencer"}]}, {"person": {"url": "/celebrity/patricia_denise/", "name": "Patricia Denise", "thumbnailImg": "https://d2a5cgar23scu2.cloudfront.net/static/images/redesign/actor.default.tmb.gif"}, "characters": [{"name": "Girl Dancer"}]}, {"person": {"url": "/celebrity/jeanne_coyne/", "name": "Jeanne Coyne", "thumbnailImg": "https://d2a5cgar23scu2.cloudfront.net/static/images/redesign/actor.default.tmb.gif"}, "characters": [{"name": "Girl Dancer"}]}, {"person": {"url": "/celebrity/bill_chatham/", "name": "Bill Chatham", "thumbnailImg": "https://d2a5cgar23scu2.cloudfront.net/static/images/redesign/actor.default.tmb.gif"}, "characters": [{"name": "Male Dancing Quartet"}]}, {"person": {"url": "/celebrity/ernest_flatt/", "name": "Ernest Flatt", "thumbnailImg": "https://d2a5cgar23scu2.cloudfront.net/static/images/redesign/actor.default.tmb.gif"}, "characters": [{"name": "Male Dancing Quartet"}]}, {"person": {"url": "/celebrity/lynn_bernay/", "name": "Lynn Bernay", "thumbnailImg": "https://d2a5cgar23scu2.cloudfront.net/static/images/redesign/actor.default.tmb.gif"}}, {"person": {"url": "/celebrity/don_hulbert/", "name": "Don Hulbert", "thumbnailImg": "https://d2a5cgar23scu2.cloudfront.net/static/images/redesign/actor.default.tmb.gif"}, "characters": [{"name": "Male Dancing Quartet"}]}, {"person": {"url": "/celebrity/shirley_jean_rickert/", "name": "Shirley Jean Rickert", "thumbnailImg": "https://d2a5cgar23scu2.cloudfront.net/static/images/redesign/actor.default.tmb.gif"}}, {"person": {"url": "/celebrity/robert_dayo/", "name": "Robert Dayo", "thumbnailImg": "https://d2a5cgar23scu2.cloudfront.net/static/images/redesign/actor.default.tmb.gif"}, "characters": [{"name": "Male Dancing Quartet"}]}, {"person": {"url": "/celebrity/david_kasday/", "name": "David Kasday", "thumbnailImg": "https://d2a5cgar23scu2.cloudfront.net/static/images/redesign/actor.default.tmb.gif"}, "characters": [{"name": "Kid"}]}, {"person": {"url": "/celebrity/morgan_jones_6/", "name": "Morgan Jones", "thumbnailImg": "https://d2a5cgar23scu2.cloudfront.net/static/images/redesign/actor.default.tmb.gif"}}]}, "title": "Singin' in the Rain", "adjustedScore": 111.21327430250754, "ratings": {"critics_rating": "Certified Fresh", "audience_score": 95, "dvdReleaseDate": 872578800000, "critics_score": 100, "theaterReleaseDate": -568051200000, "audience_rating": "Upright"}, "videoClips": {"mainTrailer": {"hlsUrl": "http://video.internetvideoarchive.net/video.m3u8?cmd=6&publishedid=1268&customerid=300120&e=1619087240577&sub=RTO&fmt=11&h=d6a37309908d8175ad3fc7daf4f50130", "seconds": 3, "minutes": 4, "id": 10902120, "title": "Singin' In The Rain", "thumbUrl": "http://content.internetvideoarchive.com/content/photos/8354/1268_022.jpg", "mp4Url": "http://video.internetvideoarchive.net/video.mp4?cmd=6&publishedid=1268&customerid=300120&e=1619087240577&sub=RTO&fmt=4&videokbrate=750&h=95da61576c030852d52ebbdb032522c8"}, "size": 2, "videoClips": [{"hlsUrl": "http://video.internetvideoarchive.net/video.m3u8?cmd=6&publishedid=1268&customerid=300120&e=1619087240577&sub=RTO&fmt=11&h=d6a37309908d8175ad3fc7daf4f50130", "seconds": 3, "minutes": 4, "id": 10902120, "title": "Singin' In The Rain", "thumbUrl": "http://content.internetvideoarchive.com/content/photos/8354/1268_022.jpg", "mp4Url": "http://video.internetvideoarchive.net/video.mp4?cmd=6&publishedid=1268&customerid=300120&e=1619087240577&sub=RTO&fmt=4&videokbrate=750&h=95da61576c030852d52ebbdb032522c8"}, {"hlsUrl": "http://video.internetvideoarchive.net/video.m3u8?cmd=6&publishedid=http://link.theplatform.com/s/NGweTC/media/fllaIEfK_OCI&customerid=300120&e=1619087240577&sub=RTO&fmt=11&h=3dda18a2782a5f95363593d8e3779ff5", "seconds": 41, "minutes": 1, "id": 11305028, "title": "Singin' in the Rain: Trailer 1", "thumbUrl": "http://resizing.flixster.com/9mcJKfCqavbGhOd6FNZAueJ9Dlw=/171x128/v1.bjsxODUxMDkzO2o7MTg3ODY7MjA0ODsxMDgwOzE5MjA", "mp4Url": "http://video.internetvideoarchive.net/video.mp4?cmd=6&publishedid=http://link.theplatform.com/s/NGweTC/media/fllaIEfK_OCI&customerid=300120&e=1619087240577&sub=RTO&fmt=4&videokbrate=750&h=0f79218440dbde004ad371e79dbd4bda"}]}, "isUpcoming": false, "posters": {"original": "https://resizing.flixster.com/lfsHMko_kOyQvk7QQC8qPVv3fr8=/596x960/v1.bTsxMjI5MjMyODtqOzE4ODEwOzIwNDg7NTk2Ozk2MA", "detailed": "https://resizing.flixster.com/ZWqMbaEujZD9xbVV85cXi2E9zJY=/168x270/v1.bTsxMjI5MjMyODtqOzE4ODEwOzIwNDg7NTk2Ozk2MA", "profile": "https://resizing.flixster.com/o_GnKz1GFSfKBIDLsX3Io8sXXUU=/112x180/v1.bTsxMjI5MjMyODtqOzE4ODEwOzIwNDg7NTk2Ozk2MA", "thumbnail": "https://resizing.flixster.com/88pWDvzQXtJajqcJkxnBOIymtig=/50x81/v1.bTsxMjI5MjMyODtqOzE4ODEwOzIwNDg7NTk2Ozk2MA"}, "isLimited": false, "mainTrailer": {"thumbUrl": "https://content.internetvideoarchive.com/content/photos/8354/1268_022.jpg", "hlsUrl": "http://video.internetvideoarchive.net/video.m3u8?cmd=6&publishedid=1268&customerid=300120&e=1619087239754&sub=RTO&fmt=11&h=675e165e6d4aab4eb996562ea09c814a", "id": 10902120, "mp4Url": "http://video.internetvideoarchive.net/video.mp4?cmd=6&publishedid=1268&customerid=300120&e=1619087239754&sub=RTO&fmt=4&videokbrate=750&h=cc71006b11c13b6e49c8138894693212"}, "photos": {"photos": [{"url": "https://resizing.flixster.com/WNVxKpuuUHEavl5gW_C8S-gjqnk=/1024x751/v1.bjsxOTM1MTk7ajsxODc4NjsyMDQ4OzI1MDA7MTgzNA", "index": 0, "submittedBy": "RT Staff", "height": 751, "imageId": 193519, "thumbnail": "https://resizing.flixster.com/AZOgwxPmUUasBEmjy743-WkCl1c=/80x80/v1.bjsxOTM1MTk7ajsxODc4NjsyMDQ4OzI1MDA7MTgzNA", "submittedDate": "2014-07-02", "id": "multiuse-193519", "photoType": "movie", "width": 1024}, {"url": "https://resizing.flixster.com/nh6LzPXIGug4cnv2XCIHwTNPjgY=/600x400/v1.bjsxOTM1NDQ7ajsxODgxMTsyMDQ4OzYwMDs0MDA", "index": 1, "submittedBy": "RT Staff", "height": 400, "imageId": 193544, "thumbnail": "https://resizing.flixster.com/DbrHhgJwn86AkYuEOA7TBzMrXL8=/80x80/v1.bjsxOTM1NDQ7ajsxODgxMTsyMDQ4OzYwMDs0MDA", "submittedDate": "2014-07-02", "id": "multiuse-193544", "photoType": "movie", "width": 600}, {"url": "https://resizing.flixster.com/s4km_3RAePWnlH97JZ2X0dRAgNE=/1024x707/v1.bjsxOTM1NDc7ajsxODc2OTsyMDQ4OzMwMDA7MjA3Mg", "index": 2, "submittedBy": "RT Staff", "height": 707, "imageId": 193547, "thumbnail": "https://resizing.flixster.com/oTr4voAXGJOza2WhbPIOiSqAlPY=/80x80/v1.bjsxOTM1NDc7ajsxODc2OTsyMDQ4OzMwMDA7MjA3Mg", "submittedDate": "2014-07-02", "id": "multiuse-193547", "photoType": "movie", "width": 1024}, {"url": "https://resizing.flixster.com/8EvQBUyen8uAEINJLaGwOBG74M4=/1024x737/v1.bjs3MzU1MjU7ajsxODc3MzsyMDQ4OzE3MTA7MTIzMQ", "index": 3, "submittedBy": "RT Staff", "height": 737, "imageId": 735525, "thumbnail": "https://resizing.flixster.com/hxLHlcXF-M3gHqCriA8kCfu9NBA=/80x80/v1.bjs3MzU1MjU7ajsxODc3MzsyMDQ4OzE3MTA7MTIzMQ", "submittedDate": "2015-06-11", "id": "multiuse-735525", "photoType": "movie", "width": 1024}, {"url": "https://resizing.flixster.com/qMA4B7RZJEIFAcsvUA3CWZQPQws=/1024x749/v1.bjs3MzU1MjY7ajsxODc3NDsyMDQ4OzQ4MjY7MzUzMA", "index": 4, "submittedBy": "RT Staff", "height": 749, "imageId": 735526, "thumbnail": "https://resizing.flixster.com/ZQ3igOz1DIAWhbAvNkudiwg5m6A=/80x80/v1.bjs3MzU1MjY7ajsxODc3NDsyMDQ4OzQ4MjY7MzUzMA", "submittedDate": "2015-06-11", "id": "multiuse-735526", "photoType": "movie", "width": 1024}, {"url": "https://resizing.flixster.com/5XyTjeu9Sionhdl24PhPr9Jkl4M=/1024x714/v1.bjs3MzU1Mjg7ajsxODc3NjsyMDQ4OzQ5NDY7MzQ1MA", "index": 5, "submittedBy": "RT Staff", "height": 714, "imageId": 735528, "thumbnail": "https://resizing.flixster.com/8UW0Km2kmjo5VxkiIgGa1QXeSHw=/80x80/v1.bjs3MzU1Mjg7ajsxODc3NjsyMDQ4OzQ5NDY7MzQ1MA", "submittedDate": "2015-06-11", "id": "multiuse-735528", "photoType": "movie", "width": 1024}], "length": 6}, "id": 9924}