{"url": "/m/american_in_paris/", "isOnOpening": false, "genreSet": [{"displayName": "Romance", "id": 18}, {"displayName": "Musical & Performing Arts", "id": 12}, {"displayName": "Classics", "id": 5}], "officialUrl": "", "isInTheaters": false, "synopsis": "Gene Kelly does his patented Pal Joey bit as Jerry Mulligan, an opportunistic American painter living in Paris' \"starving artists\" colony. He is discovered by wealthy Milo Roberts (Nina Foch), who becomes Jerry's patroness in more ways than one. Meanwhile, Jerry plays hookey on this setup by romancing waif-like Lise Bouvier (Leslie Caron) -- who, unbeknownst to him, is the object of the affections of his close friend Henri (Georges Guetary), a popular nightclub performer. (The film was supposed to make Guetary into \"the New Chevalier.\" It didn't.) The thinnish plot is held together by the superlative production numbers and by the recycling of several vintage George Gershwin tunes, including \"I Got Rhythm,\" \"'S Wonderful,\" and \"Our Love Is Here to Stay.\" Highlights include Guetary's rendition of \"Stairway to Paradise\"; Oscar Levant's fantasy of conducting and performing Gershwin's \"Concerto in F\" (Levant also appears as every member of the orchestra); and the closing 17-minute \"American in Paris\" ballet, in which Kelly and Caron dance before lavish backgrounds based on the works of famed French artists. ~ Hal Erickson, Rovi", "links": {"alternate": "//www.rottentomatoes.com/m/american_in_paris/"}, "runningTime": 115, "year": 1951, "trackingType": "DvdOther", "status": "Live", "isPlaying": false, "isOnDVD": true, "runningTimeStr": "1 hr. 55 min.", "ratingSummary": {"topcount": 28, "consensus": "The plot may be problematic, but such concerns are rendered superfluous by Gene Kelly and Leslie Caron's star power, the Gershwins' classic songs, and Vincente Minnelli's colorful, sympathetic direction.", "topCritics": {"hasScore": true, "numReviews": 28, "meterClass": "certified", "numRotten": 1, "numFresh": 27, "hasReviews": true, "meterValue": 96, "averageRating": 7.583333}, "audience": {"meterScore": 79, "averageScore": 3.7028653621673584, "numTotal": 26414, "ratingType": "viewed"}, "allcount": 94, "rottencount": 4, "dvdcount": 7, "allCritics": {"hasScore": true, "numReviews": 94, "meterClass": "certified", "numRotten": 4, "numFresh": 90, "hasReviews": true, "meterValue": 96, "averageRating": 8.07}, "freshcount": 90}, "mpaaRating": "G", "vanity": "american_in_paris", "studio": "MGM", "purchaseOptions": {"amazon": {"url": "http://www.amazon.com/gp/product/B002XXRIBQ/ref=atv_feed_catalog?tag=rottetomao_aiv_mv-20", "isPrime": false, "type": "rent"}, "vudu": {"url": "https://www.vudu.com/content/movies/details/An-American-in-Paris/9383", "type": "buy"}, "flixster": {"url": "an-american-in-paris", "movieId": "ID: 2000001009; SKU:432386; Type: B (SD Buy)", "type": "buy"}, "iTunes": {"url": "https://itunes.apple.com/movie/an-american-in-paris/id283258245?uo=5", "price": "9.99"}}, "reviews": {"total": 94, "links": {"alternate": "//www.rottentomatoes.com/m/american_in_paris/#reviews", "self": "api.flixster.com/movies/an-american-in-paris/reviews.json?review_type=mob&country=us&page=1", "prev": "api.flixster.com/movies/an-american-in-paris/reviews.json?review_type=mob&country=us&page=0", "next": "api.flixster.com/movies/an-american-in-paris/reviews.json?review_type=mob&country=us&page=2"}, "reviews": [{"isRotten": false, "url": "https://www.newspapers.com/clip/75637099/an-american-in-paris/", "publication": {"name": "Detroit Free Press"}, "isTop": true, "creationDate": 1618340441000, "isFresh": true, "freshness": "fresh", "critic": {"url": "/critic/helen-bower", "name": "Helen Bower", "id": 27726, "thumbnailImage": "https://d2a5cgar23scu2.cloudfront.net/static/images/redesign/user.none.tmb.jpg"}, "quote": "Gene Kelly -- star and choreographer -- never lets the jig-time slacken. The picture runs up the stairs and dances down the street. It never rests.", "id": 2783587, "links": {"review": "https://www.newspapers.com/clip/75637099/an-american-in-paris/"}}, {"isRotten": false, "url": "https://www.newspapers.com/clip/75638906/an-american-in-paris/", "publication": {"url": "", "name": "Chicago Tribune"}, "isTop": true, "creationDate": 1618340206000, "isFresh": true, "freshness": "fresh", "critic": {"url": "/critic/mae-tinee", "name": "Mae Tinee", "id": 27169, "thumbnailImage": "https://d2a5cgar23scu2.cloudfront.net/static/images/redesign/user.none.tmb.jpg"}, "quote": "A fluid, beautifully picturesque affair, this elaborate development of the boy-meets-girl theme is as lavish and handsome an offering as any entertainment seeker ever found for the price.", "id": 2783584, "links": {"review": "https://www.newspapers.com/clip/75638906/an-american-in-paris/"}}, {"isRotten": false, "url": "https://www.newspapers.com/clip/75639433/an-american-in-paris/", "publication": {"name": "Boston Globe"}, "isTop": true, "creationDate": 1618339970000, "isFresh": true, "freshness": "fresh", "critic": {"url": "/critic/marjory-adams", "name": "Marjory Adams", "id": 27721, "thumbnailImage": "https://d2a5cgar23scu2.cloudfront.net/static/images/redesign/user.none.tmb.jpg"}, "quote": "An American in Paris offers wit, beauty, charm, smart dancing, happy music, melodious singing, and originality. There's nostalgia, as well, for those who have known and loved Paris.", "id": 2783580, "links": {"review": "https://www.newspapers.com/clip/75639433/an-american-in-paris/"}}, {"isRotten": false, "url": "https://www.newspapers.com/clip/75639589/an-american-in-paristexas-carnival/", "publication": {"name": "Philadelphia Inquirer"}, "isTop": true, "creationDate": 1618339513000, "isFresh": true, "freshness": "fresh", "critic": {"url": "/critic/mildred-martin", "name": "Mildred Martin", "id": 27722, "thumbnailImage": "https://d2a5cgar23scu2.cloudfront.net/static/images/redesign/user.none.tmb.jpg"}, "quote": "Against the pretty-as-a-picture background of this fabulous dream city, then, the cast scampers through the motions of a plot that requires only slight concentration on acting, but plenty in the way of personal appeal.", "id": 2783576, "links": {"review": "https://www.newspapers.com/clip/75639589/an-american-in-paristexas-carnival/"}}, {"isRotten": false, "url": "https://www.newspapers.com/clip/75651276/an-american-in-paris/", "publication": {"url": "", "name": "Arizona Republic"}, "isTop": true, "creationDate": 1618279459000, "isFresh": true, "freshness": "fresh", "critic": {"url": "/critic/jim-lindstrom", "name": "Jim Lindstrom", "id": 27486, "thumbnailImage": "https://d2a5cgar23scu2.cloudfront.net/static/images/redesign/user.none.tmb.jpg"}, "quote": "[An American in Paris] climaxes with a brilliant 17-minute ballet whose only movie competition is the ballet of The Red Shoes.", "id": 2783502, "links": {"review": "https://www.newspapers.com/clip/75651276/an-american-in-paris/"}}, {"isRotten": true, "url": "https://www.newspapers.com/clip/75650105/an-american-in-paris/", "publication": {"url": "", "name": "Guardian"}, "isTop": true, "creationDate": 1618278353000, "isFresh": false, "freshness": "rotten", "critic": {"url": "/critic/guardian-staff", "name": "Guardian Staff", "id": 22955, "thumbnailImage": "https://d2a5cgar23scu2.cloudfront.net/static/images/redesign/user.none.tmb.jpg"}, "quote": "An American in Paris is about a town which most Americans know only as tourists -- and this film too looks like a tourist: a talented tourist, no doubt but still a noisy and awkward one.", "id": 2783497, "links": {"review": "https://www.newspapers.com/clip/75650105/an-american-in-paris/"}}, {"isRotten": false, "url": "http://nla.gov.au/nla.news-article50308100", "publication": {"name": "Courier Mail (Australia)"}, "isTop": false, "creationDate": 1618340841000, "isFresh": true, "freshness": "fresh", "critic": {"url": "/critic/courier-mail-staff", "name": "Courier Mail Staff", "id": 26548, "thumbnailImage": "https://d2a5cgar23scu2.cloudfront.net/static/images/redesign/user.none.tmb.jpg"}, "quote": "The George Gershwin score is enough in itself to make the film a hit. With Gene Kelly tapping out captivating routines, and wry-faced Oscar Levant banging the piano it has added appeal.", "id": 2783588, "links": {"review": "http://nla.gov.au/nla.news-article50308100"}}, {"isRotten": false, "url": "https://bklyn.newspapers.com/clip/75638596/an-american-in-paris/", "publication": {"url": "", "name": "Brooklyn Daily Eagle"}, "isTop": false, "creationDate": 1618340320000, "isFresh": true, "freshness": "fresh", "critic": {"url": "/critic/jane-corby", "name": "Jane Corby", "id": 27365, "thumbnailImage": "https://d2a5cgar23scu2.cloudfront.net/static/images/redesign/user.none.tmb.jpg"}, "quote": "An American In Paris has raised the standard of film musicals by several notches. Here's a musical that won't be surpassed in many a year.", "id": 2783586, "links": {"review": "https://bklyn.newspapers.com/clip/75638596/an-american-in-paris/"}}, {"isRotten": false, "url": "https://www.newspapers.com/clip/75639295/an-american-in-paris/", "publication": {"url": "", "name": "San Francisco Examiner"}, "isTop": false, "creationDate": 1618340087000, "isFresh": true, "freshness": "fresh", "critic": {"url": "/critic/hortense-morton-27760", "name": "Hortense Morton (Screen Scout)", "id": 27760, "thumbnailImage": "https://d2a5cgar23scu2.cloudfront.net/static/images/redesign/user.none.tmb.jpg"}, "quote": "Our beret is off to Kelly, the spritely spirit of the movie, not only for his acting and dancing but for the sensational dance numbers.", "id": 2783582, "links": {"review": "https://www.newspapers.com/clip/75639295/an-american-in-paris/"}}, {"isRotten": false, "url": "https://archive.org/details/photoplayjuldec100macf_6/page/n463/mode/2up", "creationDate": 1618339859000, "isFresh": true, "id": 2783579, "quote": "The music of Gershwin is a perfect background for the bright spontaneity of a movie we so happily recommend.", "links": {"review": "https://archive.org/details/photoplayjuldec100macf_6/page/n463/mode/2up"}, "publication": {"url": "", "name": "Photoplay"}, "isTop": false, "freshness": "fresh", "critic": {"url": "/critic/sara-hamilton", "name": "Sara Hamilton", "id": 27786, "thumbnailImage": "https://d2a5cgar23scu2.cloudfront.net/static/images/redesign/user.none.tmb.jpg"}, "original_score": "3/3"}, {"isRotten": false, "url": "https://www.newspapers.com/clip/75645105/an-american-in-paris/", "publication": {"url": "", "name": "Tampa Bay Times"}, "isTop": false, "creationDate": 1618339711000, "isFresh": true, "freshness": "fresh", "critic": {"url": "/critic/lillian-blackstone", "name": "Lillian Blackstone", "id": 28036, "thumbnailImage": "https://d2a5cgar23scu2.cloudfront.net/static/images/redesign/user.none.tmb.jpg"}, "quote": "No, the plot isn't new, but steeped in a Parisian atmosphere, with oo la la and all that, the story is very, very gay and enjoyable.", "id": 2783577, "links": {"review": "https://www.newspapers.com/clip/75645105/an-american-in-paris/"}}, {"isRotten": false, "url": "https://newspaperarchive.com/entertainment-clipping-jan-02-1952-2383901/", "publication": {"url": "", "name": "Winnipeg Free Press"}, "isTop": false, "creationDate": 1618336761000, "isFresh": true, "freshness": "fresh", "critic": {"url": "/critic/frank-morriss", "name": "Frank Morriss", "id": 27201, "thumbnailImage": "https://d2a5cgar23scu2.cloudfront.net/static/images/redesign/user.none.tmb.jpg"}, "quote": "It's such a superlative movie that it seems better the second time you see it.", "id": 2783561, "links": {"review": "https://newspaperarchive.com/entertainment-clipping-jan-02-1952-2383901/"}}]}, "casts": {"screenwriters": [{"url": "/celebrity/alan_jay_lerner/", "name": "Alan Jay Lerner", "thumbnailImg": "https://d2a5cgar23scu2.cloudfront.net/static/images/redesign/actor.default.tmb.gif"}, {"url": "/celebrity/vincente_minnelli/", "name": "Vincente Minnelli", "thumbnailImg": "https://resizing.flixster.com/Dt3OUIk4pk_ZXuw2SC1OnUj33Ao=/80x80/v1.cDs5ODkzOTA0O2o7MTg4MTM7MjA0ODs1ODA7ODU0"}], "directors": [{"url": "/celebrity/vincente_minnelli/", "name": "Vincente Minnelli", "thumbnailImg": "https://resizing.flixster.com/Dt3OUIk4pk_ZXuw2SC1OnUj33Ao=/80x80/v1.cDs5ODkzOTA0O2o7MTg4MTM7MjA0ODs1ODA7ODU0"}], "creators": [], "producers": [{"url": "/celebrity/1056232-arthur_freed/", "name": "Arthur Freed", "thumbnailImg": "https://d2a5cgar23scu2.cloudfront.net/static/images/redesign/actor.default.tmb.gif"}], "castItems": [{"person": {"url": "/celebrity/gene_kelly/", "name": "Gene Kelly", "thumbnailImg": "https://resizing.flixster.com/RLUuST6LcDvjIGHgCkvF3sWoE24=/80x80/v1.cDsxMTE0NzI1NTtqOzE4ODg0OzIwNDg7NjM2OzgwMA"}, "characters": [{"name": "Jerry Mulligan"}]}, {"person": {"url": "/celebrity/leslie_caron/", "name": "Leslie Caron", "thumbnailImg": "https://resizing.flixster.com/8y2q4IR0p9hCc5OHVs_g_0pWFR4=/80x80/v1.cDsxMzY0MTg0MDtqOzE4Nzg3OzIwNDg7NDE5OzMwNA"}, "characters": [{"name": "Lise Bouvier"}]}, {"person": {"url": "/celebrity/maurice_chevalier/", "name": "Maurice Chevalier", "thumbnailImg": "https://resizing.flixster.com/W7QT4RUwP-d8PrDxOn7pEVjRW7U=/80x80/v1.cDsxMTE2OTU1OTtqOzE4ODY4OzIwNDg7NDYyOzQ2Mg"}}, {"person": {"url": "/celebrity/oscar_levant/", "name": "Oscar Levant", "thumbnailImg": "https://d2a5cgar23scu2.cloudfront.net/static/images/redesign/actor.default.tmb.gif"}, "characters": [{"name": "Adam Cook"}]}, {"person": {"url": "/celebrity/louis_jourdan/", "name": "Louis Jourdan", "thumbnailImg": "https://resizing.flixster.com/D-Gtr0i-ZqlydKTaG_9Ylujgbko=/80x80/v1.cDs3MjQxNTM1O2o7MTg4NDg7MjA0ODszMDA7NDAw"}}, {"person": {"url": "/celebrity/nina_foch/", "name": "Nina Foch", "thumbnailImg": "https://resizing.flixster.com/vqI5B36KxLeCkJaX6UaYEIL8UzY=/80x80/v1.cDsxMTk1NzUxODtqOzE4Nzk2OzIwNDg7NDU0OzU2OQ"}, "characters": [{"name": "Milo Roberts"}]}, {"person": {"url": "/celebrity/hermione_gingold/", "name": "Hermione Gingold", "thumbnailImg": "https://resizing.flixster.com/zZJM54tyli4CH_nDTynmCaKx_v0=/80x80/v1.cDs5ODk1ODc2O2o7MTg4MDU7MjA0ODs0NjI7NDYy"}}, {"person": {"url": "/celebrity/georges_guetary/", "name": "Georges Gu\u00e9tary", "thumbnailImg": "https://d2a5cgar23scu2.cloudfront.net/static/images/redesign/actor.default.tmb.gif"}, "characters": [{"name": "Henri Baurel"}]}, {"person": {"url": "/celebrity/eva_gabor/", "name": "Eva Gabor", "thumbnailImg": "https://resizing.flixster.com/7wL68tYNGDjNQM9A3VJWQ3g6YEI=/80x80/v1.cDsxMDMxMDExNDtqOzE4ODY4OzIwNDg7MzU3OzQ1MA"}}, {"person": {"url": "/celebrity/eugene-borden/", "name": "Eugene Borden", "thumbnailImg": "https://d2a5cgar23scu2.cloudfront.net/static/images/redesign/actor.default.tmb.gif"}, "characters": [{"name": "George Mattieu"}]}, {"person": {"url": "/celebrity/martha_bamattre/", "name": "Martha Bamattre", "thumbnailImg": "https://d2a5cgar23scu2.cloudfront.net/static/images/redesign/actor.default.tmb.gif"}, "characters": [{"name": "Mathilde Mattieu"}]}, {"person": {"url": "/celebrity/mary-young/", "name": "Mary Young", "thumbnailImg": "https://resizing.flixster.com/sgNEyGZV57Pn1_95FG_Hu4OjYE0=/80x80/v1.cDsxMTg2NDMzNDtqOzE4ODA2OzIwNDg7MTYwMDsxMjAw"}, "characters": [{"name": "Old Woman Dancer"}]}, {"person": {"url": "/celebrity/ann-codee/", "name": "Ann Codee", "thumbnailImg": "https://resizing.flixster.com/6tIBKerlOiN9VXyvy93MYiYL8Q0=/80x80/v1.cDsxMjU4NDA3OTtqOzE4Nzg0OzIwNDg7MjQwOzMwMA"}, "characters": [{"name": "Therese"}]}, {"person": {"url": "/celebrity/george_davis/", "name": "George Davis", "thumbnailImg": "https://resizing.flixster.com/kUKJ8_1onXQbrbfWXzjufQ3bq3U=/80x80/v1.cDsxMzUzODUxMjtqOzE4ODIzOzIwNDg7MTc3OzE3OQ"}, "characters": [{"name": "Francois"}]}, {"person": {"url": "/celebrity/mary_jones/", "name": "Mary Jones", "thumbnailImg": "https://d2a5cgar23scu2.cloudfront.net/static/images/redesign/actor.default.tmb.gif"}, "characters": [{"name": "Old Lady Dancer"}]}, {"person": {"url": "/celebrity/hayden_rorke/", "name": "Hayden Rorke", "thumbnailImg": "https://resizing.flixster.com/9CE_eA97XSb6Nm_VODdNl7-0ODo=/80x80/v1.cDsxMjE1Mjk3NDtqOzE4Nzc0OzIwNDg7MjUwOzM0MA"}, "characters": [{"name": "Tommy Baldwin"}]}, {"person": {"url": "/celebrity/madge_blake/", "name": "Madge Blake", "thumbnailImg": "https://resizing.flixster.com/mpja3IQ1WvfmpqnDf7Mqlw7wokg=/80x80/v1.cDsxNDA5MjU2MDtqOzE4ODM4OzIwNDg7MzAxOzQwMA"}, "characters": [{"name": "Edna Mae Bestram (customer)"}]}, {"person": {"url": "/celebrity/paul_maxey/", "name": "Paul Maxey", "thumbnailImg": "https://resizing.flixster.com/J5sl2Lde_aek3Cqzl_u0ssca5EA=/80x80/v1.cDsxMzUzODU5NDtqOzE4ODE1OzIwNDg7MTUzOzE1Nw"}, "characters": [{"name": "John McDowd"}]}, {"person": {"url": "/celebrity/nan_boardman/", "name": "Nan Boardman", "thumbnailImg": "https://d2a5cgar23scu2.cloudfront.net/static/images/redesign/actor.default.tmb.gif"}, "characters": [{"name": "Maid"}]}, {"person": {"url": "/celebrity/dick_wessel/", "name": "Dick Wessel", "thumbnailImg": "https://resizing.flixster.com/l2JVJtM3RUfSgOFjDk3vzNMj8lo=/80x80/v1.cDsxMTUxNzUyODtqOzE4ODU2OzIwNDg7MjUwOzI1MA"}, "characters": [{"name": "Ben Macrow"}]}, {"person": {"url": "/celebrity/andre_charisse/", "name": "Andre Charisse", "thumbnailImg": "https://d2a5cgar23scu2.cloudfront.net/static/images/redesign/actor.default.tmb.gif"}, "characters": [{"name": "Dancing Partner"}]}, {"person": {"url": "/celebrity/art_dupuis/", "name": "Art Dupuis", "thumbnailImg": "https://d2a5cgar23scu2.cloudfront.net/static/images/redesign/actor.default.tmb.gif"}, "characters": [{"name": "Driver"}]}, {"person": {"url": "/celebrity/john_eldredge/", "name": "John Eldredge", "thumbnailImg": "https://d2a5cgar23scu2.cloudfront.net/static/images/redesign/actor.default.tmb.gif"}, "characters": [{"name": "Jack Jansen"}]}, {"person": {"url": "/celebrity/jeanne_lafayette/", "name": "Jeanne Lafayette", "thumbnailImg": "https://d2a5cgar23scu2.cloudfront.net/static/images/redesign/actor.default.tmb.gif"}, "characters": [{"name": "Nun"}]}, {"person": {"url": "/celebrity/greg_mcclure/", "name": "Greg McClure", "thumbnailImg": "https://d2a5cgar23scu2.cloudfront.net/static/images/redesign/actor.default.tmb.gif"}, "characters": [{"name": "Artist"}]}, {"person": {"url": "/celebrity/noel_neill/", "name": "Noel Neill", "thumbnailImg": "https://resizing.flixster.com/au4Sz6HzhIxiN-Uc5OGSwwzf6gA=/80x80/v1.cjs0Nzc4MDtqOzE4ODAwOzIwNDg7NTQwOzU3Mg"}, "characters": [{"name": "American Girl"}]}, {"person": {"url": "/celebrity/anna_q_nilsson/", "name": "Anna Q. Nilsson", "thumbnailImg": "https://d2a5cgar23scu2.cloudfront.net/static/images/redesign/actor.default.tmb.gif"}, "characters": [{"name": "Kay Jansen"}]}, {"person": {"url": "/celebrity/alfred_paix/", "name": "Alfred Paix", "thumbnailImg": "https://d2a5cgar23scu2.cloudfront.net/static/images/redesign/actor.default.tmb.gif"}, "characters": [{"name": "Postman"}]}, {"person": {"url": "/celebrity/don_quinn/", "name": "Don Quinn", "thumbnailImg": "https://d2a5cgar23scu2.cloudfront.net/static/images/redesign/actor.default.tmb.gif"}, "characters": [{"name": "Honeymooner"}]}, {"person": {"url": "/celebrity/alex_romero/", "name": "Alex Romero", "thumbnailImg": "https://d2a5cgar23scu2.cloudfront.net/static/images/redesign/actor.default.tmb.gif"}}]}, "title": "An American in Paris", "adjustedScore": 111.12432886769474, "ratings": {"critics_rating": "Certified Fresh", "audience_score": 79, "dvdReleaseDate": 925196400000, "critics_score": 96, "theaterReleaseDate": -575740800000, "audience_rating": "Upright"}, "videoClips": {"mainTrailer": {"hlsUrl": "http://video.internetvideoarchive.net/video.m3u8?cmd=6&publishedid=2983&customerid=300120&e=1619087245629&sub=RTO&fmt=11&h=c85a342065236b5b247fe6294338628d", "seconds": 34, "minutes": 1, "id": 10906741, "title": "An American In Paris", "thumbUrl": "http://content.internetvideoarchive.com/content/photos/8543/2983_049.jpg", "mp4Url": "http://video.internetvideoarchive.net/video.mp4?cmd=6&publishedid=2983&customerid=300120&e=1619087245629&sub=RTO&fmt=4&videokbrate=750&h=4061d442102ac5f3e952a3443b56e73f"}, "size": 1, "videoClips": [{"hlsUrl": "http://video.internetvideoarchive.net/video.m3u8?cmd=6&publishedid=2983&customerid=300120&e=1619087245629&sub=RTO&fmt=11&h=c85a342065236b5b247fe6294338628d", "seconds": 34, "minutes": 1, "id": 10906741, "title": "An American In Paris", "thumbUrl": "http://content.internetvideoarchive.com/content/photos/8543/2983_049.jpg", "mp4Url": "http://video.internetvideoarchive.net/video.mp4?cmd=6&publishedid=2983&customerid=300120&e=1619087245629&sub=RTO&fmt=4&videokbrate=750&h=4061d442102ac5f3e952a3443b56e73f"}]}, "isUpcoming": false, "posters": {"original": "https://resizing.flixster.com/Eqs7a0ViwCtU5oJT6JB-Ziu88vg=/800x1200/v1.bTsxMTE2ODAyMTtqOzE4ODYwOzIwNDg7ODAwOzEyMDA", "detailed": "https://resizing.flixster.com/DDqNF2EB_iPuPZLBIyqMfHQrGrY=/180x270/v1.bTsxMTE2ODAyMTtqOzE4ODYwOzIwNDg7ODAwOzEyMDA", "profile": "https://resizing.flixster.com/ndNJEXu94Ve5uDjmazFDte9vnPA=/120x180/v1.bTsxMTE2ODAyMTtqOzE4ODYwOzIwNDg7ODAwOzEyMDA", "thumbnail": "https://resizing.flixster.com/c6RrhogINSqzMbgrq6x72Ps0ERg=/54x81/v1.bTsxMTE2ODAyMTtqOzE4ODYwOzIwNDg7ODAwOzEyMDA"}, "isLimited": false, "mainTrailer": {"thumbUrl": "https://content.internetvideoarchive.com/content/photos/8543/2983_049.jpg", "hlsUrl": "http://video.internetvideoarchive.net/video.m3u8?cmd=6&publishedid=2983&customerid=300120&e=1619087245076&sub=RTO&fmt=11&h=e3d208c8ccce92dfebcaba8bfb99f0a9", "id": 10906741, "mp4Url": "http://video.internetvideoarchive.net/video.mp4?cmd=6&publishedid=2983&customerid=300120&e=1619087245076&sub=RTO&fmt=4&videokbrate=750&h=47bff63572948d448d35f6005cc07684"}, "photos": {"photos": [{"url": "https://resizing.flixster.com/SH23ofx1rvwB9yxlJNRJa0LUv1o=/1024x744/v1.bjsyNTE4NTY7ajsxODgwMzsyMDQ4OzMwMDA7MjE4MA", "index": 0, "submittedBy": "RT Staff", "height": 744, "imageId": 251856, "thumbnail": "https://resizing.flixster.com/QdGvX2bPt2ErRAqgzL6XhfkYMCE=/80x80/v1.bjsyNTE4NTY7ajsxODgwMzsyMDQ4OzMwMDA7MjE4MA", "submittedDate": "2014-07-02", "id": "multiuse-251856", "photoType": "movie", "width": 1024}, {"url": "https://resizing.flixster.com/uCB0tezevTV7BH6bxXcYWovrpJk=/1024x695/v1.bjsyNTE4NTc7ajsxODgwNDsyMDQ4OzMwMDA7MjAzNQ", "index": 1, "submittedBy": "RT Staff", "height": 695, "imageId": 251857, "thumbnail": "https://resizing.flixster.com/P9y_NCwJ57YdNDlYURqh0HyhsfM=/80x80/v1.bjsyNTE4NTc7ajsxODgwNDsyMDQ4OzMwMDA7MjAzNQ", "submittedDate": "2014-07-02", "id": "multiuse-251857", "photoType": "movie", "width": 1024}, {"url": "https://resizing.flixster.com/ZhAzGVUIS1HOI5oO5EunKtIXCo0=/1024x695/v1.bjsyNTE4NTg7ajsxODgwNTsyMDQ4OzMwMDA7MjAzNQ", "index": 2, "submittedBy": "RT Staff", "height": 695, "imageId": 251858, "thumbnail": "https://resizing.flixster.com/JB1QJ8aKOBpVIJslQVRI7ZwXNZo=/80x80/v1.bjsyNTE4NTg7ajsxODgwNTsyMDQ4OzMwMDA7MjAzNQ", "submittedDate": "2014-07-02", "id": "multiuse-251858", "photoType": "movie", "width": 1024}, {"url": "https://resizing.flixster.com/0rJn9ZGbrRGP15a_3JMsWVpHfPU=/1024x686/v1.bjsyNTE4NTk7ajsxODgwNjsyMDQ4OzMwMDA7MjAxMA", "index": 3, "submittedBy": "RT Staff", "height": 686, "imageId": 251859, "thumbnail": "https://resizing.flixster.com/RaqMYJZWK6dhYj6UW_UbhMtwXOw=/80x80/v1.bjsyNTE4NTk7ajsxODgwNjsyMDQ4OzMwMDA7MjAxMA", "submittedDate": "2014-07-02", "id": "multiuse-251859", "photoType": "movie", "width": 1024}, {"url": "https://resizing.flixster.com/yWEv1LV2SxoDPN_gHDtw6zFFzgs=/1024x708/v1.bjsyNTE4NjA7ajsxODgwNzsyMDQ4OzMwMDA7MjA3NQ", "index": 4, "submittedBy": "RT Staff", "height": 708, "imageId": 251860, "thumbnail": "https://resizing.flixster.com/Nj1QPCcy0HYRl-pbXHQv1g1gILA=/80x80/v1.bjsyNTE4NjA7ajsxODgwNzsyMDQ4OzMwMDA7MjA3NQ", "submittedDate": "2014-07-02", "id": "multiuse-251860", "photoType": "movie", "width": 1024}, {"url": "https://resizing.flixster.com/BgKl0mmhyMXAyTOhByiJ7Ie8LRk=/1024x730/v1.bjsyNTE4NjE7ajsxODgwODsyMDQ4OzMwMDA7MjEzOA", "index": 5, "submittedBy": "RT Staff", "height": 730, "imageId": 251861, "thumbnail": "https://resizing.flixster.com/SIWGRMAgYReINvRFbAzb9jVArsg=/80x80/v1.bjsyNTE4NjE7ajsxODgwODsyMDQ4OzMwMDA7MjEzOA", "submittedDate": "2014-07-02", "id": "multiuse-251861", "photoType": "movie", "width": 1024}, {"url": "https://resizing.flixster.com/8ZkGNbl_RLyVAyr1KNg6QxGfrfM=/1024x701/v1.bjsyNTE4NjI7ajsxODgwOTsyMDQ4OzMwMDA7MjA1NQ", "index": 6, "submittedBy": "RT Staff", "height": 701, "imageId": 251862, "thumbnail": "https://resizing.flixster.com/X04a27hCoI_WQHfcu_Ma91dp8nw=/80x80/v1.bjsyNTE4NjI7ajsxODgwOTsyMDQ4OzMwMDA7MjA1NQ", "submittedDate": "2014-07-02", "id": "multiuse-251862", "photoType": "movie", "width": 1024}, {"url": "https://resizing.flixster.com/AleEM_8Bj3hXm6MSzP2mygNBTuo=/1024x790/v1.bjs3NDA1Njk7ajsxODc3NzsyMDQ4OzQ3NzA7MzY4MA", "index": 7, "submittedBy": "RT Staff", "height": 790, "imageId": 740569, "thumbnail": "https://resizing.flixster.com/ptyHjxasStMqE0oh4IqE2d2N664=/80x80/v1.bjs3NDA1Njk7ajsxODc3NzsyMDQ4OzQ3NzA7MzY4MA", "submittedDate": "2015-06-11", "id": "multiuse-740569", "photoType": "movie", "width": 1024}, {"url": "https://resizing.flixster.com/C7Nb_lYVI44Rr-BY0-TZdwuTh38=/721x1024/v1.bjsyMzIzNTc0O2o7MTg4MzU7MjA0ODsyMDAwOzI4NDE", "index": 8, "submittedBy": "RT Staff", "height": 1024, "imageId": 2323574, "thumbnail": "https://resizing.flixster.com/KHWDJwyUYhyB_vM4Ct_v1QOq-9E=/80x80/v1.bjsyMzIzNTc0O2o7MTg4MzU7MjA0ODsyMDAwOzI4NDE", "submittedDate": "2019-08-10", "id": "multiuse-2323574", "photoType": "movie", "width": 721}, {"url": "https://resizing.flixster.com/m64vpP8OqnTExO0WX-uYnznUQNI=/411x600/v1.aDsxMzU0ODM7ajsxODc5OTsyMDQ4OzQ5Mzs3MjA", "index": 9, "submittedBy": "RT Staff", "height": 600, "imageId": 135483, "thumbnail": "https://resizing.flixster.com/KEiO3vM5K5Z6-1Xx3CaeEK5a4U4=/80x80/v1.aDsxMzU0ODM7ajsxODc5OTsyMDQ4OzQ5Mzs3MjA", "submittedDate": "2008-08-10", "caption": "", "id": "movie-135483", "photoType": "movie", "width": 411}, {"url": "https://resizing.flixster.com/v7Sh_nr-kPupXkmnF-1ZYvntWC4=/428x600/v1.aDsxMzU0ODI7ajsxODc5ODsyMDQ4OzUxMzs3MjA", "index": 10, "submittedBy": "RT Staff", "height": 600, "imageId": 135482, "thumbnail": "https://resizing.flixster.com/vVnnYXPZrbF193S_d1Xz8NLgRQ8=/80x80/v1.aDsxMzU0ODI7ajsxODc5ODsyMDQ4OzUxMzs3MjA", "submittedDate": "2008-08-10", "caption": "", "id": "movie-135482", "photoType": "movie", "width": 428}, {"url": "https://resizing.flixster.com/nBZeHLF3ZCqbmAafWZeRDuHHI1Y=/402x600/v1.aDsxMzU0ODE7ajsxODc5NzsyMDQ4OzQ4Mjs3MjA", "index": 11, "submittedBy": "RT Staff", "height": 600, "imageId": 135481, "thumbnail": "https://resizing.flixster.com/tR7OpAzjP30Z3p75x_N3mr49ulc=/80x80/v1.aDsxMzU0ODE7ajsxODc5NzsyMDQ4OzQ4Mjs3MjA", "submittedDate": "2008-08-10", "caption": "", "id": "movie-135481", "photoType": "movie", "width": 402}, {"url": "https://resizing.flixster.com/m_ASJMv7df2kg1E0GiBf7oBguug=/436x600/v1.aDsxMzU0ODA7ajsxODc5NjsyMDQ4OzUyMzs3MjA", "index": 12, "submittedBy": "RT Staff", "height": 600, "imageId": 135480, "thumbnail": "https://resizing.flixster.com/unwvg6pTbJXRERKZ6wBAWFzEUMc=/80x80/v1.aDsxMzU0ODA7ajsxODc5NjsyMDQ4OzUyMzs3MjA", "submittedDate": "2008-08-10", "caption": "", "id": "movie-135480", "photoType": "movie", "width": 436}], "length": 13}, "id": 22098}