{"url": "/m/top_hat/", "isOnOpening": false, "genreSet": [{"displayName": "Romance", "id": 18}, {"displayName": "Musical & Performing Arts", "id": 12}, {"displayName": "Classics", "id": 5}, {"displayName": "Comedy", "id": 6}], "officialUrl": "", "isInTheaters": false, "synopsis": "One of the best of the Fred Astaire-Ginger Rogers musicals, Top Hat centers on a typical mistaken-identity plot, with wealthy Dale Tremont (Rogers), on holiday in London and Venice, assuming that American entertainer Jerry Travers (Astaire) is the husband of her friend Madge (Helen Broderick) -- who's actually the wife of Jerry's business manager Horace Hardwick (Edward Everett Horton). Complicating matters is Dale's jealous suitor Beddini (Erik Rhodes), whose motto is \"For the woman the kiss -- for the man the sword.\" Beddini is disposed of by some last-minute chicanery on the part of Jerry's faithful valet Bates (Eric Blore), paving the way for the happy ending everyone knew was coming from the opening scene. The Irving Berlin score includes \"Cheek to Cheek,\" \"Isn't it a Lovely Day?,\" and the jaunty title song. The charisma of the stars, the chemistry of the supporting players, the white-telephone art direction of Van Nest Polglaise, the superlative choreography by Astaire and Hermes Pan, and the effervescent direction of Mark Sandrich all combine to make Top Hat a winner. Originally released at 101 minutes, the film was for many years available only in its 93-minute reissue form; it has since been restored archivally to 99 minutes.", "links": {"alternate": "//www.rottentomatoes.com/m/top_hat/"}, "runningTime": 99, "year": 1935, "trackingType": "DvdOther", "status": "Live", "isPlaying": false, "isOnDVD": true, "runningTimeStr": "1 hr. 39 min.", "ratingSummary": {"topcount": 14, "consensus": "A glamorous and enthralling Depression-era diversion, Top Hat is nearly flawless, with acrobatics by Fred Astaire and Ginger Rogers that make the hardest physical stunts seem light as air.", "topCritics": {"hasScore": true, "numReviews": 14, "meterClass": "certified", "numRotten": 0, "numFresh": 14, "hasReviews": true, "meterValue": 100, "averageRating": 8.642857}, "audience": {"meterScore": 91, "averageScore": 4.040528774261475, "numTotal": 9812, "ratingType": "viewed"}, "allcount": 42, "rottencount": 0, "dvdcount": 3, "allCritics": {"hasScore": true, "numReviews": 42, "meterClass": "certified", "numRotten": 0, "numFresh": 42, "hasReviews": true, "meterValue": 100, "averageRating": 8.66}, "freshcount": 42}, "mpaaRating": "Unrated", "vanity": "top_hat", "studio": "Turner Home Entertainment", "purchaseOptions": {"amazon": {"url": "http://www.amazon.com/gp/product/B004VFK0LY/ref=atv_feed_catalog?tag=rottetomao_aiv_mv-20", "isPrime": false, "type": "rent"}, "vudu": {"url": "https://www.vudu.com/content/movies/details/Top-Hat/10387", "type": "buy"}, "flixster": {"url": "top-hat", "movieId": "ID: 2000005019; SKU:449495; Type: B (SD Buy)", "type": "buy"}, "iTunes": {"url": "https://itunes.apple.com/movie/top-hat/id313465604?uo=5", "price": "9.99"}}, "reviews": {"total": 42, "links": {"alternate": "//www.rottentomatoes.com/m/top_hat/#reviews", "self": "api.flixster.com/movies/top-hat/reviews.json?review_type=mob&country=us&page=1", "prev": "api.flixster.com/movies/top-hat/reviews.json?review_type=mob&country=us&page=0", "next": "api.flixster.com/movies/top-hat/reviews.json?review_type=mob&country=us&page=2"}, "reviews": [{"isRotten": false, "url": "https://www.thetimes.co.uk/edition/times2/top-hat-1935-review-fred-astaire-and-ginger-rogers-at-their-peak-5df22s3zr", "creationDate": 1576805440000, "isFresh": true, "id": 2655237, "quote": "In short, perfection.", "links": {"review": "https://www.thetimes.co.uk/edition/times2/top-hat-1935-review-fred-astaire-and-ginger-rogers-at-their-peak-5df22s3zr"}, "publication": {"url": "", "name": "Times (UK)"}, "isTop": true, "freshness": "fresh", "critic": {"url": "/critic/kevin-maher", "name": "Kevin Maher", "id": 5388, "thumbnailImage": "https://resizing.flixster.com/0b_fTrnKoP0RgnG634d1CHf3GCU=/72x72/v1.YzszNDc1O3A7MTg3NzU7MjA0ODszNDA7MzQw"}, "original_score": "5/5"}, {"isRotten": false, "url": "http://www.empireonline.com/reviews/review.asp?FID=3423", "publication": {"url": "", "name": "Empire Magazine"}, "isTop": true, "creationDate": 1240619963000, "isFresh": true, "freshness": "fresh", "quote": "If you want only one Astaire-Rogers musical, Top Hat is obligatory.", "id": 1816027, "original_score": "5/5", "links": {"review": "http://www.empireonline.com/reviews/review.asp?FID=3423"}}, {"isRotten": false, "url": "http://www.time.com/time/magazine/article/0,9171,748980-2,00.html", "publication": {"url": "", "name": "TIME Magazine"}, "isTop": true, "creationDate": 1240619874000, "isFresh": true, "freshness": "fresh", "quote": "Finally, thanks more to Fred Astaire than any other single influence, the character of musicomedy in the cinema has now completely changed.", "id": 1816025, "links": {"review": "http://www.time.com/time/magazine/article/0,9171,748980-2,00.html"}}, {"isRotten": false, "url": "http://www.variety.com/review/VE1117795802.html?categoryid=31&cs=1", "publication": {"url": "", "name": "Variety"}, "isTop": true, "creationDate": 1200089154000, "isFresh": true, "freshness": "fresh", "critic": {"url": "/critic/variety-staff", "name": "Variety Staff", "id": 12507, "thumbnailImage": "https://resizing.flixster.com/8Z-e2stpP9WriX4ZUvtumMg0pB0=/72x72/v1.YzsyNDg3O2c7MTg3Nzc7MjA0ODsxNTI7MTY4"}, "quote": "This one can't miss and the reasons are three -- Fred Astaire, Irving Berlin's 11 songs and sufficient comedy between numbers to hold the film together.", "id": 1702612, "links": {"review": "http://www.variety.com/review/VE1117795802.html?categoryid=31&cs=1"}}, {"isRotten": false, "url": "http://onfilm.chicagoreader.com/movies/briefs/8482_TOP_HAT.html", "publication": {"url": "", "name": "Chicago Reader"}, "isTop": true, "creationDate": 1200085097000, "isFresh": true, "freshness": "fresh", "critic": {"url": "/critic/don-druker", "name": "Don Druker", "id": 91, "thumbnailImage": "https://d2a5cgar23scu2.cloudfront.net/static/images/redesign/user.none.tmb.jpg"}, "quote": "This 1935 musical finds Fred Astaire and Ginger Rogers at the top of their form.", "id": 1702578, "links": {"review": "http://onfilm.chicagoreader.com/movies/briefs/8482_TOP_HAT.html"}}, {"isRotten": false, "isFresh": true, "publication": {"url": "", "name": "Time Out"}, "isTop": true, "creationDate": 1139483805000, "freshness": "fresh", "critic": {"url": "/critic/tom-milne", "name": "Tom Milne", "id": 12676, "thumbnailImage": "https://d2a5cgar23scu2.cloudfront.net/static/images/redesign/user.none.tmb.jpg"}, "quote": "The third Astaire-Rogers movie and one of the best.", "id": 1480928, "links": {}}, {"isRotten": false, "url": "http://gonewiththetwins.com/new/top-hat-1935/", "creationDate": 1596076672000, "isFresh": true, "id": 2709551, "quote": "One of the cleverest of the musical comedies of the '30s, as well as, arguably, Astaire and Rogers' greatest collaboration.", "links": {"review": "http://gonewiththetwins.com/new/top-hat-1935/"}, "publication": {"url": "", "name": "Gone With The Twins"}, "isTop": false, "freshness": "fresh", "critic": {"url": "/critic/mike-massie", "name": "Mike Massie", "id": 27168, "thumbnailImage": "https://resizing.flixster.com/cKCY6tR9EskewGPlb8BlnvWesZU=/72x72/v1.YzszNjc3O2o7MTg3OTc7MjA0ODszMDA7MzAw"}, "original_score": "9/10"}, {"isRotten": false, "url": "https://classic.esquire.com/article/1935/11/1/the-candid-cameraman", "publication": {"url": "", "name": "Esquire Magazine"}, "isTop": false, "creationDate": 1588625432000, "isFresh": true, "freshness": "fresh", "critic": {"url": "/critic/meyer-levin-25919", "name": "Meyer Levin (Patterson Murphy)", "id": 25919, "thumbnailImage": "https://d2a5cgar23scu2.cloudfront.net/static/images/redesign/user.none.tmb.jpg"}, "quote": "Tops everything that Fred Astaire and Ginger Rogers have done, and clicks as the gladdest, smoothest, truestto-medium movie musical ever made.", "id": 2687625, "links": {"review": "https://classic.esquire.com/article/1935/11/1/the-candid-cameraman"}}, {"isRotten": false, "url": "https://archive.macleans.ca/article/1935/10/15/shots-and-angles", "publication": {"url": "", "name": "Maclean's Magazine"}, "isTop": false, "creationDate": 1570567954000, "isFresh": true, "freshness": "fresh", "critic": {"url": "/critic/ann-ross", "name": "Ann Ross", "id": 24684, "thumbnailImage": "https://d2a5cgar23scu2.cloudfront.net/static/images/redesign/user.none.tmb.jpg"}, "quote": "The dancing of Fred Astaire and Ginger Rogers is one of the most agreeable sights of civilization. This has been said before - possibly in this column - but that isn't any good reason for not saying it again.", "id": 2633697, "links": {"review": "https://archive.macleans.ca/article/1935/10/15/shots-and-angles"}}, {"isRotten": false, "url": "https://archive.vanityfair.com/article/1935/10/hollywood-on-parade", "publication": {"url": "", "name": "Vanity Fair"}, "isTop": false, "creationDate": 1560375392000, "isFresh": true, "freshness": "fresh", "critic": {"url": "/critic/helen-brown-norden", "name": "Helen Brown Norden", "id": 23297, "thumbnailImage": "https://resizing.flixster.com/Blh9XaukOf_LyVX545tnwYPgVqA=/72x72/v1.YzszNDUxO2o7MTg3OTY7MjA0ODszMDA7MzAw"}, "quote": "While personally I didn't think it was quite so swell as The Gay Divorcee or Roberta, it is still about ten times better than am musical that hasn't got Fred Astaire in it. The man is a maniac when he starts to dance.", "id": 2596510, "links": {"review": "https://archive.vanityfair.com/article/1935/10/hollywood-on-parade"}}, {"isRotten": false, "url": "http://filmandfelt.com/musings/?p=1920", "creationDate": 1270605788000, "isFresh": true, "id": 1878635, "quote": "Most of what I liked about Top Hat centers around its two stars: full of energy and grace, they breathe life into the film whenever it threatens to lose its luster.", "links": {"review": "http://filmandfelt.com/musings/?p=1920"}, "publication": {"name": "Film and Felt"}, "isTop": false, "freshness": "fresh", "critic": {"url": "/critic/gabe-leibowitz", "name": "Gabe Leibowitz", "id": 8777, "thumbnailImage": "https://resizing.flixster.com/RJepK-HUrkju-0L6Ej_r4QSJUw4=/72x72/v1.YzsxOTM5O2o7MTg3Njk7MjA0ODs2MDA7NDAw"}, "original_score": "56/100"}, {"isRotten": false, "url": "http://www.channel4.com/film/reviews/film.jsp?id=109450&section=review&page=all#reviewnav", "publication": {"url": "", "name": "Film4"}, "isTop": false, "creationDate": 1240620036000, "isFresh": true, "freshness": "fresh", "critic": {"url": "/critic/film4-staff", "name": "Film4 Staff", "id": 23439, "thumbnailImage": "https://d2a5cgar23scu2.cloudfront.net/static/images/redesign/user.none.tmb.jpg"}, "quote": "Arguably the classiest and funniest of the RKO Astaire-Rogers musicals.", "id": 1816029, "links": {"review": "http://www.channel4.com/film/reviews/film.jsp?id=109450&section=review&page=all#reviewnav"}}]}, "casts": {"screenwriters": [{"url": "/celebrity/dwight_taylor/", "name": "Dwight Taylor", "thumbnailImg": "https://d2a5cgar23scu2.cloudfront.net/static/images/redesign/actor.default.tmb.gif"}, {"url": "/celebrity/allan_scott_2/", "name": "Allan Scott", "thumbnailImg": "https://d2a5cgar23scu2.cloudfront.net/static/images/redesign/actor.default.tmb.gif"}], "directors": [{"url": "/celebrity/mark_sandrich/", "name": "Mark Sandrich", "thumbnailImg": "https://d2a5cgar23scu2.cloudfront.net/static/images/redesign/actor.default.tmb.gif"}], "creators": [], "producers": [{"url": "/celebrity/pandro_s_berman/", "name": "Pandro S. Berman", "thumbnailImg": "https://d2a5cgar23scu2.cloudfront.net/static/images/redesign/actor.default.tmb.gif"}], "castItems": [{"person": {"url": "/celebrity/fred_astaire/", "name": "Fred Astaire", "thumbnailImg": "https://resizing.flixster.com/ZrKKXRL-QUcVL7OyvPF5wkNaIZY=/80x80/v1.cDsxMTkwMTQwOTtqOzE4ODAxOzIwNDg7MTI3MDsxNjAw"}, "characters": [{"name": "Jerry Travers"}]}, {"person": {"url": "/celebrity/ginger_rogers/", "name": "Ginger Rogers", "thumbnailImg": "https://resizing.flixster.com/enxuFy9BZSOU2lhbDhsv_ENJeyI=/80x80/v1.cDsxMTA5NTI5NTtqOzE4ODUzOzIwNDg7MzQzOzQwMA"}, "characters": [{"name": "Dale Tremont"}]}, {"person": {"url": "/celebrity/edward_everett_horton/", "name": "Edward Everett Horton", "thumbnailImg": "https://resizing.flixster.com/MWJ30SXq5qUK7W96cCmr9HuNIrc=/80x80/v1.cDsxMDA3NDEzNDtqOzE4ODIwOzIwNDg7NDYyOzM5MA"}, "characters": [{"name": "Horace Hardwick"}]}, {"person": {"url": "/celebrity/helen_broderick/", "name": "Helen Broderick", "thumbnailImg": "https://resizing.flixster.com/tNLlp-MIkAPJ1_j_eBJn40F0Ljc=/80x80/v1.cjs0ODQ1NjtwOzE4ODAxOzIwNDg7NDgwOzY0MA"}, "characters": [{"name": "Madge Hardwick"}]}, {"person": {"url": "/celebrity/eric_blore/", "name": "Eric Blore", "thumbnailImg": "https://resizing.flixster.com/Y5V8zqhucpfcQ4qodOnMw2SdPGc=/80x80/v1.cDszNTY5NjY2O2o7MTg4OTI7MjA0ODs5Njs5Ng"}, "characters": [{"name": "Bates"}]}, {"person": {"url": "/celebrity/erik-rhodes/", "name": "Erik Rhodes", "thumbnailImg": "https://resizing.flixster.com/184Uq_2BlQvQfuuFHaf4ZiK_fac=/80x80/v1.cDsxMTE2MTE3ODtqOzE4ODU3OzIwNDg7MjAwOzMyOQ"}, "characters": [{"name": "Alberto Beddini"}]}, {"person": {"url": "/celebrity/eric_rhodes/", "name": "Eric Rhodes", "thumbnailImg": "https://d2a5cgar23scu2.cloudfront.net/static/images/redesign/actor.default.tmb.gif"}}, {"person": {"url": "/celebrity/edward_mudie/", "name": "Edward Mudie", "thumbnailImg": "https://d2a5cgar23scu2.cloudfront.net/static/images/redesign/actor.default.tmb.gif"}, "characters": [{"name": "Flower Salesman"}]}, {"person": {"url": "/celebrity/lucille_ball/", "name": "Lucille Ball", "thumbnailImg": "https://resizing.flixster.com/-jbezHgVu0ezegk1bJXC0QBC0u4=/80x80/v1.cDsxMDEyNTI4MDtqOzE4ODAyOzIwNDg7NDYyOzQ2Mg"}, "characters": [{"name": "Flower Clerk"}]}, {"person": {"url": "/celebrity/edgar_norton/", "name": "Edgar Norton", "thumbnailImg": "https://resizing.flixster.com/p2qZc4MKvTK5m5IbLBVQdYqy-ow=/80x80/v1.cDsxMjQ3NjA2NTtqOzE4ODE0OzIwNDg7OTY7OTY"}, "characters": [{"name": "Hotel Manager"}]}, {"person": {"url": "/celebrity/leonard_mudie/", "name": "Leonard Mudie", "thumbnailImg": "https://d2a5cgar23scu2.cloudfront.net/static/images/redesign/actor.default.tmb.gif"}, "characters": [{"name": "Flower Salesman"}]}, {"person": {"url": "/celebrity/gino_corrado/", "name": "Gino Corrado", "thumbnailImg": "https://resizing.flixster.com/7KqIKotog-jBApOlGBhYPmqdGYo=/80x80/v1.cDsxMzUzODUwNztqOzE4ODE4OzIwNDg7MTYwOzE2Mg"}, "characters": [{"name": "Hotel Manager"}]}, {"person": {"url": "/celebrity/peter_hobbes/", "name": "Peter Hobbes", "thumbnailImg": "https://d2a5cgar23scu2.cloudfront.net/static/images/redesign/actor.default.tmb.gif"}, "characters": [{"name": "Call Boy"}]}, {"person": {"url": "/celebrity/frank_mills/", "name": "Frank Mills", "thumbnailImg": "https://resizing.flixster.com/Xr48O56dFZ-Vlkys2RkCwN4TRYU=/80x80/v1.cDsxMzUzODYxMDtqOzE4Nzg2OzIwNDg7MTMwOzEzMA"}, "characters": [{"name": "Lido Waiter"}]}, {"person": {"url": "/celebrity/tom_ricketts/", "name": "Tom Ricketts", "thumbnailImg": "https://d2a5cgar23scu2.cloudfront.net/static/images/redesign/actor.default.tmb.gif"}, "characters": [{"name": "Thackeray Club Waiter"}]}, {"person": {"url": "/celebrity/dennis_okeefe/", "name": "Dennis O'Keefe", "thumbnailImg": "https://resizing.flixster.com/g3Pvwc76WLzy2q68pi0UnHLxYXs=/80x80/v1.cDs5NTU5MDY3O2o7MTg4MTc7MjA0ODs0NjI7MzUz"}, "characters": [{"name": "Elevator Passenger"}]}, {"person": {"url": "/celebrity/ben_holmes/", "name": "Ben Holmes", "thumbnailImg": "https://d2a5cgar23scu2.cloudfront.net/static/images/redesign/actor.default.tmb.gif"}}, {"person": {"url": "/celebrity/nick_thompson/", "name": "Nick Thompson", "thumbnailImg": "https://resizing.flixster.com/jQSz1IiQ4xTaSTbE5owCxwCEjRY=/80x80/v1.cDsxMjI4MzUyNDtqOzE4NzgxOzIwNDg7MjUwOzM0MA"}}, {"person": {"url": "/celebrity/tom_costello_2/", "name": "Tom Costello", "thumbnailImg": "https://d2a5cgar23scu2.cloudfront.net/static/images/redesign/actor.default.tmb.gif"}}, {"person": {"url": "/celebrity/john_impolito/", "name": "John Impolito", "thumbnailImg": "https://d2a5cgar23scu2.cloudfront.net/static/images/redesign/actor.default.tmb.gif"}}, {"person": {"url": "/celebrity/genaro_spagnoli/", "name": "Genaro Spagnoli", "thumbnailImg": "https://d2a5cgar23scu2.cloudfront.net/static/images/redesign/actor.default.tmb.gif"}, "characters": [{"name": "Fisherman"}]}, {"person": {"url": "/celebrity/rita_rozelle/", "name": "Rita Rozelle", "thumbnailImg": "https://d2a5cgar23scu2.cloudfront.net/static/images/redesign/actor.default.tmb.gif"}, "characters": [{"name": "Dancer"}]}, {"person": {"url": "/celebrity/phyllis_coghlan/", "name": "Phyllis Coghlan", "thumbnailImg": "https://d2a5cgar23scu2.cloudfront.net/static/images/redesign/actor.default.tmb.gif"}, "characters": [{"name": "Dancer"}]}, {"person": {"url": "/celebrity/charles_hall/", "name": "Charles Hall", "thumbnailImg": "https://d2a5cgar23scu2.cloudfront.net/static/images/redesign/actor.default.tmb.gif"}}]}, "title": "Top Hat", "adjustedScore": 108.67140258364611, "ratings": {"critics_rating": "Certified Fresh", "audience_score": 91, "dvdReleaseDate": 1124175600000, "critics_score": 100, "theaterReleaseDate": -1083081600000, "audience_rating": "Upright"}, "videoClips": {"mainTrailer": {"hlsUrl": "http://video.internetvideoarchive.net/video.m3u8?cmd=6&publishedid=767&customerid=300120&e=1619087257488&sub=RTO&fmt=11&h=cfabcd6448a65c92965bffc4313b9c0d", "seconds": 1, "minutes": 1, "id": 10901261, "title": "Top Hat", "thumbUrl": "http://content.internetvideoarchive.com/content/photos/8894/767_001.jpg", "mp4Url": "http://video.internetvideoarchive.net/video.mp4?cmd=6&publishedid=767&customerid=300120&e=1619087257488&sub=RTO&fmt=4&videokbrate=750&h=e79b2997d86d264fe91d12a0c30f1018"}, "size": 1, "videoClips": [{"hlsUrl": "http://video.internetvideoarchive.net/video.m3u8?cmd=6&publishedid=767&customerid=300120&e=1619087257488&sub=RTO&fmt=11&h=cfabcd6448a65c92965bffc4313b9c0d", "seconds": 1, "minutes": 1, "id": 10901261, "title": "Top Hat", "thumbUrl": "http://content.internetvideoarchive.com/content/photos/8894/767_001.jpg", "mp4Url": "http://video.internetvideoarchive.net/video.mp4?cmd=6&publishedid=767&customerid=300120&e=1619087257488&sub=RTO&fmt=4&videokbrate=750&h=e79b2997d86d264fe91d12a0c30f1018"}]}, "isUpcoming": false, "posters": {"original": "https://resizing.flixster.com/YoCe7euL8x1KoQUZqi7BU6FCBpY=/1398x1864/v1.bTsxMTIxMTUyMDtqOzE4ODg5OzIwNDg7MTM5ODsxODY0", "detailed": "https://resizing.flixster.com/RTCSG0Og2S1BYFZxVR0WGafVpng=/180x240/v1.bTsxMTIxMTUyMDtqOzE4ODg5OzIwNDg7MTM5ODsxODY0", "profile": "https://resizing.flixster.com/CLEM-BqV9xyqbQqNyzqEl6WQgGc=/120x160/v1.bTsxMTIxMTUyMDtqOzE4ODg5OzIwNDg7MTM5ODsxODY0", "thumbnail": "https://resizing.flixster.com/PS9hiemp95RqF7fItFzcdWlowR8=/54x72/v1.bTsxMTIxMTUyMDtqOzE4ODg5OzIwNDg7MTM5ODsxODY0"}, "isLimited": false, "mainTrailer": {"thumbUrl": "https://content.internetvideoarchive.com/content/photos/8894/767_001.jpg", "hlsUrl": "http://video.internetvideoarchive.net/video.m3u8?cmd=6&publishedid=767&customerid=300120&e=1619087257156&sub=RTO&fmt=11&h=49dbc9fb98c13a092569e7081fbb5acd", "id": 10901261, "mp4Url": "http://video.internetvideoarchive.net/video.mp4?cmd=6&publishedid=767&customerid=300120&e=1619087257156&sub=RTO&fmt=4&videokbrate=750&h=d7c83e049000cafadca26fb7ad8ccb03"}, "photos": {"photos": [{"url": "https://resizing.flixster.com/talPUXVGbEtnE6AM40oNGR9wt48=/556x639/v1.bjsxODUzNjk7ajsxODc4MTsyMDQ4OzU1Njs2Mzk", "index": 0, "submittedBy": "RT Staff", "height": 639, "imageId": 185369, "thumbnail": "https://resizing.flixster.com/X7CiilhQPhdzUZiDLmjzMG8ojl4=/80x80/v1.bjsxODUzNjk7ajsxODc4MTsyMDQ4OzU1Njs2Mzk", "submittedDate": "2014-07-02", "id": "multiuse-185369", "photoType": "movie", "width": 556}, {"url": "https://resizing.flixster.com/XllEbjviITIbHkOV6GICJ-EqFBY=/663x536/v1.bjs3MzQ4MjQ7ajsxODc5MjsyMDQ4OzY2Mzs1MzY", "index": 1, "submittedBy": "RT Staff", "height": 536, "imageId": 734824, "thumbnail": "https://resizing.flixster.com/ZgxVxJacJlDBRMpXG93iyemLy20=/80x80/v1.bjs3MzQ4MjQ7ajsxODc5MjsyMDQ4OzY2Mzs1MzY", "submittedDate": "2015-06-11", "id": "multiuse-734824", "photoType": "movie", "width": 663}, {"url": "https://resizing.flixster.com/cBu1Od5vToh7m3Y97hO9ZC23HA0=/679x523/v1.bjs3MzQ4MjU7ajsxODc5MzsyMDQ4OzY3OTs1MjM", "index": 2, "submittedBy": "RT Staff", "height": 523, "imageId": 734825, "thumbnail": "https://resizing.flixster.com/uSnja8d9rGYXASXSTMiMoU1953Y=/80x80/v1.bjs3MzQ4MjU7ajsxODc5MzsyMDQ4OzY3OTs1MjM", "submittedDate": "2015-06-11", "id": "multiuse-734825", "photoType": "movie", "width": 679}, {"url": "https://resizing.flixster.com/zrzkPKD1gFpoWHq3-alhsy1QkFw=/695x511/v1.bjs3MzQ4MjY7ajsxODc5NDsyMDQ4OzY5NTs1MTE", "index": 3, "submittedBy": "RT Staff", "height": 511, "imageId": 734826, "thumbnail": "https://resizing.flixster.com/wPf7Aomkhyy5i9R50THF1KFekK4=/80x80/v1.bjs3MzQ4MjY7ajsxODc5NDsyMDQ4OzY5NTs1MTE", "submittedDate": "2015-06-11", "id": "multiuse-734826", "photoType": "movie", "width": 695}], "length": 4}, "id": 18352}