{"url": "/m/pinocchio_1940/", "isOnOpening": false, "genreSet": [{"displayName": "Animation", "id": 2}, {"displayName": "Kids & Family", "id": 11}, {"displayName": "Musical & Performing Arts", "id": 12}, {"displayName": "Science Fiction & Fantasy", "id": 14}], "runningTime": 88, "isInTheaters": false, "synopsis": "When the gentle woodcarver Geppetto (Christian Rub) builds a marionette to be his substitute son, a benevolent fairy brings the toy to life. The puppet, named Pinocchio (Dick Jones), is not yet a human boy. He must earn the right to be real by proving that he is brave, truthful, and unselfish. But, even with the help of Jiminy (Cliff Edwards), a cricket who the fairy assigns to be Pinocchio's conscience, the marionette goes astray. He joins a puppet show instead of going to school, he lies instead of telling the truth, and he travels to Pleasure Island instead of going straight home. Yet, when Pinocchio discovers that a whale has swallowed Geppetto, the puppet single-mindedly journeys into the ocean and selflessly risks his life to save his father, thereby displaying that he deserves to be a real boy. Based on a series of stories by 19th century Italian author Carlo Collodi, Pinocchio came under fire for being a sugarcoated version of its original tale, but the film's moral did have a strong educational effect on children. Soon enough, a 16 mm excerpt from the picture, titled \"Pinocchio: A Lesson in Honesty,\" was released for teachers to use in schools. ~ Aubry Anne D'Arminio, Rovi", "links": {"alternate": "//www.rottentomatoes.com/m/pinocchio_1940/"}, "year": 1940, "trackingType": "DvdOther", "status": "Live", "isPlaying": false, "isOnDVD": true, "runningTimeStr": "1 hr. 28 min.", "ratingSummary": {"topcount": 14, "consensus": "Ambitious, adventurous, and sometimes frightening, Pinocchio arguably represents the pinnacle of Disney's collected works -- it's beautifully crafted and emotionally resonant.", "topCritics": {"hasScore": true, "numReviews": 14, "meterClass": "certified", "numRotten": 0, "numFresh": 14, "hasReviews": true, "meterValue": 100, "averageRating": 9.027778}, "audience": {"meterScore": 72, "averageScore": 3.3496365547180176, "numTotal": 279189, "ratingType": "viewed"}, "allcount": 56, "rottencount": 0, "dvdcount": 10, "allCritics": {"hasScore": true, "numReviews": 56, "meterClass": "certified", "numRotten": 0, "numFresh": 56, "hasReviews": true, "meterValue": 100, "averageRating": 9.1}, "freshcount": 56}, "mpaaRating": "G", "vanity": "pinocchio_1940", "studio": "RKO", "purchaseOptions": {"amazon": {"url": "http://www.amazon.com/gp/product/B01MXL054Q/ref=atv_feed_catalog?tag=rottetomao_aiv_mv-20", "isPrime": false, "type": "buy"}, "vudu": {"url": "https://www.vudu.com/content/movies/details/Pinocchio-1940/14650", "type": "buy"}, "iTunes": {"url": "https://itunes.apple.com/movie/pinocchio/id540283464?uo=5", "price": "19.99"}}, "reviews": {"total": 56, "links": {"alternate": "//www.rottentomatoes.com/m/pinocchio_1940/#reviews", "self": "api.flixster.com/movies/pinocchio-walt-disney/reviews.json?review_type=mob&country=us&page=1", "prev": "api.flixster.com/movies/pinocchio-walt-disney/reviews.json?review_type=mob&country=us&page=0", "next": "api.flixster.com/movies/pinocchio-walt-disney/reviews.json?review_type=mob&country=us&page=2"}, "reviews": [{"isRotten": false, "url": "https://www.hollywoodreporter.com/review/pinocchio-review-movie-1940-1278957", "publication": {"url": "", "name": "Hollywood Reporter"}, "isTop": true, "creationDate": 1582656013000, "isFresh": true, "freshness": "fresh", "critic": {"url": "/critic/thr-staff", "name": "THR Staff", "id": 22850, "thumbnailImage": "https://d2a5cgar23scu2.cloudfront.net/static/images/redesign/user.none.tmb.jpg"}, "quote": "Taken as a whole, the picture is a masterpiece which sets another milestone along the road of screen entertainment.", "id": 2672288, "links": {"review": "https://www.hollywoodreporter.com/review/pinocchio-review-movie-1940-1278957"}}, {"isRotten": false, "url": "https://www.theage.com.au/entertainment/movies/top-five-films-best-of-the-big-screen-20180917-h15hqx.html", "publication": {"url": "", "name": "The Age (Australia)"}, "isTop": true, "creationDate": 1537557563000, "isFresh": true, "freshness": "fresh", "critic": {"url": "/critic/jake-wilson", "name": "Jake Wilson", "id": 11017, "thumbnailImage": "https://d2a5cgar23scu2.cloudfront.net/static/images/redesign/user.none.tmb.jpg"}, "quote": "This 1940 Disney adaptation of Carlo Collodi's novel...combin[es] comedy, pathos and nightmare in a free, rapid, genuinely imaginative way. ", "id": 2512384, "links": {"review": "https://www.theage.com.au/entertainment/movies/top-five-films-best-of-the-big-screen-20180917-h15hqx.html"}}, {"isRotten": false, "url": "http://www.nydailynews.com/entertainment/movies/pinocchio-brings-life-famous-fairytale-1940-review-article-1.2521626", "creationDate": 1454809766000, "isFresh": true, "id": 2307383, "quote": "Walt Disney has waved his magic wand over Collodi's world-famous fairy story, \"Pinocchio,\" and presto! he has changed it into the most enchanting film ever brought to the screen.", "links": {"review": "http://www.nydailynews.com/entertainment/movies/pinocchio-brings-life-famous-fairytale-1940-review-article-1.2521626"}, "publication": {"url": "", "name": "New York Daily News"}, "isTop": true, "freshness": "fresh", "critic": {"url": "/critic/kate-cameron", "name": "Kate Cameron", "id": 16588, "thumbnailImage": "https://d2a5cgar23scu2.cloudfront.net/static/images/redesign/user.none.tmb.jpg"}, "original_score": "4/4"}, {"isRotten": false, "url": "http://articles.latimes.com/1992-06-26/entertainment/ca-1183_1_glowing-colors", "publication": {"url": "", "name": "Los Angeles Times"}, "isTop": true, "creationDate": 1384553458000, "isFresh": true, "freshness": "fresh", "critic": {"url": "/critic/charles-solomon", "name": "Charles Solomon", "id": 3016, "thumbnailImage": "https://d2a5cgar23scu2.cloudfront.net/static/images/redesign/user.none.tmb.jpg"}, "quote": "Although it may lack the heart-tugging appeal of Snow White and the Seven Dwarfs, the consensus among animation fans is that 1940's Pinocchio remains the most perfect animated feature Walt Disney produced.", "id": 2174979, "links": {"review": "http://articles.latimes.com/1992-06-26/entertainment/ca-1183_1_glowing-colors"}}, {"isRotten": false, "url": "http://www.decentfilms.com/sections/reviews/pinocchio.html", "creationDate": 1237352569000, "isFresh": true, "id": 1802825, "quote": "In spirit a classical European fairy tale, full of wonder and terror &#8230; a pinnacle of artistic achievement that, after Bambi, classic Disney would never even try to match again.", "links": {"review": "http://www.decentfilms.com/sections/reviews/pinocchio.html"}, "publication": {"name": "Decent Films Guide"}, "isTop": true, "freshness": "fresh", "critic": {"url": "/critic/steven-d-greydanus", "name": "Steven D. Greydanus", "id": 5612, "thumbnailImage": "https://resizing.flixster.com/TpXNeP2Bw4Ci0Knwz0ug2Ok6rWw=/72x72/v1.YzsyODA4O2c7MTg3ODM7MjA0ODsxNTA7MTUw"}, "original_score": "A+"}, {"isRotten": false, "url": "http://www.slantmagazine.com/film/review/pinocchio-4053", "creationDate": 1236695082000, "isFresh": true, "id": 1801400, "quote": "Nope, no perverted subtext here.", "links": {"review": "http://www.slantmagazine.com/film/review/pinocchio-4053"}, "publication": {"url": "", "name": "Slant Magazine"}, "isTop": true, "freshness": "fresh", "critic": {"url": "/critic/eric-henderson", "name": "Eric Henderson", "id": 8098, "thumbnailImage": "https://resizing.flixster.com/UMHmuuSDXVymF1wRhKpqaZZ0Mh8=/72x72/v1.YzsyNjAwO2c7MTg4MDA7MjA0ODsxNTA7MTUw"}, "original_score": "3.5/4"}, {"isRotten": false, "url": "https://archive.org/details/filmdaily77wids/page/n241/mode/2up", "publication": {"url": "", "name": "The Film Daily"}, "isTop": false, "creationDate": 1611711292000, "isFresh": true, "freshness": "fresh", "critic": {"url": "/critic/film-daily-staff", "name": "Film Daily Staff", "id": 27311, "thumbnailImage": "https://d2a5cgar23scu2.cloudfront.net/static/images/redesign/user.none.tmb.jpg"}, "quote": "Walt Disney and his small army of adaptors, animators, and lyric and music writers [have] made the characters of a famous story so captivating and enchanting that the picture is certain to charm children of all ages from 6 to 60 -- and over.", "id": 2759595, "links": {"review": "https://archive.org/details/filmdaily77wids/page/n241/mode/2up"}}, {"isRotten": false, "url": "http://gonewiththetwins.com/new/pinocchio-1940/", "creationDate": 1597396066000, "isFresh": true, "id": 2713415, "quote": "On the technical front, the animation is nothing short of masterful, using elaborate perspective shots that would be unique even in live-action filmmaking.", "links": {"review": "http://gonewiththetwins.com/new/pinocchio-1940/"}, "publication": {"url": "", "name": "Gone With The Twins"}, "isTop": false, "freshness": "fresh", "critic": {"url": "/critic/mike-massie", "name": "Mike Massie", "id": 27168, "thumbnailImage": "https://resizing.flixster.com/cKCY6tR9EskewGPlb8BlnvWesZU=/72x72/v1.YzszNjc3O2o7MTg3OTc7MjA0ODszMDA7MzAw"}, "original_score": "9/10"}, {"isRotten": false, "url": "https://macguff.in/macguffin-content/appreciation-pinocchio/", "publication": {"url": "", "name": "The MacGuffin"}, "isTop": false, "creationDate": 1594493238000, "isFresh": true, "freshness": "fresh", "critic": {"url": "/critic/allen-almachar", "name": "Allen Almachar", "id": 27251, "thumbnailImage": "https://resizing.flixster.com/685wa0E3pM9hb-0fDGyxkU_RFPI=/72x72/v1.YzszNzIzO2o7MTg3OTg7MjA0ODszMDA7MzAw"}, "quote": "Snow White and the Seven Dwarfs may have proven that Walt Disney could make a feature length animated film, but it was Pinocchio that showed the medium reaching high art.", "id": 2703950, "links": {"review": "https://macguff.in/macguffin-content/appreciation-pinocchio/"}}, {"isRotten": false, "url": "https://voices.revealdigital.org/?a=d&d=JDJAJHJJF19790201.1.22&e=-------en-20-JDJAJHJJF-1--txt-txIN---------------1", "publication": {"url": "", "name": "Philadelphia Gay News"}, "isTop": false, "creationDate": 1590599734000, "isFresh": true, "freshness": "fresh", "critic": {"url": "/critic/larry-vitacco", "name": "Larry Vitacco", "id": 27088, "thumbnailImage": "https://d2a5cgar23scu2.cloudfront.net/static/images/redesign/user.none.tmb.jpg"}, "quote": "The animation is, of course, superb, finely detailed and masterful in execution -- the Monstro whale sequence a standout.", "id": 2692519, "links": {"review": "https://voices.revealdigital.org/?a=d&d=JDJAJHJJF19790201.1.22&e=-------en-20-JDJAJHJJF-1--txt-txIN---------------1"}}, {"isRotten": false, "url": "http://www.filmsite.org/pino.html", "creationDate": 1569781247000, "isFresh": true, "id": 2630807, "quote": "Pinocchio (1940), Disney's second feature-length animated film followed after the success of Snow White and the Seven Dwarfs (1937), and was produced during Disney's heyday from 1937-1942 of animated classics...", "links": {"review": "http://www.filmsite.org/pino.html"}, "publication": {"url": "", "name": "Filmsite"}, "isTop": false, "freshness": "fresh", "critic": {"url": "/critic/tim-dirks", "name": "Tim Dirks", "id": 2, "thumbnailImage": "https://resizing.flixster.com/YLKhCBtohLWHB76z-5jiFMLQG1M=/72x72/v1.YzszNDY1O2o7MTg3NjU7MjA0ODs4NDA7OTE5"}, "original_score": "A+"}, {"isRotten": false, "url": "https://archive.org/details/cinemundial25unse/page/174", "publication": {"url": "", "name": "Cine-Mundial"}, "isTop": false, "creationDate": 1568145509000, "isFresh": true, "freshness": "fresh", "critic": {"url": "/critic/elena-de-la-torre", "name": "Elena de la Torre", "id": 25790, "thumbnailImage": "https://d2a5cgar23scu2.cloudfront.net/static/images/redesign/user.none.tmb.jpg"}, "quote": "The story... is delightful, entertaining, and moving. [Full Review in Spanish]", "id": 2624242, "links": {"review": "https://archive.org/details/cinemundial25unse/page/174"}}]}, "casts": {"screenwriters": [{"url": "/celebrity/william_cottrell/", "name": "William Cottrell", "thumbnailImg": "https://d2a5cgar23scu2.cloudfront.net/static/images/redesign/actor.default.tmb.gif"}, {"url": "/celebrity/ted_sears/", "name": "Ted Sears", "thumbnailImg": "https://d2a5cgar23scu2.cloudfront.net/static/images/redesign/actor.default.tmb.gif"}, {"url": "/celebrity/otto_englander/", "name": "Otto Englander", "thumbnailImg": "https://d2a5cgar23scu2.cloudfront.net/static/images/redesign/actor.default.tmb.gif"}, {"url": "/celebrity/erdman_penner/", "name": "Erdman Penner", "thumbnailImg": "https://d2a5cgar23scu2.cloudfront.net/static/images/redesign/actor.default.tmb.gif"}, {"url": "/celebrity/joseph_sabo/", "name": "Joseph Sabo", "thumbnailImg": "https://d2a5cgar23scu2.cloudfront.net/static/images/redesign/actor.default.tmb.gif"}, {"url": "/celebrity/aurelius_battaglia/", "name": "Aurelius Battaglia", "thumbnailImg": "https://d2a5cgar23scu2.cloudfront.net/static/images/redesign/actor.default.tmb.gif"}, {"url": "/celebrity/webb_smith_2/", "name": "Webb Smith", "thumbnailImg": "https://d2a5cgar23scu2.cloudfront.net/static/images/redesign/actor.default.tmb.gif"}], "directors": [{"url": "/celebrity/hamilton_luske/", "name": "Hamilton Luske", "thumbnailImg": "https://resizing.flixster.com/s-rOiI4dbZyPOqJAbfxDXMEy-U0=/80x80/v1.cDsxMTAzNzc2ODtqOzE4ODgwOzIwNDg7NjA7NjA"}, {"url": "/celebrity/ben_sharpsteen/", "name": "Ben Sharpsteen", "thumbnailImg": "https://resizing.flixster.com/VVs-fpKY3t0ixENgsidAHtjnixs=/80x80/v1.cDsxMTAzMDY5OTtqOzE4ODc2OzIwNDg7NDUwOzMyOA"}, {"url": "/celebrity/norman_ferguson/", "name": "Norman Ferguson", "thumbnailImg": "https://d2a5cgar23scu2.cloudfront.net/static/images/redesign/actor.default.tmb.gif"}, {"url": "/celebrity/bill_roberts/", "name": "Bill Roberts", "thumbnailImg": "https://d2a5cgar23scu2.cloudfront.net/static/images/redesign/actor.default.tmb.gif"}, {"url": "/celebrity/t_hee/", "name": "T. Hee", "thumbnailImg": "https://d2a5cgar23scu2.cloudfront.net/static/images/redesign/actor.default.tmb.gif"}, {"url": "/celebrity/wilfred_jackson/", "name": "Wilfred Jackson", "thumbnailImg": "https://resizing.flixster.com/Cp8MRI4NpzvGR5fUhu2ugdcKzDM=/80x80/v1.cDsxMTA2MzcyMDtqOzE4ODY4OzIwNDg7NjQwOzQ3OA"}, {"url": "/celebrity/jack_kinney/", "name": "Jack Kinney", "thumbnailImg": "https://d2a5cgar23scu2.cloudfront.net/static/images/redesign/actor.default.tmb.gif"}, {"url": "/celebrity/walt_disney/", "name": "Walt Disney", "thumbnailImg": "https://resizing.flixster.com/LSoN_IPA17uTor-mQWNn8QNL0pI=/80x80/v1.cjs0MjI0MDtqOzE4Nzk1OzIwNDg7NDUwOzU5OQ"}], "creators": [], "producers": [{"url": "/celebrity/walt_disney/", "name": "Walt Disney", "thumbnailImg": "https://resizing.flixster.com/LSoN_IPA17uTor-mQWNn8QNL0pI=/80x80/v1.cjs0MjI0MDtqOzE4Nzk1OzIwNDg7NDUwOzU5OQ"}], "castItems": [{"person": {"url": "/celebrity/dickie_jones/", "name": "Dickie Jones", "thumbnailImg": "https://resizing.flixster.com/7fDicFLfpTtOdP-DJ5RwkG1MrKA=/80x80/v1.cDsxMjM2NDM4NDtqOzE4Nzc3OzIwNDg7MjQyOzM0MA"}, "characters": [{"name": "Pinocchio"}]}, {"person": {"url": "/celebrity/dick_jones/", "name": "Dick Jones", "thumbnailImg": "https://resizing.flixster.com/xRE-a-X2ezahRXMLhPpM6evqfww=/80x80/v1.cDsxMzgyMjQ3MztqOzE4NzkyOzIwNDg7NzEzOzUwMA"}, "characters": [{"name": "Pinocchio"}]}, {"person": {"url": "/celebrity/christian_rub/", "name": "Christian Rub", "thumbnailImg": "https://resizing.flixster.com/y845PvIqKOuRMlzyiTbPxV5uTY0=/80x80/v1.cDsxMTk2MTY0MDtqOzE4Nzc4OzIwNDg7MTUwOzE5Mw"}, "characters": [{"name": "Geppetto"}]}, {"person": {"url": "/celebrity/cliff_edwards/", "name": "Cliff Edwards", "thumbnailImg": "https://resizing.flixster.com/5673-7DlqEZnBu3mviao2lB9Chg=/80x80/v1.cDsxMTAzNjAzNztqOzE4ODU5OzIwNDg7MjYwOzI1NQ"}, "characters": [{"name": "Jiminy Cricket"}]}, {"person": {"url": "/celebrity/evelyn_venable/", "name": "Evelyn Venable", "thumbnailImg": "https://resizing.flixster.com/FnWC3hgBBwJmEsKX1I5LZz_jL7s=/80x80/v1.cDs5ODMzOTc2O2o7MTg4MjQ7MjA0ODs0NjI7NDYy"}, "characters": [{"name": "The Blue Fairy"}]}, {"person": {"url": "/celebrity/mel_blanc/", "name": "Mel Blanc", "thumbnailImg": "https://resizing.flixster.com/IHk8DbAc-Q_PnCQkuW8GxvEyOOY=/80x80/v1.cDsxMTkzNTQ1MjtqOzE4NzgwOzIwNDg7MzEzOzQwMA"}, "characters": [{"name": "Gideon"}]}, {"person": {"url": "/celebrity/walter_catlett/", "name": "Walter Catlett", "thumbnailImg": "https://resizing.flixster.com/H2tLScidOI00-Z6vVOXuVWsXKP8=/80x80/v1.cDsxMTYwNTM1NDtqOzE4ODg4OzIwNDg7MjAwOzI5NA"}, "characters": [{"name": "J. Worthington Foufellow"}]}, {"person": {"url": "/celebrity/frankie_darro/", "name": "Frankie Darro", "thumbnailImg": "https://resizing.flixster.com/_YvvbRT4XcwDxvKQlsqupvuUvVs=/80x80/v1.cDsxMTA1MTYwODtqOzE4ODYwOzIwNDg7MjE1OzMwMA"}, "characters": [{"name": "Lampwick"}]}, {"person": {"url": "/celebrity/charles_judels/", "name": "Charles Judels", "thumbnailImg": "https://resizing.flixster.com/kIXvTFm-a837XqkQWoeMtj7HmuE=/80x80/v1.cDsxMTk2OTk3OTtqOzE4NzkyOzIwNDg7MTUwOzE1MA"}, "characters": [{"name": "Stromboli the coachman"}]}, {"person": {"url": "/celebrity/don_brodie/", "name": "Don Brodie", "thumbnailImg": "https://resizing.flixster.com/svEbO3CnciH51p935nbkio7jMnM=/80x80/v1.cDsxMjY3NzM5MTtqOzE4ODEyOzIwNDg7MjIwOzE2NQ"}, "characters": [{"name": "Barker"}]}]}, "title": "Pinocchio", "adjustedScore": 107.49012265195046, "ratings": {"critics_rating": "Certified Fresh", "audience_score": 72, "dvdReleaseDate": 1236668400000, "critics_score": 100, "theaterReleaseDate": -943545600000, "audience_rating": "Upright"}, "videoClips": {"mainTrailer": {"hlsUrl": "http://video.internetvideoarchive.net/video.m3u8?cmd=6&publishedid=http://link.theplatform.com/s/NGweTC/media/LIeH0fu5ygnb&customerid=300120&e=1619087261497&sub=RTO&fmt=11&h=dd7d2e3c23b0aea4dbc8a0e467ea7bdd", "seconds": 5, "minutes": 1, "id": 11312346, "title": "Pinocchio: Trailer 1", "thumbUrl": "http://resizing.flixster.com/JsghD6uJ2yMq62hnX45lZy_9c3Q=/171x128/v1.bjsyMjgxMTk1O2o7MTg3OTE7MjA0ODsxMDgwOzE5MjA", "mp4Url": "http://video.internetvideoarchive.net/video.mp4?cmd=6&publishedid=http://link.theplatform.com/s/NGweTC/media/LIeH0fu5ygnb&customerid=300120&e=1619087261497&sub=RTO&fmt=4&videokbrate=750&h=8f99e8681087fc4b32e612886e2c1513"}, "size": 1, "videoClips": [{"hlsUrl": "http://video.internetvideoarchive.net/video.m3u8?cmd=6&publishedid=http://link.theplatform.com/s/NGweTC/media/LIeH0fu5ygnb&customerid=300120&e=1619087261497&sub=RTO&fmt=11&h=dd7d2e3c23b0aea4dbc8a0e467ea7bdd", "seconds": 5, "minutes": 1, "id": 11312346, "title": "Pinocchio: Trailer 1", "thumbUrl": "http://resizing.flixster.com/JsghD6uJ2yMq62hnX45lZy_9c3Q=/171x128/v1.bjsyMjgxMTk1O2o7MTg3OTE7MjA0ODsxMDgwOzE5MjA", "mp4Url": "http://video.internetvideoarchive.net/video.mp4?cmd=6&publishedid=http://link.theplatform.com/s/NGweTC/media/LIeH0fu5ygnb&customerid=300120&e=1619087261497&sub=RTO&fmt=4&videokbrate=750&h=8f99e8681087fc4b32e612886e2c1513"}]}, "isUpcoming": false, "posters": {"original": "https://resizing.flixster.com/SePTmSOXWEuq90IH2H90Rh3mWsc=/999x1332/v1.bTsxMTIxMzQ2NztqOzE4ODU2OzIwNDg7OTk5OzEzMzI", "detailed": "https://resizing.flixster.com/AxHrMHq_10255nDiZbUeFhc8Q0k=/180x240/v1.bTsxMTIxMzQ2NztqOzE4ODU2OzIwNDg7OTk5OzEzMzI", "profile": "https://resizing.flixster.com/Sqfuhn1F4oul7_ZtEAzK6lGLzKY=/120x160/v1.bTsxMTIxMzQ2NztqOzE4ODU2OzIwNDg7OTk5OzEzMzI", "thumbnail": "https://resizing.flixster.com/tLzo26cY1QeCrT3IRCDvhiGFQQM=/54x72/v1.bTsxMTIxMzQ2NztqOzE4ODU2OzIwNDg7OTk5OzEzMzI"}, "isLimited": false, "mainTrailer": {"thumbUrl": "https://resizing.flixster.com/JsghD6uJ2yMq62hnX45lZy_9c3Q=/171x128/v1.bjsyMjgxMTk1O2o7MTg3OTE7MjA0ODsxMDgwOzE5MjA", "hlsUrl": "http://video.internetvideoarchive.net/video.m3u8?cmd=6&publishedid=http://link.theplatform.com/s/NGweTC/media/LIeH0fu5ygnb&customerid=300120&e=1619087261089&sub=RTO&fmt=11&h=fd99b318279e1ea6a10a0899f3158334", "id": 11312346, "mp4Url": "http://video.internetvideoarchive.net/video.mp4?cmd=6&publishedid=http://link.theplatform.com/s/NGweTC/media/LIeH0fu5ygnb&customerid=300120&e=1619087261089&sub=RTO&fmt=4&videokbrate=750&h=650e192b5a4bcd23b6228bc44ca2974b"}, "photos": {"photos": [{"url": "https://resizing.flixster.com/2LTq0BWQXjSsGrciG_dxU3-3ZVs=/1024x768/v1.bjsyMDI4NzY7ajsxODc4MzsyMDQ4OzIwMzg7MTUyOA", "index": 0, "submittedBy": "RT Staff", "height": 768, "imageId": 202876, "thumbnail": "https://resizing.flixster.com/k0SA5IWMXeLAe6-G6mqsapx_rd0=/80x80/v1.bjsyMDI4NzY7ajsxODc4MzsyMDQ4OzIwMzg7MTUyOA", "submittedDate": "2014-07-02", "id": "multiuse-202876", "photoType": "movie", "width": 1024}, {"url": "https://resizing.flixster.com/KmYBwy3QiPfL1cpLIY05uSWjuEA=/1024x768/v1.bjsyMDI4Nzc7ajsxODc4NDsyMDQ4OzIwNDg7MTUzNg", "index": 1, "submittedBy": "RT Staff", "height": 768, "imageId": 202877, "thumbnail": "https://resizing.flixster.com/No0TPjigvpuY9j89QT0ysVHdxjk=/80x80/v1.bjsyMDI4Nzc7ajsxODc4NDsyMDQ4OzIwNDg7MTUzNg", "submittedDate": "2014-07-02", "id": "multiuse-202877", "photoType": "movie", "width": 1024}, {"url": "https://resizing.flixster.com/05sTeDAqrAFB1XJayBmDopxxwnI=/1024x768/v1.bjsyMDI4Nzg7ajsxODc4NTsyMDQ4OzIwNDg7MTUzNg", "index": 2, "submittedBy": "RT Staff", "height": 768, "imageId": 202878, "thumbnail": "https://resizing.flixster.com/Vyua_WZHlnqLxWrTzVbgpDOCC3g=/80x80/v1.bjsyMDI4Nzg7ajsxODc4NTsyMDQ4OzIwNDg7MTUzNg", "submittedDate": "2014-07-02", "id": "multiuse-202878", "photoType": "movie", "width": 1024}, {"url": "https://resizing.flixster.com/h2IT7WGzYxuhJNbSakSKI-7njG0=/1024x768/v1.bjsyMDI4Nzk7ajsxODc4NjsyMDQ4OzIwNDg7MTUzNg", "index": 3, "submittedBy": "RT Staff", "height": 768, "imageId": 202879, "thumbnail": "https://resizing.flixster.com/qvzyQMgsK2d2QDew0vj3UV6Jrgo=/80x80/v1.bjsyMDI4Nzk7ajsxODc4NjsyMDQ4OzIwNDg7MTUzNg", "submittedDate": "2014-07-02", "id": "multiuse-202879", "photoType": "movie", "width": 1024}, {"url": "https://resizing.flixster.com/4E4nYVCxDLkOZ8eXtv7e8x4EIis=/1024x768/v1.bjsyMDI4ODA7ajsxODc4NzsyMDQ4OzIwNDg7MTUzNg", "index": 4, "submittedBy": "RT Staff", "height": 768, "imageId": 202880, "thumbnail": "https://resizing.flixster.com/-9iW4yqmA0uPmVaX38gbByAndqY=/80x80/v1.bjsyMDI4ODA7ajsxODc4NzsyMDQ4OzIwNDg7MTUzNg", "submittedDate": "2014-07-02", "id": "multiuse-202880", "photoType": "movie", "width": 1024}, {"url": "https://resizing.flixster.com/MSTkvpwQncjkdWqch92M8xkxr_0=/1024x768/v1.bjsyMDI4ODE7ajsxODc4ODsyMDQ4OzE4Nzg7MTQwOA", "index": 5, "submittedBy": "RT Staff", "height": 768, "imageId": 202881, "thumbnail": "https://resizing.flixster.com/fHC-wid54UrK3H5dw8BHyhp9uO8=/80x80/v1.bjsyMDI4ODE7ajsxODc4ODsyMDQ4OzE4Nzg7MTQwOA", "submittedDate": "2014-07-02", "id": "multiuse-202881", "photoType": "movie", "width": 1024}, {"url": "https://resizing.flixster.com/Q8PgG6Ou-Ph15UreQCrWh7k0ZAI=/1024x768/v1.bjsyMDI4ODI7ajsxODc4OTsyMDQ4OzE4MTA7MTM1Nw", "index": 6, "submittedBy": "RT Staff", "height": 768, "imageId": 202882, "thumbnail": "https://resizing.flixster.com/v4b1wj3hxBLgilfsZj8INLkrzcw=/80x80/v1.bjsyMDI4ODI7ajsxODc4OTsyMDQ4OzE4MTA7MTM1Nw", "submittedDate": "2014-07-02", "id": "multiuse-202882", "photoType": "movie", "width": 1024}, {"url": "https://resizing.flixster.com/1B_4S4h48Qi9xu7ZKDjTl87cQDM=/1024x703/v1.bjsyMDI4ODM7ajsxODc5MDsyMDQ4OzIwNDg7MTQwNQ", "index": 7, "submittedBy": "RT Staff", "height": 703, "imageId": 202883, "thumbnail": "https://resizing.flixster.com/On8fqYw-zwMEW15pTcr1uYPMDhw=/80x80/v1.bjsyMDI4ODM7ajsxODc5MDsyMDQ4OzIwNDg7MTQwNQ", "submittedDate": "2014-07-02", "id": "multiuse-202883", "photoType": "movie", "width": 1024}], "length": 8}, "id": 22471}