{"url": "/m/hamilton_2020/", "isOnOpening": false, "genreSet": [{"displayName": "Musical & Performing Arts", "id": 12}], "officialUrl": "", "isInTheaters": false, "synopsis": "An unforgettable cinematic stage performance, the filmed version of the original Broadway production of \"Hamilton\" combines the best elements of live theater, film and streaming to bring the cultural phenomenon to homes around the world for a thrilling, once-in-a-lifetime experience.", "links": {"alternate": "//www.rottentomatoes.com/m/hamilton_2020/"}, "year": 2020, "trackingType": "DvdOther", "status": "Live", "isPlaying": false, "isOnDVD": true, "runningTimeStr": "2 hr. 40 min.", "ratingSummary": {"topcount": 49, "consensus": "Look around, look around at how beautifully Hamilton shines beyond Broadway - and at how marvelously Thomas Kail captures the stage show's infectious energy.", "topCritics": {"hasScore": true, "numReviews": 49, "meterClass": "certified", "numRotten": 0, "numFresh": 49, "hasReviews": true, "meterValue": 100, "averageRating": 9.21875}, "audience": {"meterScore": 100, "averageScore": 5, "numTotal": 3, "ratingType": "viewed"}, "allcount": 198, "rottencount": 4, "dvdcount": 0, "allCritics": {"hasScore": true, "numReviews": 198, "meterClass": "certified", "numRotten": 4, "numFresh": 194, "hasReviews": true, "meterValue": 98, "averageRating": 9.14}, "freshcount": 194}, "mpaaRating": "PG-13", "vanity": "hamilton_2020", "photos": {"photos": [{"url": "https://resizing.flixster.com/o1czA-2JDWFFHZ_nr7kIL7TEShs=/720x405/v1.bjsyNTQwOTg2O2o7MTg4NTU7MjA0ODs3MjA7NDA1", "index": 0, "submittedBy": "RT Staff", "height": 405, "imageId": 2540986, "thumbnail": "https://resizing.flixster.com/08ABsPdJhQELAZdJ8wKSkgkdx14=/80x80/v1.bjsyNTQwOTg2O2o7MTg4NTU7MjA0ODs3MjA7NDA1", "submittedDate": "2020-06-22", "id": "multiuse-2540986", "photoType": "movie", "width": 720}, {"url": "https://resizing.flixster.com/tYlYR2_RhrHRqK5Hd-kDSdP__ws=/1024x576/v1.bjsyNTQwOTg3O2o7MTg4NTY7MjA0ODsxOTIwOzEwODA", "index": 1, "submittedBy": "RT Staff", "height": 576, "imageId": 2540987, "thumbnail": "https://resizing.flixster.com/zWBl4SVqRz1d-Qt01aJmQzJ76us=/80x80/v1.bjsyNTQwOTg3O2o7MTg4NTY7MjA0ODsxOTIwOzEwODA", "submittedDate": "2020-06-22", "id": "multiuse-2540987", "photoType": "movie", "width": 1024}, {"url": "https://resizing.flixster.com/xtWUfXcFJwXr5bLizsW0R5V6yZs=/1024x576/v1.bjsyNTQwOTg4O2o7MTg4NTc7MjA0ODsxOTIwOzEwODA", "index": 2, "submittedBy": "RT Staff", "height": 576, "imageId": 2540988, "thumbnail": "https://resizing.flixster.com/3n3t2-j9s_vL7Qqe20Su4hzXJjU=/80x80/v1.bjsyNTQwOTg4O2o7MTg4NTc7MjA0ODsxOTIwOzEwODA", "submittedDate": "2020-06-22", "id": "multiuse-2540988", "photoType": "movie", "width": 1024}, {"url": "https://resizing.flixster.com/5nYR4ChwsoMitqBvCDEyHs_q6mE=/1024x576/v1.bjsyNTQwOTg5O2o7MTg4NTg7MjA0ODszODQwOzIxNjA", "index": 3, "submittedBy": "RT Staff", "height": 576, "imageId": 2540989, "thumbnail": "https://resizing.flixster.com/-M4DFo89iDfMDsZfPHXxfcZ_iuI=/80x80/v1.bjsyNTQwOTg5O2o7MTg4NTg7MjA0ODszODQwOzIxNjA", "submittedDate": "2020-06-22", "id": "multiuse-2540989", "photoType": "movie", "width": 1024}, {"url": "https://resizing.flixster.com/QB5q0oGHpVpy013zyqsrKC1n8hM=/1024x576/v1.bjsyNTQwOTkwO2o7MTg4NTk7MjA0ODszODQwOzIxNjA", "index": 4, "submittedBy": "RT Staff", "height": 576, "imageId": 2540990, "thumbnail": "https://resizing.flixster.com/mjzNP6s_wvoi06WN3JyH3xOHeK4=/80x80/v1.bjsyNTQwOTkwO2o7MTg4NTk7MjA0ODszODQwOzIxNjA", "submittedDate": "2020-06-22", "id": "multiuse-2540990", "photoType": "movie", "width": 1024}, {"url": "https://resizing.flixster.com/_Q8ehK3e3C5KukrGInUb2VWnZJM=/1024x576/v1.bjsyNTQwOTkxO2o7MTg4NjA7MjA0ODszODQwOzIxNjA", "index": 5, "submittedBy": "RT Staff", "height": 576, "imageId": 2540991, "thumbnail": "https://resizing.flixster.com/4zvOVBTebZTTEI9WD3EBtJZFR1c=/80x80/v1.bjsyNTQwOTkxO2o7MTg4NjA7MjA0ODszODQwOzIxNjA", "submittedDate": "2020-06-22", "id": "multiuse-2540991", "photoType": "movie", "width": 1024}, {"url": "https://resizing.flixster.com/wkqvFiRmMAV-m0tj2zyayg9QawI=/1024x576/v1.bjsyNTQwOTkzO2o7MTg4NjI7MjA0ODszODQwOzIxNjA", "index": 6, "submittedBy": "RT Staff", "height": 576, "imageId": 2540993, "thumbnail": "https://resizing.flixster.com/LWpXRQqpzjS80w4JE2HPceZALp8=/80x80/v1.bjsyNTQwOTkzO2o7MTg4NjI7MjA0ODszODQwOzIxNjA", "submittedDate": "2020-06-22", "id": "multiuse-2540993", "photoType": "movie", "width": 1024}, {"url": "https://resizing.flixster.com/bcyl2yo5T7flEwCgcfdjvHviUdU=/1024x576/v1.bjsyNTU5OTczO2o7MTg4NTI7MjA0ODsxODA4OzEwMTc", "index": 7, "submittedBy": "RT Staff", "height": 576, "imageId": 2559973, "thumbnail": "https://resizing.flixster.com/SHIJ9rngPcKxJgWxSHLjmqLEb2w=/80x80/v1.bjsyNTU5OTczO2o7MTg4NTI7MjA0ODsxODA4OzEwMTc", "submittedDate": "2020-07-28", "id": "multiuse-2559973", "photoType": "movie", "width": 1024}, {"url": "https://resizing.flixster.com/7ZI1iet0bN8qlvV--VRuIUMYa70=/1024x576/v1.bjsyNTQ1NjMxO2o7MTg4NjU7MjA0ODsyODAwOzE1NzU", "index": 8, "submittedBy": "RT Staff", "height": 576, "imageId": 2545631, "thumbnail": "https://resizing.flixster.com/kSgcSeeLpXG1ZcrpZYt79-flaCQ=/80x80/v1.bjsyNTQ1NjMxO2o7MTg4NjU7MjA0ODsyODAwOzE1NzU", "submittedDate": "2020-07-04", "id": "multiuse-2545631", "photoType": "movie", "width": 1024}, {"url": "https://resizing.flixster.com/wuemUsP9hOzzsB66nGn93wl3AZA=/1024x576/v1.bjsyNTQwOTkyO2o7MTg4NjE7MjA0ODszODQwOzIxNjA", "index": 9, "submittedBy": "RT Staff", "height": 576, "imageId": 2540992, "thumbnail": "https://resizing.flixster.com/IScin_md9BfNFwgY3Xp1EZlVp8Y=/80x80/v1.bjsyNTQwOTkyO2o7MTg4NjE7MjA0ODszODQwOzIxNjA", "submittedDate": "2020-06-22", "id": "multiuse-2540992", "photoType": "movie", "width": 1024}], "length": 10}, "runningTime": 160, "purchaseOptions": {}, "reviews": {"total": 198, "links": {"alternate": "//www.rottentomatoes.com/m/hamilton_2020/#reviews", "self": "api.flixster.com/movies/hamilton-2020/reviews.json?review_type=mob&country=us&page=1", "prev": "api.flixster.com/movies/hamilton-2020/reviews.json?review_type=mob&country=us&page=0", "next": "api.flixster.com/movies/hamilton-2020/reviews.json?review_type=mob&country=us&page=2"}, "reviews": [{"isRotten": false, "url": "https://ew.com/movies/the-hamilton-movie-review/", "creationDate": 1611688088000, "isFresh": true, "id": 2759393, "quote": "On film, Hamilton feels every bit as fresh, invigorating, intoxicating, and revolutionary as it did when it premiered five years ago.", "links": {"review": "https://ew.com/movies/the-hamilton-movie-review/"}, "publication": {"url": "", "name": "Entertainment Weekly"}, "isTop": true, "freshness": "fresh", "critic": {"url": "/critic/maureen-lee-lenker", "name": "Maureen Lee Lenker", "id": 20060, "thumbnailImage": "https://d2a5cgar23scu2.cloudfront.net/static/images/redesign/user.none.tmb.jpg"}, "original_score": "A"}, {"isRotten": false, "url": "https://nowtoronto.com/movies/best-movies-2020", "publication": {"url": "", "name": "NOW Toronto"}, "isTop": true, "creationDate": 1607448619000, "isFresh": true, "freshness": "fresh", "critic": {"url": "/critic/radheyan-simonpillai", "name": "Radheyan Simonpillai", "id": 13336, "thumbnailImage": "https://resizing.flixster.com/iyHBKONiF8qNoDgcHj0SoyjdcSo=/72x72/v1.YzsxODIwO2c7MTg3ODU7MjA0ODszODs0Mg"}, "quote": "In a single song, Renee Elise Goldsberry shows off a range between Monica's vocals and Lauryn Hill's rhyme skills. Goldsberry drops the most exhilarating performance I've seen all year.", "id": 2749487, "links": {"review": "https://nowtoronto.com/movies/best-movies-2020"}}, {"isRotten": false, "url": "https://www.telegraph.co.uk/films/0/hamilton-musical-disney-plus-review-cast-lin-manuel-miranda/", "creationDate": 1606066982000, "isFresh": true, "id": 2744697, "quote": "The dramatic themes here are big and eternal, and the way history played them out gives them a powerful thump.", "links": {"review": "https://www.telegraph.co.uk/films/0/hamilton-musical-disney-plus-review-cast-lin-manuel-miranda/"}, "publication": {"url": "", "name": "Daily Telegraph (UK)"}, "isTop": true, "freshness": "fresh", "critic": {"url": "/critic/chris-harvey", "name": "Chris Harvey", "id": 16820, "thumbnailImage": "https://d2a5cgar23scu2.cloudfront.net/static/images/redesign/user.none.tmb.jpg"}, "original_score": "5/5"}, {"isRotten": false, "url": "https://www.smh.com.au/culture/tv-and-radio/an-unrecognisable-beast-1980s-classic-valley-girl-gets-a-reboot-20200716-p55cqj.html", "publication": {"url": "", "name": "Sydney Morning Herald"}, "isTop": true, "creationDate": 1594928299000, "isFresh": true, "freshness": "fresh", "critic": {"url": "/critic/brad-newsome", "name": "Brad Newsome", "id": 18748, "thumbnailImage": "https://d2a5cgar23scu2.cloudfront.net/static/images/redesign/user.none.tmb.jpg"}, "quote": "Believe the hype. Lin-Manuel Miranda's hip-hop musical about the life of American founding father Alexander Hamilton is a huge achievement, and a hugely entertaining piece of work. ", "id": 2705360, "links": {"review": "https://www.smh.com.au/culture/tv-and-radio/an-unrecognisable-beast-1980s-classic-valley-girl-gets-a-reboot-20200716-p55cqj.html"}}, {"isRotten": false, "url": "https://www.theatlantic.com/culture/archive/2020/07/disney-plus-hamilton-2020/613834/", "publication": {"url": "", "name": "The Atlantic"}, "isTop": true, "creationDate": 1594483386000, "isFresh": true, "freshness": "fresh", "critic": {"url": "/critic/david-sims", "name": "David Sims", "id": 15007, "thumbnailImage": "https://resizing.flixster.com/6Bhj4WUTnf27Sk64tP1LdEF-dGg=/72x72/v1.YzsyNjA3O2c7MTg4MDc7MjA0ODsxNTA7MTUw"}, "quote": "The time-capsule quality of Hamilton can serve as a bracing throwback, both for new viewers and returning fans.", "id": 2703916, "links": {"review": "https://www.theatlantic.com/culture/archive/2020/07/disney-plus-hamilton-2020/613834/"}}, {"isRotten": true, "url": "https://film-authority.com/2020/07/06/hamilton-2020-no-award/", "creationDate": 1616432456000, "isFresh": false, "id": 2778535, "quote": "...this neither-fish-nor-fowl version, capturing theatrics not adapted for film, isn't what we need right now...", "links": {"review": "https://film-authority.com/2020/07/06/hamilton-2020-no-award/"}, "publication": {"url": "", "name": "film-authority.com"}, "isTop": false, "freshness": "rotten", "critic": {"url": "/critic/eddie-harrison", "name": "Eddie Harrison", "id": 14356, "thumbnailImage": "https://resizing.flixster.com/SO8KtFkU7o67y9vM13bFvRYUhoo=/72x72/v1.YzszODYzO2o7MTg4MDM7MjA0ODszMDA7MzAw"}, "original_score": "1/5"}, {"isRotten": false, "url": "https://tinyletter.com/30FlirtyFilm/letters/issue-14-america-the-mythic", "publication": {"url": "http://30flirtyfilm.substack.com", "name": "Thirty, Flirty + Film"}, "isTop": false, "creationDate": 1616127039000, "isFresh": true, "freshness": "fresh", "critic": {"url": "/critic/cate-young", "name": "Cate Young", "id": 21036, "thumbnailImage": "https://resizing.flixster.com/ByvUIlXb5rnOg89J3hJzkTqg96s=/72x72/v1.YzszOTE3O2o7MTg3Njc7MjA0ODszNDE3OzM0MTc"}, "quote": "\"One of the benefits of the film is how much additional visual information is added to the experience of the story. The cast album is its own entity.\"", "id": 2777745, "links": {"publication": "http://30flirtyfilm.substack.com", "review": "https://tinyletter.com/30FlirtyFilm/letters/issue-14-america-the-mythic"}}, {"isRotten": false, "url": "https://thefilmfrenzy.com/2021/03/05/film-2020-the-best-worst/", "creationDate": 1615854379000, "isFresh": true, "id": 2776640, "quote": "Musical theater par excellence.", "links": {"review": "https://thefilmfrenzy.com/2021/03/05/film-2020-the-best-worst/"}, "publication": {"url": "", "name": "Film Frenzy"}, "isTop": false, "freshness": "fresh", "critic": {"url": "/critic/matt-brunson", "name": "Matt Brunson", "id": 5777, "thumbnailImage": "https://resizing.flixster.com/sC65Fi_OccWCWRwVukoyOybQHtA=/72x72/v1.YzsxNzI4O2o7MTg3ODM7MjA0ODszODs0Mg"}, "original_score": "3.5/4"}, {"isRotten": false, "url": "https://www.news-herald.com/entertainment/movie-reviews/broadway-s-hamilton-lands-on-disney-with-all-the-power-magic-of-acclaimed-work-intact/article_7cfa6b4c-bbb0-11ea-863a-eba952f462a2.html", "creationDate": 1614530489000, "isFresh": true, "id": 2772025, "quote": "This almost goes without saying because it is so unsurprising: This cinematic representation of Hamilton is, like the work itself, absolutely terrific.", "links": {"review": "https://www.news-herald.com/entertainment/movie-reviews/broadway-s-hamilton-lands-on-disney-with-all-the-power-magic-of-acclaimed-work-intact/article_7cfa6b4c-bbb0-11ea-863a-eba952f462a2.html"}, "publication": {"url": "", "name": "The News-Herald (Willoughby, OH)"}, "isTop": false, "freshness": "fresh", "critic": {"url": "/critic/mark-meszoros", "name": "Mark Meszoros", "id": 25610, "thumbnailImage": "https://resizing.flixster.com/LP-X005EaA9ah8DMOc1swAfSBXI=/72x72/v1.YzszOTAxO2o7MTg3OTY7MjA0ODszMDA7MzAw"}, "original_score": "4/4"}, {"isRotten": false, "url": "https://www.youtube.com/watch?v=Eolsitb9P4U", "publication": {"url": "", "name": "Kristen Maldonado"}, "isTop": false, "creationDate": 1612921112000, "isFresh": true, "freshness": "fresh", "critic": {"url": "/critic/kristen-maldonado", "name": " Kristen Maldonado", "id": 27389, "thumbnailImage": "https://resizing.flixster.com/3cWpN_ko6Z88jepizRO2CtcmoYU=/72x72/v1.YzszNzcxO2o7MTg4MDE7MjA0ODszMDA7MzAw"}, "quote": "Telling the story of America then with a diverse cast representing America now, [Hamilton] really transports you with its incredible visuals and performances. ", "id": 2766173, "links": {"review": "https://www.youtube.com/watch?v=Eolsitb9P4U"}}, {"isRotten": false, "url": "https://www.ctvnews.ca/entertainment/movie-reviews-hamilton-film-doesn-t-need-flashy-cinematic-theatrics-to-bolster-original-show-1.5005361", "creationDate": 1611956729000, "isFresh": true, "id": 2761028, "quote": "Miranda's daring, genre busting show speaks for itself, often with beautiful tongue-twisting wordplay, and doesn't need flashy cinematic theatrics to bolster what is already a provocative and timely story of creating a union where none existed. ", "links": {"review": "https://www.ctvnews.ca/entertainment/movie-reviews-hamilton-film-doesn-t-need-flashy-cinematic-theatrics-to-bolster-original-show-1.5005361"}, "publication": {"url": "", "name": "Richard Crouse"}, "isTop": false, "freshness": "fresh", "critic": {"url": "/critic/richard-crouse", "name": "Richard Crouse", "id": 5921, "thumbnailImage": "https://resizing.flixster.com/ccJ27MfJF5DyTthYpeMJqr02opo=/72x72/v1.YzszODgxO2o7MTg3NzY7MjA0ODszMDA7MzAw"}, "original_score": "4.5/5"}, {"isRotten": false, "url": "https://www.whattowatch.com/reviews/hamilton-review-how-lucky-we-are-be-alive-right-now", "creationDate": 1611709217000, "isFresh": true, "id": 2759588, "quote": "This taping does a remarkable job showcasing the play in a new way-even if you've already seen it on stage.", "links": {"review": "https://www.whattowatch.com/reviews/hamilton-review-how-lucky-we-are-be-alive-right-now"}, "publication": {"url": "", "name": "WhatToWatch"}, "isTop": false, "freshness": "fresh", "critic": {"url": "/critic/amelia-emberwing", "name": "Amelia Emberwing", "id": 19337, "thumbnailImage": "https://resizing.flixster.com/gPiUX0b1Lqlh8S4J2wRFI3-q9ZQ=/72x72/v1.YzszODYxO2o7MTg4MDE7MjA0ODszMDA7MzAw"}, "original_score": "5/5"}]}, "casts": {"screenwriters": [{"url": "/celebrity/ron_chernow/", "name": "Ron Chernow", "thumbnailImg": "https://d2a5cgar23scu2.cloudfront.net/static/images/redesign/actor.default.tmb.gif"}, {"url": "/celebrity/linmanuel_miranda/", "name": "Lin-Manuel Miranda", "thumbnailImg": "https://resizing.flixster.com/I6rhmYJewq0Q26qScI6gG84QYxA=/80x80/v1.cjs0OTM1OTtqOzE4ODA0OzIwNDg7MjExMjsyMjE0"}], "directors": [{"url": "/celebrity/thomas_kail/", "name": "Thomas Kail", "thumbnailImg": "https://d2a5cgar23scu2.cloudfront.net/static/images/redesign/actor.default.tmb.gif"}], "creators": [], "producers": [{"url": "/celebrity/thomas_kail/", "name": "Thomas Kail", "thumbnailImg": "https://d2a5cgar23scu2.cloudfront.net/static/images/redesign/actor.default.tmb.gif"}, {"url": "/celebrity/jeffrey_seller_2/", "name": "Jeffrey Seller", "thumbnailImg": "https://d2a5cgar23scu2.cloudfront.net/static/images/redesign/actor.default.tmb.gif"}, {"url": "/celebrity/chris_rouchard/", "name": "Chris Rouchard", "thumbnailImg": "https://d2a5cgar23scu2.cloudfront.net/static/images/redesign/actor.default.tmb.gif"}], "castItems": [{"person": {"url": "/celebrity/linmanuel_miranda/", "name": "Lin-Manuel Miranda", "thumbnailImg": "https://resizing.flixster.com/I6rhmYJewq0Q26qScI6gG84QYxA=/80x80/v1.cjs0OTM1OTtqOzE4ODA0OzIwNDg7MjExMjsyMjE0"}, "characters": [{"name": "Alexander Hamilton"}]}, {"person": {"url": "/celebrity/phillipa_soo/", "name": "Phillipa Soo", "thumbnailImg": "https://d2a5cgar23scu2.cloudfront.net/static/images/redesign/actor.default.tmb.gif"}, "characters": [{"name": "Eliza Hamilton"}]}, {"person": {"url": "/celebrity/leslie_odom_jr/", "name": "Leslie Odom Jr.", "thumbnailImg": "https://resizing.flixster.com/_4SU9T6vbFurckqvF9Iu0tnAY0c=/80x80/v1.cjs0Mzk2NztqOzE4NzY3OzIwNDg7Mzk1OzM1Mg"}, "characters": [{"name": "Aaron Burr"}]}, {"person": {"url": "/celebrity/renee_elise_goldsberry/", "name": "Ren\u00e9e Elise Goldsberry", "thumbnailImg": "https://resizing.flixster.com/4B03nQnaCo7KsuaC-EJphRwvIbE=/80x80/v1.cjs1MDU5NDtqOzE4Nzc5OzIwNDg7MjU4MzszMjAz"}, "characters": [{"name": "Angelica Schuyler"}]}, {"person": {"url": "/celebrity/chris_jackson_5/", "name": "Chris Jackson", "thumbnailImg": "https://d2a5cgar23scu2.cloudfront.net/static/images/redesign/actor.default.tmb.gif"}, "characters": [{"name": "George Washington"}]}, {"person": {"url": "/celebrity/daveed_diggs/", "name": "Daveed Diggs", "thumbnailImg": "https://resizing.flixster.com/MedAVkYK_aBRNn9iIh4uqw-1Ruk=/80x80/v1.cjs0OTUyODtqOzE4NzkzOzIwNDg7MjEwMDszMDAw"}, "characters": [{"name": "Marquis de Lafayette/Thomas Jefferson"}]}, {"person": {"url": "/celebrity/okieriete_onaodowan/", "name": "Okieriete Onaodowan", "thumbnailImg": "https://d2a5cgar23scu2.cloudfront.net/static/images/redesign/actor.default.tmb.gif"}, "characters": [{"name": "Hercules Mulligan/James Madison"}]}, {"person": {"url": "/celebrity/anthony_ramos_2/", "name": "Anthony Ramos", "thumbnailImg": "https://d2a5cgar23scu2.cloudfront.net/static/images/redesign/actor.default.tmb.gif"}, "characters": [{"name": "John Laurens/Philip Hamilton"}]}, {"person": {"url": "/celebrity/jasmine_cephas_jones/", "name": "Jasmine Cephas Jones", "thumbnailImg": "https://d2a5cgar23scu2.cloudfront.net/static/images/redesign/actor.default.tmb.gif"}, "characters": [{"name": "Peggy Schuyler/Maria Reynolds"}]}, {"person": {"url": "/celebrity/jonathan_groff/", "name": "Jonathan Groff", "thumbnailImg": "https://resizing.flixster.com/ReGdLmeUGZo1AiEhsiuqk91ajw0=/80x80/v1.cjs0NDMyODtqOzE4NzY4OzIwNDg7Mzk1OzM1Mg"}, "characters": [{"name": "King George III"}]}, {"person": {"url": "/celebrity/jon_rua/", "name": "Jon Rua", "thumbnailImg": "https://d2a5cgar23scu2.cloudfront.net/static/images/redesign/actor.default.tmb.gif"}, "characters": [{"name": "Charles Lee / Ensemble"}]}, {"person": {"url": "/celebrity/ephraim_sykes/", "name": "Ephraim Sykes", "thumbnailImg": "https://d2a5cgar23scu2.cloudfront.net/static/images/redesign/actor.default.tmb.gif"}, "characters": [{"name": "George Eacker/Ensemble"}]}, {"person": {"url": "/celebrity/thayne_jasperson/", "name": "Thayne Jasperson", "thumbnailImg": "https://d2a5cgar23scu2.cloudfront.net/static/images/redesign/actor.default.tmb.gif"}, "characters": [{"name": "Samuel Seabury/Ensemble"}]}, {"person": {"url": "/celebrity/sydney_james_harcourt/", "name": "Sydney James Harcourt", "thumbnailImg": "https://d2a5cgar23scu2.cloudfront.net/static/images/redesign/actor.default.tmb.gif"}, "characters": [{"name": "Philip Schuyler/James Reynolds"}]}, {"person": {"url": "/celebrity/carleigh_bettiol/", "name": "Carleigh Bettiol", "thumbnailImg": "https://d2a5cgar23scu2.cloudfront.net/static/images/redesign/actor.default.tmb.gif"}, "characters": [{"name": "Ensemble"}]}, {"person": {"url": "/celebrity/ariana_debose/", "name": "Ariana DeBose", "thumbnailImg": "https://d2a5cgar23scu2.cloudfront.net/static/images/redesign/actor.default.tmb.gif"}, "characters": [{"name": "Ensemble"}]}, {"person": {"url": "/celebrity/sasha_hutchings/", "name": "Sasha Hutchings", "thumbnailImg": "https://d2a5cgar23scu2.cloudfront.net/static/images/redesign/actor.default.tmb.gif"}, "characters": [{"name": "Ensemble"}]}, {"person": {"url": "/celebrity/emmy_raver_lampman/", "name": "Emmy Raver-Lampman", "thumbnailImg": "https://d2a5cgar23scu2.cloudfront.net/static/images/redesign/actor.default.tmb.gif"}, "characters": [{"name": "Ensemble"}]}, {"person": {"url": "/celebrity/seth_stewart/", "name": "Seth Stewart", "thumbnailImg": "https://d2a5cgar23scu2.cloudfront.net/static/images/redesign/actor.default.tmb.gif"}, "characters": [{"name": "Ensemble"}]}]}, "title": "Hamilton", "adjustedScore": 106.35064935064935, "ratings": {"critics_rating": "Certified Fresh", "audience_score": 100, "dvdReleaseDate": 1593759600000, "critics_score": 98, "audience_rating": "Upright"}, "videoClips": {"mainTrailer": {"hlsUrl": "http://video.internetvideoarchive.net/video.m3u8?cmd=6&publishedid=http://link.theplatform.com/s/NGweTC/media/ja_fMumiH4GG&customerid=300120&e=1619087264331&sub=RTO&fmt=11&h=f2877c2f68cbc8b1bdf90a93574d404f", "seconds": 59, "minutes": 0, "id": 11326863, "title": "Hamilton: Trailer 1", "thumbUrl": "http://resizing.flixster.com/f8fyll-MvLRJQ_w9D7bPsfLUKoc=/171x128/v1.bjsyNTQwOTE4O2o7MTg4Mzk7MjA0ODsxMDgwOzE5MjA", "mp4Url": "http://video.internetvideoarchive.net/video.mp4?cmd=6&publishedid=http://link.theplatform.com/s/NGweTC/media/ja_fMumiH4GG&customerid=300120&e=1619087264331&sub=RTO&fmt=4&videokbrate=750&h=a013fee15e245370f6e978a1cff7d5f2"}, "size": 1, "videoClips": [{"hlsUrl": "http://video.internetvideoarchive.net/video.m3u8?cmd=6&publishedid=http://link.theplatform.com/s/NGweTC/media/ja_fMumiH4GG&customerid=300120&e=1619087264331&sub=RTO&fmt=11&h=f2877c2f68cbc8b1bdf90a93574d404f", "seconds": 59, "minutes": 0, "id": 11326863, "title": "Hamilton: Trailer 1", "thumbUrl": "http://resizing.flixster.com/f8fyll-MvLRJQ_w9D7bPsfLUKoc=/171x128/v1.bjsyNTQwOTE4O2o7MTg4Mzk7MjA0ODsxMDgwOzE5MjA", "mp4Url": "http://video.internetvideoarchive.net/video.mp4?cmd=6&publishedid=http://link.theplatform.com/s/NGweTC/media/ja_fMumiH4GG&customerid=300120&e=1619087264331&sub=RTO&fmt=4&videokbrate=750&h=a013fee15e245370f6e978a1cff7d5f2"}]}, "isUpcoming": false, "posters": {"original": "https://resizing.flixster.com/cTG6totRJ4zel1Zt7dZAdN0wuy8=/1688x2500/v1.bTsxMzQyNzYyNztqOzE4ODE3OzIwNDg7MTY4ODsyNTAw", "detailed": "https://resizing.flixster.com/kBXmDbfRxi82EsttjMg6wtiYFY0=/180x267/v1.bTsxMzQyNzYyNztqOzE4ODE3OzIwNDg7MTY4ODsyNTAw", "profile": "https://resizing.flixster.com/VPXoAqNilg7Ubpk6QOFEmWNuriQ=/120x178/v1.bTsxMzQyNzYyNztqOzE4ODE3OzIwNDg7MTY4ODsyNTAw", "thumbnail": "https://resizing.flixster.com/XSvHE5O4sRxySpZwhOyBgGpyDXg=/54x80/v1.bTsxMzQyNzYyNztqOzE4ODE3OzIwNDg7MTY4ODsyNTAw"}, "isLimited": true, "mainTrailer": {"thumbUrl": "https://resizing.flixster.com/f8fyll-MvLRJQ_w9D7bPsfLUKoc=/171x128/v1.bjsyNTQwOTE4O2o7MTg4Mzk7MjA0ODsxMDgwOzE5MjA", "hlsUrl": "http://video.internetvideoarchive.net/video.m3u8?cmd=6&publishedid=http://link.theplatform.com/s/NGweTC/media/ja_fMumiH4GG&customerid=300120&e=1619087263964&sub=RTO&fmt=11&h=a8ecdbb1977cf87287a769e985e6c1cd", "id": 11326863, "mp4Url": "http://video.internetvideoarchive.net/video.mp4?cmd=6&publishedid=http://link.theplatform.com/s/NGweTC/media/ja_fMumiH4GG&customerid=300120&e=1619087263964&sub=RTO&fmt=4&videokbrate=750&h=e4d6a3ae118ceb780c321fbda8d2e3dd"}, "advisory": "for language and some suggestive material", "id": 771521882}