{"url": "/m/1017346-red_shoes/", "isOnOpening": false, "genreSet": [{"displayName": "Drama", "id": 9}, {"displayName": "Romance", "id": 18}, {"displayName": "Musical & Performing Arts", "id": 12}, {"displayName": "Classics", "id": 5}], "officialUrl": "", "isInTheaters": false, "synopsis": "The tale of a famous ballerina who must choose between art and love.", "links": {"alternate": "//www.rottentomatoes.com/m/1017346-red_shoes/"}, "runningTime": 136, "year": 1948, "trackingType": "DvdOther", "status": "Live", "isPlaying": false, "isOnDVD": true, "runningTimeStr": "2 hr. 16 min.", "ratingSummary": {"topcount": 18, "consensus": "The Red Shoes is one of the best-looking movies ever, and blends multiple moods and styles with balletic grace.", "topCritics": {"hasScore": true, "numReviews": 18, "meterClass": "certified", "numRotten": 2, "numFresh": 16, "hasReviews": true, "meterValue": 89, "averageRating": 8.730769}, "audience": {"meterScore": 92, "averageScore": 4.229372501373291, "numTotal": 11722, "ratingType": "viewed"}, "allcount": 60, "rottencount": 2, "dvdcount": 6, "allCritics": {"hasScore": true, "numReviews": 59, "meterClass": "certified", "numRotten": 2, "numFresh": 57, "hasReviews": true, "meterValue": 97, "averageRating": 9.03}, "freshcount": 57}, "mpaaRating": "R", "vanity": "1017346-red_shoes", "photos": {"photos": [{"url": "https://resizing.flixster.com/RR-lKji4kf-lC2PS8DtC4Ih3Whg=/780x439/v1.bjs5MzMzNzM7ajsxODgwMzsyMDQ4Ozc4MDs0Mzk", "index": 0, "submittedBy": "RT Staff", "height": 439, "imageId": 933373, "thumbnail": "https://resizing.flixster.com/1OhNA0gY-9j4OaVCszgLhfdn-Aw=/80x80/v1.bjs5MzMzNzM7ajsxODgwMzsyMDQ4Ozc4MDs0Mzk", "submittedDate": "2015-09-10", "id": "multiuse-933373", "photoType": "movie", "width": 780}, {"url": "https://resizing.flixster.com/fPGh60S8LTixp_63K9gLaT9aYb8=/1024x576/v1.bjs5MzMzNzQ7ajsxODgwNDsyMDQ4OzE5MjA7MTA4MA", "index": 1, "submittedBy": "RT Staff", "height": 576, "imageId": 933374, "thumbnail": "https://resizing.flixster.com/enqY3Gk5TkPPq8Z8l4XBcvJT-bc=/80x80/v1.bjs5MzMzNzQ7ajsxODgwNDsyMDQ4OzE5MjA7MTA4MA", "submittedDate": "2015-09-10", "id": "multiuse-933374", "photoType": "movie", "width": 1024}, {"url": "https://resizing.flixster.com/NdlvAj_pEpaQ7wfGbj6-XT9zzgc=/1024x576/v1.bjs5MzMzNzU7ajsxODgwNTsyMDQ4OzEyODA7NzIw", "index": 2, "submittedBy": "RT Staff", "height": 576, "imageId": 933375, "thumbnail": "https://resizing.flixster.com/rjqaFaZENOfVTobb2IALVx1HFr0=/80x80/v1.bjs5MzMzNzU7ajsxODgwNTsyMDQ4OzEyODA7NzIw", "submittedDate": "2015-09-10", "id": "multiuse-933375", "photoType": "movie", "width": 1024}, {"url": "https://resizing.flixster.com/wbh3zVdVNTYfb0GR_m6RC8BXw7o=/1024x670/v1.bjs5MzQ0MjM7ajsxODgxODsyMDQ4OzM2Njk7MjQwMA", "index": 3, "submittedBy": "RT Staff", "height": 670, "imageId": 934423, "thumbnail": "https://resizing.flixster.com/5OW-uP50-2UqTLsoPjIBaOrQbuI=/80x80/v1.bjs5MzQ0MjM7ajsxODgxODsyMDQ4OzM2Njk7MjQwMA", "submittedDate": "2015-09-14", "id": "multiuse-934423", "photoType": "movie", "width": 1024}, {"url": "https://resizing.flixster.com/hgem_Ezf_W5c3SwogSzvLdrbIMo=/1024x670/v1.bjs5MzYzNjI7ajsxODc3NzsyMDQ4OzM2Njk7MjQwMA", "index": 4, "submittedBy": "RT Staff", "height": 670, "imageId": 936362, "thumbnail": "https://resizing.flixster.com/b2usAI3GTZsIJXxHx4j0B5dHlxo=/80x80/v1.bjs5MzYzNjI7ajsxODc3NzsyMDQ4OzM2Njk7MjQwMA", "submittedDate": "2015-09-16", "id": "multiuse-936362", "photoType": "movie", "width": 1024}, {"url": "https://resizing.flixster.com/tdzf_EwSSUE3TudHE-_seFr0u84=/1024x668/v1.bjs5MzYzNjM7ajsxODc3ODsyMDQ4OzM2Nzg7MjQwMA", "index": 5, "submittedBy": "RT Staff", "height": 668, "imageId": 936363, "thumbnail": "https://resizing.flixster.com/VTJULNphHvmxWo3kP7Scdq3C70A=/80x80/v1.bjs5MzYzNjM7ajsxODc3ODsyMDQ4OzM2Nzg7MjQwMA", "submittedDate": "2015-09-16", "id": "multiuse-936363", "photoType": "movie", "width": 1024}, {"url": "https://resizing.flixster.com/T640PHXqMCM5j72ObklkPlEzpQE=/1024x670/v1.bjs5MzQ0MjQ7ajsxODgxOTsyMDQ4OzM2NjY7MjQwMA", "index": 6, "submittedBy": "RT Staff", "height": 670, "imageId": 934424, "thumbnail": "https://resizing.flixster.com/UGm2_5Kz_RRobmHr7XizqtS1Mgs=/80x80/v1.bjs5MzQ0MjQ7ajsxODgxOTsyMDQ4OzM2NjY7MjQwMA", "submittedDate": "2015-09-14", "id": "multiuse-934424", "photoType": "movie", "width": 1024}, {"url": "https://resizing.flixster.com/704vPa10-gEtL2YI8RNJiXFSb6E=/676x1024/v1.bjs5MzYzNjQ7ajsxODc3OTsyMDQ4OzI0MDA7MzYzNA", "index": 7, "submittedBy": "RT Staff", "height": 1024, "imageId": 936364, "thumbnail": "https://resizing.flixster.com/6lmZS_klRGMzom5waiZ3YRx_OZU=/80x80/v1.bjs5MzYzNjQ7ajsxODc3OTsyMDQ4OzI0MDA7MzYzNA", "submittedDate": "2015-09-16", "id": "multiuse-936364", "photoType": "movie", "width": 676}], "length": 8}, "studio": "Eagle-Lion Films", "purchaseOptions": {"amazon": {"url": "http://www.amazon.com/gp/product/B009B6IL2I/ref=atv_feed_catalog?tag=rottetomao_aiv_mv-20", "isPrime": false, "type": "buy"}, "iTunes": {"url": "https://itunes.apple.com/movie/the-red-shoes/id481497883?uo=5", "price": "14.99"}}, "reviews": {"total": 60, "links": {"alternate": "//www.rottentomatoes.com/m/1017346-red_shoes/#reviews", "self": "api.flixster.com/movies/the-red-shoes/reviews.json?review_type=mob&country=us&page=1", "prev": "api.flixster.com/movies/the-red-shoes/reviews.json?review_type=mob&country=us&page=0", "next": "api.flixster.com/movies/the-red-shoes/reviews.json?review_type=mob&country=us&page=2"}, "reviews": [{"isRotten": false, "url": "http://www.telegraph.co.uk/culture/theatre/dance/11245710/red-shoes-1948-film-review.html", "publication": {"url": "", "name": "Daily Telegraph (UK)"}, "isTop": true, "creationDate": 1425940773000, "isFresh": true, "freshness": "fresh", "critic": {"url": "/critic/george-campbell-dixon", "name": "George Campbell Dixon", "id": 16809, "thumbnailImage": "https://d2a5cgar23scu2.cloudfront.net/static/images/redesign/user.none.tmb.jpg"}, "quote": "These faults, if faults they be, may well be outweighed by the beauty of the ballet sequences and music, by the skill with which Mr Powell always uses colour, and by Miss Shearer's endearing charm.", "id": 2250566, "links": {"review": "http://www.telegraph.co.uk/culture/theatre/dance/11245710/red-shoes-1948-film-review.html"}}, {"isRotten": true, "url": "http://content.time.com/time/magazine/article/0,9171,799434,00.html", "publication": {"url": "", "name": "TIME Magazine"}, "isTop": true, "creationDate": 1425940613000, "isFresh": false, "freshness": "rotten", "quote": "A lingering, calf-eyed look at backstage ballet's little world of overworked egos and underdone glands. ", "id": 2250563, "links": {"review": "http://content.time.com/time/magazine/article/0,9171,799434,00.html"}}, {"isRotten": false, "isFresh": true, "publication": {"url": "", "name": "Wall Street Journal"}, "isTop": true, "creationDate": 1287836107000, "freshness": "fresh", "critic": {"url": "/critic/joe-morgenstern", "name": "Joe Morgenstern", "id": 12088, "thumbnailImage": "https://resizing.flixster.com/bJIrcAX9fqTOFcu3mX0nvukyq8o=/72x72/v1.YzsyNjI4O2c7MTg3ODM7MjA0ODsxNTA7MTUw"}, "quote": "The Red Shoes was shot in three-strip Technicolor, a process that's no longer used because of expense and technical complexity, but one that yielded some of the most spectacular images in cinema history.", "id": 1938508, "links": {}}, {"isRotten": false, "url": "http://www.laweekly.com/2010-05-13/film-tv/the-red-shoes-so-you-think-you-can-dance/", "publication": {"url": "", "name": "L.A. Weekly"}, "isTop": true, "creationDate": 1273771683000, "isFresh": true, "freshness": "fresh", "critic": {"url": "/critic/melissa-anderson", "name": "Melissa Anderson", "id": 6288, "thumbnailImage": "https://d2a5cgar23scu2.cloudfront.net/static/images/redesign/user.none.tmb.jpg"}, "quote": "The greatest film about ballet ever made.", "id": 1884169, "links": {"review": "http://www.laweekly.com/2010-05-13/film-tv/the-red-shoes-so-you-think-you-can-dance/"}}, {"isRotten": false, "url": "http://web.mac.com/moviecritic1/Site/Red_Shoes.html", "publication": {"url": "", "name": "Film.com"}, "isTop": true, "creationDate": 1267549049000, "isFresh": true, "freshness": "fresh", "critic": {"url": "/critic/jonathan-f-richards", "name": "Jonathan F. Richards", "id": 2779, "thumbnailImage": "https://resizing.flixster.com/3d0ui7UamYjYNFtFf405Abo0owo=/72x72/v1.YzsxNTEwO2o7MTg3OTA7MjA0ODszODs0OA"}, "quote": "The shoes have never been redder. The color of passion that drenches the Technicolor world of The Red Shoes has been restored to its original luster.", "id": 1873080, "links": {"review": "http://web.mac.com/moviecritic1/Site/Red_Shoes.html"}}, {"isRotten": false, "url": "http://www.newyorker.com/arts/critics/cinema/2010/02/08/100208crci_cinema_lane", "publication": {"url": "", "name": "New Yorker"}, "isTop": true, "creationDate": 1265027977000, "isFresh": true, "freshness": "fresh", "critic": {"url": "/critic/anthony-lane", "name": "Anthony Lane", "id": 4597, "thumbnailImage": "https://resizing.flixster.com/ASeLeS5Iw1qgeuIvbbVnYyB1scQ=/72x72/v1.YzsyMjgxO2o7MTg3OTY7MjA0ODsxNDQ7MTQ0"}, "quote": "No wonder Britain, still rationed in color, food, and feeling in the wake of an exhausting war, could not cope with what the movie proposed. Catch it here now, and you will not just be seeing an old film made new; you will have your vision restored.", "id": 1868814, "links": {"review": "http://www.newyorker.com/arts/critics/cinema/2010/02/08/100208crci_cinema_lane"}}, {"isRotten": false, "url": "https://macguff.in/macguffin-spotlight/an-appreciation-the-red-shoes/", "publication": {"url": "", "name": "The MacGuffin"}, "isTop": false, "creationDate": 1597075006000, "isFresh": true, "freshness": "fresh", "critic": {"url": "/critic/allen-almachar", "name": "Allen Almachar", "id": 27251, "thumbnailImage": "https://resizing.flixster.com/685wa0E3pM9hb-0fDGyxkU_RFPI=/72x72/v1.YzszNzIzO2o7MTg3OTg7MjA0ODszMDA7MzAw"}, "quote": "It is one of the great films about creating art ... I couldn't bear the thought of never seeing it again.", "id": 2712252, "links": {"review": "https://macguff.in/macguffin-spotlight/an-appreciation-the-red-shoes/"}}, {"isRotten": false, "url": "https://newspaperarchive.com/entertainment-clipping-dec-08-1949-1819331/", "publication": {"url": "", "name": "Austin American-Statesman"}, "isTop": false, "creationDate": 1592947836000, "isFresh": true, "freshness": "fresh", "critic": {"url": "/critic/dudley-early", "name": "Dudley Early", "id": 27179, "thumbnailImage": "https://d2a5cgar23scu2.cloudfront.net/static/images/redesign/user.none.tmb.jpg"}, "quote": "On the whole, it is a fine motion picture, missing greatness through too many defects. However, the Ballet of the Red Shoes, is one of the finest sequences ever shown on any screen, anywhere.", "id": 2698289, "links": {"review": "https://newspaperarchive.com/entertainment-clipping-dec-08-1949-1819331/"}}, {"isRotten": false, "url": "http://www.filmsite.org/redshoes.html", "creationDate": 1569781636000, "isFresh": true, "id": 2630811, "quote": "The Red Shoes (1948, UK) is a beautiful and sensitive post-war film - the 10th collaboration from the masterful and respected British directing/producing team of Michael Powell and Emeric Pressburger...", "links": {"review": "http://www.filmsite.org/redshoes.html"}, "publication": {"url": "", "name": "Filmsite"}, "isTop": false, "freshness": "fresh", "critic": {"url": "/critic/tim-dirks", "name": "Tim Dirks", "id": 2, "thumbnailImage": "https://resizing.flixster.com/YLKhCBtohLWHB76z-5jiFMLQG1M=/72x72/v1.YzszNDY1O2o7MTg3NjU7MjA0ODs4NDA7OTE5"}, "original_score": "A+"}, {"isRotten": false, "url": "https://www.boulderweekly.com/entertainment/screen/life-rushes-by-love-rushes-by/", "publication": {"url": "http://www.boulderweekly.com", "name": "Boulder Weekly"}, "isTop": false, "creationDate": 1561863673000, "isFresh": true, "freshness": "fresh", "critic": {"url": "/critic/michael-j-casey", "name": "Michael J. Casey", "id": 24459, "thumbnailImage": "https://resizing.flixster.com/lGt6skvudDvl5mKKAvG7nKqs578=/72x72/v1.YzszMzEyO2o7MTg3OTI7MjA0ODszMDA7MzAw"}, "quote": "With every viewing, it deepens, excites, elicits and emotes.", "id": 2601315, "links": {"publication": "http://www.boulderweekly.com", "review": "https://www.boulderweekly.com/entertainment/screen/life-rushes-by-love-rushes-by/"}}, {"isRotten": false, "url": "http://streamondemandathome.com/the-red-shoes-powell-1948-vod-blu-ray-dvd/", "publication": {"url": "", "name": "Stream on Demand"}, "isTop": false, "creationDate": 1503722816000, "isFresh": true, "freshness": "fresh", "critic": {"url": "/critic/sean-axmaker", "name": "Sean Axmaker", "id": 229, "thumbnailImage": "https://resizing.flixster.com/OM9B-lRGDZvI9N_pbymYi4o5aGo=/72x72/v1.YzsxNjAxO2c7MTg3OTE7MjA0ODszODs0OA"}, "quote": "... a film of dark fantasy, romantic passion and an infectious love of dance, music and cinema. The dance sequences are among the most beautiful put on film... but the drama behind the curtain is even more interesting.", "id": 2413856, "links": {"review": "http://streamondemandathome.com/the-red-shoes-powell-1948-vod-blu-ray-dvd/"}}, {"isRotten": false, "url": "http://www.playbackstl.com/columns/armchair/the-red-shoes-michael-powell-emeric-pressburger/", "creationDate": 1493731267000, "isFresh": true, "id": 2391530, "quote": "...takes art very seriously-as a matter of life and death, in fact...", "links": {"review": "http://www.playbackstl.com/columns/armchair/the-red-shoes-michael-powell-emeric-pressburger/"}, "publication": {"name": "Playback:stl"}, "isTop": false, "freshness": "fresh", "critic": {"url": "/critic/sarah-boslaugh", "name": "Sarah Boslaugh", "id": 13155, "thumbnailImage": "https://d2a5cgar23scu2.cloudfront.net/static/images/redesign/user.none.tmb.jpg"}, "original_score": "8/10"}]}, "casts": {"screenwriters": [{"url": "/celebrity/michael_powell/", "name": "Michael Powell", "thumbnailImg": "https://resizing.flixster.com/U0nBcIeS-QfYTl9yriSaO7yBR5Q=/80x80/v1.cDs2MjkxNjUwO2o7MTg4NTc7MjA0ODsyMTY7MzIw"}, {"url": "/celebrity/emeric_pressburger/", "name": "Emeric Pressburger", "thumbnailImg": "https://resizing.flixster.com/3mwQBqTyaHuUrwUME255eELmhr4=/80x80/v1.cDs2NTQwOTI1O2o7MTg4ODA7MjA0ODszMDE7MzAw"}, {"url": "/celebrity/keith_winter/", "name": "Keith Winter", "thumbnailImg": "https://d2a5cgar23scu2.cloudfront.net/static/images/redesign/actor.default.tmb.gif"}], "directors": [{"url": "/celebrity/michael_powell/", "name": "Michael Powell", "thumbnailImg": "https://resizing.flixster.com/U0nBcIeS-QfYTl9yriSaO7yBR5Q=/80x80/v1.cDs2MjkxNjUwO2o7MTg4NTc7MjA0ODsyMTY7MzIw"}, {"url": "/celebrity/emeric_pressburger/", "name": "Emeric Pressburger", "thumbnailImg": "https://resizing.flixster.com/3mwQBqTyaHuUrwUME255eELmhr4=/80x80/v1.cDs2NTQwOTI1O2o7MTg4ODA7MjA0ODszMDE7MzAw"}], "creators": [], "producers": [{"url": "/celebrity/michael_powell/", "name": "Michael Powell", "thumbnailImg": "https://resizing.flixster.com/U0nBcIeS-QfYTl9yriSaO7yBR5Q=/80x80/v1.cDs2MjkxNjUwO2o7MTg4NTc7MjA0ODsyMTY7MzIw"}, {"url": "/celebrity/emeric_pressburger/", "name": "Emeric Pressburger", "thumbnailImg": "https://resizing.flixster.com/3mwQBqTyaHuUrwUME255eELmhr4=/80x80/v1.cDs2NTQwOTI1O2o7MTg4ODA7MjA0ODszMDE7MzAw"}, {"url": "/celebrity/george_r_busby/", "name": "George R. Busby", "thumbnailImg": "https://d2a5cgar23scu2.cloudfront.net/static/images/redesign/actor.default.tmb.gif"}], "castItems": [{"person": {"url": "/celebrity/moira_shearer/", "name": "Moira Shearer", "thumbnailImg": "https://resizing.flixster.com/NQg1b9oA2QYS7EqVuO5BTxPtwFk=/80x80/v1.cDs5OTY4NTY2O2o7MTg4MjE7MjA0ODs0MDU7NTE2"}, "characters": [{"name": "Victoria Page"}]}, {"person": {"url": "/celebrity/anton_walbrook/", "name": "Anton Walbrook", "thumbnailImg": "https://resizing.flixster.com/L244YeXO6oKv8HHxdMubFMCh5Gw=/80x80/v1.cDsxMTA4MjI2NjtqOzE4ODc0OzIwNDg7Mzc3OzQ2NA"}, "characters": [{"name": "Boris Lermontov"}]}, {"person": {"url": "/celebrity/marius_goring/", "name": "Marius Goring", "thumbnailImg": "https://resizing.flixster.com/TaWpWFFpCan36zoGU_l99ShqUYg=/80x80/v1.cDsxMTA4MTk4NTtqOzE4ODYzOzIwNDg7NDM3OzQ2Mg"}, "characters": [{"name": "Julian Craster"}]}, {"person": {"url": "/celebrity/leonide_massine/", "name": "Leonide Massine", "thumbnailImg": "https://d2a5cgar23scu2.cloudfront.net/static/images/redesign/actor.default.tmb.gif"}, "characters": [{"name": "Grischa Ljubov"}]}, {"person": {"url": "/celebrity/robert_helpmann/", "name": "Robert Helpmann", "thumbnailImg": "https://resizing.flixster.com/0kClIEDsz8LnbB3jJEVxrZmD3M0=/80x80/v1.cDsxMTA4MzE4MjtqOzE4ODkwOzIwNDg7NDYyOzQ2Mg"}, "characters": [{"name": "Ivan Boleslawsky"}]}, {"person": {"url": "/celebrity/albert_basserman/", "name": "Albert Basserman", "thumbnailImg": "https://resizing.flixster.com/B_u4GxvKsCbZk1VZhbCcqMSl3qc=/80x80/v1.cDsxNDA2Mjk1NjtqOzE4ODQzOzIwNDg7NDQ4OzMxNw"}, "characters": [{"name": "Sergei Ratov"}]}, {"person": {"url": "/celebrity/esmond_knight/", "name": "Esmond Knight", "thumbnailImg": "https://d2a5cgar23scu2.cloudfront.net/static/images/redesign/actor.default.tmb.gif"}, "characters": [{"name": "Livy"}]}, {"person": {"url": "/celebrity/ludmilla_tcherina/", "name": "Ludmilla Tch\u00e9rina", "thumbnailImg": "https://d2a5cgar23scu2.cloudfront.net/static/images/redesign/actor.default.tmb.gif"}, "characters": [{"name": "Irina Boronskaja"}]}, {"person": {"url": "/celebrity/jean_short/", "name": "Jean Short", "thumbnailImg": "https://d2a5cgar23scu2.cloudfront.net/static/images/redesign/actor.default.tmb.gif"}, "characters": [{"name": "Terry"}]}, {"person": {"url": "/celebrity/gordon_littman/", "name": "Gordon Littman", "thumbnailImg": "https://d2a5cgar23scu2.cloudfront.net/static/images/redesign/actor.default.tmb.gif"}, "characters": [{"name": "Ike"}]}, {"person": {"url": "/celebrity/julia_lang/", "name": "Julia Lang", "thumbnailImg": "https://d2a5cgar23scu2.cloudfront.net/static/images/redesign/actor.default.tmb.gif"}, "characters": [{"name": "A Balletomane"}]}, {"person": {"url": "/celebrity/bill_shine/", "name": "Bill Shine", "thumbnailImg": "https://d2a5cgar23scu2.cloudfront.net/static/images/redesign/actor.default.tmb.gif"}, "characters": [{"name": "Her Mate"}]}, {"person": {"url": "/celebrity/austin_trevor/", "name": "Austin Trevor", "thumbnailImg": "https://resizing.flixster.com/GH6eCB_Ou7PUGE5CYKZXg0VLZbc=/80x80/v1.cDsxMDQwNDIwNztqOzE4ODY3OzIwNDg7MTgxOzIxNg"}, "characters": [{"name": "Prof. Palmer"}]}, {"person": {"url": "/celebrity/eric_berry/", "name": "Eric Berry", "thumbnailImg": "https://d2a5cgar23scu2.cloudfront.net/static/images/redesign/actor.default.tmb.gif"}, "characters": [{"name": "Dimitri"}]}, {"person": {"url": "/celebrity/emeric_pressburger/", "name": "Emeric Pressburger", "thumbnailImg": "https://resizing.flixster.com/3mwQBqTyaHuUrwUME255eELmhr4=/80x80/v1.cDs2NTQwOTI1O2o7MTg4ODA7MjA0ODszMDE7MzAw"}}, {"person": {"url": "/celebrity/irene-browne/", "name": "Irene Browne", "thumbnailImg": "https://resizing.flixster.com/3p5X6XP8FMLIEq-nzuNX7u2yhIY=/80x80/v1.cDsxMjQ5MDA4NTtqOzE4Nzk0OzIwNDg7NDQ5OzU5NA"}, "characters": [{"name": "Lady Neston"}]}, {"person": {"url": "/celebrity/jerry_verno/", "name": "Jerry Verno", "thumbnailImg": "https://d2a5cgar23scu2.cloudfront.net/static/images/redesign/actor.default.tmb.gif"}, "characters": [{"name": "Stagedoor Keeper"}]}, {"person": {"url": "/celebrity/derek_elphinstone/", "name": "Derek Elphinstone", "thumbnailImg": "https://resizing.flixster.com/wdluIHhulRMsTLOFNfvHqmW-xhA=/80x80/v1.cDsxMjk2MTg0MjtqOzE4ODIyOzIwNDg7MjYxOzIxNg"}, "characters": [{"name": "Lord Oldham"}]}, {"person": {"url": "/celebrity/albert_bassermann/", "name": "Albert Bassermann", "thumbnailImg": "https://resizing.flixster.com/sSqpL1dnlu35s9UjScZPPzgpMN0=/80x80/v1.cDsxMzg5Mzc4OTtqOzE4ODI5OzIwNDg7NzA1OzQ3MQ"}}, {"person": {"url": "/celebrity/mme_rambert/", "name": "Mme. Rambert", "thumbnailImg": "https://d2a5cgar23scu2.cloudfront.net/static/images/redesign/actor.default.tmb.gif"}, "characters": [{"name": "Herself"}]}, {"person": {"url": "/celebrity/joy_rawlins/", "name": "Joy Rawlins", "thumbnailImg": "https://d2a5cgar23scu2.cloudfront.net/static/images/redesign/actor.default.tmb.gif"}, "characters": [{"name": "Gladys, Vicky's Friend"}]}, {"person": {"url": "/celebrity/marcel_poncin/", "name": "Marcel Poncin", "thumbnailImg": "https://d2a5cgar23scu2.cloudfront.net/static/images/redesign/actor.default.tmb.gif"}, "characters": [{"name": "M. Boudin"}]}, {"person": {"url": "/celebrity/michel_bazalgette/", "name": "Michel Bazalgette", "thumbnailImg": "https://d2a5cgar23scu2.cloudfront.net/static/images/redesign/actor.default.tmb.gif"}, "characters": [{"name": "M. Rideaut"}]}, {"person": {"url": "/celebrity/yvonne_andre/", "name": "Yvonne Andre", "thumbnailImg": "https://d2a5cgar23scu2.cloudfront.net/static/images/redesign/actor.default.tmb.gif"}, "characters": [{"name": "Vicky's Dresser"}]}, {"person": {"url": "/celebrity/hay_petrie/", "name": "Hay Petrie", "thumbnailImg": "https://resizing.flixster.com/DiNesP9BcboDtHuOflWpoQ_NNJw=/80x80/v1.cDszODY3MjUzO2o7MTg4OTc7MjA0ODsxNTA7MTUw"}, "characters": [{"name": "Boisson"}]}, {"person": {"url": "/celebrity/george-woodbridge/", "name": "George Woodbridge", "thumbnailImg": "https://d2a5cgar23scu2.cloudfront.net/static/images/redesign/actor.default.tmb.gif"}, "characters": [{"name": "Doorman"}]}, {"person": {"url": "/celebrity/joan_harris/", "name": "Joan Harris", "thumbnailImg": "https://d2a5cgar23scu2.cloudfront.net/static/images/redesign/actor.default.tmb.gif"}, "characters": [{"name": "Solo Dancer"}]}, {"person": {"url": "/celebrity/denis_carey/", "name": "Denis Carey", "thumbnailImg": "https://d2a5cgar23scu2.cloudfront.net/static/images/redesign/actor.default.tmb.gif"}, "characters": [{"name": "Dancer"}]}, {"person": {"url": "/celebrity/robert_dorning/", "name": "Robert Dorning", "thumbnailImg": "https://resizing.flixster.com/MdIQD1K5rJE_h071eEovXHGMPNE=/80x80/v1.cDsxMjk2NzAwMjtqOzE4ODA3OzIwNDg7MTUwOzE1MA"}, "characters": [{"name": "Dancer"}]}, {"person": {"url": "/celebrity/guy_massey/", "name": "Guy Massey", "thumbnailImg": "https://d2a5cgar23scu2.cloudfront.net/static/images/redesign/actor.default.tmb.gif"}, "characters": [{"name": "Dancer"}]}]}, "title": "The Red Shoes", "adjustedScore": 105.75126022642756, "ratings": {"critics_rating": "Certified Fresh", "audience_score": 92, "dvdReleaseDate": 927615600000, "critics_score": 97, "theaterReleaseDate": -672771600000, "audience_rating": "Upright"}, "videoClips": {"mainTrailer": {"hlsUrl": "http://video.internetvideoarchive.net/video.m3u8?cmd=6&publishedid=105354&customerid=300120&e=1619087268026&sub=RTO&fmt=11&h=afa57289badb26a617c17f5dadf6a8bb", "seconds": 38, "minutes": 1, "id": 11141201, "title": "The Red Shoes", "thumbUrl": "http://content.internetvideoarchive.com/content/photos/7221/105354_024.jpg", "mp4Url": "http://video.internetvideoarchive.net/video.mp4?cmd=6&publishedid=105354&customerid=300120&e=1619087268026&sub=RTO&fmt=4&videokbrate=750&h=8626b1e5057293fe899c4b36632a1fec"}, "size": 1, "videoClips": [{"hlsUrl": "http://video.internetvideoarchive.net/video.m3u8?cmd=6&publishedid=105354&customerid=300120&e=1619087268026&sub=RTO&fmt=11&h=afa57289badb26a617c17f5dadf6a8bb", "seconds": 38, "minutes": 1, "id": 11141201, "title": "The Red Shoes", "thumbUrl": "http://content.internetvideoarchive.com/content/photos/7221/105354_024.jpg", "mp4Url": "http://video.internetvideoarchive.net/video.mp4?cmd=6&publishedid=105354&customerid=300120&e=1619087268026&sub=RTO&fmt=4&videokbrate=750&h=8626b1e5057293fe899c4b36632a1fec"}]}, "isUpcoming": false, "posters": {"original": "https://resizing.flixster.com/OMmYwFASlkThpJCTDRtYTMZUW-4=/999x1332/v1.bTsxMTIxMTcyOTtqOzE4ODczOzIwNDg7OTk5OzEzMzI", "detailed": "https://resizing.flixster.com/oMjzb7LcPO6AYq1HF8UR2hiMlyY=/180x240/v1.bTsxMTIxMTcyOTtqOzE4ODczOzIwNDg7OTk5OzEzMzI", "profile": "https://resizing.flixster.com/-JQQ5sgyy1YNJhQSD1CFoFuv5Zw=/120x160/v1.bTsxMTIxMTcyOTtqOzE4ODczOzIwNDg7OTk5OzEzMzI", "thumbnail": "https://resizing.flixster.com/MzGGl7JdLpoOlPOh4z-3SQT1cr0=/54x72/v1.bTsxMTIxMTcyOTtqOzE4ODczOzIwNDg7OTk5OzEzMzI"}, "isLimited": false, "mainTrailer": {"thumbUrl": "https://content.internetvideoarchive.com/content/photos/7221/105354_024.jpg", "hlsUrl": "http://video.internetvideoarchive.net/video.m3u8?cmd=6&publishedid=105354&customerid=300120&e=1619087267744&sub=RTO&fmt=11&h=c286d2b8ea005eb3e4a39863f0bbbc20", "id": 11141201, "mp4Url": "http://video.internetvideoarchive.net/video.mp4?cmd=6&publishedid=105354&customerid=300120&e=1619087267745&sub=RTO&fmt=4&videokbrate=750&h=c7dc88c7e186b8eb95254fb5412e4580"}, "advisory": "", "id": 18709}