{"url": "/m/amazing_grace_2018/", "isOnOpening": false, "genreSet": [{"displayName": "Musical & Performing Arts", "id": 12}, {"displayName": "Documentary", "id": 8}], "officialUrl": "https://www.amazing-grace-movie.com/", "isInTheaters": false, "synopsis": "Concert footage from 1972 of Aretha Franklin performing songs from the best-selling gospel album at the New Temple Missionary Baptist Church in Los Angeles.", "links": {"alternate": "//www.rottentomatoes.com/m/amazing_grace_2018/"}, "runningTime": 87, "year": 2019, "trackingType": "DvdOther", "status": "Live", "isPlaying": false, "isOnDVD": true, "runningTimeStr": "1 hr. 27 min.", "ratingSummary": {"topcount": 48, "consensus": "Brilliantly capturing a remarkable performer near the peak of her prodigious power, Amazing Grace is a thrilling must-watch documentary for Aretha Franklin fans.", "topCritics": {"hasScore": true, "numReviews": 48, "meterClass": "certified", "numRotten": 0, "numFresh": 48, "hasReviews": true, "meterValue": 100, "averageRating": 8.974138}, "audience": {"meterScore": 86, "averageScore": 4.324561595916748, "numTotal": 283, "ratingType": "viewed"}, "allcount": 158, "rottencount": 1, "dvdcount": 0, "allCritics": {"hasScore": true, "numReviews": 158, "meterClass": "certified", "numRotten": 1, "numFresh": 157, "hasReviews": true, "meterValue": 99, "averageRating": 8.63}, "freshcount": 157}, "mpaaRating": "G", "vanity": "amazing_grace_2018", "studio": "NEON", "purchaseOptions": {"amazon": {"url": "http://www.amazon.com/gp/product/B07VPL2CQ9/ref=atv_feed_catalog?tag=rottetomao_aiv_mv-20", "isPrime": false, "type": "rent"}}, "reviews": {"total": 158, "links": {"alternate": "//www.rottentomatoes.com/m/amazing_grace_2018/#reviews", "self": "api.flixster.com/movies/amazing-grace-2018/reviews.json?review_type=mob&country=us&page=1", "prev": "api.flixster.com/movies/amazing-grace-2018/reviews.json?review_type=mob&country=us&page=0", "next": "api.flixster.com/movies/amazing-grace-2018/reviews.json?review_type=mob&country=us&page=2"}, "reviews": [{"isRotten": false, "url": "https://www.chicagoreader.com/chicago/amazing-grace/Film?oid=69412675", "publication": {"url": "", "name": "Chicago Reader"}, "isTop": true, "creationDate": 1576539981000, "isFresh": true, "freshness": "fresh", "critic": {"url": "/critic/andrea-gronvall", "name": "Andrea Gronvall", "id": 12050, "thumbnailImage": "https://resizing.flixster.com/CVX43JEwk3dclYnm47dMCUvMwXw=/72x72/v1.YzsyMjcxO2o7MTg3ODY7MjA0ODsxMDA7MTAw"}, "quote": "The work as it stands now has considerable merit as a document recorded during a watershed period of the American civil rights movement. As a concert film, it's elevated by Franklin's powerhouse three-octave range and soulful phrasing.", "id": 2654168, "links": {"review": "https://www.chicagoreader.com/chicago/amazing-grace/Film?oid=69412675"}}, {"isRotten": false, "url": "https://www.detroitnews.com/story/entertainment/music/2018/11/10/graham-amazing-grace-towering-testament-aretha/1938195002/", "publication": {"name": "Detroit News"}, "isTop": true, "creationDate": 1576539077000, "isFresh": true, "freshness": "fresh", "critic": {"url": "/critic/adam-graham", "name": "Adam Graham", "id": 5959, "thumbnailImage": "https://resizing.flixster.com/uqwD2ADAIFRU-iRfuuH1aI7Qiqo=/72x72/v1.YzsyNzUwO2c7MTg3NzA7MjA0ODsxNTA7MTUw"}, "quote": "The long-buried concert film is a tremendously powerful tribute to Aretha Franklin.", "id": 2654157, "links": {"review": "https://www.detroitnews.com/story/entertainment/music/2018/11/10/graham-amazing-grace-towering-testament-aretha/1938195002/"}}, {"isRotten": false, "url": "https://www.theaustralian.com.au/arts/review/its-a-dog-eat-dog-world/news-story/346586fd7bdc879efa615509457c550f", "creationDate": 1576539045000, "isFresh": true, "id": 2654156, "quote": "This musical feast was filmed a very long time ago - but it feels like only yesterday.", "links": {"review": "https://www.theaustralian.com.au/arts/review/its-a-dog-eat-dog-world/news-story/346586fd7bdc879efa615509457c550f"}, "publication": {"url": "", "name": "The Australian"}, "isTop": true, "freshness": "fresh", "critic": {"url": "/critic/david-stratton", "name": "David Stratton", "id": 3080, "thumbnailImage": "https://resizing.flixster.com/vLJVb8VE4LgP9aEFivSCPb743eg=/72x72/v1.YzszNzEwO2o7MTg3ODU7MjA0ODszMDA7MzAw"}, "original_score": "4/5"}, {"isRotten": false, "url": "https://variety.com/2018/film/reviews/amazing-grace-review-aretha-franklin-1203027289/", "publication": {"url": "", "name": "Variety"}, "isTop": true, "creationDate": 1576538967000, "isFresh": true, "freshness": "fresh", "critic": {"url": "/critic/owen-gleiberman", "name": "Owen Gleiberman", "id": 763, "thumbnailImage": "https://resizing.flixster.com/BdR6uSdr6A_wR_LG6yDw8yDUAIk=/72x72/v1.YzsyNzE4O2c7MTg3ODM7MjA0ODsxNTA7MTUw"}, "quote": "In Amazing Grace, Aretha Franklin transcends the blues by saying a little prayer - or singing one - for all of us.", "id": 2654155, "links": {"review": "https://variety.com/2018/film/reviews/amazing-grace-review-aretha-franklin-1203027289/"}}, {"isRotten": false, "url": "https://www.smh.com.au/entertainment/movies/amazing-grace-skips-details-and-puts-soul-queen-s-voice-centre-stage-20190826-p52kuj.html", "creationDate": 1567010668000, "isFresh": true, "id": 2619609, "quote": "It's a perfect marriage of faith and showbiz, dignified by the fact that there's nothing ersatz about it. At its heart is an unfeigned exuberance, together with a sense of history, which informs the tears, laughter and fervent expressions of belief.", "links": {"review": "https://www.smh.com.au/entertainment/movies/amazing-grace-skips-details-and-puts-soul-queen-s-voice-centre-stage-20190826-p52kuj.html"}, "publication": {"url": "", "name": "Sydney Morning Herald"}, "isTop": true, "freshness": "fresh", "critic": {"url": "/critic/sandra-hall", "name": "Sandra Hall", "id": 12853, "thumbnailImage": "https://d2a5cgar23scu2.cloudfront.net/static/images/redesign/user.none.tmb.jpg"}, "original_score": "4/5"}, {"isRotten": false, "url": "https://moviemom.com/amazing-grace-3/", "creationDate": 1564973733000, "isFresh": true, "id": 2611810, "quote": "87 minutes of pure joy/", "links": {"review": "https://moviemom.com/amazing-grace-3/"}, "publication": {"url": "", "name": "Movie Mom"}, "isTop": true, "freshness": "fresh", "critic": {"url": "/critic/nell-minow", "name": "Nell Minow", "id": 13, "thumbnailImage": "https://resizing.flixster.com/0Yu3ChYD_PlERNzLAMX6a0J1DOo=/72x72/v1.YzsxNTc5O2c7MTg3Njk7MjA0ODszODs0OA"}, "original_score": "A-"}, {"isRotten": false, "url": "https://readysteadycut.com/2020/04/17/amazing-grace-review/", "creationDate": 1612913019000, "isFresh": true, "id": 2766135, "quote": "The making of the biggest selling gospel album ever, reconstructed into an 89-minute film many years later. A great listen, a fascinating watch, though not entirely successful.", "links": {"review": "https://readysteadycut.com/2020/04/17/amazing-grace-review/"}, "publication": {"url": "", "name": "Ready Steady Cut"}, "isTop": false, "freshness": "fresh", "critic": {"url": "/critic/alix-turner", "name": "Alix Turner", "id": 28129, "thumbnailImage": "https://resizing.flixster.com/IxqWNpRR3xU2_XsyIPA2QQhXGWo=/72x72/v1.YzszODYwO2o7MTg4MDA7MjA0ODszMDA7MzAw"}, "original_score": "3/5"}, {"isRotten": false, "url": "https://48hills.org/category/arts-culture/screen-grabs/", "publication": {"url": "", "name": "48 Hills"}, "isTop": false, "creationDate": 1603319573000, "isFresh": true, "freshness": "fresh", "critic": {"url": "/critic/dennis-harvey", "name": "Dennis Harvey", "id": 3084, "thumbnailImage": "https://d2a5cgar23scu2.cloudfront.net/static/images/redesign/user.none.tmb.jpg"}, "quote": "So, was it worth the wait? But of course, and then some.", "id": 2736337, "links": {"review": "https://48hills.org/category/arts-culture/screen-grabs/"}}, {"isRotten": false, "url": "http://www.filmmonthly.com/film/amazing-grace-2", "creationDate": 1595871179000, "isFresh": true, "id": 2708710, "quote": "Elliott and Buchanan follow [Franklin's] lead instead, framing the footage with a deft, almost invisible hand to make for 87 minutes that are teeming with life.", "links": {"review": "http://www.filmmonthly.com/film/amazing-grace-2"}, "publication": {"name": "Film Monthly"}, "isTop": false, "freshness": "fresh", "critic": {"url": "/critic/matt-cipolla", "name": "Matt Cipolla", "id": 26474, "thumbnailImage": "https://resizing.flixster.com/nT1LxX6s00OCepI4vJzSJzARRSE=/72x72/v1.YzszNzUxO2o7MTg3ODE7MjA0ODszMDA7MzAw"}, "original_score": "4/5"}, {"isRotten": false, "url": "https://vulturehound.co.uk/2019/05/it-will-make-you-feel-as-if-youve-seen-the-face-of-god-amazing-grace-review/", "creationDate": 1594749786000, "isFresh": true, "id": 2704671, "quote": "With a beautiful resonance, Amazing Grace is a stunning tribute and celebration to the late singer. ", "links": {"review": "https://vulturehound.co.uk/2019/05/it-will-make-you-feel-as-if-youve-seen-the-face-of-god-amazing-grace-review/"}, "publication": {"url": "", "name": "VultureHound"}, "isTop": false, "freshness": "fresh", "critic": {"url": "/critic/kelechi-ehenulo", "name": "Kelechi Ehenulo", "id": 27208, "thumbnailImage": "https://resizing.flixster.com/ek6G-T49W97qbcAT2_rpC_QHFcQ=/72x72/v1.YzszNzAzO2o7MTg3Nzg7MjA0ODszMDA7MzAw"}, "original_score": "4/5"}, {"isRotten": false, "url": "https://culturemixonline.com/2018-doc-nyc-movie-reviews-recaps/", "publication": {"url": "", "name": "Culture Mix"}, "isTop": false, "creationDate": 1594499100000, "isFresh": true, "freshness": "fresh", "critic": {"url": "/critic/carla-hay", "name": "Carla Hay", "id": 26441, "thumbnailImage": "https://resizing.flixster.com/HYTmuHMBbVpD209ELDz5auyk2Sc=/72x72/v1.YzszNTY0O2o7MTg3NzQ7MjA0ODszMDA7MzAw"}, "quote": "It's hard to see why this emotionally resonant movie ... was kept from the public for all these years. ", "id": 2703967, "links": {"review": "https://culturemixonline.com/2018-doc-nyc-movie-reviews-recaps/"}}, {"isRotten": false, "url": "https://www.commonsensemedia.org/movie-reviews/amazing-grace-0", "creationDate": 1582925784000, "isFresh": true, "id": 2673650, "quote": "Aretha documentary has soaring music but no narration. ", "links": {"review": "https://www.commonsensemedia.org/movie-reviews/amazing-grace-0"}, "publication": {"url": "", "name": "Common Sense Media"}, "isTop": false, "freshness": "fresh", "critic": {"url": "/critic/tracey-petherick", "name": "Tracey Petherick", "id": 26446, "thumbnailImage": "https://d2a5cgar23scu2.cloudfront.net/static/images/redesign/user.none.tmb.jpg"}, "original_score": "3/5"}]}, "casts": {"screenwriters": [], "directors": [], "creators": [], "producers": [{"url": "/celebrity/alan_elliott/", "name": "Alan Elliott", "thumbnailImg": "https://d2a5cgar23scu2.cloudfront.net/static/images/redesign/actor.default.tmb.gif"}, {"url": "/celebrity/sydney_pollack/", "name": "Sydney Pollack", "thumbnailImg": "https://resizing.flixster.com/QjuCXSVKTldsX4YiDdaQnqdllLU=/80x80/v1.cDsxMTExODEwMDtqOzE4ODg4OzIwNDg7NDUwOzM0OQ"}, {"url": "/celebrity/jerry-wexler/", "name": "Jerry Wexler", "thumbnailImg": "https://d2a5cgar23scu2.cloudfront.net/static/images/redesign/actor.default.tmb.gif"}, {"url": "/celebrity/joe-boyd/", "name": "Joe Boyd", "thumbnailImg": "https://d2a5cgar23scu2.cloudfront.net/static/images/redesign/actor.default.tmb.gif"}, {"url": "/celebrity/chiemi_karasawa/", "name": "Chiemi Karasawa", "thumbnailImg": "https://d2a5cgar23scu2.cloudfront.net/static/images/redesign/actor.default.tmb.gif"}], "castItems": [{"person": {"url": "/celebrity/aretha_franklin/", "name": "Aretha Franklin", "thumbnailImg": "https://resizing.flixster.com/sV8zDM-P_3vscf8S3g5b0jQIuZg=/80x80/v1.cDs4MzUyMjY5O2o7MTg4MTU7MjA0ODsyNTA7MzEy"}}, {"person": {"url": "/celebrity/cl_franklin/", "name": "C.L. Franklin", "thumbnailImg": "https://d2a5cgar23scu2.cloudfront.net/static/images/redesign/actor.default.tmb.gif"}}, {"person": {"url": "/celebrity/rev_james_cleveland/", "name": "Rev. James Cleveland", "thumbnailImg": "https://d2a5cgar23scu2.cloudfront.net/static/images/redesign/actor.default.tmb.gif"}}, {"person": {"url": "/celebrity/bernard_pretty_purdie/", "name": "Bernard Pretty Purdie", "thumbnailImg": "https://d2a5cgar23scu2.cloudfront.net/static/images/redesign/actor.default.tmb.gif"}}, {"person": {"url": "/celebrity/alonzo_atkins/", "name": "Alonzo Atkins", "thumbnailImg": "https://d2a5cgar23scu2.cloudfront.net/static/images/redesign/actor.default.tmb.gif"}}, {"person": {"url": "/celebrity/chuck_rainey/", "name": "Chuck Rainey", "thumbnailImg": "https://d2a5cgar23scu2.cloudfront.net/static/images/redesign/actor.default.tmb.gif"}}, {"person": {"url": "/celebrity/cornell_dupree/", "name": "Cornell Dupree", "thumbnailImg": "https://d2a5cgar23scu2.cloudfront.net/static/images/redesign/actor.default.tmb.gif"}}, {"person": {"url": "/celebrity/kenny_luper_2/", "name": "Kenny Luper", "thumbnailImg": "https://d2a5cgar23scu2.cloudfront.net/static/images/redesign/actor.default.tmb.gif"}}, {"person": {"url": "/celebrity/sydney_pollack/", "name": "Sydney Pollack", "thumbnailImg": "https://resizing.flixster.com/QjuCXSVKTldsX4YiDdaQnqdllLU=/80x80/v1.cDsxMTExODEwMDtqOzE4ODg4OzIwNDg7NDUwOzM0OQ"}}, {"person": {"url": "/celebrity/jerry-wexler/", "name": "Jerry Wexler", "thumbnailImg": "https://d2a5cgar23scu2.cloudfront.net/static/images/redesign/actor.default.tmb.gif"}}]}, "title": "Amazing Grace", "adjustedScore": 105.3139682907071, "ratings": {"critics_rating": "Certified Fresh", "audience_score": 86, "dvdReleaseDate": 1565074800000, "critics_score": 99, "theaterReleaseDate": 1554447600000, "audience_rating": "Upright"}, "videoClips": {"mainTrailer": {"hlsUrl": "http://video.internetvideoarchive.net/video.m3u8?cmd=6&publishedid=http://link.theplatform.com/s/NGweTC/media/DIMQTzOUR3YI&customerid=300120&e=1619087274539&sub=RTO&fmt=11&h=a89374647d20f1dfc10797163b82e0d8", "seconds": 8, "minutes": 2, "id": 11311089, "title": "Amazing Grace: Trailer 1", "thumbUrl": "http://resizing.flixster.com/havPetmpJygebfDsBuaTQqtJmCQ=/171x128/v1.bjsyMjA1ODg3O2o7MTg3OTA7MjA0ODsxMDgwOzE5MjA", "mp4Url": "http://video.internetvideoarchive.net/video.mp4?cmd=6&publishedid=http://link.theplatform.com/s/NGweTC/media/DIMQTzOUR3YI&customerid=300120&e=1619087274539&sub=RTO&fmt=4&videokbrate=750&h=ecf25c0690fc9c6ddae7da39077ae0c0"}, "size": 1, "videoClips": [{"hlsUrl": "http://video.internetvideoarchive.net/video.m3u8?cmd=6&publishedid=http://link.theplatform.com/s/NGweTC/media/DIMQTzOUR3YI&customerid=300120&e=1619087274538&sub=RTO&fmt=11&h=866a47b5f2cb4118e0e618f3c5e507d9", "seconds": 8, "minutes": 2, "id": 11311089, "title": "Amazing Grace: Trailer 1", "thumbUrl": "http://resizing.flixster.com/havPetmpJygebfDsBuaTQqtJmCQ=/171x128/v1.bjsyMjA1ODg3O2o7MTg3OTA7MjA0ODsxMDgwOzE5MjA", "mp4Url": "http://video.internetvideoarchive.net/video.mp4?cmd=6&publishedid=http://link.theplatform.com/s/NGweTC/media/DIMQTzOUR3YI&customerid=300120&e=1619087274538&sub=RTO&fmt=4&videokbrate=750&h=bea232991770ec039072a401c0d3ee1c"}]}, "isUpcoming": false, "posters": {"original": "https://resizing.flixster.com/Pi5ur2mQ5Zw3YwbRCjzPMod4BsA=/2000x2963/v1.bTsxMzAxNDI3MztqOzE4NzgzOzIwNDg7MjAwMDsyOTYz", "detailed": "https://resizing.flixster.com/dYXw2F5VqylygBQ8d-gZ7DhcqGI=/180x267/v1.bTsxMzAxNDI3MztqOzE4NzgzOzIwNDg7MjAwMDsyOTYz", "profile": "https://resizing.flixster.com/n53huge5kDjc7wHuOYDC6e8GRCU=/120x178/v1.bTsxMzAxNDI3MztqOzE4NzgzOzIwNDg7MjAwMDsyOTYz", "thumbnail": "https://resizing.flixster.com/3_bzuFEII27-WT99UQO9MP7QibM=/54x80/v1.bTsxMzAxNDI3MztqOzE4NzgzOzIwNDg7MjAwMDsyOTYz"}, "isLimited": true, "mainTrailer": {"thumbUrl": "https://resizing.flixster.com/havPetmpJygebfDsBuaTQqtJmCQ=/171x128/v1.bjsyMjA1ODg3O2o7MTg3OTA7MjA0ODsxMDgwOzE5MjA", "hlsUrl": "http://video.internetvideoarchive.net/video.m3u8?cmd=6&publishedid=http://link.theplatform.com/s/NGweTC/media/DIMQTzOUR3YI&customerid=300120&e=1619087274204&sub=RTO&fmt=11&h=d5db7f2ed0e6e45f429ca6457758316a", "id": 11311089, "mp4Url": "http://video.internetvideoarchive.net/video.mp4?cmd=6&publishedid=http://link.theplatform.com/s/NGweTC/media/DIMQTzOUR3YI&customerid=300120&e=1619087274204&sub=RTO&fmt=4&videokbrate=750&h=85d876f7fe06ba6fcd83364f04ff2c70"}, "photos": {"photos": [{"url": "https://resizing.flixster.com/c1t_bs3jqFsmjYE1h4T76wexcyk=/1024x576/v1.bjsyMTAwNjg1O2o7MTg4Mjk7MjA0ODsxOTIwOzEwODA", "index": 0, "submittedBy": "RT Staff", "height": 576, "imageId": 2100685, "thumbnail": "https://resizing.flixster.com/cKCjF7rxjWEPp2M6xtanmkjoAJE=/80x80/v1.bjsyMTAwNjg1O2o7MTg4Mjk7MjA0ODsxOTIwOzEwODA", "submittedDate": "2018-11-20", "id": "multiuse-2100685", "photoType": "movie", "width": 1024}, {"url": "https://resizing.flixster.com/Pli17k-R9h29ohNG2YKGP-ei_IE=/1024x576/v1.bjsyMTAwNjg2O2o7MTg4MzA7MjA0ODsxOTIwOzEwODA", "index": 1, "submittedBy": "RT Staff", "height": 576, "imageId": 2100686, "thumbnail": "https://resizing.flixster.com/sm87GVxh3dVDoI7_3kqJg06kQkU=/80x80/v1.bjsyMTAwNjg2O2o7MTg4MzA7MjA0ODsxOTIwOzEwODA", "submittedDate": "2018-11-20", "id": "multiuse-2100686", "photoType": "movie", "width": 1024}, {"url": "https://resizing.flixster.com/-toRYS7NE1kXMTzQELZt9OAcLpg=/1024x576/v1.bjsyMTAwNjg3O2o7MTg4MzE7MjA0ODsxOTIwOzEwODA", "index": 2, "submittedBy": "RT Staff", "height": 576, "imageId": 2100687, "thumbnail": "https://resizing.flixster.com/XIWEO5bhTVQBNFDotcFS999aJSo=/80x80/v1.bjsyMTAwNjg3O2o7MTg4MzE7MjA0ODsxOTIwOzEwODA", "submittedDate": "2018-11-20", "id": "multiuse-2100687", "photoType": "movie", "width": 1024}, {"url": "https://resizing.flixster.com/Ag2rkxKGUMnZzrAz3Cdgd-vrcQc=/1024x576/v1.bjsyMTAwNjg5O2o7MTg4MzM7MjA0ODsxOTIwOzEwODA", "index": 3, "submittedBy": "RT Staff", "height": 576, "imageId": 2100689, "thumbnail": "https://resizing.flixster.com/gSzHS5sO6Twz3LaMp0cCItsUwhk=/80x80/v1.bjsyMTAwNjg5O2o7MTg4MzM7MjA0ODsxOTIwOzEwODA", "submittedDate": "2018-11-20", "id": "multiuse-2100689", "photoType": "movie", "width": 1024}, {"url": "https://resizing.flixster.com/DJP2sMK0WJLwC9eVmb84H-w24Kw=/1024x640/v1.bjsyMTAwNjkwO2o7MTg3ODk7MjA0ODsxMjgwOzgwMA", "index": 4, "submittedBy": "RT Staff", "height": 640, "imageId": 2100690, "thumbnail": "https://resizing.flixster.com/dn_Ev1x79FiiDPm8pKMpHrfK6NI=/80x80/v1.bjsyMTAwNjkwO2o7MTg3ODk7MjA0ODsxMjgwOzgwMA", "submittedDate": "2018-11-20", "id": "multiuse-2100690", "photoType": "movie", "width": 1024}, {"url": "https://resizing.flixster.com/-rFTUrOqZ8MtCNT2dh7-RTHfDhM=/1024x576/v1.bjsyMTAwNjkxO2o7MTg3OTA7MjA0ODsxOTIwOzEwODA", "index": 5, "submittedBy": "RT Staff", "height": 576, "imageId": 2100691, "thumbnail": "https://resizing.flixster.com/bulVcAwHlgwXXA8QvdKVdV8NmTA=/80x80/v1.bjsyMTAwNjkxO2o7MTg3OTA7MjA0ODsxOTIwOzEwODA", "submittedDate": "2018-11-20", "id": "multiuse-2100691", "photoType": "movie", "width": 1024}, {"url": "https://resizing.flixster.com/L92evFV-YEnQBSaFM_gWc1XCgQQ=/1024x512/v1.bjsyMjE3Nzk2O2o7MTg4MDY7MjA0ODszMDAwOzE1MDA", "index": 6, "submittedBy": "RT Staff", "height": 512, "imageId": 2217796, "thumbnail": "https://resizing.flixster.com/iHFy4_Q7E2mDRbmFJsWxCH25e50=/80x80/v1.bjsyMjE3Nzk2O2o7MTg4MDY7MjA0ODszMDAwOzE1MDA", "submittedDate": "2019-03-19", "id": "multiuse-2217796", "photoType": "movie", "width": 1024}, {"url": "https://resizing.flixster.com/qxfgSmQVB4g20CmJrdMV-dqMMHk=/691x1024/v1.bjsyMjE3Nzk3O2o7MTg4MDc7MjA0ODsyMDAwOzI5NjM", "index": 7, "submittedBy": "RT Staff", "height": 1024, "imageId": 2217797, "thumbnail": "https://resizing.flixster.com/CHaJuX31WJnxu-X0rPXdgC9VkY4=/80x80/v1.bjsyMjE3Nzk3O2o7MTg4MDc7MjA0ODsyMDAwOzI5NjM", "submittedDate": "2019-03-19", "id": "multiuse-2217797", "photoType": "movie", "width": 691}, {"url": "https://resizing.flixster.com/0ChNya8AVOsxcMH0hp5A4mu2_gI=/1024x609/v1.bjsyMjMwOTE2O2o7MTg4MzE7MjA0ODsxMjAwOzcxNA", "index": 8, "submittedBy": "RT Staff", "height": 609, "imageId": 2230916, "thumbnail": "https://resizing.flixster.com/lNjpsGUVaSa6uGBpLaDWAQ8dlo0=/80x80/v1.bjsyMjMwOTE2O2o7MTg4MzE7MjA0ODsxMjAwOzcxNA", "submittedDate": "2019-04-08", "id": "multiuse-2230916", "photoType": "movie", "width": 1024}, {"url": "https://resizing.flixster.com/gFFU9KpUttKFROHBY2xNWDzx394=/1023x614/v1.bjsyMjIyMTg2O2o7MTg4MzE7MjA0ODsxMjAwOzcyMA", "index": 9, "submittedBy": "RT Staff", "height": 614, "imageId": 2222186, "thumbnail": "https://resizing.flixster.com/qquw9pYSwK2GRKGBpx2tz5jYkow=/80x80/v1.bjsyMjIyMTg2O2o7MTg4MzE7MjA0ODsxMjAwOzcyMA", "submittedDate": "2019-03-27", "id": "multiuse-2222186", "photoType": "movie", "width": 1023}, {"url": "https://resizing.flixster.com/pC2SYuDwGSgXA5Pr0dS9ANsRnz0=/1024x576/v1.bjsyMjMwOTE3O2o7MTg4MzI7MjA0ODsxOTIwOzEwODA", "index": 10, "submittedBy": "RT Staff", "height": 576, "imageId": 2230917, "thumbnail": "https://resizing.flixster.com/rT6rBU3FyDuS7MCP53sKwLNIDU0=/80x80/v1.bjsyMjMwOTE3O2o7MTg4MzI7MjA0ODsxOTIwOzEwODA", "submittedDate": "2019-04-08", "id": "multiuse-2230917", "photoType": "movie", "width": 1024}, {"url": "https://resizing.flixster.com/6eZ0WxZ4m-8GjutWwDUnoPv91TU=/1024x576/v1.bjsyMjkwNjU3O2o7MTg4MTM7MjA0ODszMDAwOzE2ODg", "index": 11, "submittedBy": "RT Staff", "height": 576, "imageId": 2290657, "thumbnail": "https://resizing.flixster.com/a4m96HEstwWmwZyYFmFdv4iYOeA=/80x80/v1.bjsyMjkwNjU3O2o7MTg4MTM7MjA0ODszMDAwOzE2ODg", "submittedDate": "2019-07-13", "id": "multiuse-2290657", "photoType": "movie", "width": 1024}, {"url": "https://resizing.flixster.com/6441iNJs2y4MzBSxCbTwGvwBcTk=/1024x576/v1.bjsyMTAwNjg4O2o7MTg4MzI7MjA0ODsxOTIwOzEwODA", "index": 12, "submittedBy": "RT Staff", "height": 576, "imageId": 2100688, "thumbnail": "https://resizing.flixster.com/XrMEVMP_J-67F5YFoqBrzVznkIE=/80x80/v1.bjsyMTAwNjg4O2o7MTg4MzI7MjA0ODsxOTIwOzEwODA", "submittedDate": "2018-11-20", "id": "multiuse-2100688", "photoType": "movie", "width": 1024}], "length": 13}, "id": 771501032}