{"url": "/m/amy_2015/", "isOnOpening": false, "boxoffice": "$7.9M", "genreSet": [{"displayName": "Documentary", "id": 8}, {"displayName": "Musical & Performing Arts", "id": 12}, {"displayName": "Art House & International", "id": 4}, {"displayName": "Special Interest", "id": 15}], "officialUrl": "http://amy-movie.com/", "isInTheaters": false, "synopsis": "Despite just two albums to her name Amy Winehouse is one of the biggest music icons in British history. With a voice oft described as a combination of Billy Holiday, Dinah Washington and Sarah Vaughan, Amy Winehouse was a pop star with soul; a once in two generational musical talent whose appeal crossed cultural and demographic boundaries. But while her music made her a star, her chaotic personal life stole headlines.", "links": {"alternate": "//www.rottentomatoes.com/m/amy_2015/"}, "runningTime": 128, "year": 2015, "trackingType": "DvdOther", "status": "Live", "isPlaying": false, "isOnDVD": true, "runningTimeStr": "2 hr. 8 min.", "ratingSummary": {"topcount": 64, "consensus": "As riveting as it is sad, Amy is a powerfully honest look at the twisted relationship between art and celebrity -- and the lethal spiral of addiction.", "topCritics": {"hasScore": true, "numReviews": 64, "meterClass": "certified", "numRotten": 3, "numFresh": 61, "hasReviews": true, "meterValue": 95, "averageRating": 8.220455}, "audience": {"meterScore": 87, "averageScore": 4.133263111114502, "numTotal": 22150, "ratingType": "viewed"}, "allcount": 223, "rottencount": 11, "dvdcount": 0, "allCritics": {"hasScore": true, "numReviews": 223, "meterClass": "certified", "numRotten": 11, "numFresh": 212, "hasReviews": true, "meterValue": 95, "averageRating": 8.37}, "freshcount": 212}, "mpaaRating": "R", "vanity": "amy_2015", "photos": {"photos": [{"url": "https://resizing.flixster.com/8ACV49ey1uWJHD_BC5AFc2xcN6g=/463x600/v1.aDsxMzIxMzc7ajsxODc4MzsyMDQ4OzEzMTQ7MTcwNA", "index": 0, "submittedBy": "RT Staff", "height": 600, "imageId": 132137, "thumbnail": "https://resizing.flixster.com/8utK68xI5ytAOLDUisDQIVCRL_k=/80x80/v1.aDsxMzIxMzc7ajsxODc4MzsyMDQ4OzEzMTQ7MTcwNA", "submittedDate": "2015-06-04", "caption": "", "id": "movie-132137", "photoType": "movie", "width": 463}, {"url": "https://resizing.flixster.com/fEn7eMuVTRT_gIYEjQ6UxikliSg=/600x397/v1.aDsxMzIxMzg7ajsxODc4NDsyMDQ4OzQ1MzY7MzAwMA", "index": 1, "submittedBy": "RT Staff", "height": 397, "imageId": 132138, "thumbnail": "https://resizing.flixster.com/3Tz-mCtt-tqNs3HWCxE99SbZFGk=/80x80/v1.aDsxMzIxMzg7ajsxODc4NDsyMDQ4OzQ1MzY7MzAwMA", "submittedDate": "2015-06-04", "caption": "", "id": "movie-132138", "photoType": "movie", "width": 600}, {"url": "https://resizing.flixster.com/CvWAqygyMvRQnV_Dx9hrTWYirR4=/398x600/v1.aDsxMzIxMzY7ajsxODc4MjsyMDQ4OzE5OTI7MzAwMA", "index": 2, "submittedBy": "RT Staff", "height": 600, "imageId": 132136, "thumbnail": "https://resizing.flixster.com/sZ1dhVm0ZIEx3aY7apGoRsXCtx4=/80x80/v1.aDsxMzIxMzY7ajsxODc4MjsyMDQ4OzE5OTI7MzAwMA", "submittedDate": "2015-06-04", "caption": "", "id": "movie-132136", "photoType": "movie", "width": 398}, {"url": "https://resizing.flixster.com/MoGUU75_httz3VPNuMA-U4kbSxs=/1024x576/v1.bjs2MzY5OTc7ajsxODc5NDsyMDQ4OzEyODA7NzIw", "index": 3, "submittedBy": "RT Staff", "height": 576, "imageId": 636997, "thumbnail": "https://resizing.flixster.com/5QgPEsyjKjQ81Z97fM607GRUJnc=/80x80/v1.bjs2MzY5OTc7ajsxODc5NDsyMDQ4OzEyODA7NzIw", "submittedDate": "2015-04-27", "id": "multiuse-636997", "photoType": "movie", "width": 1024}, {"url": "https://resizing.flixster.com/1urrCzfLfCo9hYjEi85Cdpqctsw=/758x530/v1.bjsxMDQ3MzIzO2o7MTg4MTU7MjA0ODs3NTg7NTMw", "index": 4, "submittedBy": "RT Staff", "height": 530, "imageId": 1047323, "thumbnail": "https://resizing.flixster.com/_UmH2LTqvbIYEiCuG4p_cJEeGl0=/80x80/v1.bjsxMDQ3MzIzO2o7MTg4MTU7MjA0ODs3NTg7NTMw", "submittedDate": "2016-02-22", "id": "multiuse-1047323", "photoType": "movie", "width": 758}, {"url": "https://resizing.flixster.com/1ZCgasEssW9CUDv-Jun6NlkV7Hw=/1024x576/v1.bjsxODc5MDcyO2o7MTg3OTM7MjA0ODsxOTIwOzEwODA", "index": 5, "submittedBy": "RT Staff", "height": 576, "imageId": 1879072, "thumbnail": "https://resizing.flixster.com/Peg0V4xhDYZHf9w2nR0MxyVq2f0=/80x80/v1.bjsxODc5MDcyO2o7MTg3OTM7MjA0ODsxOTIwOzEwODA", "submittedDate": "2018-03-09", "id": "multiuse-1879072", "photoType": "movie", "width": 1024}], "length": 6}, "studio": "A24 Films", "purchaseOptions": {"amazon": {"url": "http://www.amazon.com/gp/product/B010UVG49Y/ref=atv_feed_catalog?tag=rottetomao_aiv_mv-20", "isPrime": false, "type": "buy"}, "netflix": {"streamingId": "80049094"}, "iTunes": {"url": "https://itunes.apple.com/movie/amy/id1011670639?uo=5", "price": "12.99"}}, "reviews": {"total": 223, "links": {"alternate": "//www.rottentomatoes.com/m/amy_2015/#reviews", "self": "api.flixster.com/movies/amy-2015/reviews.json?review_type=mob&country=us&page=1", "prev": "api.flixster.com/movies/amy-2015/reviews.json?review_type=mob&country=us&page=0", "next": "api.flixster.com/movies/amy-2015/reviews.json?review_type=mob&country=us&page=2"}, "reviews": [{"isRotten": false, "url": "https://www.bitchmedia.org/post/new-documentary-amy-captures-an-intimate-compassionate-portrait-of-the-late-amy-winehouse", "publication": {"url": "", "name": "Bitch Media"}, "isTop": true, "creationDate": 1612315436000, "isFresh": true, "freshness": "fresh", "critic": {"url": "/critic/liza-dadoly", "name": "Liza Dadoly", "id": 28217, "thumbnailImage": "https://d2a5cgar23scu2.cloudfront.net/static/images/redesign/user.none.tmb.jpg"}, "quote": "Overall, Amy is a stunning, beautiful, and deeply personal, if somewhat voyeuristic, portrait of one of the greatest artists of a generation.", "id": 2763558, "links": {"review": "https://www.bitchmedia.org/post/new-documentary-amy-captures-an-intimate-compassionate-portrait-of-the-late-amy-winehouse"}}, {"isRotten": false, "url": "http://www.reeltalkonline.org/2015/06/i-can-see-why-amy-winehouses-parents.html", "creationDate": 1504289967000, "isFresh": true, "id": 2415316, "quote": "Guys, after watching the 128-minute film, I can honestly say that I have never seen a documentary that has turned me off so much as this one has.", "links": {"review": "http://www.reeltalkonline.org/2015/06/i-can-see-why-amy-winehouses-parents.html"}, "publication": {"url": "", "name": "Reel Talk Online"}, "isTop": true, "freshness": "fresh", "critic": {"url": "/critic/candice-frederick", "name": "Candice Frederick", "id": 18893, "thumbnailImage": "https://d2a5cgar23scu2.cloudfront.net/static/images/redesign/user.none.tmb.jpg"}, "original_score": "D"}, {"isRotten": false, "url": "http://www.baltimoremagazine.net/2015/7/7/review-amy", "creationDate": 1465602391000, "isFresh": true, "id": 2332961, "quote": "Kapadia's documentary -- which uses home video, archival footage, and clips of concerts and old and new interviews -- feels a bit like a horror film, except the inescapable monster is fame.", "links": {"review": "http://www.baltimoremagazine.net/2015/7/7/review-amy"}, "publication": {"url": "", "name": "Baltimore Magazine"}, "isTop": true, "freshness": "fresh", "critic": {"url": "/critic/max-weiss", "name": "Max Weiss", "id": 17630, "thumbnailImage": "https://resizing.flixster.com/vpvS_k0bnxrcHI6-bJeSXJqUryk=/72x72/v1.YzsyNzE2O2c7MTg3ODE7MjA0ODsxNTA7MTUw"}, "original_score": "4/4"}, {"isRotten": false, "url": "https://www.wsws.org/en/articles/2015/08/12/amyw-a12.html", "publication": {"url": "", "name": "World Socialist Web Site"}, "isTop": false, "creationDate": 1614308593000, "isFresh": true, "freshness": "fresh", "critic": {"url": "/critic/joanne-laurier", "name": "Joanne Laurier", "id": 12748, "thumbnailImage": "https://d2a5cgar23scu2.cloudfront.net/static/images/redesign/user.none.tmb.jpg"}, "quote": "The film effectively captures some of the ghastliness of the modern celebrity racket.", "id": 2771385, "links": {"review": "https://www.wsws.org/en/articles/2015/08/12/amyw-a12.html"}}, {"isRotten": false, "url": "https://amovieguy.com/2015/07/amy/", "creationDate": 1612106405000, "isFresh": true, "id": 2761793, "quote": "Amy is done with respectful and informal excellence. If it succeeds at anything, and it succeeds at many things, it's that it shows that Winehouse deserved better treatment from everyone.", "links": {"review": "https://amovieguy.com/2015/07/amy/"}, "publication": {"url": "", "name": "AMovieGuy.com"}, "isTop": false, "freshness": "fresh", "critic": {"url": "/critic/leo-brady", "name": "Leo Brady", "id": 28135, "thumbnailImage": "https://resizing.flixster.com/AFnHxicw77eDkezpOMipkHQYRp0=/72x72/v1.YzszODU3O2o7MTg3OTc7MjA0ODszNDA7MzQw"}, "original_score": "3.5/4"}, {"isRotten": false, "url": "http://battleshippretension.com/tears-dry-on-their-own-by-david-bax/", "publication": {"url": "http://battleshippretension.com", "name": "Battleship Pretension"}, "isTop": false, "creationDate": 1610585368000, "isFresh": true, "freshness": "fresh", "critic": {"url": "/critic/david-bax", "name": "David Bax", "id": 21060, "thumbnailImage": "https://resizing.flixster.com/WjsarI9ONpQljBI82XJBmNOzLLs=/72x72/v1.YzszMDQzO2o7MTg3OTM7MjA0ODsyNDI2OzI2NDA"}, "quote": " We grow to love Amy a little bit so that, in the film's bleak final act, we do more than shake our heads. We truly mourn.", "id": 2757087, "links": {"publication": "http://battleshippretension.com", "review": "http://battleshippretension.com/tears-dry-on-their-own-by-david-bax/"}}, {"isRotten": false, "url": "https://confessionsfromageekmind.com/2016/01/06/love-is-a-losing-game-amy-review/", "creationDate": 1594853487000, "isFresh": true, "id": 2705094, "quote": "Running at a lengthy 2 hours and 8 minutes, Amy is a deeply moving, powerful and balanced documentary on a complex individual. At times it's not an easy watch but it's certainly worthy of my highest recommendation.", "links": {"review": "https://confessionsfromageekmind.com/2016/01/06/love-is-a-losing-game-amy-review/"}, "publication": {"url": "", "name": "Confessions From A Geek Mind"}, "isTop": false, "freshness": "fresh", "critic": {"url": "/critic/kelechi-ehenulo", "name": "Kelechi Ehenulo", "id": 27208, "thumbnailImage": "https://resizing.flixster.com/ek6G-T49W97qbcAT2_rpC_QHFcQ=/72x72/v1.YzszNzAzO2o7MTg3Nzg7MjA0ODszMDA7MzAw"}, "original_score": "4.5/5"}, {"isRotten": false, "url": "https://www.cinema76.com/home/amy-review", "publication": {"url": "", "name": "Cinema76"}, "isTop": false, "creationDate": 1586377068000, "isFresh": true, "freshness": "fresh", "critic": {"url": "/critic/dan-scully", "name": "Dan Scully", "id": 8836, "thumbnailImage": "https://resizing.flixster.com/5BtoAC8aR--xOGssQYon9ryQ-AM=/72x72/v1.YzszNTczO2o7MTg3ODM7MjA0ODszMDA7MzAw"}, "quote": "[A]n honest portrait of a deeply sensitive person whose inherent troubles were magnified by enablers, opportunists, and the celebrity machine. ", "id": 2681934, "links": {"review": "https://www.cinema76.com/home/amy-review"}}, {"isRotten": false, "url": "https://aboutboulder.com/blog/a-nice-jewish-girl-from-north-london/", "publication": {"url": "", "name": "About Boulder"}, "isTop": false, "creationDate": 1581551771000, "isFresh": true, "freshness": "fresh", "critic": {"url": "/critic/tim-brennan", "name": "Tim Brennan", "id": 23211, "thumbnailImage": "https://resizing.flixster.com/5sFWulRuBCRJw4-cam9M4nwQ39c=/72x72/v1.YzszMDk2O2o7MTg4MDE7MjA0ODszMDA7MzAw"}, "quote": "It's difficult to watch, and Amy doesn't portray her as a martyr. She's a profoundly tragic figure battling a nasty affliction, and Kapadia makes no excuses for her.", "id": 2668943, "links": {"review": "https://aboutboulder.com/blog/a-nice-jewish-girl-from-north-london/"}}, {"isRotten": false, "url": "https://hyperallergic.com/241161/on-amy-and-ex-machina-2/", "publication": {"url": "", "name": "Hyperallergic"}, "isTop": false, "creationDate": 1580518538000, "isFresh": true, "freshness": "fresh", "critic": {"url": "/critic/cynthia-cruz", "name": "Cynthia Cruz", "id": 26570, "thumbnailImage": "https://d2a5cgar23scu2.cloudfront.net/static/images/redesign/user.none.tmb.jpg"}, "quote": "To watch the film is to witness an energy, an incredible source of life that draws everyone in and then, just as quickly, is snuffed out.", "id": 2665882, "links": {"review": "https://hyperallergic.com/241161/on-amy-and-ex-machina-2/"}}, {"isRotten": false, "url": "https://www.memphisflyer.com/memphis/amy/Content?oid=4026814", "publication": {"name": "Memphis Flyer"}, "isTop": false, "creationDate": 1578617502000, "isFresh": true, "freshness": "fresh", "critic": {"url": "/critic/chris-mccoy", "name": "Chris McCoy", "id": 26249, "thumbnailImage": "https://resizing.flixster.com/ep2OW1z4d7XB7HPPiKQjzJZz-xA=/72x72/v1.YzszNTM2O2o7MTg3OTE7MjA0ODszMDA7MzAw"}, "quote": "Amy succeeds at humanizing Winehouse but leaves you feeling queasy at your own eagerness to watch the trainwreck.", "id": 2659008, "links": {"review": "https://www.memphisflyer.com/memphis/amy/Content?oid=4026814"}}, {"isRotten": false, "url": "https://www.lrb.co.uk/v37/n14/lidija-haas/you-dont-mean-dick-to-me", "publication": {"url": "", "name": "London Review of Books"}, "isTop": false, "creationDate": 1561680156000, "isFresh": true, "freshness": "fresh", "critic": {"url": "/critic/lidija-haas", "name": "Lidija Haas", "id": 24246, "thumbnailImage": "https://d2a5cgar23scu2.cloudfront.net/static/images/redesign/user.none.tmb.jpg"}, "quote": "Winehouse, both in her public appearances and in the private films and audio recordings, is funny, sharp, brash, as crude as she is elegant.", "id": 2600841, "links": {"review": "https://www.lrb.co.uk/v37/n14/lidija-haas/you-dont-mean-dick-to-me"}}]}, "casts": {"screenwriters": [{"url": "/celebrity/asif_kapadia/", "name": "Asif Kapadia", "thumbnailImg": "https://resizing.flixster.com/4f9rwtLC6KdUmhB3LF_nOL23vhM=/80x80/v1.cDs3MzMxMzg4O2o7MTg4ODI7MjA0ODsyMzU7MjUw"}], "directors": [{"url": "/celebrity/asif_kapadia/", "name": "Asif Kapadia", "thumbnailImg": "https://resizing.flixster.com/4f9rwtLC6KdUmhB3LF_nOL23vhM=/80x80/v1.cDs3MzMxMzg4O2o7MTg4ODI7MjA0ODsyMzU7MjUw"}], "creators": [], "producers": [{"url": "/celebrity/james_gay_rees/", "name": "James Gay-Rees", "thumbnailImg": "https://d2a5cgar23scu2.cloudfront.net/static/images/redesign/actor.default.tmb.gif"}], "castItems": [{"person": {"url": "/celebrity/mos_def_6/", "name": "Yasiin Bey", "thumbnailImg": "https://resizing.flixster.com/_FwFSKaSOTDJkUgV0lR33nmFeR4=/80x80/v1.cjs0ODMwNTtqOzE4Nzg1OzIwNDg7MjA3NjsyMDc2"}}, {"person": {"url": "/celebrity/mark_ronson/", "name": "Mark Ronson", "thumbnailImg": "https://resizing.flixster.com/GfSEQtg0og0fYHPRp4l18AHHZdI=/80x80/v1.cjs0ODMwNztqOzE4Nzg3OzIwNDg7MTY2MDsxNjYw"}}, {"person": {"url": "/celebrity/tony_bennett/", "name": "Tony Bennett", "thumbnailImg": "https://resizing.flixster.com/WdYWHei4dMc37SBMM7SOd_S7HIQ=/80x80/v1.cjszMTA3MjtqOzE4Nzg3OzIwNDg7NDA2OzYwMA"}}, {"person": {"url": "/celebrity/peter_doherty/", "name": "Pete Doherty", "thumbnailImg": "https://resizing.flixster.com/09IniGmSt3FcWhd4eJO1BW3Nluw=/80x80/v1.cjs0ODMwODtqOzE4Nzg4OzIwNDg7MzI4MDszMjgw"}}, {"person": {"url": "/celebrity/blake_fielder_civil/", "name": "Blake Fielder-Civil", "thumbnailImg": "https://resizing.flixster.com/xCiiNYOJOUheB2RQgcou9cvxLqI=/80x80/v1.cjs0ODMxMDtqOzE4NzkwOzIwNDg7NTIwOzUyMA"}}, {"person": {"url": "/celebrity/mitch_winehouse/", "name": "Mitch Winehouse", "thumbnailImg": "https://d2a5cgar23scu2.cloudfront.net/static/images/redesign/actor.default.tmb.gif"}}, {"person": {"url": "/celebrity/salaam_remi/", "name": "Salaam Remi", "thumbnailImg": "https://d2a5cgar23scu2.cloudfront.net/static/images/redesign/actor.default.tmb.gif"}}, {"person": {"url": "/celebrity/janis_winehouse/", "name": "Janis Winehouse", "thumbnailImg": "https://d2a5cgar23scu2.cloudfront.net/static/images/redesign/actor.default.tmb.gif"}}, {"person": {"url": "/celebrity/monte_lipman/", "name": "Monte Lipman", "thumbnailImg": "https://d2a5cgar23scu2.cloudfront.net/static/images/redesign/actor.default.tmb.gif"}}, {"person": {"url": "/celebrity/blake_wood/", "name": "Blake Wood", "thumbnailImg": "https://d2a5cgar23scu2.cloudfront.net/static/images/redesign/actor.default.tmb.gif"}}, {"person": {"url": "/celebrity/lucian_grainge/", "name": "Lucian Grainge", "thumbnailImg": "https://d2a5cgar23scu2.cloudfront.net/static/images/redesign/actor.default.tmb.gif"}}, {"person": {"url": "/celebrity/darcus_beese/", "name": "Darcus Beese", "thumbnailImg": "https://d2a5cgar23scu2.cloudfront.net/static/images/redesign/actor.default.tmb.gif"}}, {"person": {"url": "/celebrity/chip_somers/", "name": "Chip Somers", "thumbnailImg": "https://d2a5cgar23scu2.cloudfront.net/static/images/redesign/actor.default.tmb.gif"}}, {"person": {"url": "/celebrity/amy_winehouse/", "name": "Amy Winehouse", "thumbnailImg": "https://resizing.flixster.com/s82_-2yYPgbmcUtqFEY-AzCu2nk=/80x80/v1.cDsxMzgzNjE3NTtqOzE4ODE1OzIwNDg7MzYwOzQ2MA"}, "characters": [{"name": "Herself"}]}, {"person": {"url": "/celebrity/juliette_ashby/", "name": "Juliette Ashby", "thumbnailImg": "https://d2a5cgar23scu2.cloudfront.net/static/images/redesign/actor.default.tmb.gif"}, "characters": [{"name": "Herself"}]}, {"person": {"url": "/celebrity/nick_shymansky/", "name": "Nick Shymansky", "thumbnailImg": "https://d2a5cgar23scu2.cloudfront.net/static/images/redesign/actor.default.tmb.gif"}, "characters": [{"name": "Himself"}]}, {"person": {"url": "/celebrity/tyler_james/", "name": "Tyler James", "thumbnailImg": "https://d2a5cgar23scu2.cloudfront.net/static/images/redesign/actor.default.tmb.gif"}, "characters": [{"name": "Himself"}]}, {"person": {"url": "/celebrity/nick_gatfield/", "name": "Nick Gatfield", "thumbnailImg": "https://d2a5cgar23scu2.cloudfront.net/static/images/redesign/actor.default.tmb.gif"}, "characters": [{"name": "Himself"}]}, {"person": {"url": "/celebrity/lauren_gilbert/", "name": "Lauren Gilbert", "thumbnailImg": "https://d2a5cgar23scu2.cloudfront.net/static/images/redesign/actor.default.tmb.gif"}, "characters": [{"name": "Herself"}]}]}, "title": "Amy", "adjustedScore": 103.42542921629457, "ratings": {"critics_rating": "Certified Fresh", "audience_score": 87, "dvdReleaseDate": 1448956800000, "critics_score": 95, "theaterReleaseDate": 1435906800000, "audience_rating": "Upright"}, "videoClips": {"mainTrailer": {"hlsUrl": "http://video.internetvideoarchive.net/video.m3u8?cmd=6&publishedid=29990&customerid=300120&e=1619087287512&sub=RTO&fmt=11&h=9217e591c10d4908c30e84b7520c7d52", "seconds": 20, "minutes": 2, "id": 11225331, "title": "Amy", "thumbUrl": "http://content.internetvideoarchive.com/content/photos/9810/29990_024.jpg", "mp4Url": "http://video.internetvideoarchive.net/video.mp4?cmd=6&publishedid=29990&customerid=300120&e=1619087287512&sub=RTO&fmt=4&videokbrate=750&h=41c521b138eaff7c7b02191ee33271ed"}, "size": 2, "videoClips": [{"hlsUrl": "http://video.internetvideoarchive.net/video.m3u8?cmd=6&publishedid=29990&customerid=300120&e=1619087287512&sub=RTO&fmt=11&h=9217e591c10d4908c30e84b7520c7d52", "seconds": 20, "minutes": 2, "id": 11225331, "title": "Amy", "thumbUrl": "http://content.internetvideoarchive.com/content/photos/9810/29990_024.jpg", "mp4Url": "http://video.internetvideoarchive.net/video.mp4?cmd=6&publishedid=29990&customerid=300120&e=1619087287512&sub=RTO&fmt=4&videokbrate=750&h=41c521b138eaff7c7b02191ee33271ed"}, {"hlsUrl": "http://video.internetvideoarchive.net/video.m3u8?cmd=6&publishedid=http://link.theplatform.com/s/NGweTC/media/hXnygTyeI8Th&customerid=300120&e=1619087287512&sub=RTO&fmt=11&h=841542c764082394e306e30751dcd83d", "seconds": 24, "minutes": 1, "id": 11292694, "title": "Amy: Trailer 2", "thumbUrl": "http://resizing.flixster.com/4mB4Ctd5-JwEu1PM95PaG2MTUd8=/171x128/v1.bjsxNTE1NDMxO2o7MTg3ODI7MjA0ODsxMDgwOzE5MjA", "mp4Url": "http://video.internetvideoarchive.net/video.mp4?cmd=6&publishedid=http://link.theplatform.com/s/NGweTC/media/hXnygTyeI8Th&customerid=300120&e=1619087287512&sub=RTO&fmt=4&videokbrate=750&h=11c61a99f9a6de9e63db5af1bca9316e"}]}, "isUpcoming": false, "posters": {"original": "https://resizing.flixster.com/GNyZoAIIbSVlQFnml_b7OEJbp18=/1800x2668/v1.bTsxMTE5MTM2MjtqOzE4ODkxOzIwNDg7MTgwMDsyNjY4", "detailed": "https://resizing.flixster.com/2UFaL1idCr-O3vbDEbdmckqdaeo=/180x267/v1.bTsxMTE5MTM2MjtqOzE4ODkxOzIwNDg7MTgwMDsyNjY4", "profile": "https://resizing.flixster.com/41yNPgIYqPB3Cx_Sfi7meaMI0-c=/120x178/v1.bTsxMTE5MTM2MjtqOzE4ODkxOzIwNDg7MTgwMDsyNjY4", "thumbnail": "https://resizing.flixster.com/RI3T_TPt6WTAJWLDfgZiK2xIzNU=/54x80/v1.bTsxMTE5MTM2MjtqOzE4ODkxOzIwNDg7MTgwMDsyNjY4"}, "isLimited": true, "mainTrailer": {"thumbUrl": "https://content.internetvideoarchive.com/content/photos/9810/29990_024.jpg", "hlsUrl": "http://video.internetvideoarchive.net/video.m3u8?cmd=6&publishedid=29990&customerid=300120&e=1619087287222&sub=RTO&fmt=11&h=e7977d360a4103ac582743392afa9d0f", "id": 11225331, "mp4Url": "http://video.internetvideoarchive.net/video.mp4?cmd=6&publishedid=29990&customerid=300120&e=1619087287222&sub=RTO&fmt=4&videokbrate=750&h=852f47d17647948fc8e0d7ffdfba16e9"}, "advisory": "for language and drug material", "id": 771416996}