{"url": "/m/stormy_weather/", "isOnOpening": false, "genreSet": [{"displayName": "Musical & Performing Arts", "id": 12}, {"displayName": "Classics", "id": 5}], "officialUrl": "", "isInTheaters": false, "synopsis": "Built around the premise of a Big Stage Show, Stormy Weather affords rare \"mainstream\" leading roles to some of the era's greatest African-American entertainers Lena Horne, Bill \"Bojangles\" Robinson, Dooley Wilson, Cab Calloway, Katherine Dunham, Fats Waller, and the Nicholas Brothers. The thinnish plotline -- dancer Robinson has an on-again-off-again romance with Horne -- is simply an excuse for lively, well-staged performances. Of the fourteen musical numbers, the most memorable is Lena Horne's rendition of the title song, artfully staged by director Andrew L. Stone. Keep an eye out for uncredited contributions by jazz greats Zutty Hamilton, Coleman Hawkins and Taps Miller. ~ Hal Erickson, Rovi", "links": {"alternate": "//www.rottentomatoes.com/m/stormy_weather/"}, "runningTime": 78, "year": 1943, "trackingType": "DvdOther", "status": "Live", "isPlaying": false, "isOnDVD": true, "runningTimeStr": "1 hr. 18 min.", "ratingSummary": {"topcount": 15, "consensus": "Stormy Weather's depiction of the Black community is disappointingly facile, but its delightful musical numbers drown out any missed narrative notes.", "topCritics": {"hasScore": true, "numReviews": 15, "meterClass": "certified", "numRotten": 1, "numFresh": 14, "hasReviews": true, "meterValue": 93, "averageRating": 8.75}, "audience": {"meterScore": 82, "averageScore": 3.730031967163086, "numTotal": 1335, "ratingType": "viewed"}, "allcount": 41, "rottencount": 2, "dvdcount": 0, "allCritics": {"hasScore": true, "numReviews": 41, "meterClass": "certified", "numRotten": 2, "numFresh": 39, "hasReviews": true, "meterValue": 95, "averageRating": 7.88}, "freshcount": 39}, "mpaaRating": "Unrated", "vanity": "stormy_weather", "studio": "20th Century Fox", "purchaseOptions": {"amazon": {"url": "http://www.amazon.com/gp/product/B000UL088I/ref=atv_feed_catalog?tag=rottetomao_aiv_mv-20", "isPrime": false, "type": "buy"}, "vudu": {"url": "https://www.vudu.com/content/movies/details/Stormy-Weather/8666", "type": "buy"}, "iTunes": {"url": "https://itunes.apple.com/movie/stormy-weather-1943/id272951465?uo=5", "price": "9.99"}}, "reviews": {"total": 41, "links": {"alternate": "//www.rottentomatoes.com/m/stormy_weather/#reviews", "self": "api.flixster.com/movies/stormy-weather/reviews.json?review_type=mob&country=us&page=1", "prev": "api.flixster.com/movies/stormy-weather/reviews.json?review_type=mob&country=us&page=0", "next": "api.flixster.com/movies/stormy-weather/reviews.json?review_type=mob&country=us&page=2"}, "reviews": [{"isRotten": false, "url": "https://www.newspapers.com/clip/68713805/stormy-weather/", "publication": {"name": "Philadelphia Inquirer"}, "isTop": true, "creationDate": 1611809511000, "isFresh": true, "freshness": "fresh", "critic": {"url": "/critic/mildred-martin", "name": "Mildred Martin", "id": 27722, "thumbnailImage": "https://d2a5cgar23scu2.cloudfront.net/static/images/redesign/user.none.tmb.jpg"}, "quote": "Plot doesn't matter a hoot in this lively, likable picture.", "id": 2759978, "links": {"review": "https://www.newspapers.com/clip/68713805/stormy-weather/"}}, {"isRotten": false, "url": "https://www.newspapers.com/clip/68713537/stormy-weather/", "creationDate": 1611809367000, "isFresh": true, "id": 2759977, "quote": "The hottest thing in town.", "links": {"review": "https://www.newspapers.com/clip/68713537/stormy-weather/"}, "publication": {"url": "", "name": "New York Daily News"}, "isTop": true, "freshness": "fresh", "critic": {"url": "/critic/wanda-hale", "name": "Wanda Hale", "id": 16770, "thumbnailImage": "https://d2a5cgar23scu2.cloudfront.net/static/images/redesign/user.none.tmb.jpg"}, "original_score": "3.5/4"}, {"isRotten": false, "url": "https://www.newspapers.com/clip/68693487/stormy-weather/", "publication": {"name": "Boston Globe"}, "isTop": true, "creationDate": 1611804822000, "isFresh": true, "freshness": "fresh", "critic": {"url": "/critic/john-w-riley", "name": "John W. Riley", "id": 28239, "thumbnailImage": "https://d2a5cgar23scu2.cloudfront.net/static/images/redesign/user.none.tmb.jpg"}, "quote": "Really, the only thing to do is to sit back and enjoy yourself. The cast of Stormy Weather will see to that.", "id": 2759964, "links": {"review": "https://www.newspapers.com/clip/68693487/stormy-weather/"}}, {"isRotten": false, "url": "https://www.newspapers.com/clip/68712829/stormy-weather/", "publication": {"url": "", "name": "Los Angeles Times"}, "isTop": true, "creationDate": 1611804618000, "isFresh": true, "freshness": "fresh", "critic": {"url": "/critic/john-l-scott", "name": "John L. Scott", "id": 28160, "thumbnailImage": "https://d2a5cgar23scu2.cloudfront.net/static/images/redesign/user.none.tmb.jpg"}, "quote": "Nicholas Brothers, whose prodigious leaps ending in splits are almost incredible, prove real show-stoppers.", "id": 2759961, "links": {"review": "https://www.newspapers.com/clip/68712829/stormy-weather/"}}, {"isRotten": false, "url": "https://www.newspapers.com/clip/68710844/assignment-in-brittanystormy-weather/", "publication": {"url": "", "name": "St. Louis Post-Dispatch"}, "isTop": true, "creationDate": 1611803012000, "isFresh": true, "freshness": "fresh", "critic": {"url": "/critic/colvin-mcpherson", "name": "Colvin McPherson", "id": 27757, "thumbnailImage": "https://d2a5cgar23scu2.cloudfront.net/static/images/redesign/user.none.tmb.jpg"}, "quote": "The Nicholas Brothers have done astonishing work in earlier pictures, but even at that, their stair-step, leap-frog splits brought gasps and a round of applause at the preview.", "id": 2759952, "links": {"review": "https://www.newspapers.com/clip/68710844/assignment-in-brittanystormy-weather/"}}, {"isRotten": false, "url": "https://www.newspapers.com/clip/68710389/stormy-weather/", "publication": {"url": "", "name": "Miami Herald"}, "isTop": true, "creationDate": 1611802628000, "isFresh": true, "freshness": "fresh", "critic": {"url": "/critic/bob-fredericks", "name": "Bob Fredericks", "id": 27752, "thumbnailImage": "https://d2a5cgar23scu2.cloudfront.net/static/images/redesign/user.none.tmb.jpg"}, "quote": "The outstanding performance of this or any other film of its kind is the sensational dance act of the Nicholas Brothers. I won't attempt to describe it; but is worth the price of admission in itself.", "id": 2759950, "links": {"review": "https://www.newspapers.com/clip/68710389/stormy-weather/"}}, {"isRotten": false, "url": "https://newspaperarchive.com/entertainment-clipping-jul-31-1943-2112035/", "publication": {"url": "", "name": "Baltimore Afro-American"}, "isTop": false, "creationDate": 1611810477000, "isFresh": true, "freshness": "fresh", "critic": {"url": "/critic/evelena-d-jackson", "name": "Evelena D. Jackson", "id": 28162, "thumbnailImage": "https://d2a5cgar23scu2.cloudfront.net/static/images/redesign/user.none.tmb.jpg"}, "quote": "Without a doubt Stormy Weather surpasses all other all-colored pictures this writer has ever seen. The acting, costumes, and scenery are superb.", "id": 2759983, "links": {"review": "https://newspaperarchive.com/entertainment-clipping-jul-31-1943-2112035/"}}, {"isRotten": false, "url": "https://www.newspapers.com/clip/64968786/stormy-weather/", "publication": {"url": "", "name": "Pittsburgh Courier"}, "isTop": false, "creationDate": 1611810274000, "isFresh": true, "freshness": "fresh", "critic": {"url": "/critic/herman-hill", "name": "Herman Hill", "id": 28161, "thumbnailImage": "https://d2a5cgar23scu2.cloudfront.net/static/images/redesign/user.none.tmb.jpg"}, "quote": "All in all, Stormy Weather, a joyous gathering of sepia stars, is excellent entertainment, and calculated to chase the war blues away.", "id": 2759981, "links": {"review": "https://www.newspapers.com/clip/64968786/stormy-weather/"}}, {"isRotten": false, "url": "https://www.newspapers.com/clip/64971636/stormy-weather/", "publication": {"url": "", "name": "New York Age"}, "isTop": false, "creationDate": 1611810117000, "isFresh": true, "freshness": "fresh", "critic": {"url": "/critic/ny-age-staff", "name": "NY Age Staff", "id": 28163, "thumbnailImage": "https://d2a5cgar23scu2.cloudfront.net/static/images/redesign/user.none.tmb.jpg"}, "quote": "[Stormy Weather] is entertaining fare. However, it must be noted that Negroes are again shown to be a dancing and singing race with not a serious thought.", "id": 2759980, "links": {"review": "https://www.newspapers.com/clip/64971636/stormy-weather/"}}, {"isRotten": false, "url": "https://bklyn.newspapers.com/clip/68705083/stormy-weather/", "publication": {"url": "", "name": "Brooklyn Daily Eagle"}, "isTop": false, "creationDate": 1611809676000, "isFresh": true, "freshness": "fresh", "critic": {"url": "/critic/jane-corby", "name": "Jane Corby", "id": 27365, "thumbnailImage": "https://d2a5cgar23scu2.cloudfront.net/static/images/redesign/user.none.tmb.jpg"}, "quote": "Something new In musicals, Stormy Weather, with an array of entertainment headliners to keep it right on the beam, has a film story that is a cavalcade of rhythm.", "id": 2759979, "links": {"review": "https://bklyn.newspapers.com/clip/68705083/stormy-weather/"}}, {"isRotten": false, "url": "https://www.newspapers.com/clip/68713637/stormy-weather/", "publication": {"url": "", "name": "Pittsburgh Post-Gazette"}, "isTop": false, "creationDate": 1611809091000, "isFresh": true, "freshness": "fresh", "critic": {"url": "/critic/harold-v-cohen", "name": "Harold V. Cohen", "id": 20695, "thumbnailImage": "https://d2a5cgar23scu2.cloudfront.net/static/images/redesign/user.none.tmb.jpg"}, "quote": "Stormy Weather moves briskly in the manner of a high-class revue and also be haves like one.", "id": 2759976, "links": {"review": "https://www.newspapers.com/clip/68713637/stormy-weather/"}}, {"isRotten": false, "url": "https://newspaperarchive.com/entertainment-clipping-jul-24-1943-2112030/", "publication": {"url": "", "name": "Baltimore Afro-American"}, "isTop": false, "creationDate": 1611806702000, "isFresh": true, "freshness": "fresh", "critic": {"url": "/critic/bm-phillips", "name": "B.M. Phillips", "id": 27860, "thumbnailImage": "https://d2a5cgar23scu2.cloudfront.net/static/images/redesign/user.none.tmb.jpg"}, "quote": "All in all, the movie is a step in the right direction. Let's hope that there will be more and that they will improve.", "id": 2759971, "links": {"review": "https://newspaperarchive.com/entertainment-clipping-jul-24-1943-2112030/"}}]}, "casts": {"screenwriters": [{"url": "/celebrity/frederick_j_jackson/", "name": "Frederick J. Jackson", "thumbnailImg": "https://d2a5cgar23scu2.cloudfront.net/static/images/redesign/actor.default.tmb.gif"}, {"url": "/celebrity/ted_koehler/", "name": "Ted Koehler", "thumbnailImg": "https://d2a5cgar23scu2.cloudfront.net/static/images/redesign/actor.default.tmb.gif"}, {"url": "/celebrity/hs_kraft/", "name": "H.S. Kraft", "thumbnailImg": "https://d2a5cgar23scu2.cloudfront.net/static/images/redesign/actor.default.tmb.gif"}], "directors": [{"url": "/celebrity/andrew_stone/", "name": "Andrew Stone", "thumbnailImg": "https://d2a5cgar23scu2.cloudfront.net/static/images/redesign/actor.default.tmb.gif"}, {"url": "/celebrity/andrew_l_stone/", "name": "Andrew L. Stone", "thumbnailImg": "https://d2a5cgar23scu2.cloudfront.net/static/images/redesign/actor.default.tmb.gif"}], "creators": [], "producers": [{"url": "/celebrity/william_le_baron/", "name": "William Le Baron", "thumbnailImg": "https://d2a5cgar23scu2.cloudfront.net/static/images/redesign/actor.default.tmb.gif"}], "castItems": [{"person": {"url": "/celebrity/bill_bojangles_robinson/", "name": "Bill \"Bojangles\" Robinson", "thumbnailImg": "https://resizing.flixster.com/wYSsfbrmgY0HRMWln56TiSmNavQ=/80x80/v1.cDsxMjAyMzM5NDtqOzE4NzkzOzIwNDg7MzI1OzQwNQ"}, "characters": [{"name": "Bill Williamson"}]}, {"person": {"url": "/celebrity/lena_horne/", "name": "Lena Horne", "thumbnailImg": "https://resizing.flixster.com/cOahCYnvUXC2jrUn0fwF5E7ppjA=/80x80/v1.cDs5NzAxMDU2O2o7MTg3ODg7MjA0ODs0Mzc7NDYy"}, "characters": [{"name": "Selina Rogers"}]}, {"person": {"url": "/celebrity/fats_waller/", "name": "Fats Waller", "thumbnailImg": "https://resizing.flixster.com/H8RgBsfUbCRTg8pHBVBSRAs_624=/80x80/v1.cDsxMjAyMzM4OTtqOzE4Nzg4OzIwNDg7NzIwOzQ4MA"}, "characters": [{"name": "Himself"}]}, {"person": {"url": "/celebrity/cab_calloway/", "name": "Cab Calloway", "thumbnailImg": "https://resizing.flixster.com/lY0GuqbVJVod-tWxtjN6_2gE5so=/80x80/v1.cDs5Nzk3NDAyO2o7MTg3OTA7MjA0ODs0NjI7NDYy"}, "characters": [{"name": "Himself"}]}, {"person": {"url": "/celebrity/ada_brown/", "name": "Ada Brown", "thumbnailImg": "https://resizing.flixster.com/QyNzhQ279twJPbW9Su2uukh1rHY=/80x80/v1.cDsxMjAyMzM3NztqOzE4Nzc2OzIwNDg7NDc1OzU4OA"}, "characters": [{"name": "Ada"}]}, {"person": {"url": "/celebrity/katherine_dunham/", "name": "Katherine Dunham", "thumbnailImg": "https://resizing.flixster.com/G5QKbHoKM4w_ZS7NiVRX_tPc8bk=/80x80/v1.cDsxMjAyMzQwMztqOzE4ODAyOzIwNDg7MTk3MjsyNTM2"}, "characters": [{"name": "Herself"}]}, {"person": {"url": "/celebrity/dooley_wilson/", "name": "Dooley Wilson", "thumbnailImg": "https://resizing.flixster.com/4G2idnaL8ZXtdIQZopvOIE1o5IQ=/80x80/v1.cDsxMTQ5OTYyODtqOzE4ODY2OzIwNDg7MjAwOzI1Mg"}, "characters": [{"name": "Gabe"}]}, {"person": {"url": "/celebrity/the_nicholas_brothers/", "name": "The Nicholas Brothers", "thumbnailImg": "https://resizing.flixster.com/4UEFvikrI6aAUifkcxZ1_qN_0T4=/80x80/v1.cDsxMzY2ODk2NTtqOzE4ODIzOzIwNDg7NTAwOzQwMA"}, "characters": [{"name": "Themselves"}]}, {"person": {"url": "/celebrity/ned_stanfield/", "name": "Ned Stanfield", "thumbnailImg": "https://d2a5cgar23scu2.cloudfront.net/static/images/redesign/actor.default.tmb.gif"}, "characters": [{"name": "The Shadrack"}]}, {"person": {"url": "/celebrity/johnny_horace/", "name": "Johnny Horace", "thumbnailImg": "https://d2a5cgar23scu2.cloudfront.net/static/images/redesign/actor.default.tmb.gif"}, "characters": [{"name": "The Shadrack"}]}, {"person": {"url": "/celebrity/the_tramp_band/", "name": "The Tramp Band", "thumbnailImg": "https://d2a5cgar23scu2.cloudfront.net/static/images/redesign/actor.default.tmb.gif"}, "characters": [{"name": "Themselves"}]}, {"person": {"url": "/celebrity/ernest_whitman/", "name": "Ernest Whitman", "thumbnailImg": "https://d2a5cgar23scu2.cloudfront.net/static/images/redesign/actor.default.tmb.gif"}, "characters": [{"name": "Jim Europe"}]}, {"person": {"url": "/celebrity/zutty_singleton/", "name": "Zutty Singleton", "thumbnailImg": "https://d2a5cgar23scu2.cloudfront.net/static/images/redesign/actor.default.tmb.gif"}, "characters": [{"name": "Zuttie"}]}, {"person": {"url": "/celebrity/babe_wallace/", "name": "Babe Wallace", "thumbnailImg": "https://d2a5cgar23scu2.cloudfront.net/static/images/redesign/actor.default.tmb.gif"}, "characters": [{"name": "Chick Bailey"}]}, {"person": {"url": "/celebrity/mae_e_johnson/", "name": "Mae E. Johnson", "thumbnailImg": "https://d2a5cgar23scu2.cloudfront.net/static/images/redesign/actor.default.tmb.gif"}, "characters": [{"name": "Mae"}]}, {"person": {"url": "/celebrity/zuttie_singleton/", "name": "Zuttie Singleton", "thumbnailImg": "https://d2a5cgar23scu2.cloudfront.net/static/images/redesign/actor.default.tmb.gif"}, "characters": [{"name": "Zuttie"}]}, {"person": {"url": "/celebrity/mae_johnson/", "name": "Mae Johnson", "thumbnailImg": "https://d2a5cgar23scu2.cloudfront.net/static/images/redesign/actor.default.tmb.gif"}, "characters": [{"name": "Herself"}]}, {"person": {"url": "/celebrity/johnny_lee/", "name": "Johnny Lee", "thumbnailImg": "https://d2a5cgar23scu2.cloudfront.net/static/images/redesign/actor.default.tmb.gif"}, "characters": [{"name": "Lyles"}]}, {"person": {"url": "/celebrity/robert_felder/", "name": "Robert Felder", "thumbnailImg": "https://d2a5cgar23scu2.cloudfront.net/static/images/redesign/actor.default.tmb.gif"}, "characters": [{"name": "Cab Calloway"}]}, {"person": {"url": "/celebrity/nick_stewart_nicodemus/", "name": "Nick Stewart [Nicodemus]", "thumbnailImg": "https://d2a5cgar23scu2.cloudfront.net/static/images/redesign/actor.default.tmb.gif"}, "characters": [{"name": "Chauffeur"}]}, {"person": {"url": "/celebrity/eddie_anderson/", "name": "Eddie 'Rochester' Anderson", "thumbnailImg": "https://resizing.flixster.com/PmPJ8PI5dDrH681_t_za1jv5gmk=/80x80/v1.cDsxMjQ0MzU1NTtqOzE4Nzk0OzIwNDg7MzMyOzU2MA"}}, {"person": {"url": "/celebrity/flournoy_e_miller/", "name": "Flournoy E. Miller", "thumbnailImg": "https://d2a5cgar23scu2.cloudfront.net/static/images/redesign/actor.default.tmb.gif"}, "characters": [{"name": "Miller"}]}, {"person": {"url": "/celebrity/coleman_hawkins_6/", "name": "Coleman Hawkins", "thumbnailImg": "https://d2a5cgar23scu2.cloudfront.net/static/images/redesign/actor.default.tmb.gif"}, "characters": [{"name": "Saxophonist"}]}]}, "title": "Stormy Weather", "adjustedScore": 103.12774388886416, "ratings": {"critics_rating": "Certified Fresh", "audience_score": 82, "dvdReleaseDate": 1136880000000, "critics_score": 95, "theaterReleaseDate": -834685200000, "audience_rating": "Upright"}, "videoClips": {"mainTrailer": {"hlsUrl": "http://video.internetvideoarchive.net/video.m3u8?cmd=6&publishedid=2897&customerid=300120&e=1619087304662&sub=RTO&fmt=11&h=5d623eabac471211235940b7bcce6d8f", "seconds": 8, "minutes": 1, "id": 10902086, "title": "Stormy Weather", "thumbUrl": "http://content.internetvideoarchive.com/content/photos/041/2897_010.jpg", "mp4Url": "http://video.internetvideoarchive.net/video.mp4?cmd=6&publishedid=2897&customerid=300120&e=1619087304662&sub=RTO&fmt=4&videokbrate=750&h=f8a0166153e59ca18a29536ca679d985"}, "size": 1, "videoClips": [{"hlsUrl": "http://video.internetvideoarchive.net/video.m3u8?cmd=6&publishedid=2897&customerid=300120&e=1619087304662&sub=RTO&fmt=11&h=5d623eabac471211235940b7bcce6d8f", "seconds": 8, "minutes": 1, "id": 10902086, "title": "Stormy Weather", "thumbUrl": "http://content.internetvideoarchive.com/content/photos/041/2897_010.jpg", "mp4Url": "http://video.internetvideoarchive.net/video.mp4?cmd=6&publishedid=2897&customerid=300120&e=1619087304662&sub=RTO&fmt=4&videokbrate=750&h=f8a0166153e59ca18a29536ca679d985"}]}, "isUpcoming": false, "posters": {"original": "https://resizing.flixster.com/BVv6hgn07FmRtYaGz_hJyIPz57E=/545x749/v1.bTsxMTYxODI2NjtqOzE4ODg1OzIwNDg7NTQ1Ozc0OQ", "detailed": "https://resizing.flixster.com/3QR6AA1v2MyQb0fqu7ldmQwtT04=/180x247/v1.bTsxMTYxODI2NjtqOzE4ODg1OzIwNDg7NTQ1Ozc0OQ", "profile": "https://resizing.flixster.com/-zDN---K1JOyHvOg745gDxQh7ws=/120x165/v1.bTsxMTYxODI2NjtqOzE4ODg1OzIwNDg7NTQ1Ozc0OQ", "thumbnail": "https://resizing.flixster.com/arGjYEhfqdyX-J1K8Xo2TaMaNpE=/54x74/v1.bTsxMTYxODI2NjtqOzE4ODg1OzIwNDg7NTQ1Ozc0OQ"}, "isLimited": true, "mainTrailer": {"thumbUrl": "https://content.internetvideoarchive.com/content/photos/041/2897_010.jpg", "hlsUrl": "http://video.internetvideoarchive.net/video.m3u8?cmd=6&publishedid=2897&customerid=300120&e=1619087304241&sub=RTO&fmt=11&h=058462a8cbb9066bef055e4f32399d94", "id": 10902086, "mp4Url": "http://video.internetvideoarchive.net/video.mp4?cmd=6&publishedid=2897&customerid=300120&e=1619087304241&sub=RTO&fmt=4&videokbrate=750&h=ce2371d822685fdcf8f8da0da7397217"}, "photos": {"photos": [{"url": "https://resizing.flixster.com/15eNaK1Y-NY50GGfPAjhEzLTjAk=/689x1024/v1.bjsxNDQ2MjY3O2o7MTg3OTM7MjA0ODs3NTA7MTExNA", "index": 0, "submittedBy": "RT Staff", "height": 1024, "imageId": 1446267, "thumbnail": "https://resizing.flixster.com/Ztdsyf2ASm5dAY2VHOsW_HoCukc=/80x80/v1.bjsxNDQ2MjY3O2o7MTg3OTM7MjA0ODs3NTA7MTExNA", "submittedDate": "2017-01-15", "id": "multiuse-1446267", "photoType": "movie", "width": 689}, {"url": "https://resizing.flixster.com/ZpJR0Q-So8X5GFGlK2lU8-xQ93A=/635x634/v1.bjsxNDYzMzQyO2o7MTg4MTM7MjA0ODs2MzU7NjM0", "index": 1, "submittedBy": "RT Staff", "height": 634, "imageId": 1463342, "thumbnail": "https://resizing.flixster.com/WIo4ziBBHygNAUxc9VeYd6jMR_0=/80x80/v1.bjsxNDYzMzQyO2o7MTg4MTM7MjA0ODs2MzU7NjM0", "submittedDate": "2017-01-17", "id": "multiuse-1463342", "photoType": "movie", "width": 635}, {"url": "https://resizing.flixster.com/NhcYCokckVxOyjyFP9jJ3mk6amA=/682x1024/v1.bjsyMzIxNDAzO2o7MTg4MjQ7MjA0ODs5ODA7MTQ3MQ", "index": 2, "submittedBy": "RT Staff", "height": 1024, "imageId": 2321403, "thumbnail": "https://resizing.flixster.com/LLGw-BgP-2yWZ8pTQqa7ZaFbTdI=/80x80/v1.bjsyMzIxNDAzO2o7MTg4MjQ7MjA0ODs5ODA7MTQ3MQ", "submittedDate": "2019-08-10", "id": "multiuse-2321403", "photoType": "movie", "width": 682}, {"url": "https://resizing.flixster.com/1maqjeFqI6NDnR_dvP8fvPzvQd0=/1024x576/v1.bjsyMzIxNDA0O2o7MTg4MjU7MjA0ODsxOTM4OzEwOTA", "index": 3, "submittedBy": "RT Staff", "height": 576, "imageId": 2321404, "thumbnail": "https://resizing.flixster.com/CxgCCbwalu7UV_UESrydXgvgvJE=/80x80/v1.bjsyMzIxNDA0O2o7MTg4MjU7MjA0ODsxOTM4OzEwOTA", "submittedDate": "2019-08-10", "id": "multiuse-2321404", "photoType": "movie", "width": 1024}], "length": 4}, "id": 8468156}