{"url": "/m/sing_street/", "isOnOpening": false, "boxoffice": "$3.2M", "genreSet": [{"displayName": "Drama", "id": 9}, {"displayName": "Musical & Performing Arts", "id": 12}, {"displayName": "Art House & International", "id": 4}], "officialUrl": "", "isInTheaters": false, "synopsis": "From director John Carney (ONCE, BEGIN AGAIN), SING STREET takes us back to 1980s Dublin seen through the eyes of a 14-year-old boy named Conor (Ferdia Walsh-Peelo) who is looking for a break from a home strained by his parents' relationship and money troubles, while trying to adjust to his new inner-city public school where the kids are rough and the teachers are rougher. He finds a glimmer of hope in the mysterious, \u00fcber-cool and beautiful Raphina (Lucy Boynton), and with the aim of winning her heart he invites her to star in his band's music videos. There's only one problem: he's not part of a band...yet. She agrees, and now Conor must deliver what he's promised - calling himself \"Cosmo\" and immersing himself in the vibrant rock music trends of the decade, he forms a band with a few lads, and the group pours their heart into writing lyrics and shooting videos. Inspired by writer/director John Carney's life and love for music, SING STREET shows us a world where music has the power to take us away from the turmoil of everyday life and transform us into something greater.", "links": {"alternate": "//www.rottentomatoes.com/m/sing_street/"}, "runningTime": 106, "year": 2016, "trackingType": "DvdOther", "status": "Live", "isPlaying": false, "isOnDVD": true, "runningTimeStr": "1 hr. 46 min.", "ratingSummary": {"topcount": 62, "consensus": "Sing Street is a feel-good musical with huge heart and irresistible optimism, and its charmimg cast and hummable tunes help to elevate its familiar plotting.", "topCritics": {"hasScore": true, "numReviews": 62, "meterClass": "certified", "numRotten": 5, "numFresh": 57, "hasReviews": true, "meterValue": 92, "averageRating": 7.54375}, "audience": {"meterScore": 92, "averageScore": 4.31596040725708, "numTotal": 16762, "ratingType": "viewed"}, "allcount": 211, "rottencount": 11, "dvdcount": 1, "allCritics": {"hasScore": true, "numReviews": 211, "meterClass": "certified", "numRotten": 11, "numFresh": 200, "hasReviews": true, "meterValue": 95, "averageRating": 7.98}, "freshcount": 200}, "mpaaRating": "PG-13", "vanity": "sing_street", "photos": {"photos": [{"url": "https://resizing.flixster.com/iSO9WvyC1wNnW76WQl7peeEyItI=/1024x1024/v1.bjsxMDUxNDE3O2o7MTg4MTQ7MjA0ODsyMDAwOzIwMDA", "index": 0, "submittedBy": "RT Staff", "height": 1024, "imageId": 1051417, "thumbnail": "https://resizing.flixster.com/ym37oBecl50-2QWt0zZ565ncuic=/80x80/v1.bjsxMDUxNDE3O2o7MTg4MTQ7MjA0ODsyMDAwOzIwMDA", "submittedDate": "2016-03-01", "id": "multiuse-1051417", "photoType": "movie", "width": 1024}, {"url": "https://resizing.flixster.com/5Q8670N7vBAFmiCretEZqWNu1o8=/1024x794/v1.bjsxMDc1MjQ1O2o7MTg3OTI7MjA0ODsxMzUzOzEwNDk", "index": 1, "submittedBy": "RT Staff", "height": 794, "imageId": 1075245, "thumbnail": "https://resizing.flixster.com/KWwj8CQe2A7dcM5Axf18D4xAB50=/80x80/v1.bjsxMDc1MjQ1O2o7MTg3OTI7MjA0ODsxMzUzOzEwNDk", "submittedDate": "2016-04-05", "id": "multiuse-1075245", "photoType": "movie", "width": 1024}, {"url": "https://resizing.flixster.com/qmxPa0auV67YWuB8C62m3caHxkg=/1024x941/v1.bjsxMDc1MjQ2O2o7MTg3OTM7MjA0ODsxMTQxOzEwNDk", "index": 2, "submittedBy": "RT Staff", "height": 941, "imageId": 1075246, "thumbnail": "https://resizing.flixster.com/J1Zu0tXMkGb6Q65zsS9ldYopSVw=/80x80/v1.bjsxMDc1MjQ2O2o7MTg3OTM7MjA0ODsxMTQxOzEwNDk", "submittedDate": "2016-04-05", "id": "multiuse-1075246", "photoType": "movie", "width": 1024}, {"url": "https://resizing.flixster.com/DWmOaBgA5DIOjNtn7XoUecwVcYg=/1024x869/v1.bjsxMDc1MjQ3O2o7MTg3OTQ7MjA0ODsxMjM2OzEwNDk", "index": 3, "submittedBy": "RT Staff", "height": 869, "imageId": 1075247, "thumbnail": "https://resizing.flixster.com/K5jF0HoGlgyBeGhSqk8ZPfANQRE=/80x80/v1.bjsxMDc1MjQ3O2o7MTg3OTQ7MjA0ODsxMjM2OzEwNDk", "submittedDate": "2016-04-05", "id": "multiuse-1075247", "photoType": "movie", "width": 1024}, {"url": "https://resizing.flixster.com/tAD8t0yxechLhlYE-AqB8X7zP8g=/1024x836/v1.bjsxMDgyODc1O2o7MTg4MTc7MjA0ODsxMjg1OzEwNDk", "index": 4, "submittedBy": "RT Staff", "height": 836, "imageId": 1082875, "thumbnail": "https://resizing.flixster.com/g1UQxqTcTlqGKg2CW3r345Aezz4=/80x80/v1.bjsxMDgyODc1O2o7MTg4MTc7MjA0ODsxMjg1OzEwNDk", "submittedDate": "2016-04-17", "id": "multiuse-1082875", "photoType": "movie", "width": 1024}, {"url": "https://resizing.flixster.com/ENgX_TE1prBoFOJ-XsYWP7_iUXc=/1024x767/v1.bjsxMDgyODc2O2o7MTg4MTg7MjA0ODsxMTgzOzg4Ng", "index": 5, "submittedBy": "RT Staff", "height": 767, "imageId": 1082876, "thumbnail": "https://resizing.flixster.com/Ezk76Ysb5Hxf_7rwjjyiIOFpIYU=/80x80/v1.bjsxMDgyODc2O2o7MTg4MTg7MjA0ODsxMTgzOzg4Ng", "submittedDate": "2016-04-17", "id": "multiuse-1082876", "photoType": "movie", "width": 1024}, {"url": "https://resizing.flixster.com/9F0Yc6uMYyFakm5ZQ3o3ZUyop24=/1024x709/v1.bjsxMDgyODc3O2o7MTg4MTk7MjA0ODsxNTE0OzEwNDk", "index": 6, "submittedBy": "RT Staff", "height": 709, "imageId": 1082877, "thumbnail": "https://resizing.flixster.com/kmsR86aLQwUQ6VRoIzUYd7IwYHE=/80x80/v1.bjsxMDgyODc3O2o7MTg4MTk7MjA0ODsxNTE0OzEwNDk", "submittedDate": "2016-04-17", "id": "multiuse-1082877", "photoType": "movie", "width": 1024}, {"url": "https://resizing.flixster.com/ewdxQLdTE2ow9tnnZsZjY-gatTM=/1024x751/v1.bjsxMDgyODc4O2o7MTg4MjA7MjA0ODsxNDMxOzEwNDk", "index": 7, "submittedBy": "RT Staff", "height": 751, "imageId": 1082878, "thumbnail": "https://resizing.flixster.com/8jTkBLfs5I4Or6GbsKdjS4TVnQI=/80x80/v1.bjsxMDgyODc4O2o7MTg4MjA7MjA0ODsxNDMxOzEwNDk", "submittedDate": "2016-04-17", "id": "multiuse-1082878", "photoType": "movie", "width": 1024}, {"url": "https://resizing.flixster.com/UGE9hNmdt0POcodDhsZnNQp_VGo=/1024x672/v1.bjsxMDc1MjQ4O2o7MTg3OTU7MjA0ODsxMTcxOzc2OA", "index": 8, "submittedBy": "RT Staff", "height": 672, "imageId": 1075248, "thumbnail": "https://resizing.flixster.com/7HwwSBntkWdd1Ho5y2INxNw8x14=/80x80/v1.bjsxMDc1MjQ4O2o7MTg3OTU7MjA0ODsxMTcxOzc2OA", "submittedDate": "2016-04-05", "id": "multiuse-1075248", "photoType": "movie", "width": 1024}], "length": 9}, "studio": "Likely Story", "purchaseOptions": {"amazon": {"url": "http://www.amazon.com/gp/product/B01IJD7ACA/ref=atv_feed_catalog?tag=rottetomao_aiv_mv-20", "isPrime": false, "type": "buy"}, "netflix": {"streamingId": "80096631"}, "vudu": {"url": "https://www.vudu.com/content/movies/details/Sing-Street/772102", "type": "buy"}, "iTunes": {"url": "https://itunes.apple.com/movie/sing-street/id1098886505?uo=5", "price": "12.99"}}, "reviews": {"total": 211, "links": {"alternate": "//www.rottentomatoes.com/m/sing_street/#reviews", "self": "api.flixster.com/movies/sing-street/reviews.json?review_type=mob&country=us&page=1", "prev": "api.flixster.com/movies/sing-street/reviews.json?review_type=mob&country=us&page=0", "next": "api.flixster.com/movies/sing-street/reviews.json?review_type=mob&country=us&page=2"}, "reviews": [{"isRotten": true, "url": "https://www.ft.com/content/93d2c2a2-1dca-11e6-b286-cddde55ca122", "creationDate": 1482862934000, "isFresh": false, "id": 2369661, "quote": "Piffle, really, with guitars.", "links": {"review": "https://www.ft.com/content/93d2c2a2-1dca-11e6-b286-cddde55ca122"}, "publication": {"url": "", "name": "Financial Times"}, "isTop": true, "freshness": "rotten", "critic": {"url": "/critic/antonia-quirke", "name": "Antonia Quirke", "id": 10415, "thumbnailImage": "https://d2a5cgar23scu2.cloudfront.net/static/images/redesign/user.none.tmb.jpg"}, "original_score": "2/5"}, {"isRotten": false, "url": "https://battleshippretension.com/crossing-the-streams-march-2017-by-jim-rohner/", "publication": {"url": "http://battleshippretension.com", "name": "Battleship Pretension"}, "isTop": false, "creationDate": 1618518822000, "isFresh": true, "freshness": "fresh", "critic": {"url": "/critic/jim-rohner", "name": "Jim Rohner", "id": 26058, "thumbnailImage": "https://d2a5cgar23scu2.cloudfront.net/static/images/redesign/user.none.tmb.jpg"}, "quote": "If \"Drive It Like You Stole It\" isn't caught in your head for days after watching then you're doing something wrong.", "id": 2784117, "links": {"publication": "http://battleshippretension.com", "review": "https://battleshippretension.com/crossing-the-streams-march-2017-by-jim-rohner/"}}, {"isRotten": true, "url": "https://www.wsws.org/en/articles/2016/05/28/sing-m28.html", "publication": {"url": "", "name": "World Socialist Web Site"}, "isTop": false, "creationDate": 1614303351000, "isFresh": false, "freshness": "rotten", "critic": {"url": "/critic/joanne-laurier", "name": "Joanne Laurier", "id": 12748, "thumbnailImage": "https://d2a5cgar23scu2.cloudfront.net/static/images/redesign/user.none.tmb.jpg"}, "quote": "Sing Street is a self-consciously \"cute\" film about a sweet Irish cocoon-in other words, a fairy tale.", "id": 2771327, "links": {"review": "https://www.wsws.org/en/articles/2016/05/28/sing-m28.html"}}, {"isRotten": false, "url": "http://www.richardcrouse.ca/sing-street-4-stars-a-story-that-is-as-joyful-as-it-is-tuneful/", "creationDate": 1612371484000, "isFresh": true, "id": 2763868, "quote": "Celebrates risk taking and underdogs in a story that is as joyful as it is tuneful.", "links": {"review": "http://www.richardcrouse.ca/sing-street-4-stars-a-story-that-is-as-joyful-as-it-is-tuneful/"}, "publication": {"url": "", "name": "Richard Crouse"}, "isTop": false, "freshness": "fresh", "critic": {"url": "/critic/richard-crouse", "name": "Richard Crouse", "id": 5921, "thumbnailImage": "https://resizing.flixster.com/ccJ27MfJF5DyTthYpeMJqr02opo=/72x72/v1.YzszODgxO2o7MTg3NzY7MjA0ODszMDA7MzAw"}, "original_score": "4/5"}, {"isRotten": false, "url": "http://gonewiththetwins.com/new/sing-street-2016/", "creationDate": 1607131543000, "isFresh": true, "id": 2748665, "quote": "Much more intelligent and mature than its youthful cast would suggest.", "links": {"review": "http://gonewiththetwins.com/new/sing-street-2016/"}, "publication": {"url": "", "name": "Gone With The Twins"}, "isTop": false, "freshness": "fresh", "critic": {"url": "/critic/mike-massie", "name": "Mike Massie", "id": 27168, "thumbnailImage": "https://resizing.flixster.com/cKCY6tR9EskewGPlb8BlnvWesZU=/72x72/v1.YzszNjc3O2o7MTg3OTc7MjA0ODszMDA7MzAw"}, "original_score": "9/10"}, {"isRotten": false, "url": "https://www.kcci.com/article/review-indy-charmer-will-make-your-heart-sing/6920236", "publication": {"url": "", "name": "KCCI (Des Moines, IA)"}, "isTop": false, "creationDate": 1594763437000, "isFresh": true, "freshness": "fresh", "critic": {"url": "/critic/damond-fudge", "name": "Damond Fudge", "id": 27209, "thumbnailImage": "https://resizing.flixster.com/JPliTCpO40fTsEWIcuxfJ-bfOSM=/72x72/v1.YzszNjk1O2o7MTg3NzA7MjA0ODsyMTgwOzIxODA"}, "quote": "Sing Street is a charming little love story, with fun songs, both originals and New Wave classics from the period. It will make its way into your heart and probably stay there for a while", "id": 2704755, "links": {"review": "https://www.kcci.com/article/review-indy-charmer-will-make-your-heart-sing/6920236"}}, {"isRotten": false, "url": "https://www.cinemaficionados.com/2016/09/critica-sing-street.html", "creationDate": 1593209139000, "isFresh": true, "id": 2699409, "quote": "We are facing a delicious comedy that uses music as the heartbeat of a heart in love to seduce us with its apparent melodious romanticism. [Full review in Spanish]", "links": {"review": "https://www.cinemaficionados.com/2016/09/critica-sing-street.html"}, "publication": {"url": "", "name": "Cinemaficionados"}, "isTop": false, "freshness": "fresh", "critic": {"url": "/critic/yasser-medina", "name": "Yasser Medina", "id": 27196, "thumbnailImage": "https://resizing.flixster.com/3NCnB7AmIFI6vULpFEkVDl8ek18=/72x72/v1.YzszNjg1O3A7MTg4MDU7MjA0ODszMDA7MzAw"}, "original_score": "8/10"}, {"isRotten": false, "url": "https://moviesandshakers.com/sing-street/", "publication": {"url": "", "name": "Movies and Shakers"}, "isTop": false, "creationDate": 1571697872000, "isFresh": true, "freshness": "fresh", "critic": {"url": "/critic/linda-and-al-lerner", "name": "Linda and Al Lerner", "id": 24495, "thumbnailImage": "https://resizing.flixster.com/ufpo5DpFNw2RvpYJm2-IETZ_EkY=/72x72/v1.YzszMzIyO2o7MTg4MDI7MjA0ODszMDA7MzAw"}, "quote": "Writer/Director John Carney has another winner here. ", "id": 2637914, "links": {"review": "https://moviesandshakers.com/sing-street/"}}, {"isRotten": false, "url": "https://www.newshub.co.nz/home/entertainment/2016/07/sing-street-review.html", "creationDate": 1567118039000, "isFresh": true, "id": 2620244, "quote": "Sing Street should be watched at full volume and with an open heart.", "links": {"review": "https://www.newshub.co.nz/home/entertainment/2016/07/sing-street-review.html"}, "publication": {"url": "", "name": "Newshub (NZ)"}, "isTop": false, "freshness": "fresh", "critic": {"url": "/critic/kate-rodger", "name": "Kate Rodger", "id": 22269, "thumbnailImage": "https://resizing.flixster.com/hgm86zHV-EJAl6lEtXMfi_0HWqE=/72x72/v1.YzszNDM2O2o7MTg3ODE7MjA0ODszMDA7MzAw"}, "original_score": "4/5"}, {"isRotten": false, "url": "https://smashcutreviews.com/2017/01/sing-street-movie-review-a-fun-musical-romp-with-an-emotional-punch/", "creationDate": 1565205650000, "isFresh": true, "id": 2613301, "quote": "Yes, the drama can feel a bit contrived. But it's delivered and packaged in such an entertaining way with memorable characters. It easily lands amongst the best films of the year for me.", "links": {"review": "https://smashcutreviews.com/2017/01/sing-street-movie-review-a-fun-musical-romp-with-an-emotional-punch/"}, "publication": {"url": "", "name": "Smash Cut Reviews"}, "isTop": false, "freshness": "fresh", "critic": {"url": "/critic/karl-delossantos", "name": "Karl Delossantos", "id": 25406, "thumbnailImage": "https://resizing.flixster.com/X401TRLXg9qrz3dVkOokZctmoLA=/72x72/v1.YzszNDE1O2o7MTg4MDU7MjA0ODszMDA7MzAw"}, "original_score": "4/5"}, {"isRotten": false, "url": "https://thereader.com/film/once-again", "creationDate": 1562701920000, "isFresh": true, "id": 2603480, "quote": "Carney and company make songs in loads of different 1980s genres, and all work perfectly. Combine that with a few nice, softer moments and a literal \"fist-pumping\" ending, and you have a film that's hard to dislike, even if it could stand more harmony.", "links": {"review": "https://thereader.com/film/once-again"}, "publication": {"url": "", "name": "The Reader (Omaha, NE)"}, "isTop": false, "freshness": "fresh", "critic": {"url": "/critic/ryan-syrek", "name": "Ryan Syrek", "id": 25325, "thumbnailImage": "https://resizing.flixster.com/RfUJaMOxGh6ltKLizn6LvHo-uEA=/72x72/v1.YzszNDA1O2o7MTg3OTU7MjA0ODszMDA7MzAw"}, "original_score": "B"}, {"isRotten": false, "url": "https://rachelsreviews.net/2016/04/27/sing-street-review/", "creationDate": 1555110065000, "isFresh": true, "id": 2577056, "quote": "I loved the music!", "links": {"review": "https://rachelsreviews.net/2016/04/27/sing-street-review/"}, "publication": {"url": "", "name": "rachelsreviews.net"}, "isTop": false, "freshness": "fresh", "critic": {"url": "/critic/rachel-wagner", "name": "Rachel Wagner", "id": 23964, "thumbnailImage": "https://resizing.flixster.com/CvuVoWlOH-LcGgLgTU2V23hxVvM=/72x72/v1.YzszMjU3O2o7MTg3ODI7MjA0ODszMDA7MzAw"}, "original_score": "A+"}]}, "casts": {"screenwriters": [{"url": "/celebrity/john_carney/", "name": "John Carney", "thumbnailImg": "https://resizing.flixster.com/XKhIfPPoAB41vEWYYROSUkM8IWo=/80x80/v1.cDs2ODIzNzgxO2o7MTg4Njk7MjA0ODsxOTUwOzI3Mjg"}], "directors": [{"url": "/celebrity/john_carney/", "name": "John Carney", "thumbnailImg": "https://resizing.flixster.com/XKhIfPPoAB41vEWYYROSUkM8IWo=/80x80/v1.cDs2ODIzNzgxO2o7MTg4Njk7MjA0ODsxOTUwOzI3Mjg"}], "creators": [], "producers": [{"url": "/celebrity/anthony_bregman/", "name": "Anthony Bregman", "thumbnailImg": "https://d2a5cgar23scu2.cloudfront.net/static/images/redesign/actor.default.tmb.gif"}, {"url": "/celebrity/john_carney/", "name": "John Carney", "thumbnailImg": "https://resizing.flixster.com/XKhIfPPoAB41vEWYYROSUkM8IWo=/80x80/v1.cDs2ODIzNzgxO2o7MTg4Njk7MjA0ODsxOTUwOzI3Mjg"}, {"url": "/celebrity/martina-niland/", "name": "Martina Niland", "thumbnailImg": "https://d2a5cgar23scu2.cloudfront.net/static/images/redesign/actor.default.tmb.gif"}, {"url": "/celebrity/paul_trijbits/", "name": "Paul Trijbits", "thumbnailImg": "https://d2a5cgar23scu2.cloudfront.net/static/images/redesign/actor.default.tmb.gif"}, {"url": "/celebrity/christian_grass/", "name": "Christian Grass", "thumbnailImg": "https://d2a5cgar23scu2.cloudfront.net/static/images/redesign/actor.default.tmb.gif"}], "castItems": [{"person": {"url": "/celebrity/ferdia_walsh_peelo/", "name": "Ferdia Walsh-Peelo", "thumbnailImg": "https://resizing.flixster.com/48p3xh63ml6oPS4IpAFwiyVM1y4=/80x80/v1.cjs0ODk5MjtqOzE4Nzk3OzIwNDg7MTgzMTsxODkw"}, "characters": [{"name": "Cosmo"}]}, {"person": {"url": "/celebrity/1190128-lucy_boynton/", "name": "Lucy Boynton", "thumbnailImg": "https://resizing.flixster.com/jzPFfFBGhJbT3QnZhQblEAdXQ-o=/80x80/v1.cjs0OTQ5ODtqOzE4ODA4OzIwNDg7MjA3NjszMDAw"}, "characters": [{"name": "Raphina"}]}, {"person": {"url": "/celebrity/jack_reynor/", "name": "Jack Reynor", "thumbnailImg": "https://d2a5cgar23scu2.cloudfront.net/static/images/redesign/actor.default.tmb.gif"}, "characters": [{"name": "Brendan"}]}, {"person": {"url": "/celebrity/maria_doyle_kennedy/", "name": "Maria Doyle Kennedy", "thumbnailImg": "https://resizing.flixster.com/mCXrla6_a7Km9blCj1PtFtFheZE=/80x80/v1.cjs0NTM0NDtqOzE4Nzk0OzIwNDg7NDM4OzM5MA"}, "characters": [{"name": "Penny"}]}, {"person": {"url": "/celebrity/aidan_gillen/", "name": "Aidan Gillen", "thumbnailImg": "https://resizing.flixster.com/mANRWWaDcYFZclKLmRWY7aEH9nw=/80x80/v1.cjs0NDY5NTtqOzE4Nzc1OzIwNDg7MzkxOzM0OA"}, "characters": [{"name": "Robert"}]}, {"person": {"url": "/celebrity/kelly_thornton/", "name": "Kelly Thornton (II) ", "thumbnailImg": "https://d2a5cgar23scu2.cloudfront.net/static/images/redesign/actor.default.tmb.gif"}, "characters": [{"name": "Ann"}]}, {"person": {"url": "/celebrity/mark_mckenna/", "name": "Mark McKenna", "thumbnailImg": "https://d2a5cgar23scu2.cloudfront.net/static/images/redesign/actor.default.tmb.gif"}, "characters": [{"name": "Eamon"}]}, {"person": {"url": "/celebrity/ben_carolan/", "name": "Ben Carolan", "thumbnailImg": "https://d2a5cgar23scu2.cloudfront.net/static/images/redesign/actor.default.tmb.gif"}, "characters": [{"name": "Darren"}]}, {"person": {"url": "/celebrity/percy_chamburuka/", "name": "Percy Chamburuka", "thumbnailImg": "https://d2a5cgar23scu2.cloudfront.net/static/images/redesign/actor.default.tmb.gif"}, "characters": [{"name": "Ngig"}]}, {"person": {"url": "/celebrity/conor_hamilton/", "name": "Conor Hamilton", "thumbnailImg": "https://d2a5cgar23scu2.cloudfront.net/static/images/redesign/actor.default.tmb.gif"}, "characters": [{"name": "Larry"}]}, {"person": {"url": "/celebrity/karl_rice/", "name": "Karl Rice", "thumbnailImg": "https://d2a5cgar23scu2.cloudfront.net/static/images/redesign/actor.default.tmb.gif"}, "characters": [{"name": "Garry"}]}, {"person": {"url": "/celebrity/ian_kenny/", "name": "Ian Kenny", "thumbnailImg": "https://d2a5cgar23scu2.cloudfront.net/static/images/redesign/actor.default.tmb.gif"}, "characters": [{"name": "Barry"}]}, {"person": {"url": "/celebrity/don_wycherley/", "name": "Don Wycherley", "thumbnailImg": "https://resizing.flixster.com/3KbCMnTRq2TCrqOepwQWcT9m25I=/80x80/v1.cDsxMTYyOTYzODtqOzE4ODcyOzIwNDg7MzAwOzM3MA"}, "characters": [{"name": "Brother Baxter"}]}, {"person": {"url": "/celebrity/lydia_mcguinness/", "name": "Lydia McGuinness", "thumbnailImg": "https://d2a5cgar23scu2.cloudfront.net/static/images/redesign/actor.default.tmb.gif"}, "characters": [{"name": "Miss Dunne"}]}, {"person": {"url": "/celebrity/des_keogh/", "name": "Des Keogh", "thumbnailImg": "https://d2a5cgar23scu2.cloudfront.net/static/images/redesign/actor.default.tmb.gif"}, "characters": [{"name": "Brother Barnabas"}]}, {"person": {"url": "/celebrity/kian_murphy_2/", "name": "Kian Murphy", "thumbnailImg": "https://d2a5cgar23scu2.cloudfront.net/static/images/redesign/actor.default.tmb.gif"}, "characters": [{"name": "Mick Mahon"}]}, {"person": {"url": "/celebrity/marcella_plunkett/", "name": "Marcella Plunkett", "thumbnailImg": "https://d2a5cgar23scu2.cloudfront.net/static/images/redesign/actor.default.tmb.gif"}, "characters": [{"name": "Eamon's Mum"}]}, {"person": {"url": "/celebrity/tony_doyle/", "name": "Tony Doyle", "thumbnailImg": "https://d2a5cgar23scu2.cloudfront.net/static/images/redesign/actor.default.tmb.gif"}, "characters": [{"name": "Wayne"}]}, {"person": {"url": "/celebrity/kyle_bradley_donaldson/", "name": "Kyle Bradley Donaldson", "thumbnailImg": "https://d2a5cgar23scu2.cloudfront.net/static/images/redesign/actor.default.tmb.gif"}, "characters": [{"name": "5th Former"}]}, {"person": {"url": "/celebrity/paul_gibbons/", "name": "Paul Gibbons", "thumbnailImg": "https://d2a5cgar23scu2.cloudfront.net/static/images/redesign/actor.default.tmb.gif"}, "characters": [{"name": "Exam Supervisor"}]}, {"person": {"url": "/celebrity/eva_jane_gaffney/", "name": "Eva-Jane Gaffney", "thumbnailImg": "https://d2a5cgar23scu2.cloudfront.net/static/images/redesign/actor.default.tmb.gif"}, "characters": [{"name": "Jacinta"}]}, {"person": {"url": "/celebrity/paul_roe/", "name": "Paul Roe", "thumbnailImg": "https://d2a5cgar23scu2.cloudfront.net/static/images/redesign/actor.default.tmb.gif"}, "characters": [{"name": "Surveyor"}]}]}, "title": "Sing Street", "adjustedScore": 103.01817311473168, "ratings": {"critics_rating": "Certified Fresh", "audience_score": 92, "dvdReleaseDate": 1469516400000, "critics_score": 95, "theaterReleaseDate": 1460703600000, "audience_rating": "Upright"}, "videoClips": {"mainTrailer": {"hlsUrl": "http://video.internetvideoarchive.net/video.m3u8?cmd=6&publishedid=108532&customerid=300120&e=1619087311314&sub=RTO&fmt=11&h=6c441215352a0586ca328aa080b7330c", "seconds": 31, "minutes": 2, "id": 11234969, "title": "Sing Street", "thumbUrl": "http://content.internetvideoarchive.com/content/photos/9937/108532_065.jpg", "mp4Url": "http://video.internetvideoarchive.net/video.mp4?cmd=6&publishedid=108532&customerid=300120&e=1619087311314&sub=RTO&fmt=4&videokbrate=750&h=49f9db9973c31271b212d48da8106cae"}, "size": 4, "videoClips": [{"hlsUrl": "http://video.internetvideoarchive.net/video.m3u8?cmd=6&publishedid=108532&customerid=300120&e=1619087311314&sub=RTO&fmt=11&h=6c441215352a0586ca328aa080b7330c", "seconds": 31, "minutes": 2, "id": 11234969, "title": "Sing Street", "thumbUrl": "http://content.internetvideoarchive.com/content/photos/9937/108532_065.jpg", "mp4Url": "http://video.internetvideoarchive.net/video.mp4?cmd=6&publishedid=108532&customerid=300120&e=1619087311314&sub=RTO&fmt=4&videokbrate=750&h=49f9db9973c31271b212d48da8106cae"}, {"hlsUrl": "http://video.internetvideoarchive.net/video.m3u8?cmd=6&publishedid=http://link.theplatform.com/s/NGweTC/media/OxNl1n7tXDig&customerid=300120&e=1619087311314&sub=RTO&fmt=11&h=8bdab43ce2bdd65f8baa45179e6bb837", "seconds": 31, "minutes": 2, "id": 11292198, "title": "Sing Street: Trailer 1", "thumbUrl": "http://resizing.flixster.com/jzXRvI3EVuVnq2QxoC8nE10vE-k=/171x128/v1.bjsxNTE0OTYxO2o7MTg3ODI7MjA0ODsxMDgwOzE5MjA", "mp4Url": "http://video.internetvideoarchive.net/video.mp4?cmd=6&publishedid=http://link.theplatform.com/s/NGweTC/media/OxNl1n7tXDig&customerid=300120&e=1619087311314&sub=RTO&fmt=4&videokbrate=750&h=3fcba657f5f2da81df7f7ab81de7320f"}, {"hlsUrl": "http://video.internetvideoarchive.net/video.m3u8?cmd=6&publishedid=http://link.theplatform.com/s/NGweTC/media/_i6bXqK4CHMa&customerid=300120&e=1619087311314&sub=RTO&fmt=11&h=dd97758e46f8295dd8b06d62b4e82387", "seconds": 22, "minutes": 5, "id": 11327380, "title": "Sing Street: B-Roll 2", "thumbUrl": "http://resizing.flixster.com/gWGCBrQ5APF7OuZ17tooew_5ssQ=/171x128/v1.bjsyNTQ2NzY5O2o7MTg4Mzk7MjA0ODsxMDgwOzE5MjA", "mp4Url": "http://video.internetvideoarchive.net/video.mp4?cmd=6&publishedid=http://link.theplatform.com/s/NGweTC/media/_i6bXqK4CHMa&customerid=300120&e=1619087311314&sub=RTO&fmt=4&videokbrate=750&h=db422c3ce385d7e064fc330199646448"}, {"hlsUrl": "http://video.internetvideoarchive.net/video.m3u8?cmd=6&publishedid=http://link.theplatform.com/s/NGweTC/media/RgefSn4nG1m7&customerid=300120&e=1619087311314&sub=RTO&fmt=11&h=6829fc02bff10b3d1aa4848d76c52b44", "seconds": 9, "minutes": 6, "id": 11327381, "title": "Sing Street: B-Roll 1", "thumbUrl": "http://resizing.flixster.com/Mpigd3UHU3jb0DeQzvRGqEWmZWw=/171x128/v1.bjsyNTQ2NzcwO2o7MTg4Mzk7MjA0ODsxMDgwOzE5MjA", "mp4Url": "http://video.internetvideoarchive.net/video.mp4?cmd=6&publishedid=http://link.theplatform.com/s/NGweTC/media/RgefSn4nG1m7&customerid=300120&e=1619087311314&sub=RTO&fmt=4&videokbrate=750&h=dca0de00dff6d2547045ad21b581d074"}]}, "isUpcoming": false, "posters": {"original": "https://resizing.flixster.com/_ZCS9S3Jv1HVrLrWyGd0oSRKkNM=/2025x3000/v1.bTsxMTUwMTc1MTtqOzE4ODc0OzIwNDg7MjAyNTszMDAw", "detailed": "https://resizing.flixster.com/r3kXALoYQyPOUhscLYLwCS6uGY0=/180x267/v1.bTsxMTUwMTc1MTtqOzE4ODc0OzIwNDg7MjAyNTszMDAw", "profile": "https://resizing.flixster.com/s638L5kG9vdaQzcvWU3LVWxvtL8=/120x178/v1.bTsxMTUwMTc1MTtqOzE4ODc0OzIwNDg7MjAyNTszMDAw", "thumbnail": "https://resizing.flixster.com/pIPhGtdvb4lZhqYSklmQTZNLeP4=/54x80/v1.bTsxMTUwMTc1MTtqOzE4ODc0OzIwNDg7MjAyNTszMDAw"}, "isLimited": true, "mainTrailer": {"thumbUrl": "https://content.internetvideoarchive.com/content/photos/9937/108532_065.jpg", "hlsUrl": "http://video.internetvideoarchive.net/video.m3u8?cmd=6&publishedid=108532&customerid=300120&e=1619087310904&sub=RTO&fmt=11&h=b17f76c21a3458867e01a4d57cc9e12c", "id": 11234969, "mp4Url": "http://video.internetvideoarchive.net/video.mp4?cmd=6&publishedid=108532&customerid=300120&e=1619087310904&sub=RTO&fmt=4&videokbrate=750&h=6c438ee3ac3d6dbe2e5e5b540910efd9"}, "advisory": "for thematic elements including strong language and some bullying behavior, a suggestive image, drug material and teen smoking", "id": 771435272}