{"url": "/m/the_last_waltz_1978/", "isOnOpening": false, "genreSet": [{"displayName": "Musical & Performing Arts", "id": 12}, {"displayName": "Documentary", "id": 8}], "runningTime": 117, "isInTheaters": false, "synopsis": "Martin Scorsese chronicles the most legendary night in rock history, as an unparalleled lineup of rock superstars -- including Bob Dylan, Eric Clapton, Neil Young, Joni Mitchell and Van Morrison -- take the stage for \"The Band's\" 1976 farewell concert.", "links": {"alternate": "//www.rottentomatoes.com/m/the_last_waltz_1978/"}, "year": 1978, "trackingType": "DvdOther", "status": "Live", "isPlaying": false, "isOnDVD": true, "runningTimeStr": "1 hr. 57 min.", "ratingSummary": {"topcount": 17, "consensus": "Among one of, if not the best rock movie ever made, The Last Waltz is a revealing, electrifying view of the classic band at their height.", "topCritics": {"hasScore": true, "numReviews": 17, "meterClass": "certified", "numRotten": 1, "numFresh": 16, "hasReviews": true, "meterValue": 94, "averageRating": 8.233333}, "audience": {"meterScore": 94, "averageScore": 4.2556867599487305, "numTotal": 13859, "ratingType": "viewed"}, "allcount": 51, "rottencount": 1, "dvdcount": 8, "allCritics": {"hasScore": true, "numReviews": 50, "meterClass": "certified", "numRotten": 1, "numFresh": 49, "hasReviews": true, "meterValue": 98, "averageRating": 8.53}, "freshcount": 49}, "mpaaRating": "PG", "vanity": "the_last_waltz_1978", "photos": {"photos": [{"url": "https://resizing.flixster.com/m6kHRSiLLE17kup4EZW36Jtr7RE=/512x512/v1.bjsxMTk3NDk2O2o7MTg3Nzk7MjA0ODs1MTI7NTEy", "index": 0, "submittedBy": "RT Staff", "height": 512, "imageId": 1197496, "thumbnail": "https://resizing.flixster.com/uYPHLorxt2qeUxUg0hYgeiHd84g=/80x80/v1.bjsxMTk3NDk2O2o7MTg3Nzk7MjA0ODs1MTI7NTEy", "submittedDate": "2016-08-20", "id": "multiuse-1197496", "photoType": "movie", "width": 512}, {"url": "https://resizing.flixster.com/PK15gCmL2qTuCh0Owd2WObXt3kM=/1024x1024/v1.bjsxMzk3NTUzO2o7MTg4MTQ7MjA0ODsxNjAwOzE2MDA", "index": 1, "submittedBy": "RT Staff", "height": 1024, "imageId": 1397553, "thumbnail": "https://resizing.flixster.com/bUFzaEVKpIXBFnuoJjfR5Jph5lg=/80x80/v1.bjsxMzk3NTUzO2o7MTg4MTQ7MjA0ODsxNjAwOzE2MDA", "submittedDate": "2016-11-21", "id": "multiuse-1397553", "photoType": "movie", "width": 1024}], "length": 2}, "studio": "MGM", "purchaseOptions": {"amazon": {"url": "http://www.amazon.com/gp/video/primesignup?t=0m0s&redirectToAsin=B07DFKC5R3&tag=rottetomao_piv_mv-20", "isPrime": true}, "iTunes": {"url": "https://itunes.apple.com/movie/the-last-waltz-1978/id870686340?uo=5", "price": "14.99"}}, "reviews": {"total": 51, "links": {"alternate": "//www.rottentomatoes.com/m/the_last_waltz_1978/#reviews", "self": "api.flixster.com/movies/the-last-waltz/reviews.json?review_type=mob&country=us&page=1", "prev": "api.flixster.com/movies/the-last-waltz/reviews.json?review_type=mob&country=us&page=0", "next": "api.flixster.com/movies/the-last-waltz/reviews.json?review_type=mob&country=us&page=2"}, "reviews": [{"isRotten": false, "url": "https://archive.org/details/Sight_and_Sound_1978_04_BFI_GB/page/n65/mode/2up", "publication": {"url": "", "name": "Sight & Sound"}, "isTop": true, "creationDate": 1585697526000, "isFresh": true, "freshness": "fresh", "critic": {"url": "/critic/richard-combs", "name": "Richard Combs", "id": 15718, "thumbnailImage": "https://d2a5cgar23scu2.cloudfront.net/static/images/redesign/user.none.tmb.jpg"}, "quote": "At its best the style of The Last Waltz, at once kaleidoscopic and concentrated, discursive and fixated, distils more about its subject and its times (and about its maker and his obsessions) than the impressionism of cinema verite.", "id": 2680471, "links": {"review": "https://archive.org/details/Sight_and_Sound_1978_04_BFI_GB/page/n65/mode/2up"}}, {"isRotten": false, "url": "https://www.thestar.com/entertainment/tiff/2019/08/30/peter-howells-20-hot-picks-for-tiff-2019.html", "creationDate": 1568218649000, "isFresh": true, "id": 2624602, "quote": "Simply one of the best rock docs ever, born of equal parts thunder and fatigue.", "links": {"review": "https://www.thestar.com/entertainment/tiff/2019/08/30/peter-howells-20-hot-picks-for-tiff-2019.html"}, "publication": {"url": "", "name": "Toronto Star"}, "isTop": true, "freshness": "fresh", "critic": {"url": "/critic/peter-howell", "name": "Peter Howell", "id": 947, "thumbnailImage": "https://resizing.flixster.com/dg3IUPFNsPE1F8FMBtjomvceuy8=/72x72/v1.YzsyNTY4O2c7MTg3Njg7MjA0ODsxNTA7MTUw"}, "original_score": "4/4"}, {"isRotten": false, "url": "https://www.washingtonpost.com/archive/lifestyle/1978/05/11/last-waltz-a-film-of-the-bands-big-finale/bcad661d-9f8f-4b0e-b1c3-dff969c9484c/?utm_term=.a76c0a36100d", "publication": {"url": "", "name": "Washington Post"}, "isTop": true, "creationDate": 1515447852000, "isFresh": true, "freshness": "fresh", "critic": {"url": "/critic/kenneth-turan", "name": "Kenneth Turan", "id": 420, "thumbnailImage": "https://resizing.flixster.com/GGcmim4Df8Ts84r2ovfXvoUtweo=/72x72/v1.YzsyNjgzO2c7MTg3OTM7MjA0ODsxNTA7MTUw"}, "quote": "The Band's music has such intrinsic strength and resilience that it can't help but break through those self-imposed barriers and set itself and the audience free.", "id": 2448382, "links": {"review": "https://www.washingtonpost.com/archive/lifestyle/1978/05/11/last-waltz-a-film-of-the-bands-big-finale/bcad661d-9f8f-4b0e-b1c3-dff969c9484c/?utm_term=.a76c0a36100d"}}, {"isRotten": false, "url": "http://www.guardian.co.uk/film/2011/dec/01/the-last-waltz-review", "creationDate": 1322783177000, "isFresh": true, "id": 2031398, "quote": "A heady time capsule.", "links": {"review": "http://www.guardian.co.uk/film/2011/dec/01/the-last-waltz-review"}, "publication": {"url": "", "name": "Guardian"}, "isTop": true, "freshness": "fresh", "critic": {"url": "/critic/peter-bradshaw", "name": "Peter Bradshaw", "id": 408, "thumbnailImage": "https://d2a5cgar23scu2.cloudfront.net/static/images/redesign/user.none.tmb.jpg"}, "original_score": "4/5"}, {"isRotten": false, "url": "http://www.timeout.com/film/reviews/80179/the-last-waltz.html", "creationDate": 1139483789000, "isFresh": true, "id": 1480355, "quote": "It's arguably the most beautiful of rock movies, while the musical highlights - 'The Weight' with the Staples Singers, Van Morrison's firebolt 'Caravan', every Levon Helm vocal - still astound.", "links": {"review": "http://www.timeout.com/film/reviews/80179/the-last-waltz.html"}, "publication": {"url": "", "name": "Time Out"}, "isTop": true, "freshness": "fresh", "critic": {"url": "/critic/tom-huddleston", "name": "Tom Huddleston", "id": 13077, "thumbnailImage": "https://resizing.flixster.com/YLvOMjVYezqhkpJuAkPhJ-NO4qQ=/72x72/v1.YzsyNDQ4O2c7MTg3ODM7MjA0ODszODs0Mg"}, "original_score": "4/5"}, {"isRotten": true, "isFresh": false, "publication": {"url": "", "name": "New York Times"}, "isTop": true, "creationDate": 1053475903000, "freshness": "rotten", "critic": {"url": "/critic/janet-maslin", "name": "Janet Maslin", "id": 341, "thumbnailImage": "https://d2a5cgar23scu2.cloudfront.net/static/images/redesign/user.none.tmb.jpg"}, "quote": "There is a dazzling array of talent on display here, and the film surely has its memorable moments. But it articulates so little of the end-of-an-era feeling it hints at.", "id": 1142180, "original_score": "2.5/5", "links": {}}, {"isRotten": false, "url": "http://www.cambridgeday.com/2020/04/05/coronavirus-edition-iv-movies-to-shelter-with-from-dolphin-reef-dive-to-eerie-trigger-effect/", "creationDate": 1586195575000, "isFresh": true, "id": 2681503, "quote": "Emotional, soulful and one of the five best rock-docs ever made.", "links": {"review": "http://www.cambridgeday.com/2020/04/05/coronavirus-edition-iv-movies-to-shelter-with-from-dolphin-reef-dive-to-eerie-trigger-effect/"}, "publication": {"url": "", "name": "Cambridge Day"}, "isTop": false, "freshness": "fresh", "critic": {"url": "/critic/tom-meek", "name": "Tom Meek", "id": 3600, "thumbnailImage": "https://resizing.flixster.com/g_zgs3v7WOzDHDov-JebxWd_m9o=/72x72/v1.YzszNDA5O3A7MTg3OTk7MjA0ODszMDA7MzAw"}, "original_score": "4/4"}, {"isRotten": false, "url": "https://cine-vue.com/2011/12/film-review-the-last-waltz.html", "creationDate": 1544058395000, "isFresh": true, "id": 2537716, "quote": "Essential viewing for budding musicians and misty-eyed folks who hark back to a golden era when these rock gods ruled the earth.", "links": {"review": "https://cine-vue.com/2011/12/film-review-the-last-waltz.html"}, "publication": {"url": "", "name": "CineVue"}, "isTop": false, "freshness": "fresh", "critic": {"url": "/critic/lee-cassanell", "name": "Lee Cassanell", "id": 23536, "thumbnailImage": "https://d2a5cgar23scu2.cloudfront.net/static/images/redesign/user.none.tmb.jpg"}, "original_score": "4/5"}, {"isRotten": false, "url": "https://www.commonsensemedia.org/movie-reviews/the-last-waltz", "creationDate": 1499813840000, "isFresh": true, "id": 2404203, "quote": "Outstanding '70s concert docu has smoking, drinking. ", "links": {"review": "https://www.commonsensemedia.org/movie-reviews/the-last-waltz"}, "publication": {"url": "", "name": "Common Sense Media"}, "isTop": false, "freshness": "fresh", "critic": {"url": "/critic/renee-schonfeld", "name": "Renee Schonfeld", "id": 12726, "thumbnailImage": "https://resizing.flixster.com/ldSBgo02sY9xQLcO6-7o_V8JA5k=/72x72/v1.YzsxNTU0O2c7MTg3ODk7MjA0ODszODs0Mg"}, "original_score": "5/5"}, {"isRotten": false, "url": "https://dennisschwartzreviews.com/lastwaltz", "creationDate": 1366289306000, "isFresh": true, "id": 2138079, "quote": "It might be the best concert film of all time.", "links": {"review": "https://dennisschwartzreviews.com/lastwaltz"}, "publication": {"url": "", "name": "Dennis Schwartz Movie Reviews"}, "isTop": false, "freshness": "fresh", "critic": {"url": "/critic/dennis-schwartz", "name": "Dennis Schwartz", "id": 1315, "thumbnailImage": "https://resizing.flixster.com/kyiLmOjDXUivr6Ya_6H1tLzM7Mc=/72x72/v1.YzszNzc0O2o7MTg4MDQ7MjA0ODsxNjE5OzE2MTk"}, "original_score": "A+"}, {"isRotten": false, "url": "http://www.guardian.co.uk/film/2011/dec/04/the-last-waltz-review", "publication": {"url": "", "name": "Observer (UK)"}, "isTop": false, "creationDate": 1323027014000, "isFresh": true, "freshness": "fresh", "critic": {"url": "/critic/philip-french", "name": "Philip French", "id": 5636, "thumbnailImage": "https://d2a5cgar23scu2.cloudfront.net/static/images/redesign/user.none.tmb.jpg"}, "quote": "This 1978 labour of love, one of the most immaculately filmed rock concerts, preserves for posterity the final appearance of the Band, the great group led by Robbie Robertson that had been on the road (often with Bob Dylan) for 16 years.", "id": 2031737, "links": {"review": "http://www.guardian.co.uk/film/2011/dec/04/the-last-waltz-review"}}, {"isRotten": false, "url": "http://www.film4.com/reviews/1978/the-last-waltz", "publication": {"url": "", "name": "Film4"}, "isTop": false, "creationDate": 1301852264000, "isFresh": true, "freshness": "fresh", "critic": {"url": "/critic/film4-staff", "name": "Film4 Staff", "id": 23439, "thumbnailImage": "https://d2a5cgar23scu2.cloudfront.net/static/images/redesign/user.none.tmb.jpg"}, "quote": "An essential document of American music at its unbeatable best.", "id": 1970153, "links": {"review": "http://www.film4.com/reviews/1978/the-last-waltz"}}]}, "casts": {"screenwriters": [], "directors": [{"url": "/celebrity/martin_scorsese/", "name": "Martin Scorsese", "thumbnailImg": "https://resizing.flixster.com/nA5CvWWe_RhVc3UiW-MBLqIV-TY=/80x80/v1.cjs0OTMzNTtqOzE4NzgwOzIwNDg7MjA2MjsyMjAx"}], "creators": [], "producers": [{"url": "/celebrity/robbie_robertson/", "name": "Robbie Robertson", "thumbnailImg": "https://resizing.flixster.com/Jm_KXgG_p-KG82Mah7Vf0fNNKmo=/80x80/v1.cjsxNTIzNztqOzE4NzkyOzIwNDg7NjUyOzQzNQ"}, {"url": "/celebrity/frank_marshall/", "name": "Frank Marshall", "thumbnailImg": "https://resizing.flixster.com/BNCcrEXZXkGi3QkXHrC6Ah-VOSs=/80x80/v1.cjs0ODE4MztqOzE4Nzk4OzIwNDg7MjgwOzI1MA"}], "castItems": [{"person": {"url": "/celebrity/bob_dylan/", "name": "Bob Dylan", "thumbnailImg": "https://resizing.flixster.com/Bn4ajbTq2SHPtKKMbvwzeKNvFcE=/80x80/v1.cjs0MjI1MTtqOzE4ODA2OzIwNDg7NDAwOzMyMA"}, "characters": [{"name": "Himself"}]}, {"person": {"url": "/celebrity/van_morrison_6/", "name": "Van Morrison", "thumbnailImg": "https://d2a5cgar23scu2.cloudfront.net/static/images/redesign/actor.default.tmb.gif"}}, {"person": {"url": "/celebrity/neil_young/", "name": "Neil Young", "thumbnailImg": "https://resizing.flixster.com/kUeARbAvi_31h9dy2Lk9DjB4ckE=/80x80/v1.cjszMzI4MztqOzE4NzkzOzIwNDg7NjUyOzQyMQ"}, "characters": [{"name": "Himself"}]}, {"person": {"url": "/celebrity/joni_mitchell/", "name": "Joni Mitchell", "thumbnailImg": "https://resizing.flixster.com/FH53ZOk52rtfyNRVzljq8vCRS7Y=/80x80/v1.cDs5NzE4MzQwO2o7MTg3OTI7MjA0ODsyMDA7MTMz"}, "characters": [{"name": "Herself"}]}, {"person": {"url": "/celebrity/the_staple_singers/", "name": "The Staple Singers", "thumbnailImg": "https://d2a5cgar23scu2.cloudfront.net/static/images/redesign/actor.default.tmb.gif"}, "characters": [{"name": "Themselves"}]}, {"person": {"url": "/celebrity/neil_diamond/", "name": "Neil Diamond", "thumbnailImg": "https://resizing.flixster.com/tYx_CN2j6Fuh3nYqufEr2xsovQc=/80x80/v1.cDs1MzE0MjQ1O2c7MTg3OTY7MjA0ODsxNDI7MTky"}, "characters": [{"name": "Himself"}]}, {"person": {"url": "/celebrity/eric_clapton/", "name": "Eric Clapton", "thumbnailImg": "https://resizing.flixster.com/0SgOEi_Ei94n2rWHiQqB1YL-BzM=/80x80/v1.cDszNDU0NDAxO2o7MTg4NzA7MjA0ODsxNzcyOzE3NzI"}, "characters": [{"name": "Himself"}]}, {"person": {"url": "/celebrity/ronnie_hawkins/", "name": "Ronnie Hawkins", "thumbnailImg": "https://d2a5cgar23scu2.cloudfront.net/static/images/redesign/actor.default.tmb.gif"}, "characters": [{"name": "Himself"}]}, {"person": {"url": "/celebrity/ringo_starr/", "name": "Ringo Starr", "thumbnailImg": "https://resizing.flixster.com/qH5_6ws4j4HdM96j-C2HgyQkAxc=/80x80/v1.cDsxMTI1MTgxMztqOzE4ODYzOzIwNDg7NDcyOzI5Ng"}, "characters": [{"name": "Himself"}]}, {"person": {"url": "/celebrity/the_band/", "name": "The Band", "thumbnailImg": "https://resizing.flixster.com/UoB02xlt1kRQaS-MfGeP8OHLqlk=/80x80/v1.cDsxMDcxNTkwOTtqOzE4ODU4OzIwNDg7NDMwOzQxOQ"}, "characters": [{"name": "Themselves"}]}, {"person": {"url": "/celebrity/1033270-muddy_waters/", "name": "Muddy Waters", "thumbnailImg": "https://resizing.flixster.com/K67jTPPYU0YnnrbpxYMFZwGpFqY=/80x80/v1.cDsxMjEwMDY0ODtqOzE4NzgzOzIwNDg7Mzk1OzUxMQ"}, "characters": [{"name": "Himself"}]}, {"person": {"url": "/celebrity/emmylou_harris/", "name": "Emmylou Harris", "thumbnailImg": "https://resizing.flixster.com/qVCJGqBxo4M-bjOSpaathc3UKKI=/80x80/v1.cDsxMjk0MjM2MTtqOzE4NzgwOzIwNDg7MzAxOzMwMA"}, "characters": [{"name": "Herself"}]}, {"person": {"url": "/celebrity/robbie_robertson/", "name": "Robbie Robertson", "thumbnailImg": "https://resizing.flixster.com/Jm_KXgG_p-KG82Mah7Vf0fNNKmo=/80x80/v1.cjsxNTIzNztqOzE4NzkyOzIwNDg7NjUyOzQzNQ"}}, {"person": {"url": "/celebrity/van_morrison/", "name": "Van Morrison", "thumbnailImg": "https://resizing.flixster.com/xEjYJJZVDU_LCTUItH8vS1LNtas=/80x80/v1.cDsxMjk3NzE0NjtqOzE4NzgxOzIwNDg7MjQwOzMwNQ"}, "characters": [{"name": "Himself"}]}, {"person": {"url": "/celebrity/rick_danko/", "name": "Rick Danko", "thumbnailImg": "https://resizing.flixster.com/7yLKH0JoY-6xdTMaIXztKnT9rLQ=/80x80/v1.cDsxMTI2NTgxNTtqOzE4ODcwOzIwNDg7NjA0OzQ0MQ"}}, {"person": {"url": "/celebrity/levon_helm/", "name": "Levon Helm", "thumbnailImg": "https://resizing.flixster.com/Dp6CXBz9pKqs9pyjNdV5JiLIZ-E=/80x80/v1.cjszMDQwOTtqOzE4Nzk5OzIwNDg7NjAwOzQwMg"}}, {"person": {"url": "/celebrity/ronnie_wood/", "name": "Ronnie Wood", "thumbnailImg": "https://resizing.flixster.com/Rk7ahcFAi532pjN_HnnIndkN81o=/80x80/v1.cDsxMzkyMDE5MjtqOzE4ODE4OzIwNDg7MzI5OzUyNw"}, "characters": [{"name": "Himself"}]}, {"person": {"url": "/celebrity/garth_hudson/", "name": "Garth Hudson", "thumbnailImg": "https://d2a5cgar23scu2.cloudfront.net/static/images/redesign/actor.default.tmb.gif"}}, {"person": {"url": "/celebrity/paul_butterfield/", "name": "Paul Butterfield", "thumbnailImg": "https://resizing.flixster.com/e7-8OFSPxdl6cSErsUqFHAye6bU=/80x80/v1.cDsxMjk2NzIzMjtqOzE4ODEyOzIwNDg7Mjg0OzQwMA"}, "characters": [{"name": "Himself"}]}, {"person": {"url": "/celebrity/richard_manuel/", "name": "Richard Manuel", "thumbnailImg": "https://resizing.flixster.com/EJTnRxilugyRjFtgdZhTrNEC7xI=/80x80/v1.cDsxMTI2NTgwNDtqOzE4ODU5OzIwNDg7MzgwOzI3OQ"}}, {"person": {"url": "/celebrity/dr_john/", "name": "Dr. John", "thumbnailImg": "https://d2a5cgar23scu2.cloudfront.net/static/images/redesign/actor.default.tmb.gif"}, "characters": [{"name": "Himself"}]}, {"person": {"url": "/celebrity/jim_gordon/", "name": "Jim Gordon", "thumbnailImg": "https://d2a5cgar23scu2.cloudfront.net/static/images/redesign/actor.default.tmb.gif"}}, {"person": {"url": "/celebrity/pops_staples/", "name": "Pops Staples", "thumbnailImg": "https://resizing.flixster.com/8qvPHMvGqS-y1k8E3tWQXLfjoUM=/80x80/v1.cDsxMjI0NjQ1NTtqOzE4NzkxOzIwNDg7MjYzOzI0Mw"}, "characters": [{"name": "Himself"}]}, {"person": {"url": "/celebrity/tom_marlone/", "name": "Tom Marlone", "thumbnailImg": "https://d2a5cgar23scu2.cloudfront.net/static/images/redesign/actor.default.tmb.gif"}}, {"person": {"url": "/celebrity/howard_johnson/", "name": "Howard Johnson", "thumbnailImg": "https://d2a5cgar23scu2.cloudfront.net/static/images/redesign/actor.default.tmb.gif"}}, {"person": {"url": "/celebrity/jerry_hay/", "name": "Jerry Hay", "thumbnailImg": "https://d2a5cgar23scu2.cloudfront.net/static/images/redesign/actor.default.tmb.gif"}}, {"person": {"url": "/celebrity/richard_cooper/", "name": "Richard Cooper", "thumbnailImg": "https://d2a5cgar23scu2.cloudfront.net/static/images/redesign/actor.default.tmb.gif"}}, {"person": {"url": "/celebrity/charlie_keagle/", "name": "Charlie Keagle", "thumbnailImg": "https://d2a5cgar23scu2.cloudfront.net/static/images/redesign/actor.default.tmb.gif"}}, {"person": {"url": "/celebrity/larry_packer/", "name": "Larry Packer", "thumbnailImg": "https://d2a5cgar23scu2.cloudfront.net/static/images/redesign/actor.default.tmb.gif"}}, {"person": {"url": "/celebrity/michael_mcclure/", "name": "Michael McClure", "thumbnailImg": "https://resizing.flixster.com/W_ghz7Na4eBzApeq23JgiqlTsxM=/80x80/v1.cDsxMjQzOTIwNjtqOzE4ODA5OzIwNDg7MjA0OzIyMw"}}, {"person": {"url": "/celebrity/lawrence_ferlinghetti/", "name": "Lawrence Ferlinghetti", "thumbnailImg": "https://resizing.flixster.com/PKkL3bDL7mA-meQs91_SDM31do8=/80x80/v1.cDsxMjE2NTIyMDtqOzE4NzgwOzIwNDg7MzUwOzI5Mw"}}]}, "title": "The Last Waltz", "adjustedScore": 102.99333541102294, "ratings": {"critics_rating": "Certified Fresh", "audience_score": 94, "dvdReleaseDate": 1020754800000, "critics_score": 98, "theaterReleaseDate": 262425600000, "audience_rating": "Upright"}, "videoClips": {"mainTrailer": {"hlsUrl": "http://video.internetvideoarchive.net/video.m3u8?cmd=6&publishedid=2352&customerid=300120&e=1619087317626&sub=RTO&fmt=11&h=a9ce95857d3f34355bf6f3b26a64a361", "seconds": 17, "minutes": 0, "id": 10903718, "title": "The Last Waltz", "thumbUrl": "http://content.internetvideoarchive.com/content/photos/058/2352_004.jpg", "mp4Url": "http://video.internetvideoarchive.net/video.mp4?cmd=6&publishedid=2352&customerid=300120&e=1619087317626&sub=RTO&fmt=4&videokbrate=750&h=87c26665011dc021aba25e18e42b7729"}, "size": 1, "videoClips": [{"hlsUrl": "http://video.internetvideoarchive.net/video.m3u8?cmd=6&publishedid=2352&customerid=300120&e=1619087317626&sub=RTO&fmt=11&h=a9ce95857d3f34355bf6f3b26a64a361", "seconds": 17, "minutes": 0, "id": 10903718, "title": "The Last Waltz", "thumbUrl": "http://content.internetvideoarchive.com/content/photos/058/2352_004.jpg", "mp4Url": "http://video.internetvideoarchive.net/video.mp4?cmd=6&publishedid=2352&customerid=300120&e=1619087317626&sub=RTO&fmt=4&videokbrate=750&h=87c26665011dc021aba25e18e42b7729"}]}, "isUpcoming": false, "posters": {"original": "https://resizing.flixster.com/JHo7KN5DK3N0V3HUj_02IRKxFFM=/768x1024/v1.bTsxMTYxODM1NjtqOzE4ODg1OzIwNDg7NzY4OzEwMjQ", "detailed": "https://resizing.flixster.com/cATmEtOtNuM0rkzA5T9KKbQGwN8=/180x240/v1.bTsxMTYxODM1NjtqOzE4ODg1OzIwNDg7NzY4OzEwMjQ", "profile": "https://resizing.flixster.com/dHOBSCGARmDAum_NQnc6O0c_VzE=/120x160/v1.bTsxMTYxODM1NjtqOzE4ODg1OzIwNDg7NzY4OzEwMjQ", "thumbnail": "https://resizing.flixster.com/dQPLkjhEEy1pKfkTxu4xhKHs5pQ=/54x72/v1.bTsxMTYxODM1NjtqOzE4ODg1OzIwNDg7NzY4OzEwMjQ"}, "isLimited": true, "mainTrailer": {"thumbUrl": "https://content.internetvideoarchive.com/content/photos/058/2352_004.jpg", "hlsUrl": "http://video.internetvideoarchive.net/video.m3u8?cmd=6&publishedid=2352&customerid=300120&e=1619087317227&sub=RTO&fmt=11&h=b4f01fe6e5aaaf30747e7f5aacbaee8a", "id": 10903718, "mp4Url": "http://video.internetvideoarchive.net/video.mp4?cmd=6&publishedid=2352&customerid=300120&e=1619087317227&sub=RTO&fmt=4&videokbrate=750&h=c1b7370b94aaf17c52227b92ef2949f8"}, "advisory": "adult situations/language", "id": 120399668}