{"url": "/m/1002681-blue_angel/", "isOnOpening": false, "genreSet": [{"displayName": "Drama", "id": 9}, {"displayName": "Musical & Performing Arts", "id": 12}, {"displayName": "Art House & International", "id": 4}, {"displayName": "Classics", "id": 5}], "officialUrl": "", "isInTheaters": false, "synopsis": "Marlene Dietrich became an immediate international star on the strength of her performance as the temptress Lola Frohlich in Josef von Sternberg's classic tale of love and obsession. Professor Immanuel Rath (Emil Jannings) is a strict and humorless schoolmaster who is shocked when he discovers the boys in his class have been spending their time at a sleazy cabaret called The Blue Angel, where an entertainer named Lola (Dietrich) keeps the men in thrall and sells suggestive postcards of herself. Rath goes to the club in hopes of catching his students and giving them a severe dressing-down, but he instead finds himself entranced by the carefree atmosphere of the club, and is struck by Lola's earthy, sensual beauty. Rath finds himself strongly attracted to Lola, and she later entertains him in her dressing room. When word of Rath's infatuation with Lola spreads to his students, he is taunted mercilessly, and eventually Rath is dismissed from the school. While Lola agrees to marry Rath, she shows little affection for him and delights in humiliating him, making him her servant and forcing him to play a clown in her stage show. The Blue Angel was shot in both German and English language versions; the German is preferable, as most of the cast were obviously more expert in that tongue. Dietrich introduced her theme song, \"Falling In Love Again\", in this picture.", "links": {"alternate": "//www.rottentomatoes.com/m/1002681-blue_angel/"}, "runningTime": 103, "year": 1930, "trackingType": "DvdOther", "status": "Live", "isPlaying": false, "isOnDVD": true, "runningTimeStr": "1 hr. 43 min.", "ratingSummary": {"topcount": 13, "consensus": "Marlene Dietrich steals more than one show in this backstage tragedy about a lowly professor besotted with a cruel and enigmatic singer.", "topCritics": {"hasScore": true, "numReviews": 13, "meterClass": "certified", "numRotten": 0, "numFresh": 13, "hasReviews": true, "meterValue": 100, "averageRating": 8.125}, "audience": {"meterScore": 87, "averageScore": 3.967146396636963, "numTotal": 5685, "ratingType": "viewed"}, "allcount": 45, "rottencount": 2, "dvdcount": 4, "allCritics": {"hasScore": true, "numReviews": 45, "meterClass": "certified", "numRotten": 2, "numFresh": 43, "hasReviews": true, "meterValue": 96, "averageRating": 8.4}, "freshcount": 43}, "mpaaRating": "Unrated", "vanity": "1002681-blue_angel", "photos": {"photos": [{"url": "https://resizing.flixster.com/O1moeG9QNFa5IZ4eD48WjZhJZKk=/600x337/v1.bjs0Mjk1Njk7ajsxODgxMzsyMDQ4OzYwMDszMzc", "index": 0, "submittedBy": "RT Staff", "height": 337, "imageId": 429569, "thumbnail": "https://resizing.flixster.com/25IJUW3Mg5XoxgtP9PreDqv7jLs=/80x80/v1.bjs0Mjk1Njk7ajsxODgxMzsyMDQ4OzYwMDszMzc", "submittedDate": "2014-08-11", "id": "multiuse-429569", "photoType": "movie", "width": 600}], "length": 1}, "studio": "Universum Film Gmbh", "purchaseOptions": {"amazon": {"url": "http://www.amazon.com/gp/product/B002Q7DGD8/ref=atv_feed_catalog?tag=rottetomao_aiv_mv-20", "isPrime": false, "type": "rent"}, "netflix": {"streamingId": "70023071"}, "vudu": {"url": "http://www.vudu.com/movies/#!content/11040/The-Blue-Angel", "type": "buy"}}, "reviews": {"total": 45, "links": {"alternate": "//www.rottentomatoes.com/m/1002681-blue_angel/#reviews", "self": "api.flixster.com/movies/the-blue-angel/reviews.json?review_type=mob&country=us&page=1", "prev": "api.flixster.com/movies/the-blue-angel/reviews.json?review_type=mob&country=us&page=0", "next": "api.flixster.com/movies/the-blue-angel/reviews.json?review_type=mob&country=us&page=2"}, "reviews": [{"isRotten": false, "url": "http://nla.gov.au/nla.news-article16836284", "publication": {"url": "", "name": "Sydney Morning Herald"}, "isTop": true, "creationDate": 1565123296000, "isFresh": true, "freshness": "fresh", "critic": {"url": "/critic/smh-staff", "name": "SMH Staff", "id": 23864, "thumbnailImage": "https://d2a5cgar23scu2.cloudfront.net/static/images/redesign/user.none.tmb.jpg"}, "quote": "Emil Jannings portrays this role superbly... This surely is one of the finest examples of tragic acting yet furnished from the screen.", "id": 2612863, "links": {"review": "http://nla.gov.au/nla.news-article16836284"}}, {"isRotten": false, "url": "https://www.theguardian.com/film/2019/may/30/the-blue-angel-review", "creationDate": 1559215666000, "isFresh": true, "id": 2591679, "quote": "Once the party's over, the money's lost and the humiliation has set in, what leader, what purifying force can rescue everyone from this devastating shame, while supplying something of the same erotic, exalting excitement?", "links": {"review": "https://www.theguardian.com/film/2019/may/30/the-blue-angel-review"}, "publication": {"url": "", "name": "Guardian"}, "isTop": true, "freshness": "fresh", "critic": {"url": "/critic/peter-bradshaw", "name": "Peter Bradshaw", "id": 408, "thumbnailImage": "https://d2a5cgar23scu2.cloudfront.net/static/images/redesign/user.none.tmb.jpg"}, "original_score": "5/5"}, {"isRotten": false, "url": "http://www.empireonline.com/reviews/review.asp?DVDID=5119", "creationDate": 1217273588000, "isFresh": true, "id": 1744742, "quote": "A remarkable performance from Emil Jannings.", "links": {"review": "http://www.empireonline.com/reviews/review.asp?DVDID=5119"}, "publication": {"url": "", "name": "Empire Magazine"}, "isTop": true, "freshness": "fresh", "critic": {"url": "/critic/kim-newman", "name": "Kim Newman", "id": 1159, "thumbnailImage": "https://resizing.flixster.com/RHNBYtiZuxH35Ev-lutMzhPLRKo=/72x72/v1.YzsxNTAxO2c7MTg3ODE7MjA0ODszODs0Ng"}, "original_score": "4/5"}, {"isRotten": false, "url": "http://onfilm.chicagoreader.com/movies/capsules/1188_BLUE_ANGEL_DER_BLAUE_ENGEL", "publication": {"url": "", "name": "Chicago Reader"}, "isTop": true, "creationDate": 1217273471000, "isFresh": true, "freshness": "fresh", "critic": {"url": "/critic/don-druker", "name": "Don Druker", "id": 91, "thumbnailImage": "https://d2a5cgar23scu2.cloudfront.net/static/images/redesign/user.none.tmb.jpg"}, "quote": "The first film collaboration between Josef von Sternberg and Marlene Dietrich, this reeks with decay and sexuality.", "id": 1744740, "links": {"review": "http://onfilm.chicagoreader.com/movies/capsules/1188_BLUE_ANGEL_DER_BLAUE_ENGEL"}}, {"isRotten": false, "url": "http://www.time.com/time/magazine/article/0,9171,752700-2,00.html", "publication": {"url": "", "name": "TIME Magazine"}, "isTop": true, "creationDate": 1217273209000, "isFresh": true, "freshness": "fresh", "critic": {"url": "/critic/time-staff", "name": "TIME Staff", "id": 22618, "thumbnailImage": "https://d2a5cgar23scu2.cloudfront.net/static/images/redesign/user.none.tmb.jpg"}, "quote": "If The Blue Angel is familiar material, it is also the sort of hing that Jannings does better than anyone else.", "id": 1744737, "links": {"review": "http://www.time.com/time/magazine/article/0,9171,752700-2,00.html"}}, {"isRotten": false, "url": "http://www.variety.com/review/VE1117789340", "publication": {"url": "", "name": "Variety"}, "isTop": true, "creationDate": 1212401721000, "isFresh": true, "freshness": "fresh", "critic": {"url": "/critic/variety-staff", "name": "Variety Staff", "id": 12507, "thumbnailImage": "https://resizing.flixster.com/8Z-e2stpP9WriX4ZUvtumMg0pB0=/72x72/v1.YzsyNDg3O2c7MTg3Nzc7MjA0ODsxNTI7MTY4"}, "quote": "On top of the drawing power of Jannings comes the discovery of a new magnet, Marlene Dietrich.", "id": 1731900, "links": {"review": "http://www.variety.com/review/VE1117789340"}}, {"isRotten": false, "url": "https://bklyn.newspapers.com/clip/56398443/blue-angel-plus/", "publication": {"url": "", "name": "Brooklyn Daily Eagle"}, "isTop": false, "creationDate": 1596246065000, "isFresh": true, "freshness": "fresh", "critic": {"url": "/critic/martin-dickstein", "name": "Martin Dickstein", "id": 27366, "thumbnailImage": "https://d2a5cgar23scu2.cloudfront.net/static/images/redesign/user.none.tmb.jpg"}, "quote": "It Is a great role for Emil Jannings -- one of his best... Miss Dietrich Is all that she should be in the role of the cruel enchantress, Lola, although it did seem to us that the vulgar side of the part had been unnecessarily overdone.", "id": 2710180, "links": {"review": "https://bklyn.newspapers.com/clip/56398443/blue-angel-plus/"}}, {"isRotten": false, "url": "https://archive.org/details/cinemundial16unse/page/214", "publication": {"url": "", "name": "Cine-Mundial"}, "isTop": false, "creationDate": 1568144375000, "isFresh": true, "freshness": "fresh", "critic": {"url": "/critic/francisco-j-ariza", "name": "Francisco J. Ariza", "id": 25789, "thumbnailImage": "https://d2a5cgar23scu2.cloudfront.net/static/images/redesign/user.none.tmb.jpg"}, "quote": "Its success is guaranteed. [Full Review in Spanish]", "id": 2624232, "links": {"review": "https://archive.org/details/cinemundial16unse/page/214"}}, {"isRotten": false, "url": "http://archive.spectator.co.uk/article/3rd-may-1946/12/the-cinema", "publication": {"url": "", "name": "The Spectator"}, "isTop": false, "creationDate": 1565124424000, "isFresh": true, "freshness": "fresh", "critic": {"url": "/critic/edgar-anstey", "name": "Edgar Anstey", "id": 17861, "thumbnailImage": "https://d2a5cgar23scu2.cloudfront.net/static/images/redesign/user.none.tmb.jpg"}, "quote": "There can be few moments in the cinema more truly horrible than the scene when the ruined professor shambles on to the stage of the disreputable tavern.", "id": 2612878, "links": {"review": "http://archive.spectator.co.uk/article/3rd-may-1946/12/the-cinema"}}, {"isRotten": false, "url": "http://www.larsenonfilm.com/the-blue-angel", "creationDate": 1565040263000, "isFresh": true, "id": 2612272, "quote": "...part exploitation piece, part morality tale.", "links": {"review": "http://www.larsenonfilm.com/the-blue-angel"}, "publication": {"name": "LarsenOnFilm"}, "isTop": false, "freshness": "fresh", "critic": {"url": "/critic/josh-larsen", "name": "Josh Larsen", "id": 5862, "thumbnailImage": "https://resizing.flixster.com/INwXGggtlQY2hz5MUWofbVNavfk=/72x72/v1.YzszMTIzO2o7MTg3ODM7MjA0ODsyOTY7Mjgz"}, "original_score": "3.5/4"}, {"isRotten": false, "url": "https://cine-vue.com/2019/05/film-review-the-blue-angel.html", "creationDate": 1559324779000, "isFresh": true, "id": 2592337, "quote": "Unlike the monsters of Murnau and Wiene, Blue Angel's light is equal to its darkness", "links": {"review": "https://cine-vue.com/2019/05/film-review-the-blue-angel.html"}, "publication": {"url": "", "name": "CineVue"}, "isTop": false, "freshness": "fresh", "critic": {"url": "/critic/christopher-machell", "name": "Christopher Machell", "id": 18249, "thumbnailImage": "https://resizing.flixster.com/dQ3wYwj1WgoDydP9GkfJALX4I0o=/72x72/v1.YzszMjExO2o7MTg3ODE7MjA0ODszMDA7MzAw"}, "original_score": "5/5"}, {"isRotten": false, "url": "http://www.christianitytoday.com/lyris/entertainment/archives/02-24-2017.html", "creationDate": 1493495883000, "isFresh": true, "id": 2391347, "quote": "The classic tale of amour fou still holds up over eighty years later. ", "links": {"review": "http://www.christianitytoday.com/lyris/entertainment/archives/02-24-2017.html"}, "publication": {"url": "", "name": "Christianity Today"}, "isTop": false, "freshness": "fresh", "critic": {"url": "/critic/kenneth-r-morefield", "name": "Kenneth R. Morefield", "id": 13923, "thumbnailImage": "https://resizing.flixster.com/73uNFXFR_hbsbrDq7LBcOU0ZX_I=/72x72/v1.YzszMjk1O2o7MTg3NzU7MjA0ODszMDA7MzAw"}, "original_score": "3/4"}]}, "casts": {"screenwriters": [{"url": "/celebrity/robert_liebmann/", "name": "Robert Liebmann", "thumbnailImg": "https://d2a5cgar23scu2.cloudfront.net/static/images/redesign/actor.default.tmb.gif"}, {"url": "/celebrity/karl_vollmoller/", "name": "Karl Vollm\u00f6ller", "thumbnailImg": "https://d2a5cgar23scu2.cloudfront.net/static/images/redesign/actor.default.tmb.gif"}, {"url": "/celebrity/josef_von_sternberg/", "name": "Josef von Sternberg", "thumbnailImg": "https://resizing.flixster.com/Prv9Ok6glXovkiFyllf-cPxHyCw=/80x80/v1.cDsxMTIyNzczOTtqOzE4ODYzOzIwNDg7NzIwOzU0MA"}, {"url": "/celebrity/carl_zuckmayer/", "name": "Carl Zuckmayer", "thumbnailImg": "https://d2a5cgar23scu2.cloudfront.net/static/images/redesign/actor.default.tmb.gif"}, {"url": "/celebrity/karl_vollmoeller/", "name": "Karl Vollmoeller", "thumbnailImg": "https://d2a5cgar23scu2.cloudfront.net/static/images/redesign/actor.default.tmb.gif"}, {"url": "/celebrity/robert_h_lieberman/", "name": "Robert H. Lieberman", "thumbnailImg": "https://d2a5cgar23scu2.cloudfront.net/static/images/redesign/actor.default.tmb.gif"}], "directors": [{"url": "/celebrity/josef_von_sternberg/", "name": "Josef von Sternberg", "thumbnailImg": "https://resizing.flixster.com/Prv9Ok6glXovkiFyllf-cPxHyCw=/80x80/v1.cDsxMTIyNzczOTtqOzE4ODYzOzIwNDg7NzIwOzU0MA"}], "creators": [], "producers": [{"url": "/celebrity/erich_pommer/", "name": "Erich Pommer", "thumbnailImg": "https://d2a5cgar23scu2.cloudfront.net/static/images/redesign/actor.default.tmb.gif"}], "castItems": [{"person": {"url": "/celebrity/marlene_dietrich/", "name": "Marlene Dietrich", "thumbnailImg": "https://resizing.flixster.com/gTF6_Ic-G2DYkDKTJ1WGxwBwl9E=/80x80/v1.cDsxMTIyNzc0NTtqOzE4ODY5OzIwNDg7NzIwOzU0MA"}, "characters": [{"name": "Lola Frohlich"}]}, {"person": {"url": "/celebrity/emil_jannings/", "name": "Emil Jannings", "thumbnailImg": "https://resizing.flixster.com/g03rdeWWdRuD1Qy0TnwwITlg0Ic=/80x80/v1.cDsxMDQ1Mzc3MjtqOzE4ODQyOzIwNDg7NDYyOzM0NQ"}, "characters": [{"name": "Prof. Immanuel Rath"}]}, {"person": {"url": "/celebrity/kurt_gerron/", "name": "Kurt Gerron", "thumbnailImg": "https://d2a5cgar23scu2.cloudfront.net/static/images/redesign/actor.default.tmb.gif"}, "characters": [{"name": "Kiepert"}]}, {"person": {"url": "/celebrity/hans_albers/", "name": "Hans Albers", "thumbnailImg": "https://resizing.flixster.com/IqLihqWr1wWei2kxN-oXepZVIAY=/80x80/v1.cDsxMTA2Mzg2NDtqOzE4ODc3OzIwNDg7NDAwOzMwMA"}, "characters": [{"name": "Mazeppa"}]}, {"person": {"url": "/celebrity/rose_valetti/", "name": "Rose Valetti", "thumbnailImg": "https://d2a5cgar23scu2.cloudfront.net/static/images/redesign/actor.default.tmb.gif"}, "characters": [{"name": "Guste, his wife"}]}, {"person": {"url": "/celebrity/rosa_valetti/", "name": "Rosa Valetti", "thumbnailImg": "https://d2a5cgar23scu2.cloudfront.net/static/images/redesign/actor.default.tmb.gif"}, "characters": [{"name": "Guste"}]}, {"person": {"url": "/celebrity/karl_huszar_puffy/", "name": "Karl Huszar-Puffy", "thumbnailImg": "https://d2a5cgar23scu2.cloudfront.net/static/images/redesign/actor.default.tmb.gif"}, "characters": [{"name": "Innkeeper"}]}, {"person": {"url": "/celebrity/eduard_von_winterstein/", "name": "Eduard von Winterstein ...", "thumbnailImg": "https://d2a5cgar23scu2.cloudfront.net/static/images/redesign/actor.default.tmb.gif"}, "characters": [{"name": "Principal"}]}, {"person": {"url": "/celebrity/reinhold-bernt/", "name": "Reinhold Bernt", "thumbnailImg": "https://d2a5cgar23scu2.cloudfront.net/static/images/redesign/actor.default.tmb.gif"}, "characters": [{"name": "Clown"}]}, {"person": {"url": "/celebrity/hans_roth/", "name": "Hans Roth", "thumbnailImg": "https://d2a5cgar23scu2.cloudfront.net/static/images/redesign/actor.default.tmb.gif"}, "characters": [{"name": "Beadle"}]}, {"person": {"url": "/celebrity/robert_klein_lork/", "name": "Robert Klein-L\u00f6rk", "thumbnailImg": "https://d2a5cgar23scu2.cloudfront.net/static/images/redesign/actor.default.tmb.gif"}, "characters": [{"name": "Goldstaub"}, {"name": "Goldstaub, a Student"}]}, {"person": {"url": "/celebrity/gerhard_bienert/", "name": "Gerhard Bienert", "thumbnailImg": "https://d2a5cgar23scu2.cloudfront.net/static/images/redesign/actor.default.tmb.gif"}, "characters": [{"name": "Policeman"}]}, {"person": {"url": "/celebrity/wilhelm_diegelmann/", "name": "Wilhelm Diegelmann", "thumbnailImg": "https://resizing.flixster.com/KOnGYsyi542jvZdc3oMDrq7g-tA=/80x80/v1.cDsxMDk1Nzg5NztqOzE4ODgzOzIwNDg7MzI0OzQzNQ"}, "characters": [{"name": "Captain"}]}, {"person": {"url": "/celebrity/ilse_furstenberg/", "name": "Ilse Furstenberg", "thumbnailImg": "https://d2a5cgar23scu2.cloudfront.net/static/images/redesign/actor.default.tmb.gif"}, "characters": [{"name": "Rath's maid"}]}, {"person": {"url": "/celebrity/carl_ballhaus/", "name": "Carl Ballhaus", "thumbnailImg": "https://d2a5cgar23scu2.cloudfront.net/static/images/redesign/actor.default.tmb.gif"}, "characters": [{"name": "Pupil Ertzum"}]}, {"person": {"url": "/celebrity/rolf_muller/", "name": "Rolf M\u00fcller", "thumbnailImg": "https://d2a5cgar23scu2.cloudfront.net/static/images/redesign/actor.default.tmb.gif"}, "characters": [{"name": "Angst"}]}, {"person": {"url": "/celebrity/roland-varno/", "name": "Roland Varno", "thumbnailImg": "https://d2a5cgar23scu2.cloudfront.net/static/images/redesign/actor.default.tmb.gif"}, "characters": [{"name": "Pupil Lohmann"}]}]}, "title": "Der Blaue Engel (The Blue Angel)", "adjustedScore": 102.88657354667976, "ratings": {"critics_rating": "Certified Fresh", "audience_score": 87, "dvdReleaseDate": 1005638400000, "critics_score": 96, "theaterReleaseDate": -1254499200000, "audience_rating": "Upright"}, "videoClips": {"mainTrailer": {"hlsUrl": "http://video.internetvideoarchive.net/video.m3u8?cmd=6&publishedid=982972&customerid=300120&e=1619087323881&sub=RTO&fmt=11&h=ec00b3c02b304414f296319ebf1c8a91", "seconds": 45, "minutes": 2, "id": 11168743, "title": "The Blue Angel", "thumbUrl": "http://content.internetvideoarchive.com/content/photos/7907/982972_005.jpg", "mp4Url": "http://video.internetvideoarchive.net/video.mp4?cmd=6&publishedid=982972&customerid=300120&e=1619087323881&sub=RTO&fmt=4&videokbrate=750&h=5eed30e4fbfb78fd4ceb3ce18f828085"}, "size": 0, "videoClips": []}, "isUpcoming": false, "posters": {"original": "https://resizing.flixster.com/DcJio9NhIFuDwuFiXDQ8iB5jqsQ=/900x1200/v1.bTsxMTIwNTkyNjtqOzE4ODc1OzIwNDg7OTAwOzEyMDA", "detailed": "https://resizing.flixster.com/RL059r6OLCTn1xWdX6fkP1fm2XU=/180x240/v1.bTsxMTIwNTkyNjtqOzE4ODc1OzIwNDg7OTAwOzEyMDA", "profile": "https://resizing.flixster.com/VR2tG4Cf7gwpkJ32q3qSmnj4O_4=/120x160/v1.bTsxMTIwNTkyNjtqOzE4ODc1OzIwNDg7OTAwOzEyMDA", "thumbnail": "https://resizing.flixster.com/-bbtZv8c0iZkotaKh4ilYmMaogI=/54x72/v1.bTsxMTIwNTkyNjtqOzE4ODc1OzIwNDg7OTAwOzEyMDA"}, "isLimited": false, "mainTrailer": {"thumbUrl": "https://content.internetvideoarchive.com/content/photos/7907/982972_005.jpg", "hlsUrl": "http://video.internetvideoarchive.net/video.m3u8?cmd=6&publishedid=982972&customerid=300120&e=1619087323288&sub=RTO&fmt=11&h=b090a423e59d3ba40fc6331e45764e64", "id": 11168743, "mp4Url": "http://video.internetvideoarchive.net/video.mp4?cmd=6&publishedid=982972&customerid=300120&e=1619087323288&sub=RTO&fmt=4&videokbrate=750&h=ef09fa6fdbb09460b67e7a398765296f"}, "advisory": "", "id": 19549}