{"url": "/m/stop_making_sense/", "isOnOpening": false, "genreSet": [{"displayName": "Musical & Performing Arts", "id": 12}, {"displayName": "Documentary", "id": 8}], "runningTime": 99, "isInTheaters": false, "synopsis": "Stop Making Sense was the first feature-length documentary effort of filmmaker Jonathan Demme. The director's subject is The Talking Heads, a new-wave/pop-rock group comprised of David Byrne, Chris Franz, Tina Weymouth and Jerry Harrison. The film was made during a three-day concert gig at the Pantages Theater in Hollywood. What emerges on screen says as much about director Demme's taste and sensitivity as it does about the group and its visionary leader Byrne. Though some of the material in Stop Making Sense overlaps with the Talking Heads' earlier concert film The Name of This Band is Talking Heads, one never gets the feeling of by-the-numbers repetition; the group's energy is such that it virtually explodes from the screen. ~ Hal Erickson, Rovi", "links": {"alternate": "//www.rottentomatoes.com/m/stop_making_sense/"}, "year": 1984, "trackingType": "DvdOther", "status": "Live", "isPlaying": false, "isOnDVD": true, "runningTimeStr": "1 hr. 39 min.", "ratingSummary": {"topcount": 10, "consensus": "Jonathan Demme's Stop Making Sense captures the energetic, unpredictable live act of peak Talking Heads with color and visual wit.", "topCritics": {"hasScore": true, "numReviews": 10, "meterClass": "certified", "numRotten": 0, "numFresh": 10, "hasReviews": true, "meterValue": 100, "averageRating": 9.375}, "audience": {"meterScore": 98, "averageScore": 4.409478664398193, "numTotal": 7224, "ratingType": "viewed"}, "allcount": 41, "rottencount": 0, "dvdcount": 4, "allCritics": {"hasScore": true, "numReviews": 41, "meterClass": "certified", "numRotten": 0, "numFresh": 41, "hasReviews": true, "meterValue": 100, "averageRating": 8.99}, "freshcount": 41}, "mpaaRating": "Unrated", "vanity": "stop_making_sense", "studio": "Palm Pictures", "purchaseOptions": {"amazon": {"url": "http://www.amazon.com/gp/product/B00IXXTBEM/ref=atv_feed_catalog?tag=rottetomao_aiv_mv-20", "isPrime": false, "type": "buy"}, "vudu": {"url": "https://www.vudu.com/content/movies/details/Stop-Making-Sense/493190", "type": "buy"}, "iTunes": {"url": "https://itunes.apple.com/movie/stop-making-sense/id862365096?uo=5", "price": "7.99"}}, "reviews": {"total": 41, "links": {"alternate": "//www.rottentomatoes.com/m/stop_making_sense/#reviews", "self": "api.flixster.com/movies/stop-making-sense/reviews.json?review_type=mob&country=us&page=1", "prev": "api.flixster.com/movies/stop-making-sense/reviews.json?review_type=mob&country=us&page=0", "next": "api.flixster.com/movies/stop-making-sense/reviews.json?review_type=mob&country=us&page=2"}, "reviews": [{"isRotten": false, "url": "https://www.latimes.com/entertainment/movies/la-et-mn-stop-making-sense-critic-pick-20150514-column.html", "publication": {"url": "", "name": "Los Angeles Times"}, "isTop": true, "creationDate": 1594917427000, "isFresh": true, "freshness": "fresh", "critic": {"url": "/critic/betsy-sharkey", "name": "Betsy Sharkey", "id": 13247, "thumbnailImage": "https://resizing.flixster.com/g6uTCyPC_mtLCt6gQ5Y3gbTRFpg=/72x72/v1.YzsyNTYyO2c7MTg4MDc7MjA0ODsxNTI7MTY4"}, "quote": "Talking Heads made for great material, with its revolutionary mash-up of punk, funk, art, avant-garde and other sounds. But what sets \"Stop\" apart is the intimate look at that brilliant talking head, lead singer David Byrne.", "id": 2705290, "links": {"review": "https://www.latimes.com/entertainment/movies/la-et-mn-stop-making-sense-critic-pick-20150514-column.html"}}, {"isRotten": false, "url": "https://www.empireonline.com/movies/reviews/stop-making-sense-review/", "publication": {"url": "", "name": "Empire Magazine"}, "isTop": true, "creationDate": 1594917359000, "isFresh": true, "freshness": "fresh", "critic": {"url": "/critic/ian-freer", "name": "Ian Freer", "id": 3979, "thumbnailImage": "https://d2a5cgar23scu2.cloudfront.net/static/images/redesign/user.none.tmb.jpg"}, "quote": "Truly captivating entertainment.", "id": 2705288, "links": {"review": "https://www.empireonline.com/movies/reviews/stop-making-sense-review/"}}, {"isRotten": false, "url": "https://www.washingtonpost.com/archive/lifestyle/1984/11/02/the-sense-of-psycho-rock/2b154dde-cd3e-4f2d-acc0-bf348f0e6df6/?utm_term=.05c40e6e8612", "publication": {"url": "", "name": "Washington Post"}, "isTop": true, "creationDate": 1514936157000, "isFresh": true, "freshness": "fresh", "critic": {"url": "/critic/paul-attanasio", "name": "Paul Attanasio", "id": 49, "thumbnailImage": "https://d2a5cgar23scu2.cloudfront.net/static/images/redesign/user.none.tmb.jpg"}, "quote": "It's a treat for fans (Heads heads?), and a chance for the uninitiated to tune in to the band that has come to personify postmodernist rock 'n' roll.", "id": 2447111, "links": {"review": "https://www.washingtonpost.com/archive/lifestyle/1984/11/02/the-sense-of-psycho-rock/2b154dde-cd3e-4f2d-acc0-bf348f0e6df6/?utm_term=.05c40e6e8612"}}, {"isRotten": false, "url": "http://www.slantmagazine.com/film/review/stop-making-sense", "creationDate": 1261504673000, "isFresh": true, "id": 1862026, "quote": "Stop Making Sense is a concert film with a narrative, bursting at the seams with bits of invention and passion.", "links": {"review": "http://www.slantmagazine.com/film/review/stop-making-sense"}, "publication": {"url": "", "name": "Slant Magazine"}, "isTop": true, "freshness": "fresh", "critic": {"url": "/critic/chuck-bowen", "name": "Chuck Bowen", "id": 13611, "thumbnailImage": "https://d2a5cgar23scu2.cloudfront.net/static/images/redesign/user.none.tmb.jpg"}, "original_score": "3.5/4"}, {"isRotten": false, "url": "http://www.reelviews.net/php_review_template.php?identifier=866", "creationDate": 1213092951000, "isFresh": true, "id": 1733865, "quote": "This movie is pure fun and sheer exuberance transferred onto celluloid and perfectly re-created at the other end. Experiencing what Demme and the Talking Heads have crafted with this motion picture makes perfect sense.", "links": {"review": "http://www.reelviews.net/php_review_template.php?identifier=866"}, "publication": {"url": "", "name": "ReelViews"}, "isTop": true, "freshness": "fresh", "critic": {"url": "/critic/james-berardinelli", "name": "James Berardinelli", "id": 117, "thumbnailImage": "https://resizing.flixster.com/JsmeY6tEIWX9qWB0kv31lgrjBxs=/72x72/v1.YzsyNzIzO2c7MTg3ODg7MjA0ODsxNTA7MTUw"}, "original_score": "4/4"}, {"isRotten": false, "url": "https://www.timeout.com/london/film/stop-making-sense", "publication": {"url": "", "name": "Time Out"}, "isTop": true, "creationDate": 1139483846000, "isFresh": true, "freshness": "fresh", "critic": {"url": "/critic/derek-adams", "name": "Derek Adams", "id": 12349, "thumbnailImage": "https://d2a5cgar23scu2.cloudfront.net/static/images/redesign/user.none.tmb.jpg"}, "quote": "A quietly large achievement.", "id": 1482548, "links": {"review": "https://www.timeout.com/london/film/stop-making-sense"}}, {"isRotten": false, "url": "https://maddwolf.com/new-in-theaters/dont-say-super/#sthash.LFB4zST1.dpbs", "creationDate": 1607738588000, "isFresh": true, "id": 2750791, "quote": "Archenemy has plenty of faults, but more than enough inspiration and grit to make you want to overlook them. ", "links": {"publication": "http://https://www.columbusunderground.com/author/hope-madden", "review": "https://maddwolf.com/new-in-theaters/dont-say-super/#sthash.LFB4zST1.dpbs"}, "publication": {"url": "http://https://www.columbusunderground.com/author/hope-madden", "name": "Columbus Underground"}, "isTop": false, "freshness": "fresh", "critic": {"url": "/critic/hope-madden", "name": "Hope Madden", "id": 22692, "thumbnailImage": "https://resizing.flixster.com/-6EoNbLWdwY3s4ZJJTGM-MlVJpc=/72x72/v1.YzszMDEwO2o7MTg4MDU7MjA0ODs1MDA7NTAw"}, "original_score": "3"}, {"isRotten": false, "url": "http://bit.ly/spoolstopmakingsense", "publication": {"url": "", "name": "The Spool"}, "isTop": false, "creationDate": 1581184596000, "isFresh": true, "freshness": "fresh", "critic": {"url": "/critic/sean-price", "name": "Sean Price", "id": 26496, "thumbnailImage": "https://d2a5cgar23scu2.cloudfront.net/static/images/redesign/user.none.tmb.jpg"}, "quote": "It's Byrne's spiritual performance that pulls us in and takes us on a life-affirming joyride.", "id": 2667936, "links": {"review": "http://bit.ly/spoolstopmakingsense"}}, {"isRotten": false, "url": "http://sdcitybeat.com/culture/film/finding-oneself-at-jonathan-demme%E2%80%99s-%E2%80%98stop-making-sense%E2%80%99/", "publication": {"url": "", "name": "San Diego CityBeat"}, "isTop": false, "creationDate": 1534881843000, "isFresh": true, "freshness": "fresh", "critic": {"url": "/critic/glenn-heath-jr", "name": "Glenn Heath Jr.", "id": 13818, "thumbnailImage": "https://resizing.flixster.com/pv8EHqfDgfvHVo7u5ptoO_JGJxE=/72x72/v1.YzsyOTM1O2o7MTg3NzU7MjA0ODs0MDA7NDAw"}, "quote": "Stop Making Sense brilliantly represents Demme's endless love of musical performance and gleeful urgency.", "id": 2499330, "links": {"review": "http://sdcitybeat.com/culture/film/finding-oneself-at-jonathan-demme%E2%80%99s-%E2%80%98stop-making-sense%E2%80%99/"}}, {"isRotten": false, "url": "https://clclt.com/charlotte/the-sandlot-the-twilight-people-women-in-love-among-new-home-entertainment-titles/Content?oid=9030384", "creationDate": 1523300446000, "isFresh": true, "id": 2469959, "quote": "A rock orgy of volcanic power, and arguably the greatest concert film ever made.", "links": {"review": "https://clclt.com/charlotte/the-sandlot-the-twilight-people-women-in-love-among-new-home-entertainment-titles/Content?oid=9030384"}, "publication": {"name": "Creative Loafing"}, "isTop": false, "freshness": "fresh", "critic": {"url": "/critic/matt-brunson", "name": "Matt Brunson", "id": 5777, "thumbnailImage": "https://resizing.flixster.com/sC65Fi_OccWCWRwVukoyOybQHtA=/72x72/v1.YzsxNzI4O2o7MTg3ODM7MjA0ODszODs0Mg"}, "original_score": "4/4"}, {"isRotten": false, "url": "http://www.larsenonfilm.com/stop-making-sense", "creationDate": 1494109317000, "isFresh": true, "id": 2392508, "quote": "Byrne is the auteur here; Demme is the rare, generous sort of filmmaker who would emphasize that.", "links": {"review": "http://www.larsenonfilm.com/stop-making-sense"}, "publication": {"name": "LarsenOnFilm"}, "isTop": false, "freshness": "fresh", "critic": {"url": "/critic/josh-larsen", "name": "Josh Larsen", "id": 5862, "thumbnailImage": "https://resizing.flixster.com/INwXGggtlQY2hz5MUWofbVNavfk=/72x72/v1.YzszMTIzO2o7MTg3ODM7MjA0ODsyOTY7Mjgz"}, "original_score": "4/4"}, {"isRotten": false, "url": "http://www.thefilmyap.com/2014/04/30/class-of-1984-stop-making-sense/", "creationDate": 1399608036000, "isFresh": true, "id": 2202095, "quote": "Like Talking Heads itself, Jonathan Demme's landmark 1984 film is accessible and arty. In less skilled hands, it would simply feel alien and cold, not vibrantly and enthrallingly alive. ", "links": {"review": "http://www.thefilmyap.com/2014/04/30/class-of-1984-stop-making-sense/"}, "publication": {"url": "", "name": "The Film Yap"}, "isTop": false, "freshness": "fresh", "critic": {"url": "/critic/nick-rogers", "name": "Nick Rogers", "id": 8719, "thumbnailImage": "https://resizing.flixster.com/xu_f2GvKXkD09eNjfoKPMB0K2nE=/72x72/v1.YzsyODQ0O2c7MTg3NzQ7MjA0ODsxNTA7MTUw"}, "original_score": "4.5/5"}]}, "casts": {"screenwriters": [], "directors": [{"url": "/celebrity/jonathan_demme/", "name": "Jonathan Demme", "thumbnailImg": "https://resizing.flixster.com/KBS0kfCbz7Hf2TE3ztB6d530mzk=/80x80/v1.cjsyOTg3NTtqOzE4ODA1OzIwNDg7NjAwOzQzMQ"}], "creators": [], "producers": [{"url": "/celebrity/gary_goetzman/", "name": "Gary Goetzman", "thumbnailImg": "https://d2a5cgar23scu2.cloudfront.net/static/images/redesign/actor.default.tmb.gif"}, {"url": "/celebrity/gary_kurfirst/", "name": "Gary Kurfirst", "thumbnailImg": "https://d2a5cgar23scu2.cloudfront.net/static/images/redesign/actor.default.tmb.gif"}], "castItems": [{"person": {"url": "/celebrity/bernie_worrell/", "name": "Bernie Worrell", "thumbnailImg": "https://d2a5cgar23scu2.cloudfront.net/static/images/redesign/actor.default.tmb.gif"}, "characters": [{"name": "Synthesizers"}]}, {"person": {"url": "/celebrity/alex_weir/", "name": "Alex Weir", "thumbnailImg": "https://resizing.flixster.com/LDdyCS3XPPq5jevkv83zLu3Nr4w=/80x80/v1.cDsxMjkzMzU3NztqOzE4ODE2OzIwNDg7MzAwOzUyNg"}, "characters": [{"name": "guitar"}]}, {"person": {"url": "/celebrity/chris_frantz/", "name": "Chris Frantz", "thumbnailImg": "https://resizing.flixster.com/NXZMcd_ajvQn6au3qfPHhp-6frw=/80x80/v1.cDsxMjkzMzU3MjtqOzE4ODExOzIwNDg7MjM4OzMyMg"}, "characters": [{"name": "Drums and Vocals"}]}, {"person": {"url": "/celebrity/steve_scales_55/", "name": "Steve Scales", "thumbnailImg": "https://d2a5cgar23scu2.cloudfront.net/static/images/redesign/actor.default.tmb.gif"}, "characters": [{"name": "percussion"}]}, {"person": {"url": "/celebrity/tina_weymouth/", "name": "Tina Weymouth", "thumbnailImg": "https://resizing.flixster.com/7gtv8P0hwJtMnbfBDJ_ZmW0g7MU=/80x80/v1.cDsxMjkzMzU2NjtqOzE4ODA1OzIwNDg7NTIzOzcwMA"}, "characters": [{"name": "bass"}]}, {"person": {"url": "/celebrity/david_byrne/", "name": "David Byrne", "thumbnailImg": "https://resizing.flixster.com/DF6DFNhgCFzPu8TthkgJpMVDpeQ=/80x80/v1.cjs1MDYyOTtqOzE4NzY5OzIwNDg7MjQwMDszMDAw"}, "characters": [{"name": "Lead Vocals/Guitar"}]}, {"person": {"url": "/celebrity/talking_heads/", "name": "Talking Heads", "thumbnailImg": "https://d2a5cgar23scu2.cloudfront.net/static/images/redesign/actor.default.tmb.gif"}}, {"person": {"url": "/celebrity/chris_frantz_57/", "name": "Chris Frantz", "thumbnailImg": "https://d2a5cgar23scu2.cloudfront.net/static/images/redesign/actor.default.tmb.gif"}, "characters": [{"name": "Drums and Vocals"}]}, {"person": {"url": "/celebrity/jerry_harrison/", "name": "Jerry Harrison", "thumbnailImg": "https://resizing.flixster.com/xMxRvUHCAOGeGK3d-yxW0OQb0_s=/80x80/v1.cDsxMjkzMzU3OTtqOzE4ODE4OzIwNDg7NDAwOzM5Nw"}, "characters": [{"name": "Guitar, Keyboards and Vocals"}]}]}, "title": "Stop Making Sense", "adjustedScore": 102.78770382003788, "ratings": {"critics_rating": "Certified Fresh", "audience_score": 98, "dvdReleaseDate": 940921200000, "critics_score": 100, "theaterReleaseDate": 466930800000, "audience_rating": "Upright"}, "videoClips": {"size": 0, "videoClips": []}, "isUpcoming": false, "posters": {"original": "https://resizing.flixster.com/yQEuzkVRCISmcCGHrPO0uyn-WAY=/495x660/v1.bTsxMTYxODY5MTtqOzE4ODYwOzIwNDg7NDk1OzY2MA", "detailed": "https://resizing.flixster.com/sFNA3d9E7joAxV-lwL8O-cJ2ihU=/180x240/v1.bTsxMTYxODY5MTtqOzE4ODYwOzIwNDg7NDk1OzY2MA", "profile": "https://resizing.flixster.com/BIMRQDnzRMLDettLWlSk2euqY_U=/120x160/v1.bTsxMTYxODY5MTtqOzE4ODYwOzIwNDg7NDk1OzY2MA", "thumbnail": "https://resizing.flixster.com/eh-wc9_yjDohI4RJaMeCuhou8C8=/54x72/v1.bTsxMTYxODY5MTtqOzE4ODYwOzIwNDg7NDk1OzY2MA"}, "isLimited": true, "mainTrailer": {}, "photos": {"photos": [{"url": "https://resizing.flixster.com/5McgNitCtirT00CmJXa9BioWDfQ=/1024x575/v1.bjsxODk1ODcyO2o7MTg4MDg7MjA0ODsxNzk4OzEwMDk", "index": 0, "submittedBy": "RT Staff", "height": 575, "imageId": 1895872, "thumbnail": "https://resizing.flixster.com/qM-5jn_Nmsp_9Poh4Dr7qwMhip4=/80x80/v1.bjsxODk1ODcyO2o7MTg4MDg7MjA0ODsxNzk4OzEwMDk", "submittedDate": "2018-03-28", "id": "multiuse-1895872", "photoType": "movie", "width": 1024}, {"url": "https://resizing.flixster.com/wEVwQkoY-wUehLcD1f2Y3adxKn0=/1024x768/v1.bjsxODk1NDg5O2o7MTg4MzA7MjA0ODsxMjc2Ozk1Nw", "index": 1, "submittedBy": "RT Staff", "height": 768, "imageId": 1895489, "thumbnail": "https://resizing.flixster.com/Bu6b8sLxRMFqQLNMeVdfiR-Fdf4=/80x80/v1.bjsxODk1NDg5O2o7MTg4MzA7MjA0ODsxMjc2Ozk1Nw", "submittedDate": "2018-03-28", "id": "multiuse-1895489", "photoType": "movie", "width": 1024}, {"url": "https://resizing.flixster.com/LHIF6dg-1YlhXOTJ7xGUNrmo-Es=/1024x575/v1.bjsxODk1ODczO2o7MTg4MDk7MjA0ODsxODUyOzEwNDA", "index": 2, "submittedBy": "RT Staff", "height": 575, "imageId": 1895873, "thumbnail": "https://resizing.flixster.com/98bhcOKgXRISKi7RkENFgTt3-NM=/80x80/v1.bjsxODk1ODczO2o7MTg4MDk7MjA0ODsxODUyOzEwNDA", "submittedDate": "2018-03-28", "id": "multiuse-1895873", "photoType": "movie", "width": 1024}], "length": 3}, "id": 243297611}