{"url": "/m/some_like_it_hot/", "isOnOpening": false, "genreSet": [{"displayName": "Drama", "id": 9}, {"displayName": "Musical & Performing Arts", "id": 12}, {"displayName": "Classics", "id": 5}, {"displayName": "Comedy", "id": 6}], "officialUrl": "http://www.fjtlesoiseaux.fr/cinema.html", "isInTheaters": false, "synopsis": "Two Struggling musicians witness the St. Valentine's Day Massacre and are now on the run from the Mob. Jerry and Joe cross-dress into an all female band. In addition to hiding, each has his own problems; One falls for another band member but can't tell her his gender, and the other has a rich suitor who will not take \"No,\" for an answer.", "links": {"alternate": "//www.rottentomatoes.com/m/some_like_it_hot/"}, "runningTime": 120, "year": 1959, "trackingType": "DvdOther", "status": "Live", "isPlaying": false, "isOnDVD": true, "runningTimeStr": "2 hr.", "ratingSummary": {"topcount": 21, "consensus": "Some Like It Hot: A spry, quick-witted farce that never drags.", "topCritics": {"hasScore": true, "numReviews": 21, "meterClass": "certified", "numRotten": 1, "numFresh": 20, "hasReviews": true, "meterValue": 95, "averageRating": 8.678571}, "audience": {"meterScore": 94, "averageScore": 4.098798751831055, "numTotal": 82126, "ratingType": "viewed"}, "allcount": 65, "rottencount": 3, "dvdcount": 17, "allCritics": {"hasScore": true, "numReviews": 65, "meterClass": "certified", "numRotten": 3, "numFresh": 62, "hasReviews": true, "meterValue": 95, "averageRating": 9.06}, "freshcount": 62}, "mpaaRating": "G", "vanity": "some_like_it_hot", "photos": {"photos": [{"url": "https://resizing.flixster.com/Ihikfb8q3ZOG4qDzhyZ-XzCBeLk=/540x719/v1.bjsxOTI0MjU7ajsxODc3MjsyMDQ4OzU0MDs3MTk", "index": 0, "submittedBy": "RT Staff", "height": 719, "imageId": 192425, "thumbnail": "https://resizing.flixster.com/CFx53MBGqiF37_DlfBIrw8IQsSs=/80x80/v1.bjsxOTI0MjU7ajsxODc3MjsyMDQ4OzU0MDs3MTk", "submittedDate": "2014-07-02", "id": "multiuse-192425", "photoType": "movie", "width": 540}, {"url": "https://resizing.flixster.com/sHML0h13VoeLb914L5CzX6DsYRc=/768x1024/v1.bjsxOTI0MjY7ajsxODc3MzsyMDQ4Ozk2MDsxMjgw", "index": 1, "submittedBy": "RT Staff", "height": 1024, "imageId": 192426, "thumbnail": "https://resizing.flixster.com/2KTAQlAuqhEy7x5rQrLHOARF6ZA=/80x80/v1.bjsxOTI0MjY7ajsxODc3MzsyMDQ4Ozk2MDsxMjgw", "submittedDate": "2014-07-02", "id": "multiuse-192426", "photoType": "movie", "width": 768}, {"url": "https://resizing.flixster.com/4bewYTzA1JMGdsierTycRuqTpXA=/724x543/v1.bjsxOTI0Mjc7ajsxODc3NDsyMDQ4OzcyNDs1NDM", "index": 2, "submittedBy": "RT Staff", "height": 543, "imageId": 192427, "thumbnail": "https://resizing.flixster.com/vFBXk-ML4EY-OqRjo0yaWECV0JE=/80x80/v1.bjsxOTI0Mjc7ajsxODc3NDsyMDQ4OzcyNDs1NDM", "submittedDate": "2014-07-02", "id": "multiuse-192427", "photoType": "movie", "width": 724}, {"url": "https://resizing.flixster.com/m89MVPdCJVghpIPvkX13-TgCHFo=/738x553/v1.bjsxOTI0Mjg7ajsxODc3NTsyMDQ4OzczODs1NTM", "index": 3, "submittedBy": "RT Staff", "height": 553, "imageId": 192428, "thumbnail": "https://resizing.flixster.com/BLbYd_m8wdczeljkFYvT9rvJMf0=/80x80/v1.bjsxOTI0Mjg7ajsxODc3NTsyMDQ4OzczODs1NTM", "submittedDate": "2014-07-02", "id": "multiuse-192428", "photoType": "movie", "width": 738}, {"url": "https://resizing.flixster.com/McvNFXjW3Mr1HT-pep4n9jH3-6s=/1024x576/v1.bjsyMTUwNTI4O2o7MTg4MTI7MjA0ODsxNzc5OzEwMDE", "index": 4, "submittedBy": "RT Staff", "height": 576, "imageId": 2150528, "thumbnail": "https://resizing.flixster.com/1b_N3mZeqgK0Y4BrsiOnskhnv0U=/80x80/v1.bjsyMTUwNTI4O2o7MTg4MTI7MjA0ODsxNzc5OzEwMDE", "submittedDate": "2018-12-30", "id": "multiuse-2150528", "photoType": "movie", "width": 1024}], "length": 5}, "studio": "United Artists", "purchaseOptions": {"amazon": {"url": "http://www.amazon.com/gp/video/primesignup?t=0m0s&redirectToAsin=B00A2YBEQS&tag=rottetomao_piv_mv-20", "isPrime": true}, "iTunes": {"url": "https://itunes.apple.com/movie/some-like-it-hot/id304010936?uo=5", "price": "14.99"}}, "reviews": {"total": 65, "links": {"alternate": "//www.rottentomatoes.com/m/some_like_it_hot/#reviews", "self": "api.flixster.com/movies/some-like-it-hot/reviews.json?review_type=mob&country=us&page=1", "prev": "api.flixster.com/movies/some-like-it-hot/reviews.json?review_type=mob&country=us&page=0", "next": "api.flixster.com/movies/some-like-it-hot/reviews.json?review_type=mob&country=us&page=2"}, "reviews": [{"isRotten": false, "url": "https://www.hollywoodreporter.com/review/some-like-hot-review-1959-movie-989529", "publication": {"url": "", "name": "Hollywood Reporter"}, "isTop": true, "creationDate": 1585786399000, "isFresh": true, "freshness": "fresh", "critic": {"url": "/critic/jack-moffitt", "name": "Jack Moffitt", "id": 19688, "thumbnailImage": "https://d2a5cgar23scu2.cloudfront.net/static/images/redesign/user.none.tmb.jpg"}, "quote": "Some Like It Hot is another supersonic, breakneck, belly-laugh comedy that should be a block-busting bonanza at the box office.", "id": 2680717, "links": {"review": "https://www.hollywoodreporter.com/review/some-like-hot-review-1959-movie-989529"}}, {"isRotten": false, "url": "https://www.slantmagazine.com/film/review-some-like-it-hot-billy-wilders-funhouse-of-sexual-exposure-tickles-anew-in-4k/", "creationDate": 1550935181000, "isFresh": true, "id": 2561186, "quote": "The film is an outrageous, hilarious, and amazingly unpretentious trip through a funhouse of sexual identities.", "links": {"review": "https://www.slantmagazine.com/film/review-some-like-it-hot-billy-wilders-funhouse-of-sexual-exposure-tickles-anew-in-4k/"}, "publication": {"url": "", "name": "Slant Magazine"}, "isTop": true, "freshness": "fresh", "critic": {"url": "/critic/chris-cabin", "name": "Chris Cabin", "id": 11863, "thumbnailImage": "https://resizing.flixster.com/Cc5o-jobxyN6I2ohzMgY1GNiml8=/72x72/v1.YzsyNjc0O2c7MTg3ODQ7MjA0ODsxNTA7MTUw"}, "original_score": "4/4"}, {"isRotten": false, "url": "https://www.filmcompanion.in/50-films-i-love-billy-wilder-some-like-it-hot-anupama-chopra/", "publication": {"url": "http://https://www.filmcompanion.in/", "name": "Film Companion"}, "isTop": true, "creationDate": 1535487818000, "isFresh": true, "freshness": "fresh", "critic": {"url": "/critic/anupama-chopra", "name": "Anupama Chopra", "id": 16909, "thumbnailImage": "https://resizing.flixster.com/BL2woPv8nuJXm5zP_t7PgOJuMkA=/72x72/v1.YzszMzQ4O2o7MTg3ODM7MjA0ODszMDA7MzAw"}, "quote": "Some Like It Hot was released in 1959 but its effervescence and sparkle are timeless. I guarantee that it will make you laugh out loud. ", "id": 2504231, "links": {"publication": "http://https://www.filmcompanion.in/", "review": "https://www.filmcompanion.in/50-films-i-love-billy-wilder-some-like-it-hot-anupama-chopra/"}}, {"isRotten": false, "url": "https://www.theguardian.com/film/2017/may/16/some-like-it-hot-reviewed-1959", "publication": {"url": "", "name": "Guardian"}, "isTop": true, "creationDate": 1521674799000, "isFresh": true, "freshness": "fresh", "critic": {"url": "/critic/guardian-staff", "name": "Guardian Staff", "id": 22955, "thumbnailImage": "https://d2a5cgar23scu2.cloudfront.net/static/images/redesign/user.none.tmb.jpg"}, "quote": "The pace is fast and the humour -- especially Mr Lemmon's -- is often hilarious. It is pleasant to meet again such old familiars as Mr Raft and Mr Brown; and Miss Monroe, as always, is irresistible.", "id": 2466334, "links": {"review": "https://www.theguardian.com/film/2017/may/16/some-like-it-hot-reviewed-1959"}}, {"isRotten": false, "url": "https://newrepublic.com/article/101324/tnr-film-classics-some-it-hot-march-30-1959", "publication": {"url": "", "name": "The New Republic"}, "isTop": true, "creationDate": 1515451830000, "isFresh": true, "freshness": "fresh", "critic": {"url": "/critic/stanley-kauffmann", "name": "Stanley Kauffmann", "id": 350, "thumbnailImage": "https://resizing.flixster.com/UdKaGyRuhhdo9BcD4v4B3iQMkY8=/72x72/v1.YzsyNjk2O2c7MTg4MDY7MjA0ODsxNTA7MTUw"}, "quote": "In terms of comic devices there is very little in the film that is original, but the use of the material is delightful. ", "id": 2448411, "links": {"review": "https://newrepublic.com/article/101324/tnr-film-classics-some-it-hot-march-30-1959"}}, {"isRotten": false, "url": "http://www.nydailynews.com/entertainment/movies/hot-find-funny-1959-review-article-1.2573332", "creationDate": 1459182492000, "isFresh": true, "id": 2317067, "quote": "The funniest comedy I've seen in years.", "links": {"review": "http://www.nydailynews.com/entertainment/movies/hot-find-funny-1959-review-article-1.2573332"}, "publication": {"url": "", "name": "New York Daily News"}, "isTop": true, "freshness": "fresh", "critic": {"url": "/critic/kate-cameron", "name": "Kate Cameron", "id": 16588, "thumbnailImage": "https://d2a5cgar23scu2.cloudfront.net/static/images/redesign/user.none.tmb.jpg"}, "original_score": "4/4"}, {"isRotten": false, "url": "https://battleshippretension.com/bps-top-100-movie-list-challenge-88-some-like-it-hot-by-sarah-brinks/", "publication": {"url": "http://battleshippretension.com", "name": "Battleship Pretension"}, "isTop": false, "creationDate": 1617239244000, "isFresh": true, "freshness": "fresh", "critic": {"url": "/critic/sarah-brinks", "name": "Sarah Brinks", "id": 27680, "thumbnailImage": "https://d2a5cgar23scu2.cloudfront.net/static/images/redesign/user.none.tmb.jpg"}, "quote": "Writer and director Billy Wilder knows how to keep a plot moving forward while keeping it light and fun without feeling vapid or stupid. He uses his actors' strengths and delivers a worthy film...", "id": 2781301, "links": {"publication": "http://battleshippretension.com", "review": "https://battleshippretension.com/bps-top-100-movie-list-challenge-88-some-like-it-hot-by-sarah-brinks/"}}, {"isRotten": false, "url": "https://www.polygon.com/streaming/2021/2/22/22295349/watch-netflix-tribes-of-europa-hunter-hunter-justified", "publication": {"url": "", "name": "Polygon"}, "isTop": false, "creationDate": 1614110114000, "isFresh": true, "freshness": "fresh", "critic": {"url": "/critic/matt-patches", "name": "Matt Patches", "id": 14246, "thumbnailImage": "https://resizing.flixster.com/k5uR_qPHthP9YWHVKi4f8p5xyEo=/72x72/v1.YzsyMzI4O2c7MTg3OTg7MjA0ODszODs0Mg"}, "quote": "The madcap energy is right up there with Bridesmaids or 30 Rock, and it's a shame to imagine that it's black-and-white veneer would keep people away.", "id": 2770592, "links": {"review": "https://www.polygon.com/streaming/2021/2/22/22295349/watch-netflix-tribes-of-europa-hunter-hunter-justified"}}, {"isRotten": false, "url": "https://movies8mylife.blogspot.com/2020/09/afi-22-some-like-it-hot-1959.html", "creationDate": 1599559847000, "isFresh": true, "id": 2721824, "quote": "\"Nobody's perfect\" indeed, but Some Like It Hot just about is.", "links": {"review": "https://movies8mylife.blogspot.com/2020/09/afi-22-some-like-it-hot-1959.html"}, "publication": {"url": "", "name": "ABC Radio (Australia)"}, "isTop": false, "freshness": "fresh", "critic": {"url": "/critic/matt-neal", "name": "Matt Neal", "id": 13862, "thumbnailImage": "https://d2a5cgar23scu2.cloudfront.net/static/images/redesign/user.none.tmb.jpg"}, "original_score": "5/5"}, {"isRotten": false, "url": "http://gonewiththetwins.com/new/some-like-it-hot-1959/", "creationDate": 1598171077000, "isFresh": true, "id": 2715957, "quote": "Features many spectacularly orchestrated sequences that take advantage of the role reversals, which aren't toned down as much as audiences might expect for a '50s movie.", "links": {"review": "http://gonewiththetwins.com/new/some-like-it-hot-1959/"}, "publication": {"url": "", "name": "Gone With The Twins"}, "isTop": false, "freshness": "fresh", "critic": {"url": "/critic/mike-massie", "name": "Mike Massie", "id": 27168, "thumbnailImage": "https://resizing.flixster.com/cKCY6tR9EskewGPlb8BlnvWesZU=/72x72/v1.YzszNjc3O2o7MTg3OTc7MjA0ODszMDA7MzAw"}, "original_score": "10/10"}, {"isRotten": false, "url": "https://macguff.in/macguffin-content/an-appreciation-some-like-it-hot/", "publication": {"url": "", "name": "The MacGuffin"}, "isTop": false, "creationDate": 1597250143000, "isFresh": true, "freshness": "fresh", "critic": {"url": "/critic/allen-almachar", "name": "Allen Almachar", "id": 27251, "thumbnailImage": "https://resizing.flixster.com/685wa0E3pM9hb-0fDGyxkU_RFPI=/72x72/v1.YzszNzIzO2o7MTg3OTg7MjA0ODszMDA7MzAw"}, "quote": "[The film] transcended itself to become something truly timeless.", "id": 2712796, "links": {"review": "https://macguff.in/macguffin-content/an-appreciation-some-like-it-hot/"}}, {"isRotten": true, "url": "https://archive.macleans.ca/article/1959/5/9/macleans-movies", "publication": {"url": "", "name": "Maclean's Magazine"}, "isTop": false, "creationDate": 1575584359000, "isFresh": false, "freshness": "rotten", "critic": {"url": "/critic/clyde-gilmour", "name": "Clyde Gilmour", "id": 17895, "thumbnailImage": "https://resizing.flixster.com/sPHSWglvMYZi_D_vMZOOrQHqZaY=/72x72/v1.YzszNTU2O2o7MTg3NjY7MjA0ODszMDA7MzAw"}, "quote": "Genuine hilarity is gradually replaced by boredom and distaste as the one basic gag is stretched out thinner and thinner...", "id": 2651368, "links": {"review": "https://archive.macleans.ca/article/1959/5/9/macleans-movies"}}]}, "casts": {"screenwriters": [{"url": "/celebrity/ial_diamond/", "name": "I.A.L. Diamond", "thumbnailImg": "https://d2a5cgar23scu2.cloudfront.net/static/images/redesign/actor.default.tmb.gif"}, {"url": "/celebrity/billy_wilder/", "name": "Billy Wilder", "thumbnailImg": "https://resizing.flixster.com/ExfdZlPJLPpRSEowzJxc5jeVyaA=/80x80/v1.cDsxMDk0NDg3MTtqOzE4ODYyOzIwNDg7NDYyOzM1OQ"}], "directors": [{"url": "/celebrity/john_huston/", "name": "John Huston", "thumbnailImg": "https://resizing.flixster.com/vkDK3H9Py8Baz6uaygXBQCJprpM=/80x80/v1.cDszNDkxMzg4O2o7MTg4Njg7MjA0ODs1MDQ7Mzk0"}, {"url": "/celebrity/billy_wilder/", "name": "Billy Wilder", "thumbnailImg": "https://resizing.flixster.com/ExfdZlPJLPpRSEowzJxc5jeVyaA=/80x80/v1.cDsxMDk0NDg3MTtqOzE4ODYyOzIwNDg7NDYyOzM1OQ"}], "creators": [], "producers": [{"url": "/celebrity/billy_wilder/", "name": "Billy Wilder", "thumbnailImg": "https://resizing.flixster.com/ExfdZlPJLPpRSEowzJxc5jeVyaA=/80x80/v1.cDsxMDk0NDg3MTtqOzE4ODYyOzIwNDg7NDYyOzM1OQ"}], "castItems": [{"person": {"url": "/celebrity/marilyn_monroe/", "name": "Marilyn Monroe", "thumbnailImg": "https://resizing.flixster.com/Xa7uJ56yK246hEJFc9pzPCxcurg=/80x80/v1.cjs0MjM2MjtqOzE4NzgyOzIwNDg7NjM2Ozg3Mw"}, "characters": [{"name": "Sugar Kane"}]}, {"person": {"url": "/celebrity/1003625-tony_curtis/", "name": "Tony Curtis", "thumbnailImg": "https://resizing.flixster.com/faAK-3DIg9Nmg8n_LVZEugRHWU8=/80x80/v1.cjszMjU0OTtqOzE4Nzc5OzIwNDg7MzkwOzYwMA"}, "characters": [{"name": "Joe/Josephine"}]}, {"person": {"url": "/celebrity/jack_lemmon/", "name": "Jack Lemmon", "thumbnailImg": "https://resizing.flixster.com/N7Cf0TSvmGiFrrl8OETfi5UXrcU=/80x80/v1.cDsxMDk2OTU1NjtqOzE4ODg3OzIwNDg7NDQ4OzY5OQ"}, "characters": [{"name": "Jerry/Daphne"}]}, {"person": {"url": "/celebrity/george_raft/", "name": "George Raft", "thumbnailImg": "https://resizing.flixster.com/os3DnC8U_fmWUWLEPbRZ_GYk7dI=/80x80/v1.cDs3NDI0NTE0O2o7MTg4NTk7MjA0ODsxMjA7MTUw"}, "characters": [{"name": "Spats Columbo"}]}, {"person": {"url": "/celebrity/pat_obrien/", "name": "Pat O'Brien", "thumbnailImg": "https://resizing.flixster.com/FASEIzAC7pbmNGcy_NIRgpm4vPQ=/80x80/v1.cDs5ODAxNjg1O2o7MTg3OTg7MjA0ODs0NjI7NDYy"}, "characters": [{"name": "Mulligan"}]}, {"person": {"url": "/celebrity/clark_gable/", "name": "Clark Gable", "thumbnailImg": "https://resizing.flixster.com/TIAp_bs7O8U7q1F7sGaVEPHRzjg=/80x80/v1.cDsxMTE3NTUxNDtqOzE4ODgzOzIwNDg7NDMzOzI3OQ"}}, {"person": {"url": "/celebrity/joe_e_brown/", "name": "Joe E. Brown", "thumbnailImg": "https://resizing.flixster.com/XepbndmdEGVmmvyjPqUXHttJP-Y=/80x80/v1.cDs5ODAxMDAyO2o7MTg3OTA7MjA0ODs0NjI7NDYy"}, "characters": [{"name": "Osgood E. Fielding III"}]}, {"person": {"url": "/celebrity/montgomery_clift/", "name": "Montgomery Clift", "thumbnailImg": "https://resizing.flixster.com/jpvAoz1mzpKECGLk-6bZrn3EhXA=/80x80/v1.cDsxMTA5MTkxNztqOzE4ODUwOzIwNDg7NDEyOzMyNA"}}, {"person": {"url": "/celebrity/nehemiah_persoff/", "name": "Nehemiah Persoff", "thumbnailImg": "https://resizing.flixster.com/d9OW_1Nail7vU55SC_VW8Bi_EGk=/80x80/v1.cDsxMTg5MzM1MjtqOzE4Nzk5OzIwNDg7NTI2OzcwMg"}, "characters": [{"name": "Little Bonaparte"}]}, {"person": {"url": "/celebrity/eli_wallach/", "name": "Eli Wallach", "thumbnailImg": "https://resizing.flixster.com/IfcfcRKuA_AI5S74jpnBz4Sz41g=/80x80/v1.cjsyMzA3MztqOzE4Nzk4OzIwNDg7NjAwOzQ0Mg"}}, {"person": {"url": "/celebrity/joan_shawlee/", "name": "Joan Shawlee", "thumbnailImg": "https://resizing.flixster.com/5rCGDBVUwADPE3xCYoQ10RyynxQ=/80x80/v1.cDsxMTgyNDg3MztqOzE4ODA5OzIwNDg7MjUwOzMxNA"}, "characters": [{"name": "Sweet Sue"}]}, {"person": {"url": "/celebrity/billy_gray/", "name": "Billy Gray", "thumbnailImg": "https://resizing.flixster.com/56BawRidLk-l7VyAAkqTsiKZBis=/80x80/v1.cDsxMTczOTk4NTtqOzE4NzkwOzIwNDg7NDQwOzMzMA"}, "characters": [{"name": "Sig Poliakoff"}]}, {"person": {"url": "/celebrity/george_e_stone/", "name": "George E. Stone", "thumbnailImg": "https://resizing.flixster.com/7Q6iWEL9e2LS-ZHX7EsXGOVjK3I=/80x80/v1.cDsxMTkwNzk5MTtqOzE4NzY4OzIwNDg7MTQyOzE1OA"}, "characters": [{"name": "Toothpick Charlie"}]}, {"person": {"url": "/celebrity/dave_barry/", "name": "Dave Barry", "thumbnailImg": "https://d2a5cgar23scu2.cloudfront.net/static/images/redesign/actor.default.tmb.gif"}, "characters": [{"name": "Beinstock"}]}, {"person": {"url": "/celebrity/mike_mazurki/", "name": "Mike Mazurki", "thumbnailImg": "https://resizing.flixster.com/yJUotQe-8TQkEv1jxMGjolSrzTI=/80x80/v1.cDs5NDY3MDEyO2o7MTg3ODY7MjA0ODs0MzI7MzIw"}, "characters": [{"name": "Spats' Henchman"}]}, {"person": {"url": "/celebrity/harry-wilson/", "name": "Harry Wilson", "thumbnailImg": "https://d2a5cgar23scu2.cloudfront.net/static/images/redesign/actor.default.tmb.gif"}, "characters": [{"name": "Spats' Henchman"}]}, {"person": {"url": "/celebrity/beverly_wills/", "name": "Beverly Wills", "thumbnailImg": "https://d2a5cgar23scu2.cloudfront.net/static/images/redesign/actor.default.tmb.gif"}, "characters": [{"name": "Dolores"}]}, {"person": {"url": "/celebrity/barbara_drew/", "name": "Barbara Drew", "thumbnailImg": "https://d2a5cgar23scu2.cloudfront.net/static/images/redesign/actor.default.tmb.gif"}, "characters": [{"name": "Nellie"}]}, {"person": {"url": "/celebrity/edward-g-robinson-jr/", "name": "Edward G. Robinson Jr.", "thumbnailImg": "https://d2a5cgar23scu2.cloudfront.net/static/images/redesign/actor.default.tmb.gif"}, "characters": [{"name": "Johnny Paradise"}]}, {"person": {"url": "/celebrity/1028754-tom_kennedy/", "name": "Tom Kennedy", "thumbnailImg": "https://d2a5cgar23scu2.cloudfront.net/static/images/redesign/actor.default.tmb.gif"}, "characters": [{"name": "Bouncer"}]}, {"person": {"url": "/celebrity/john_indrisano/", "name": "John Indrisano", "thumbnailImg": "https://d2a5cgar23scu2.cloudfront.net/static/images/redesign/actor.default.tmb.gif"}, "characters": [{"name": "Waiter"}]}, {"person": {"url": "/celebrity/grace_lee_whitney/", "name": "Grace Lee Whitney", "thumbnailImg": "https://resizing.flixster.com/iz42nRUhZ6CZcTfRHmGS0JMct8I=/80x80/v1.cDsxNDA3MzQzNjtqOzE4ODM4OzIwNDg7MTM4OTsxMTc2"}}, {"person": {"url": "/celebrity/marian_collier/", "name": "Marian Collier", "thumbnailImg": "https://d2a5cgar23scu2.cloudfront.net/static/images/redesign/actor.default.tmb.gif"}, "characters": [{"name": "Olga"}]}, {"person": {"url": "/celebrity/edward_g_robinson/", "name": "Edward G. Robinson", "thumbnailImg": "https://resizing.flixster.com/EtHLz20vlx5-QVIJDmEzw3285_U=/80x80/v1.cDsxMDE2NzA0MjtqOzE4ODQ5OzIwNDg7NDYyOzQ1NA"}}]}, "title": "Some Like It Hot", "adjustedScore": 102.72331002643834, "ratings": {"critics_rating": "Certified Fresh", "audience_score": 94, "dvdReleaseDate": 990514800000, "critics_score": 95, "theaterReleaseDate": -339609600000, "audience_rating": "Upright"}, "videoClips": {"mainTrailer": {"hlsUrl": "http://video.internetvideoarchive.net/video.m3u8?cmd=6&publishedid=http://link.theplatform.com/s/NGweTC/media/3qiA6g_cnOuh&customerid=300120&e=1619087341043&sub=RTO&fmt=11&h=787e6a968e666e2db70a189359f7bd1f", "seconds": 24, "minutes": 1, "id": 11326173, "title": "Some Like It Hot: Official Clip - Just Call Me Junior", "thumbUrl": "http://resizing.flixster.com/JoAhllK7CkHlG_cqgLDeJWrQzi8=/171x128/v1.bjsyNTE5MTc0O2o7MTg4Mzk7MjA0ODsxMDgwOzE5MjA", "mp4Url": "http://video.internetvideoarchive.net/video.mp4?cmd=6&publishedid=http://link.theplatform.com/s/NGweTC/media/3qiA6g_cnOuh&customerid=300120&e=1619087341043&sub=RTO&fmt=4&videokbrate=750&h=0afdd417866793c62190be22e6af6182"}, "size": 11, "videoClips": [{"hlsUrl": "http://video.internetvideoarchive.net/video.m3u8?cmd=6&publishedid=http://link.theplatform.com/s/NGweTC/media/3qiA6g_cnOuh&customerid=300120&e=1619087341042&sub=RTO&fmt=11&h=b434b11ce747377d60c61cf9891dbcd7", "seconds": 24, "minutes": 1, "id": 11326173, "title": "Some Like It Hot: Official Clip - Just Call Me Junior", "thumbUrl": "http://resizing.flixster.com/JoAhllK7CkHlG_cqgLDeJWrQzi8=/171x128/v1.bjsyNTE5MTc0O2o7MTg4Mzk7MjA0ODsxMDgwOzE5MjA", "mp4Url": "http://video.internetvideoarchive.net/video.mp4?cmd=6&publishedid=http://link.theplatform.com/s/NGweTC/media/3qiA6g_cnOuh&customerid=300120&e=1619087341043&sub=RTO&fmt=4&videokbrate=750&h=0afdd417866793c62190be22e6af6182"}, {"hlsUrl": "http://video.internetvideoarchive.net/video.m3u8?cmd=6&publishedid=http://link.theplatform.com/s/NGweTC/media/9TvQIwJjRRmb&customerid=300120&e=1619087341043&sub=RTO&fmt=11&h=68b29a5352dcb0da9c0ceadfa6d40825", "seconds": 13, "minutes": 2, "id": 11326174, "title": "Some Like It Hot: Official Clip - Us Girls Should Stick Together", "thumbUrl": "http://resizing.flixster.com/VJiGaR42rVZPCPnwhAFNypUUsPI=/171x128/v1.bjsyNTE5MTc1O2o7MTg4Mzk7MjA0ODsxMDgwOzE5MjA", "mp4Url": "http://video.internetvideoarchive.net/video.mp4?cmd=6&publishedid=http://link.theplatform.com/s/NGweTC/media/9TvQIwJjRRmb&customerid=300120&e=1619087341043&sub=RTO&fmt=4&videokbrate=750&h=1eec0520e1dde3351de07039f104f313"}, {"hlsUrl": "http://video.internetvideoarchive.net/video.m3u8?cmd=6&publishedid=http://link.theplatform.com/s/NGweTC/media/N1AoVp9_t8l6&customerid=300120&e=1619087341043&sub=RTO&fmt=11&h=19c9617cba20aaafed4bbc3ba64bc8aa", "seconds": 57, "minutes": 1, "id": 11326175, "title": "Some Like It Hot: Official Clip - Sugar Kane", "thumbUrl": "http://resizing.flixster.com/FXbS2_2WIW3dv9JmGazg_Iv6IZ0=/171x128/v1.bjsyNTE5MTc2O2o7MTg4Mzk7MjA0ODsxMDgwOzE5MjA", "mp4Url": "http://video.internetvideoarchive.net/video.mp4?cmd=6&publishedid=http://link.theplatform.com/s/NGweTC/media/N1AoVp9_t8l6&customerid=300120&e=1619087341043&sub=RTO&fmt=4&videokbrate=750&h=c6064ac3c94eebaca051c0f11c2fdcec"}, {"hlsUrl": "http://video.internetvideoarchive.net/video.m3u8?cmd=6&publishedid=http://link.theplatform.com/s/NGweTC/media/YDMDSGPFA8oE&customerid=300120&e=1619087341043&sub=RTO&fmt=11&h=0c8f03f8af2e02db91592bde3d6d1260", "seconds": 56, "minutes": 1, "id": 11326176, "title": "Some Like It Hot: Official Clip - A Thing For Sax Players", "thumbUrl": "http://resizing.flixster.com/2jIHEJayPKmSzayU-82ABVSvT4s=/171x128/v1.bjsyNTE5MTc3O2o7MTg4Mzk7MjA0ODsxMDgwOzE5MjA", "mp4Url": "http://video.internetvideoarchive.net/video.mp4?cmd=6&publishedid=http://link.theplatform.com/s/NGweTC/media/YDMDSGPFA8oE&customerid=300120&e=1619087341043&sub=RTO&fmt=4&videokbrate=750&h=0a7892496467800a8f747ab9123660f7"}, {"hlsUrl": "http://video.internetvideoarchive.net/video.m3u8?cmd=6&publishedid=http://link.theplatform.com/s/NGweTC/media/SCdMFor1pb3a&customerid=300120&e=1619087341043&sub=RTO&fmt=11&h=043b8cab28c57e60316bacd0e06d3fe6", "seconds": 6, "minutes": 3, "id": 11326177, "title": "Some Like It Hot: Official Clip - Sugar Meets the Millionaire", "thumbUrl": "http://resizing.flixster.com/HK4fAWB_YhOIXRLgWGiBdMjM0Ug=/171x128/v1.bjsyNTE5MTc4O2o7MTg4Mzk7MjA0ODsxMDgwOzE5MjA", "mp4Url": "http://video.internetvideoarchive.net/video.mp4?cmd=6&publishedid=http://link.theplatform.com/s/NGweTC/media/SCdMFor1pb3a&customerid=300120&e=1619087341043&sub=RTO&fmt=4&videokbrate=750&h=c833ba299fd572e522382e8cb6260d93"}, {"hlsUrl": "http://video.internetvideoarchive.net/video.m3u8?cmd=6&publishedid=http://link.theplatform.com/s/NGweTC/media/aUpRKbjL_S26&customerid=300120&e=1619087341043&sub=RTO&fmt=11&h=26939917fdb53f6021346bee60901ea1", "seconds": 16, "minutes": 2, "id": 11326178, "title": "Some Like It Hot: Official Clip - Boy Oh Boy Am I a Boy", "thumbUrl": "http://resizing.flixster.com/YyAOEQlSQ4UvArWkkfEPqj0DKHY=/171x128/v1.bjsyNTE5MTc5O2o7MTg4Mzk7MjA0ODsxMDgwOzE5MjA", "mp4Url": "http://video.internetvideoarchive.net/video.mp4?cmd=6&publishedid=http://link.theplatform.com/s/NGweTC/media/aUpRKbjL_S26&customerid=300120&e=1619087341043&sub=RTO&fmt=4&videokbrate=750&h=a8be1d72fe0c1d16c5e8e15145c0473a"}, {"hlsUrl": "http://video.internetvideoarchive.net/video.m3u8?cmd=6&publishedid=http://link.theplatform.com/s/NGweTC/media/JjG1ha_EFUH6&customerid=300120&e=1619087341043&sub=RTO&fmt=11&h=749169584ed31b08708b65ea23cfd00a", "seconds": 3, "minutes": 1, "id": 11326179, "title": "Some Like It Hot: Official Clip - Girl Musicians", "thumbUrl": "http://resizing.flixster.com/w3xW0nzyI2CnDpV23KatBxZzn2U=/171x128/v1.bjsyNTE5MTgwO2o7MTg4Mzk7MjA0ODsxMDgwOzE5MjA", "mp4Url": "http://video.internetvideoarchive.net/video.mp4?cmd=6&publishedid=http://link.theplatform.com/s/NGweTC/media/JjG1ha_EFUH6&customerid=300120&e=1619087341043&sub=RTO&fmt=4&videokbrate=750&h=a008be1ebbc07300d4f284dc983671c4"}, {"hlsUrl": "http://video.internetvideoarchive.net/video.m3u8?cmd=6&publishedid=http://link.theplatform.com/s/NGweTC/media/J_8ESXD8rImJ&customerid=300120&e=1619087341043&sub=RTO&fmt=11&h=0d2c06dbd1371749c2e4ff4d32735dff", "seconds": 31, "minutes": 1, "id": 11326180, "title": "Some Like It Hot: Official Clip - Nobody's Perfect", "thumbUrl": "http://resizing.flixster.com/UUgWPo75NAOTzF2FoXQgFbMuA1A=/171x128/v1.bjsyNTE5MTgxO2o7MTg4Mzk7MjA0ODsxMDgwOzE5MjA", "mp4Url": "http://video.internetvideoarchive.net/video.mp4?cmd=6&publishedid=http://link.theplatform.com/s/NGweTC/media/J_8ESXD8rImJ&customerid=300120&e=1619087341043&sub=RTO&fmt=4&videokbrate=750&h=d3ec950f579b00ce981b1196271c64cf"}, {"hlsUrl": "http://video.internetvideoarchive.net/video.m3u8?cmd=6&publishedid=http://link.theplatform.com/s/NGweTC/media/iX7bKSRUSFK8&customerid=300120&e=1619087341043&sub=RTO&fmt=11&h=b64f9e0dbe5fb1999e167a5748d8c5ba", "seconds": 29, "minutes": 3, "id": 11326181, "title": "Some Like It Hot: Official Clip - Learning to Kiss", "thumbUrl": "http://resizing.flixster.com/ex2dEsDKTW9ZWo_qXUxO7yq2KDc=/171x128/v1.bjsyNTE5MTgyO2o7MTg4Mzk7MjA0ODsxMDgwOzE5MjA", "mp4Url": "http://video.internetvideoarchive.net/video.mp4?cmd=6&publishedid=http://link.theplatform.com/s/NGweTC/media/iX7bKSRUSFK8&customerid=300120&e=1619087341043&sub=RTO&fmt=4&videokbrate=750&h=4cd6a487ce7aa6560dbe7b0d3b76aefa"}, {"hlsUrl": "http://video.internetvideoarchive.net/video.m3u8?cmd=6&publishedid=http://link.theplatform.com/s/NGweTC/media/artc_gI5ZxBz&customerid=300120&e=1619087341043&sub=RTO&fmt=11&h=23058af64bdae3cdae63c89a7a1e287b", "seconds": 7, "minutes": 2, "id": 11326182, "title": "Some Like It Hot: Official Clip - Party for Two", "thumbUrl": "http://resizing.flixster.com/sXuvLIeRd0MYGEUd4xlDZr-xzjE=/171x128/v1.bjsyNTE5MTgzO2o7MTg4Mzk7MjA0ODsxMDgwOzE5MjA", "mp4Url": "http://video.internetvideoarchive.net/video.mp4?cmd=6&publishedid=http://link.theplatform.com/s/NGweTC/media/artc_gI5ZxBz&customerid=300120&e=1619087341043&sub=RTO&fmt=4&videokbrate=750&h=653e884668e9c43cf9bf72a910ad26fb"}, {"hlsUrl": "http://video.internetvideoarchive.net/video.m3u8?cmd=6&publishedid=http://link.theplatform.com/s/NGweTC/media/TvAImNyQE4P0&customerid=300120&e=1619087341043&sub=RTO&fmt=11&h=6b2e43239b8a67c656ec328e44e6bc20", "seconds": 59, "minutes": 1, "id": 11326183, "title": "Some Like It Hot: Official Clip - How the Other Half Lives", "thumbUrl": "http://resizing.flixster.com/xbV23OhYooNfb0kGwD838kJMh1E=/171x128/v1.bjsyNTE5MTg0O2o7MTg4Mzk7MjA0ODsxMDgwOzE5MjA", "mp4Url": "http://video.internetvideoarchive.net/video.mp4?cmd=6&publishedid=http://link.theplatform.com/s/NGweTC/media/TvAImNyQE4P0&customerid=300120&e=1619087341043&sub=RTO&fmt=4&videokbrate=750&h=ae13f3fae9708be027aa5a21a8a3aca2"}]}, "isUpcoming": false, "posters": {"original": "https://resizing.flixster.com/ziS1k-qHbMSpcG5Wd5TW-IGcG7w=/1368x1824/v1.bTsxMTIxMTQyOTtqOzE4ODg4OzIwNDg7MTM2ODsxODI0", "detailed": "https://resizing.flixster.com/6kv24kycMdfYhguZhtpWOlxqfck=/180x240/v1.bTsxMTIxMTQyOTtqOzE4ODg4OzIwNDg7MTM2ODsxODI0", "profile": "https://resizing.flixster.com/4WN9Kf_GJ9FUbBuqr8FHUVT7DaE=/120x160/v1.bTsxMTIxMTQyOTtqOzE4ODg4OzIwNDg7MTM2ODsxODI0", "thumbnail": "https://resizing.flixster.com/FbfwX2fmVstAzRr1_VcVcDqCng4=/54x72/v1.bTsxMTIxMTQyOTtqOzE4ODg4OzIwNDg7MTM2ODsxODI0"}, "isLimited": false, "mainTrailer": {"thumbUrl": "https://resizing.flixster.com/JoAhllK7CkHlG_cqgLDeJWrQzi8=/171x128/v1.bjsyNTE5MTc0O2o7MTg4Mzk7MjA0ODsxMDgwOzE5MjA", "hlsUrl": "http://video.internetvideoarchive.net/video.m3u8?cmd=6&publishedid=http://link.theplatform.com/s/NGweTC/media/3qiA6g_cnOuh&customerid=300120&e=1619087340582&sub=RTO&fmt=11&h=d7536a19ba25a5f3a9c06a270f5a58a9", "id": 11326173, "mp4Url": "http://video.internetvideoarchive.net/video.mp4?cmd=6&publishedid=http://link.theplatform.com/s/NGweTC/media/3qiA6g_cnOuh&customerid=300120&e=1619087340582&sub=RTO&fmt=4&videokbrate=750&h=cd18712cd8e10e4329ef80e8fc3e6136"}, "advisory": "", "id": 18189}