{"url": "/m/fantasia/", "isOnOpening": false, "genreSet": [{"displayName": "Animation", "id": 2}, {"displayName": "Kids & Family", "id": 11}, {"displayName": "Musical & Performing Arts", "id": 12}, {"displayName": "Classics", "id": 5}, {"displayName": "Science Fiction & Fantasy", "id": 14}], "runningTime": 116, "isInTheaters": false, "synopsis": "Regarded by many as Walt Disney's masterpiece, Fantasia predicted the modern music video by offering nine animated segments that were directly inspired by compressed versions of well-known classical music without necessarily adhering to the original composers' intent. Featuring the work of the Disney studio's artists at the height of their powers, and coupled with conductor Leopold Stokowski's musical arrangements, Fantasia's fanciful interpretations include a semi-abstract rendition of Bach's Toccata and Fugue in D Minor; water sprites, dancing mushrooms, and other creatures in Tchaikovsky's The Nutcracker Suite; Mickey Mouse as the title character in Paul Dukas' The Sorcerer's Apprentice; dinosaurs roaming a primordial Earth in Stravinsky's The Rite of Spring; frolicking mythical creatures in Beethoven's The Pastoral Symphony; ballet-dancing ostriches, hippopotamuses, and alligators in Ponchielli's Dance of the Hours; and the rise and fall of the dark demon Chernobog in Mussorgsky's Night on Bald Mountain and Schubert's \"Ave Maria.\" Deems Taylor's narration (and brief words by Stokowski and Mickey) provide the only spoken words in the film.", "links": {"alternate": "//www.rottentomatoes.com/m/fantasia/"}, "year": 1940, "trackingType": "DvdOther", "status": "Live", "isPlaying": false, "isOnDVD": true, "runningTimeStr": "1 hr. 56 min.", "ratingSummary": {"topcount": 12, "consensus": "A landmark in animation (and a huge influence on the medium of music video), Disney's Fantasia is a relentlessly inventive blend of the classics with phantasmagorical images.", "topCritics": {"hasScore": true, "numReviews": 12, "meterClass": "certified", "numRotten": 1, "numFresh": 11, "hasReviews": true, "meterValue": 92, "averageRating": 7.944444}, "audience": {"meterScore": 83, "averageScore": 3.554784059524536, "numTotal": 129085, "ratingType": "viewed"}, "allcount": 56, "rottencount": 3, "dvdcount": 8, "allCritics": {"hasScore": true, "numReviews": 56, "meterClass": "certified", "numRotten": 3, "numFresh": 53, "hasReviews": true, "meterValue": 95, "averageRating": 8.64}, "freshcount": 53}, "mpaaRating": "G", "vanity": "fantasia", "studio": "Walt Disney Productions", "purchaseOptions": {"netflix": {"streamingId": "60003064"}, "vudu": {"url": "https://www.vudu.com/content/movies/details/Fantasia/16848", "type": "buy"}}, "reviews": {"total": 56, "links": {"alternate": "//www.rottentomatoes.com/m/fantasia/#reviews", "self": "api.flixster.com/movies/fantasia1940/reviews.json?review_type=mob&country=us&page=1", "prev": "api.flixster.com/movies/fantasia1940/reviews.json?review_type=mob&country=us&page=0", "next": "api.flixster.com/movies/fantasia1940/reviews.json?review_type=mob&country=us&page=2"}, "reviews": [{"isRotten": false, "url": "https://www.theguardian.com/film/2020/jul/17/disney-fantasia-reviewed-archive-1941", "publication": {"url": "", "name": "Guardian"}, "isTop": true, "creationDate": 1594984394000, "isFresh": true, "freshness": "fresh", "critic": {"url": "/critic/guardian-staff", "name": "Guardian Staff", "id": 22955, "thumbnailImage": "https://d2a5cgar23scu2.cloudfront.net/static/images/redesign/user.none.tmb.jpg"}, "quote": "Disney's abstractions are no more imaginative than Fischinger's or Len Lye's, though he can be wittier than they.", "id": 2705601, "links": {"review": "https://www.theguardian.com/film/2020/jul/17/disney-fantasia-reviewed-archive-1941"}}, {"isRotten": false, "url": "http://nla.gov.au/nla.news-article17745018", "publication": {"url": "", "name": "Sydney Morning Herald"}, "isTop": true, "creationDate": 1588378973000, "isFresh": true, "freshness": "fresh", "critic": {"url": "/critic/smh-staff", "name": "SMH Staff", "id": 23864, "thumbnailImage": "https://d2a5cgar23scu2.cloudfront.net/static/images/redesign/user.none.tmb.jpg"}, "quote": "The film will be as controversial as is all new art conception. But its entertainment value is Immense and unquestionable.", "id": 2687362, "links": {"review": "http://nla.gov.au/nla.news-article17745018"}}, {"isRotten": false, "url": "http://latimesblogs.latimes.com/thedailymirror/2011/01/fantasia-acclaimed-as-film-masterpiece.html", "publication": {"url": "", "name": "Los Angeles Times"}, "isTop": true, "creationDate": 1358562255000, "isFresh": true, "freshness": "fresh", "critic": {"url": "/critic/edwin-schallert", "name": "Edwin Schallert", "id": 14204, "thumbnailImage": "https://d2a5cgar23scu2.cloudfront.net/static/images/redesign/user.none.tmb.jpg"}, "quote": "The words most used to describe \"Fantasia,\" besides the conventional \"beautiful\" and \"wonderful\" were \"path-breaking\" and \"courageous.\" The phrase \"courageous beyond belief\" would be even more accurate.", "id": 2123248, "links": {"review": "http://latimesblogs.latimes.com/thedailymirror/2011/01/fantasia-acclaimed-as-film-masterpiece.html"}}, {"isRotten": false, "url": "http://www.time.com/time/magazine/article/0,9171,777534-1,00.html", "publication": {"url": "", "name": "TIME Magazine"}, "isTop": true, "creationDate": 1220536876000, "isFresh": true, "freshness": "fresh", "quote": "Critics may deplore Disney's lapses of taste, but he trips, Mickey-like, into an art form that immortals from Aeschylus to Richard Wagner have always dreamed of.", "id": 1753154, "links": {"review": "http://www.time.com/time/magazine/article/0,9171,777534-1,00.html"}}, {"isRotten": false, "url": "http://www.variety.com/review/VE1117790827.html?categoryid=31&cs=1", "publication": {"url": "", "name": "Variety"}, "isTop": true, "creationDate": 1220197203000, "isFresh": true, "freshness": "fresh", "critic": {"url": "/critic/john-c-flinn-sr", "name": "John C. Flinn Sr.", "id": 12545, "thumbnailImage": "https://d2a5cgar23scu2.cloudfront.net/static/images/redesign/user.none.tmb.jpg"}, "quote": "There is something in Fantasia for every taste.", "id": 1752472, "links": {"review": "http://www.variety.com/review/VE1117790827.html?categoryid=31&cs=1"}}, {"isRotten": true, "url": "http://www.empireonline.com/reviews/review.asp?FID=967", "publication": {"url": "", "name": "Empire Magazine"}, "isTop": true, "creationDate": 1204592375000, "isFresh": false, "freshness": "rotten", "quote": "This is a very patchy affair -- while some of the animated pieces work, others come across as downright insane.", "id": 1713197, "original_score": "2/5", "links": {"review": "http://www.empireonline.com/reviews/review.asp?FID=967"}}, {"isRotten": false, "url": "https://archive.org/details/motionpictureher141unse/page/n199/mode/2up", "publication": {"url": "", "name": "Motion Picture Herald (Exhibitors Herald)"}, "isTop": false, "creationDate": 1609803254000, "isFresh": true, "freshness": "fresh", "critic": {"url": "/critic/martin-quigley-jr-27985", "name": "Martin Quigley Jr.", "id": 27985, "thumbnailImage": "https://d2a5cgar23scu2.cloudfront.net/static/images/redesign/user.none.tmb.jpg"}, "quote": "There is a charm in many of the images created by the vivid imaginations of Mr. Disney and his fellow workers which is without equal in previous motion pictures.", "id": 2755510, "links": {"review": "https://archive.org/details/motionpictureher141unse/page/n199/mode/2up"}}, {"isRotten": false, "url": "http://gonewiththetwins.com/new/fantasia-1940/", "creationDate": 1596605215000, "isFresh": true, "id": 2710968, "quote": "The arrangement of music alone is inspiring, but it's the seamless combination with traditionally animated mini stories that sets it apart.", "links": {"review": "http://gonewiththetwins.com/new/fantasia-1940/"}, "publication": {"url": "", "name": "Gone With The Twins"}, "isTop": false, "freshness": "fresh", "critic": {"url": "/critic/mike-massie", "name": "Mike Massie", "id": 27168, "thumbnailImage": "https://resizing.flixster.com/cKCY6tR9EskewGPlb8BlnvWesZU=/72x72/v1.YzszNjc3O2o7MTg3OTc7MjA0ODszMDA7MzAw"}, "original_score": "10/10"}, {"isRotten": true, "url": "https://elpais.com/diario/1977/04/12/cultura/229644001_850215.html", "publication": {"url": "", "name": "El Pais (Spain)"}, "isTop": false, "creationDate": 1563913743000, "isFresh": false, "freshness": "rotten", "critic": {"url": "/critic/antonio-lara", "name": "Antonio Lara", "id": 17500, "thumbnailImage": "https://d2a5cgar23scu2.cloudfront.net/static/images/redesign/user.none.tmb.jpg"}, "quote": "Fantasia is a strange hybrid that only represents the creator's delusions of grandeur. [Full Review in Spanish]", "id": 2607967, "links": {"review": "https://elpais.com/diario/1977/04/12/cultura/229644001_850215.html"}}, {"isRotten": false, "url": "https://rachelsreviews.net/2014/08/17/movie-3-fantasia/", "creationDate": 1557432334000, "isFresh": true, "id": 2585070, "quote": "I admire Walt Disney so much for making such bold films.", "links": {"review": "https://rachelsreviews.net/2014/08/17/movie-3-fantasia/"}, "publication": {"url": "", "name": "rachelsreviews.net"}, "isTop": false, "freshness": "fresh", "critic": {"url": "/critic/rachel-wagner", "name": "Rachel Wagner", "id": 23964, "thumbnailImage": "https://resizing.flixster.com/CvuVoWlOH-LcGgLgTU2V23hxVvM=/72x72/v1.YzszMjU3O2o7MTg3ODI7MjA0ODszMDA7MzAw"}, "original_score": "A+"}, {"isRotten": false, "url": "http://www.7mpictures.com/fantasiafantasia-2000-blu-ray-review/", "creationDate": 1386595590000, "isFresh": true, "id": 2178360, "quote": "the films in the Disney Vault are brilliant pieces of work that need to be seen in the best visual presentation possible", "links": {"review": "http://www.7mpictures.com/fantasiafantasia-2000-blu-ray-review/"}, "publication": {"name": "7M Pictures"}, "isTop": false, "freshness": "fresh", "critic": {"url": "/critic/kevin-carr", "name": "Kevin Carr", "id": 6773, "thumbnailImage": "https://resizing.flixster.com/O5khATpi-cDaFtSz1l_XATBIORI=/72x72/v1.YzsxNzQ3O2o7MTg4MDI7MjA0ODszODs1NA"}, "original_score": "4/5"}, {"isRotten": true, "url": "http://www.thenation.com/article/fantasia", "publication": {"url": "", "name": "The Nation"}, "isTop": false, "creationDate": 1354052912000, "isFresh": false, "freshness": "rotten", "critic": {"url": "/critic/franz-hoellering", "name": "Franz Hoellering", "id": 14681, "thumbnailImage": "https://d2a5cgar23scu2.cloudfront.net/static/images/redesign/user.none.tmb.jpg"}, "quote": "I belong to those who had no need of that kind of entertainment, being content with seeing pictures and hearing music.", "id": 2116465, "links": {"review": "http://www.thenation.com/article/fantasia"}}]}, "casts": {"screenwriters": [{"url": "/celebrity/dick_huemer/", "name": "Dick Huemer", "thumbnailImg": "https://d2a5cgar23scu2.cloudfront.net/static/images/redesign/actor.default.tmb.gif"}, {"url": "/celebrity/webb_smith/", "name": "Webb Smith", "thumbnailImg": "https://d2a5cgar23scu2.cloudfront.net/static/images/redesign/actor.default.tmb.gif"}, {"url": "/celebrity/elmer_plummer/", "name": "Elmer Plummer", "thumbnailImg": "https://d2a5cgar23scu2.cloudfront.net/static/images/redesign/actor.default.tmb.gif"}, {"url": "/celebrity/otto_englander/", "name": "Otto Englander", "thumbnailImg": "https://d2a5cgar23scu2.cloudfront.net/static/images/redesign/actor.default.tmb.gif"}, {"url": "/celebrity/erdman_penner/", "name": "Erdman Penner", "thumbnailImg": "https://d2a5cgar23scu2.cloudfront.net/static/images/redesign/actor.default.tmb.gif"}, {"url": "/celebrity/joseph_sabo/", "name": "Joseph Sabo", "thumbnailImg": "https://d2a5cgar23scu2.cloudfront.net/static/images/redesign/actor.default.tmb.gif"}, {"url": "/celebrity/joe_grant/", "name": "Joe Grant", "thumbnailImg": "https://d2a5cgar23scu2.cloudfront.net/static/images/redesign/actor.default.tmb.gif"}, {"url": "/celebrity/graham_heid/", "name": "Graham Heid", "thumbnailImg": "https://d2a5cgar23scu2.cloudfront.net/static/images/redesign/actor.default.tmb.gif"}, {"url": "/celebrity/lee_blair/", "name": "Lee Blair", "thumbnailImg": "https://d2a5cgar23scu2.cloudfront.net/static/images/redesign/actor.default.tmb.gif"}, {"url": "/celebrity/perce_pearce/", "name": "Perce Pearce", "thumbnailImg": "https://d2a5cgar23scu2.cloudfront.net/static/images/redesign/actor.default.tmb.gif"}, {"url": "/celebrity/bill_peet/", "name": "Bill Peet", "thumbnailImg": "https://d2a5cgar23scu2.cloudfront.net/static/images/redesign/actor.default.tmb.gif"}, {"url": "/celebrity/carl_faliberg/", "name": "Carl Faliberg", "thumbnailImg": "https://d2a5cgar23scu2.cloudfront.net/static/images/redesign/actor.default.tmb.gif"}, {"url": "/celebrity/leo_thiele/", "name": "Leo Thiele", "thumbnailImg": "https://d2a5cgar23scu2.cloudfront.net/static/images/redesign/actor.default.tmb.gif"}, {"url": "/celebrity/john_fraser_mcleish/", "name": "John Fraser McLeish", "thumbnailImg": "https://d2a5cgar23scu2.cloudfront.net/static/images/redesign/actor.default.tmb.gif"}, {"url": "/celebrity/phil_dike/", "name": "Phil Dike", "thumbnailImg": "https://d2a5cgar23scu2.cloudfront.net/static/images/redesign/actor.default.tmb.gif"}, {"url": "/celebrity/robert_sterner/", "name": "Robert Sterner", "thumbnailImg": "https://d2a5cgar23scu2.cloudfront.net/static/images/redesign/actor.default.tmb.gif"}, {"url": "/celebrity/bianca_majolie/", "name": "Bianca Majolie", "thumbnailImg": "https://d2a5cgar23scu2.cloudfront.net/static/images/redesign/actor.default.tmb.gif"}, {"url": "/celebrity/norman_ferguson/", "name": "Norman Ferguson", "thumbnailImg": "https://d2a5cgar23scu2.cloudfront.net/static/images/redesign/actor.default.tmb.gif"}, {"url": "/celebrity/albert_heath/", "name": "Albert Heath", "thumbnailImg": "https://d2a5cgar23scu2.cloudfront.net/static/images/redesign/actor.default.tmb.gif"}, {"url": "/celebrity/sylvia_moberly_holland/", "name": "Sylvia Moberly-Holland", "thumbnailImg": "https://d2a5cgar23scu2.cloudfront.net/static/images/redesign/actor.default.tmb.gif"}, {"url": "/celebrity/1178799-william_martin/", "name": "William Martin", "thumbnailImg": "https://d2a5cgar23scu2.cloudfront.net/static/images/redesign/actor.default.tmb.gif"}, {"url": "/celebrity/campbell_grant_3/", "name": "Campbell Grant", "thumbnailImg": "https://d2a5cgar23scu2.cloudfront.net/static/images/redesign/actor.default.tmb.gif"}, {"url": "/celebrity/arthur_heinemann_7/", "name": "Arthur Heinemann", "thumbnailImg": "https://d2a5cgar23scu2.cloudfront.net/static/images/redesign/actor.default.tmb.gif"}, {"url": "/celebrity/norman_wright_8/", "name": "Norman Wright", "thumbnailImg": "https://d2a5cgar23scu2.cloudfront.net/static/images/redesign/actor.default.tmb.gif"}], "directors": [{"url": "/celebrity/james_algar/", "name": "James Algar", "thumbnailImg": "https://d2a5cgar23scu2.cloudfront.net/static/images/redesign/actor.default.tmb.gif"}, {"url": "/celebrity/samuel_armstrong/", "name": "Samuel Armstrong", "thumbnailImg": "https://d2a5cgar23scu2.cloudfront.net/static/images/redesign/actor.default.tmb.gif"}, {"url": "/celebrity/ford_beebe/", "name": "Ford Beebe", "thumbnailImg": "https://d2a5cgar23scu2.cloudfront.net/static/images/redesign/actor.default.tmb.gif"}, {"url": "/celebrity/walt_disney/", "name": "Walt Disney", "thumbnailImg": "https://resizing.flixster.com/LSoN_IPA17uTor-mQWNn8QNL0pI=/80x80/v1.cjs0MjI0MDtqOzE4Nzk1OzIwNDg7NDUwOzU5OQ"}, {"url": "/celebrity/norman_ferguson/", "name": "Norman Ferguson", "thumbnailImg": "https://d2a5cgar23scu2.cloudfront.net/static/images/redesign/actor.default.tmb.gif"}, {"url": "/celebrity/jim_handley/", "name": "Jim Handley", "thumbnailImg": "https://d2a5cgar23scu2.cloudfront.net/static/images/redesign/actor.default.tmb.gif"}, {"url": "/celebrity/wilfred_jackson/", "name": "Wilfred Jackson", "thumbnailImg": "https://resizing.flixster.com/Cp8MRI4NpzvGR5fUhu2ugdcKzDM=/80x80/v1.cDsxMTA2MzcyMDtqOzE4ODY4OzIwNDg7NjQwOzQ3OA"}, {"url": "/celebrity/hamilton_luske/", "name": "Hamilton Luske", "thumbnailImg": "https://resizing.flixster.com/s-rOiI4dbZyPOqJAbfxDXMEy-U0=/80x80/v1.cDsxMTAzNzc2ODtqOzE4ODgwOzIwNDg7NjA7NjA"}, {"url": "/celebrity/bill_roberts/", "name": "Bill Roberts", "thumbnailImg": "https://d2a5cgar23scu2.cloudfront.net/static/images/redesign/actor.default.tmb.gif"}, {"url": "/celebrity/paul_satterfield/", "name": "Paul Satterfield", "thumbnailImg": "https://d2a5cgar23scu2.cloudfront.net/static/images/redesign/actor.default.tmb.gif"}, {"url": "/celebrity/t_hee/", "name": "T. Hee", "thumbnailImg": "https://d2a5cgar23scu2.cloudfront.net/static/images/redesign/actor.default.tmb.gif"}, {"url": "/celebrity/bianca_majolie/", "name": "Bianca Majolie", "thumbnailImg": "https://d2a5cgar23scu2.cloudfront.net/static/images/redesign/actor.default.tmb.gif"}, {"url": "/celebrity/ben_sharpsteen/", "name": "Ben Sharpsteen", "thumbnailImg": "https://resizing.flixster.com/VVs-fpKY3t0ixENgsidAHtjnixs=/80x80/v1.cDsxMTAzMDY5OTtqOzE4ODc2OzIwNDg7NDUwOzMyOA"}, {"url": "/celebrity/albert_heath/", "name": "Albert Heath", "thumbnailImg": "https://d2a5cgar23scu2.cloudfront.net/static/images/redesign/actor.default.tmb.gif"}, {"url": "/celebrity/sylvia_moberly_holland/", "name": "Sylvia Moberly-Holland", "thumbnailImg": "https://d2a5cgar23scu2.cloudfront.net/static/images/redesign/actor.default.tmb.gif"}, {"url": "/celebrity/graham_heid/", "name": "Graham Heid", "thumbnailImg": "https://d2a5cgar23scu2.cloudfront.net/static/images/redesign/actor.default.tmb.gif"}, {"url": "/celebrity/norman_wright_8/", "name": "Norman Wright", "thumbnailImg": "https://d2a5cgar23scu2.cloudfront.net/static/images/redesign/actor.default.tmb.gif"}], "creators": [], "producers": [{"url": "/celebrity/walt_disney/", "name": "Walt Disney", "thumbnailImg": "https://resizing.flixster.com/LSoN_IPA17uTor-mQWNn8QNL0pI=/80x80/v1.cjs0MjI0MDtqOzE4Nzk1OzIwNDg7NDUwOzU5OQ"}], "castItems": [{"person": {"url": "/celebrity/walt_disney/", "name": "Walt Disney", "thumbnailImg": "https://resizing.flixster.com/LSoN_IPA17uTor-mQWNn8QNL0pI=/80x80/v1.cjs0MjI0MDtqOzE4Nzk1OzIwNDg7NDUwOzU5OQ"}, "characters": [{"name": "Mickey Mouse"}]}, {"person": {"url": "/celebrity/leopold_stokowski/", "name": "Leopold Stokowski", "thumbnailImg": "https://resizing.flixster.com/yCVK8XZ3peBIAwAfDYdYnnmcpU0=/80x80/v1.cDs5NTI0MDYwO2o7MTg4MjA7MjA0ODs0MDA7MzAw"}, "characters": [{"name": "Himself"}]}, {"person": {"url": "/celebrity/deems_taylor/", "name": "Deems Taylor", "thumbnailImg": "https://d2a5cgar23scu2.cloudfront.net/static/images/redesign/actor.default.tmb.gif"}, "characters": [{"name": "Narrative Introductions"}]}, {"person": {"url": "/celebrity/philadelphia_symphony_orchestra/", "name": "Philadelphia Symphony Orchestra", "thumbnailImg": "https://d2a5cgar23scu2.cloudfront.net/static/images/redesign/actor.default.tmb.gif"}, "characters": [{"name": "Orchestra"}]}, {"person": {"url": "/celebrity/bela_lugosi/", "name": "Bela Lugosi", "thumbnailImg": "https://resizing.flixster.com/YmTU7H49HHeY9ciySLGryf1L6NE=/80x80/v1.cDsxMTE1MjI1MjtqOzE4ODg2OzIwNDg7MjIwOzI0NQ"}, "characters": [{"name": "Model for Tchernabog"}]}, {"person": {"url": "/celebrity/deems_taylor_3/", "name": "Deems Taylor", "thumbnailImg": "https://d2a5cgar23scu2.cloudfront.net/static/images/redesign/actor.default.tmb.gif"}}]}, "title": "Fantasia", "adjustedScore": 102.49012265195046, "ratings": {"critics_rating": "Certified Fresh", "audience_score": 83, "dvdReleaseDate": 688982400000, "critics_score": 95, "theaterReleaseDate": -919353600000, "audience_rating": "Upright"}, "videoClips": {"mainTrailer": {"hlsUrl": "http://video.internetvideoarchive.net/video.m3u8?cmd=6&publishedid=784907&customerid=300120&e=1619087347379&sub=RTO&fmt=11&h=d85aa03e76b4b3723a644b5e227dc669", "seconds": 4, "minutes": 1, "id": 11231315, "title": "Fantasia", "thumbUrl": "http://content.internetvideoarchive.com/content/photos/9806/784907_013.jpg", "mp4Url": "http://video.internetvideoarchive.net/video.mp4?cmd=6&publishedid=784907&customerid=300120&e=1619087347379&sub=RTO&fmt=4&videokbrate=750&h=ee4a538ab4977e0cf8358e3f932c0b1e"}, "size": 1, "videoClips": [{"hlsUrl": "http://video.internetvideoarchive.net/video.m3u8?cmd=6&publishedid=784907&customerid=300120&e=1619087347379&sub=RTO&fmt=11&h=d85aa03e76b4b3723a644b5e227dc669", "seconds": 4, "minutes": 1, "id": 11231315, "title": "Fantasia", "thumbUrl": "http://content.internetvideoarchive.com/content/photos/9806/784907_013.jpg", "mp4Url": "http://video.internetvideoarchive.net/video.mp4?cmd=6&publishedid=784907&customerid=300120&e=1619087347379&sub=RTO&fmt=4&videokbrate=750&h=ee4a538ab4977e0cf8358e3f932c0b1e"}]}, "isUpcoming": false, "posters": {"original": "https://resizing.flixster.com/6MvELx002vViZqdmL3jiqvUhxUA=/2250x3000/v1.bTsxMTIxMzQ2ODtqOzE4ODU3OzIwNDg7MjI1MDszMDAw", "detailed": "https://resizing.flixster.com/gfmZgnFNgdLA0rewa8xk4LJsYko=/180x240/v1.bTsxMTIxMzQ2ODtqOzE4ODU3OzIwNDg7MjI1MDszMDAw", "profile": "https://resizing.flixster.com/dlRwt-ww8W3-crWTs1yaZwGissE=/120x160/v1.bTsxMTIxMzQ2ODtqOzE4ODU3OzIwNDg7MjI1MDszMDAw", "thumbnail": "https://resizing.flixster.com/cMpY5CEtbUmRSj0rLB-quRw5krI=/54x72/v1.bTsxMTIxMzQ2ODtqOzE4ODU3OzIwNDg7MjI1MDszMDAw"}, "isLimited": false, "mainTrailer": {"thumbUrl": "https://content.internetvideoarchive.com/content/photos/9806/784907_013.jpg", "hlsUrl": "http://video.internetvideoarchive.net/video.m3u8?cmd=6&publishedid=784907&customerid=300120&e=1619087346965&sub=RTO&fmt=11&h=a218b5015f3795111f3101b793caf046", "id": 11231315, "mp4Url": "http://video.internetvideoarchive.net/video.mp4?cmd=6&publishedid=784907&customerid=300120&e=1619087346965&sub=RTO&fmt=4&videokbrate=750&h=39897c7fc616755859dc888c07607511"}, "photos": {"photos": [{"url": "https://resizing.flixster.com/X8Nbemy87a532TlFSSyBzORYDEs=/1024x752/v1.bjsyMzI0MjI7ajsxODgwOTsyMDQ4OzMwMDA7MjIwMw", "index": 0, "submittedBy": "RT Staff", "height": 752, "imageId": 232422, "thumbnail": "https://resizing.flixster.com/CZL1g2p5tbH8OOVVVWgnrgLib7Y=/80x80/v1.bjsyMzI0MjI7ajsxODgwOTsyMDQ4OzMwMDA7MjIwMw", "submittedDate": "2014-07-02", "id": "multiuse-232422", "photoType": "movie", "width": 1024}, {"url": "https://resizing.flixster.com/FSRIDgCZp6Qmh_w9pZNfxrspk9I=/1024x763/v1.bjsyMzI0MjQ7ajsxODgxMTsyMDQ4OzMwMDA7MjIzNQ", "index": 1, "submittedBy": "RT Staff", "height": 763, "imageId": 232424, "thumbnail": "https://resizing.flixster.com/Rhaem1tYnCFxs-2EQlxQXgTgVhQ=/80x80/v1.bjsyMzI0MjQ7ajsxODgxMTsyMDQ4OzMwMDA7MjIzNQ", "submittedDate": "2014-07-02", "id": "multiuse-232424", "photoType": "movie", "width": 1024}, {"url": "https://resizing.flixster.com/fPlxDhFnREu8JM-JleI0EL0x_x4=/780x439/v1.bjs1MzczNzg7ajsxODgwNDsyMDQ4Ozc4MDs0Mzk", "index": 2, "submittedBy": "RT Staff", "height": 439, "imageId": 537378, "thumbnail": "https://resizing.flixster.com/huZ9WsS4HtDNLbL23YA8_ZA_Lv8=/80x80/v1.bjs1MzczNzg7ajsxODgwNDsyMDQ4Ozc4MDs0Mzk", "submittedDate": "2015-03-27", "id": "multiuse-537378", "photoType": "movie", "width": 780}], "length": 3}, "id": 22473}