{"url": "/m/the_lion_king/", "isOnOpening": false, "boxoffice": "$94.2M", "genreSet": [{"displayName": "Drama", "id": 9}, {"displayName": "Action & Adventure", "id": 1}, {"displayName": "Animation", "id": 2}, {"displayName": "Kids & Family", "id": 11}, {"displayName": "Musical & Performing Arts", "id": 12}], "officialUrl": "http://disney.go.com/lionking/", "isInTheaters": false, "synopsis": "One of the most popular Disney animated musicals, The Lion King presents the story of a lion cub's journey to adulthood and acceptance of his royal destiny. Simba (voiced first by Jonathan Taylor Thomas, then by Matthew Broderick) begins life as an honored prince, the son of the powerful King Mufasa (voiced by James Earl Jones). The cub's happy childhood turns tragic when his evil uncle, Scar (voiced by Jeremy Irons), murders Mufasa and drives Simba away from the kingdom. In exile, the young lion befriends the comically bumbling pair of Pumbaa the warthog (voiced by Ernie Sabella) and Timon the meerkat (voiced by Nathan Lane), he and lives a carefree jungle life. As he approaches adulthood, however, he is visited by the spirit of his father, who instructs him to defeat the nefarious Scar and reclaim his rightful throne. Borrowing elements from Hamlet, classical mythology, and African folk tales, The Lion King tells its mythic coming-of-age tale with a combination of spectacular visuals and lively music, featuring light, rhythmic songs by Elton John and Tim Rice, and a score by Hans Zimmer. Embraced by children and adults alike, the film also spawned hit songs (\"Can You Feel the Love Tonight,\" \"The Circle of Life\") and a hit Broadway musical. In late 2002, The Lion King was re-released in the large-screen IMAX format. ~ Judd Blaise, Rovi", "links": {"alternate": "//www.rottentomatoes.com/m/the_lion_king/"}, "runningTime": 87, "year": 1994, "trackingType": "DvdOther", "status": "Live", "isPlaying": false, "isOnDVD": true, "runningTimeStr": "1 hr. 27 min.", "ratingSummary": {"topcount": 41, "consensus": "Emotionally stirring, richly drawn, and beautifully animated, The Lion King is a pride within Disney's pantheon of classic family films.", "topCritics": {"hasScore": true, "numReviews": 41, "meterClass": "certified", "numRotten": 4, "numFresh": 37, "hasReviews": true, "meterValue": 90, "averageRating": 8.057143}, "audience": {"meterScore": 93, "averageScore": 3.9823451042175293, "numTotal": 1269405, "ratingType": "viewed"}, "allcount": 130, "rottencount": 9, "dvdcount": 32, "allCritics": {"hasScore": true, "numReviews": 130, "meterClass": "certified", "numRotten": 9, "numFresh": 121, "hasReviews": true, "meterValue": 93, "averageRating": 8.43}, "freshcount": 121}, "mpaaRating": "G", "vanity": "the_lion_king", "studio": "Buena Vista", "purchaseOptions": {"vudu": {"url": "https://www.vudu.com/content/movies/details/The-Lion-King/33021", "type": "buy"}, "iTunes": {"url": "https://itunes.apple.com/movie/the-lion-king/id442123718?uo=5", "price": "9.99"}}, "reviews": {"total": 130, "links": {"alternate": "//www.rottentomatoes.com/m/the_lion_king/#reviews", "self": "api.flixster.com/movies/the-lion-king/reviews.json?review_type=mob&country=us&page=1", "prev": "api.flixster.com/movies/the-lion-king/reviews.json?review_type=mob&country=us&page=0", "next": "api.flixster.com/movies/the-lion-king/reviews.json?review_type=mob&country=us&page=2"}, "reviews": [{"isRotten": false, "url": "https://www.hollywoodreporter.com/review/lion-king-thrs-1994-review-906559", "publication": {"url": "", "name": "Hollywood Reporter"}, "isTop": true, "creationDate": 1610390716000, "isFresh": true, "freshness": "fresh", "critic": {"url": "/critic/duane-byrge", "name": "Duane Byrge", "id": 986, "thumbnailImage": "https://d2a5cgar23scu2.cloudfront.net/static/images/redesign/user.none.tmb.jpg"}, "quote": "A certain blockbuster and a future classic, The Lion King is a scrumptiously delightful moviegoing experience.", "id": 2756522, "links": {"review": "https://www.hollywoodreporter.com/review/lion-king-thrs-1994-review-906559"}}, {"isRotten": false, "url": "http://www.nydailynews.com/entertainment/movies/lion-king-purr-fect-summer-movie-1994-review-article-1.2673022", "publication": {"url": "", "name": "New York Daily News"}, "isTop": true, "creationDate": 1518205987000, "isFresh": true, "freshness": "fresh", "critic": {"url": "/critic/jami-bernard", "name": "Jami Bernard", "id": 3198, "thumbnailImage": "https://d2a5cgar23scu2.cloudfront.net/static/images/redesign/user.none.tmb.jpg"}, "quote": "At this point in animation history, we can expect no less than perfection from Disney, and they deliver.", "id": 2456827, "links": {"review": "http://www.nydailynews.com/entertainment/movies/lion-king-purr-fect-summer-movie-1994-review-article-1.2673022"}}, {"isRotten": false, "url": "http://articles.philly.com/1994-06-24/entertainment/25833832_1_mufasa-lion-king-pride-rock", "creationDate": 1375313006000, "isFresh": true, "id": 2156136, "quote": "The Lion King, complete with jaunty songs by Elton John and Tim Rice, is undeniably and fully worthy of its glorious Disney heritage. It is a gorgeous triumph -- one lion in which the studio can take justified pride.", "links": {"review": "http://articles.philly.com/1994-06-24/entertainment/25833832_1_mufasa-lion-king-pride-rock"}, "publication": {"name": "Philadelphia Inquirer"}, "isTop": true, "freshness": "fresh", "critic": {"url": "/critic/desmond-ryan", "name": "Desmond Ryan", "id": 1088, "thumbnailImage": "https://d2a5cgar23scu2.cloudfront.net/static/images/redesign/user.none.tmb.jpg"}, "original_score": "4/4"}, {"isRotten": true, "url": "http://www.newyorker.com/arts/reviews/film/the_lion_king_minkoff", "publication": {"url": "", "name": "New Yorker"}, "isTop": true, "creationDate": 1375312646000, "isFresh": false, "freshness": "rotten", "critic": {"url": "/critic/terrence-rafferty", "name": "Terrence Rafferty", "id": 13608, "thumbnailImage": "https://d2a5cgar23scu2.cloudfront.net/static/images/redesign/user.none.tmb.jpg"}, "quote": "Between traumas, the movie serves up soothingly banal musical numbers (composed by Elton John and Tim Rice) and silly, rambunctious comedy.", "id": 2156134, "links": {"review": "http://www.newyorker.com/arts/reviews/film/the_lion_king_minkoff"}}, {"isRotten": false, "url": "http://community.seattletimes.nwsource.com/archive/?date=19940624&slug=1917094", "creationDate": 1375312546000, "isFresh": true, "id": 2156133, "quote": "It's perhaps the closest Disney has come to creating a consciously mythical entertainment in the style of Star Wars. Yet like that film it keeps its sense of humor and fun.", "links": {"review": "http://community.seattletimes.nwsource.com/archive/?date=19940624&slug=1917094"}, "publication": {"url": "", "name": "Seattle Times"}, "isTop": true, "freshness": "fresh", "critic": {"url": "/critic/john-hartl", "name": "John Hartl", "id": 22, "thumbnailImage": "https://d2a5cgar23scu2.cloudfront.net/static/images/redesign/user.none.tmb.jpg"}, "original_score": "3.5/4"}, {"isRotten": false, "url": "http://articles.latimes.com/1994-06-15/entertainment/ca-4277_1_lion-king", "publication": {"url": "", "name": "Los Angeles Times"}, "isTop": true, "creationDate": 1375311810000, "isFresh": true, "freshness": "fresh", "critic": {"url": "/critic/kenneth-turan", "name": "Kenneth Turan", "id": 420, "thumbnailImage": "https://resizing.flixster.com/GGcmim4Df8Ts84r2ovfXvoUtweo=/72x72/v1.YzsyNjgzO2c7MTg3OTM7MjA0ODsxNTA7MTUw"}, "quote": "Even with its flaws, this latest Disney animated feature once again delivers what its audience wants. Too bad flesh and blood films can't be this consistent.", "id": 2156131, "links": {"review": "http://articles.latimes.com/1994-06-15/entertainment/ca-4277_1_lion-king"}}, {"isRotten": false, "url": "http://gonewiththetwins.com/new/lion-king-1994/", "creationDate": 1600072818000, "isFresh": true, "id": 2724260, "quote": "A stunning artistic achievement that helped create serious critical awareness for feature-length animation.", "links": {"review": "http://gonewiththetwins.com/new/lion-king-1994/"}, "publication": {"url": "", "name": "Gone With The Twins"}, "isTop": false, "freshness": "fresh", "critic": {"url": "/critic/mike-massie", "name": "Mike Massie", "id": 27168, "thumbnailImage": "https://resizing.flixster.com/cKCY6tR9EskewGPlb8BlnvWesZU=/72x72/v1.YzszNjc3O2o7MTg3OTc7MjA0ODszMDA7MzAw"}, "original_score": "10/10"}, {"isRotten": false, "url": "https://www.espinof.com/criticas/rey-leon-mejor-hamlet-cine-clasico-disney-auna-shakespeare-coppola-firme-candidata-a-mejor-pelicula-historia", "creationDate": 1563208941000, "isFresh": true, "id": 2605176, "quote": "'The Lion King' is arguably up for one of the best films of all time. [Full review in Spanish]", "links": {"review": "https://www.espinof.com/criticas/rey-leon-mejor-hamlet-cine-clasico-disney-auna-shakespeare-coppola-firme-candidata-a-mejor-pelicula-historia"}, "publication": {"url": "", "name": "Espinof"}, "isTop": false, "freshness": "fresh", "critic": {"url": "/critic/angel-luis-sucasas", "name": "\u00c1ngel Luis Sucasas", "id": 25456, "thumbnailImage": "https://d2a5cgar23scu2.cloudfront.net/static/images/redesign/user.none.tmb.jpg"}, "original_score": "5/5"}, {"isRotten": false, "url": "http://www.solzyatthemovies.com/2019/07/10/the-lion-king-a-beloved-disney-animated-classic/", "creationDate": 1562768353000, "isFresh": true, "id": 2603750, "quote": "The Lion King isn't just the best film of the Disney Renaissance but the best animated film of all time!", "links": {"review": "http://www.solzyatthemovies.com/2019/07/10/the-lion-king-a-beloved-disney-animated-classic/"}, "publication": {"url": "", "name": "Solzy at the Movies"}, "isTop": false, "freshness": "fresh", "critic": {"url": "/critic/danielle-solzman", "name": "Danielle Solzman", "id": 20296, "thumbnailImage": "https://resizing.flixster.com/EUjlMfIDKm43xI5olqhZtKjRDts=/72x72/v1.YzszMjA5O2c7MTg3Nzk7MjA0ODsxNTA7MTUw"}, "original_score": "5/5"}, {"isRotten": false, "url": "https://www.espinof.com/criticas/disney-el-rey-leon-de-roger-allers-y-rob-minkoff", "publication": {"url": "", "name": "Espinof"}, "isTop": false, "creationDate": 1556771146000, "isFresh": true, "freshness": "fresh", "critic": {"url": "/critic/sergio-benitez", "name": "Sergio Ben\u00edtez", "id": 16946, "thumbnailImage": "https://d2a5cgar23scu2.cloudfront.net/static/images/redesign/user.none.tmb.jpg"}, "quote": "The best of Disney animation. [Full Review in Spanish]", "id": 2582467, "links": {"review": "https://www.espinof.com/criticas/disney-el-rey-leon-de-roger-allers-y-rob-minkoff"}}, {"isRotten": false, "url": "https://www.youtube.com/watch?v=-swH7Cc-2iQ&list=PL7wz447AgL4zvyd7KAHcNX2sw4IxyyvK0&index=81", "creationDate": 1550700626000, "isFresh": true, "id": 2560261, "quote": "Scar is I think the best Disney villain that we've ever had.", "links": {"review": "https://www.youtube.com/watch?v=-swH7Cc-2iQ&list=PL7wz447AgL4zvyd7KAHcNX2sw4IxyyvK0&index=81"}, "publication": {"url": "", "name": "Rachel's Reviews (YouTube)"}, "isTop": false, "freshness": "fresh", "critic": {"url": "/critic/rachel-wagner", "name": "Rachel Wagner", "id": 23964, "thumbnailImage": "https://resizing.flixster.com/CvuVoWlOH-LcGgLgTU2V23hxVvM=/72x72/v1.YzszMjU3O2o7MTg3ODI7MjA0ODszMDA7MzAw"}, "original_score": "9/10"}, {"isRotten": false, "url": "https://comicbookdebate.com/2018/11/10/the-lion-king-review/", "creationDate": 1544799746000, "isFresh": true, "id": 2540765, "quote": "Simply the pinnacle of Disney animation.", "links": {"review": "https://comicbookdebate.com/2018/11/10/the-lion-king-review/"}, "publication": {"url": "", "name": "ComicBook Debate"}, "isTop": false, "freshness": "fresh", "critic": {"url": "/critic/sheraz-farooqi", "name": "Sheraz Farooqi", "id": 23827, "thumbnailImage": "https://resizing.flixster.com/3yr0eZm8QIGxcc-69kepQgelWl4=/72x72/v1.YzszNTUzO2o7MTg4MDg7MjA0ODs2MDA7NjAw"}, "original_score": "5/5"}]}, "casts": {"screenwriters": [{"url": "/celebrity/linda_woolverton/", "name": "Linda Woolverton", "thumbnailImg": "https://d2a5cgar23scu2.cloudfront.net/static/images/redesign/actor.default.tmb.gif"}, {"url": "/celebrity/jonathan_roberts/", "name": "Jonathan Roberts", "thumbnailImg": "https://d2a5cgar23scu2.cloudfront.net/static/images/redesign/actor.default.tmb.gif"}, {"url": "/celebrity/irene_mecchi/", "name": "Irene Mecchi", "thumbnailImg": "https://d2a5cgar23scu2.cloudfront.net/static/images/redesign/actor.default.tmb.gif"}], "directors": [{"url": "/celebrity/roger_allers/", "name": "Roger Allers", "thumbnailImg": "https://resizing.flixster.com/22pCCi9gs3oXHgMv282cAU2Zl_4=/80x80/v1.cDszMTcxODY2O2o7MTg4ODc7MjA0ODszMjI7NDUw"}, {"url": "/celebrity/rob_minkoff/", "name": "Rob Minkoff", "thumbnailImg": "https://resizing.flixster.com/v0U-7Se8o-C6zTnfJQg_HhAqz30=/80x80/v1.cDszMTcxODc2O2o7MTg4NTI7MjA0ODszMDc7NDUw"}], "creators": [], "producers": [{"url": "/celebrity/don-hahn/", "name": "Don Hahn", "thumbnailImg": "https://resizing.flixster.com/pRzAxUIXWOU9x8qLkcbORUP7FIQ=/80x80/v1.cDszMTcxODk3O2o7MTg4NzM7MjA0ODsyOTk7NDAw"}], "castItems": [{"person": {"url": "/celebrity/matthew_broderick/", "name": "Matthew Broderick", "thumbnailImg": "https://resizing.flixster.com/WJ6i-4evXlFum3a65OqDaSITwKQ=/80x80/v1.cjs0OTgwNztqOzE4ODAyOzIwNDg7MjAwMDszMDAw"}, "characters": [{"name": "Adult Simba"}]}, {"person": {"url": "/celebrity/james_earl_jones/", "name": "James Earl Jones", "thumbnailImg": "https://resizing.flixster.com/3F9v57ypt_1_XdxdVJEePZoJGco=/80x80/v1.cjszNjY0OTtqOzE4Nzg0OzIwNDg7NjAwOzUzNw"}, "characters": [{"name": "Mufasa"}]}, {"person": {"url": "/celebrity/jeremy_irons/", "name": "Jeremy Irons", "thumbnailImg": "https://resizing.flixster.com/0jnRXNs-3tUDRaC_LBU1nrguOmY=/80x80/v1.cjs0OTIxNDtqOzE4Nzk0OzIwNDg7MjAwMDsyMDQ0"}, "characters": [{"name": "Scar"}]}, {"person": {"url": "/celebrity/nathan_lane/", "name": "Nathan Lane", "thumbnailImg": "https://resizing.flixster.com/rO9wRGFKcmkcydsdNk4lCuvUMGo=/80x80/v1.cjs0OTI2NTtqOzE4ODAwOzIwNDg7MTk5NzsyMTE2"}, "characters": [{"name": "Timon"}]}, {"person": {"url": "/celebrity/moira_kelly/", "name": "Moira Kelly", "thumbnailImg": "https://resizing.flixster.com/Vo78s_rjoL0o4UEQbVH8h5MnWiw=/80x80/v1.cDs2NzQ1NDg5O2o7MTg4Nzc7MjA0ODsyNDA7MjAw"}, "characters": [{"name": "Adult Nala"}]}, {"person": {"url": "/celebrity/ernie-sabella/", "name": "Ernie Sabella", "thumbnailImg": "https://resizing.flixster.com/Uw6G2DDt88iSqgUSHgUP8MLyk3s=/80x80/v1.cjs1MDYxNDtqOzE4Nzk5OzIwNDg7MjM3NzszMDAw"}, "characters": [{"name": "Pumbaa"}]}, {"person": {"url": "/celebrity/whoopie_goldberg/", "name": "Whoopi Goldberg", "thumbnailImg": "https://resizing.flixster.com/KQ4ZXYelLhwT38k0X0X2MDeDodE=/80x80/v1.cjs0MjM5MTtqOzE4NzY2OzIwNDg7Mjg4OzQwMA"}, "characters": [{"name": "Shenzi"}]}, {"person": {"url": "/celebrity/cheech_marin/", "name": "Cheech Marin", "thumbnailImg": "https://resizing.flixster.com/AH2p3B6svyPAjKx70ARv_nlQoQE=/80x80/v1.cjs0MDQwOTtqOzE4ODA5OzIwNDg7Mjc1OzIzMA"}, "characters": [{"name": "Banzai"}]}, {"person": {"url": "/celebrity/zoe_leader/", "name": "Zoe Leader", "thumbnailImg": "https://d2a5cgar23scu2.cloudfront.net/static/images/redesign/actor.default.tmb.gif"}, "characters": [{"name": "Sarafina"}]}, {"person": {"url": "/celebrity/robert_guillaume/", "name": "Robert Guillaume", "thumbnailImg": "https://resizing.flixster.com/UUb6jnyjtoX1JK08Vj2Ts-rhLxE=/80x80/v1.cDsxMTU4MTAwOTtqOzE4ODg4OzIwNDg7MjAwOzIwMA"}, "characters": [{"name": "Rafiki"}]}, {"person": {"url": "/celebrity/rowan_atkinson/", "name": "Rowan Atkinson", "thumbnailImg": "https://resizing.flixster.com/lNN3u8jv3Q2hv8LvkbbPfy75kB4=/80x80/v1.cDsxMTc0NTIzNTtqOzE4Nzc1OzIwNDg7NTI4OzgwMA"}, "characters": [{"name": "Zazu"}]}, {"person": {"url": "/celebrity/jonathan_taylorthomas/", "name": "Jonathan Taylor Thomas", "thumbnailImg": "https://resizing.flixster.com/PCx4v6UkTDm5J3CLhPv3C3iXbLQ=/80x80/v1.cDsxMTQzODU1OTtqOzE4ODYxOzIwNDg7NjAwOzM1Mw"}, "characters": [{"name": "Young Simba"}]}, {"person": {"url": "/celebrity/niketa_calame/", "name": "Niketa Calame", "thumbnailImg": "https://d2a5cgar23scu2.cloudfront.net/static/images/redesign/actor.default.tmb.gif"}, "characters": [{"name": "Young Nala"}]}, {"person": {"url": "/celebrity/madge_sinclair/", "name": "Madge Sinclair", "thumbnailImg": "https://resizing.flixster.com/yU1XxzpPLdlsF7Ugo391s_8stJw=/80x80/v1.cDs5MjAzNzc2O2o7MTg3OTc7MjA0ODsyNzY7MzMx"}, "characters": [{"name": "Sarabi"}]}, {"person": {"url": "/celebrity/joseph_williams/", "name": "Joseph Williams", "thumbnailImg": "https://d2a5cgar23scu2.cloudfront.net/static/images/redesign/actor.default.tmb.gif"}, "characters": [{"name": "Simba (Singing)"}]}, {"person": {"url": "/celebrity/jason_weaver/", "name": "Jason Weaver", "thumbnailImg": "https://resizing.flixster.com/hrf-BO1YH8f_r-z-qz3N-uGfm2M=/80x80/v1.cDsxMTU1MjMwNTtqOzE4ODkzOzIwNDg7NDAwOzYwMA"}, "characters": [{"name": "Young Simba (Singing)"}]}, {"person": {"url": "/celebrity/david_mccharen/", "name": "David McCharen", "thumbnailImg": "https://d2a5cgar23scu2.cloudfront.net/static/images/redesign/actor.default.tmb.gif"}, "characters": [{"name": "Other Voices"}]}, {"person": {"url": "/celebrity/phil_proctor/", "name": "Phil Proctor", "thumbnailImg": "https://resizing.flixster.com/HHP7VcMnBj0t-SFmKLAmvVJ4Ycc=/80x80/v1.cDsxMjkzOTE0NjtqOzE4ODA1OzIwNDg7NTkwOzM5MA"}, "characters": [{"name": "Other Voices"}]}, {"person": {"url": "/celebrity/cathy_cavadini_4/", "name": "Cathy Cavadini", "thumbnailImg": "https://resizing.flixster.com/PNTJsnqjiYcVTMgkjdr49WhRMno=/80x80/v1.cDszMTQxNDcyO2o7MTg4Njg7MjA0ODs3MDk7OTA1"}, "characters": [{"name": "Other Voices"}]}, {"person": {"url": "/celebrity/judi_m_durand/", "name": "Judi M. Durand", "thumbnailImg": "https://d2a5cgar23scu2.cloudfront.net/static/images/redesign/actor.default.tmb.gif"}, "characters": [{"name": "Other Voices"}]}]}, "title": "The Lion King", "adjustedScore": 101.91155840195182, "ratings": {"critics_rating": "Certified Fresh", "audience_score": 93, "dvdReleaseDate": 1065510000000, "critics_score": 93, "theaterReleaseDate": 771663600000, "audience_rating": "Upright"}, "videoClips": {"mainTrailer": {"hlsUrl": "http://video.internetvideoarchive.net/video.m3u8?cmd=6&publishedid=997325&customerid=300120&e=1619087375791&sub=RTO&fmt=11&h=172e720b6f1a58b3f4133e7cfeb3f1bc", "seconds": 26, "minutes": 1, "id": 11154628, "title": "The Lion King", "thumbUrl": "http://content.internetvideoarchive.com/content/photos/7463/997325_052.jpg", "mp4Url": "http://video.internetvideoarchive.net/video.mp4?cmd=6&publishedid=997325&customerid=300120&e=1619087375791&sub=RTO&fmt=4&videokbrate=750&h=64881342a5667416fd98dae9908c4282"}, "size": 2, "videoClips": [{"hlsUrl": "http://video.internetvideoarchive.net/video.m3u8?cmd=6&publishedid=997325&customerid=300120&e=1619087375791&sub=RTO&fmt=11&h=172e720b6f1a58b3f4133e7cfeb3f1bc", "seconds": 26, "minutes": 1, "id": 11154628, "title": "The Lion King", "thumbUrl": "http://content.internetvideoarchive.com/content/photos/7463/997325_052.jpg", "mp4Url": "http://video.internetvideoarchive.net/video.mp4?cmd=6&publishedid=997325&customerid=300120&e=1619087375791&sub=RTO&fmt=4&videokbrate=750&h=64881342a5667416fd98dae9908c4282"}, {"hlsUrl": "http://video.internetvideoarchive.net/video.m3u8?cmd=6&publishedid=http://link.theplatform.com/s/NGweTC/media/S9FF37kNAXWq&customerid=300120&e=1619087375791&sub=RTO&fmt=11&h=ebf55337a85a5a708256b85ea57cd695", "seconds": 13, "minutes": 1, "id": 11305602, "title": "The Lion King: Trailer 1", "thumbUrl": "http://resizing.flixster.com/y3wiCQZMQWBm3OP8ZCQYolp04-M=/171x128/v1.bjsxODc3OTA3O2o7MTg3ODY7MjA0ODsxMDgwOzE5MjA", "mp4Url": "http://video.internetvideoarchive.net/video.mp4?cmd=6&publishedid=http://link.theplatform.com/s/NGweTC/media/S9FF37kNAXWq&customerid=300120&e=1619087375791&sub=RTO&fmt=4&videokbrate=750&h=aef9266ec5792ea2da753b12a67d54d5"}]}, "isUpcoming": false, "posters": {"original": "https://resizing.flixster.com/_xilVfqrRqfSdwzeltopGG8ntWM=/1364x2046/v1.bTsxMzI0NDEyODtqOzE4ODI2OzIwNDg7MTM2NDsyMDQ2", "detailed": "https://resizing.flixster.com/VSu_G6PXINKXJrf9Yr8F3SBGyIw=/180x270/v1.bTsxMzI0NDEyODtqOzE4ODI2OzIwNDg7MTM2NDsyMDQ2", "profile": "https://resizing.flixster.com/Qdpxe7W1rCdU3jbiJVTRYRkEE0E=/120x180/v1.bTsxMzI0NDEyODtqOzE4ODI2OzIwNDg7MTM2NDsyMDQ2", "thumbnail": "https://resizing.flixster.com/PPpnsfw0hSJRIYp548_BQN_la-g=/54x81/v1.bTsxMzI0NDEyODtqOzE4ODI2OzIwNDg7MTM2NDsyMDQ2"}, "isLimited": true, "mainTrailer": {"thumbUrl": "https://content.internetvideoarchive.com/content/photos/7463/997325_052.jpg", "hlsUrl": "http://video.internetvideoarchive.net/video.m3u8?cmd=6&publishedid=997325&customerid=300120&e=1619087375396&sub=RTO&fmt=11&h=178510f690e1a448eb1f3626f77de44b", "id": 11154628, "mp4Url": "http://video.internetvideoarchive.net/video.mp4?cmd=6&publishedid=997325&customerid=300120&e=1619087375396&sub=RTO&fmt=4&videokbrate=750&h=a25157c7fd1db35919c42ec0b57076c6"}, "photos": {"photos": [{"url": "https://resizing.flixster.com/MNg6heuIt44B_Pgq-2CwA4FFa-A=/1024x564/v1.bjsxNTQyMTM7ajsxODgwOTsyMDQ4OzE5MjA7MTA1Nw", "index": 0, "submittedBy": "RT Staff", "height": 564, "imageId": 154213, "thumbnail": "https://resizing.flixster.com/2qLIw8F0GmWWv0IWxcO6lZ1857c=/80x80/v1.bjsxNTQyMTM7ajsxODgwOTsyMDQ4OzE5MjA7MTA1Nw", "submittedDate": "2014-07-01", "id": "multiuse-154213", "photoType": "movie", "width": 1024}, {"url": "https://resizing.flixster.com/WFiFWgYKOVY3T4ixvbIHUFmbN_s=/1024x571/v1.bjsxNTQyMTQ7ajsxODgxMDsyMDQ4OzE5MjA7MTA3MQ", "index": 1, "submittedBy": "RT Staff", "height": 571, "imageId": 154214, "thumbnail": "https://resizing.flixster.com/SaEvAJ4TUw_ijbGea6RmZvC7g1k=/80x80/v1.bjsxNTQyMTQ7ajsxODgxMDsyMDQ4OzE5MjA7MTA3MQ", "submittedDate": "2014-07-01", "id": "multiuse-154214", "photoType": "movie", "width": 1024}, {"url": "https://resizing.flixster.com/itxtqlYAOjYvZ_yfezG8QJdTPEE=/1024x599/v1.bjs4NDAyOTk7ajsxODc4ODsyMDQ4OzMwMDA7MTc1NQ", "index": 2, "submittedBy": "RT Staff", "height": 599, "imageId": 840299, "thumbnail": "https://resizing.flixster.com/9iUBPUWVFLGg4hGcG8wpUXguOpA=/80x80/v1.bjs4NDAyOTk7ajsxODc4ODsyMDQ4OzMwMDA7MTc1NQ", "submittedDate": "2015-06-25", "id": "multiuse-840299", "photoType": "movie", "width": 1024}, {"url": "https://resizing.flixster.com/gR_k0VWEWTJl1OkvMR4ZM95TynI=/1024x576/v1.bjs5NTExMTg7ajsxODgxOTsyMDQ4OzE5MjA7MTA4MA", "index": 3, "submittedBy": "RT Staff", "height": 576, "imageId": 951118, "thumbnail": "https://resizing.flixster.com/6J7X7GV__6Hni8k8M0GHJlKOQdw=/80x80/v1.bjs5NTExMTg7ajsxODgxOTsyMDQ4OzE5MjA7MTA4MA", "submittedDate": "2015-10-17", "id": "multiuse-951118", "photoType": "movie", "width": 1024}, {"url": "https://resizing.flixster.com/ngHbMNMw3vz6_0P5yp2zBq5qs3o=/884x1024/v1.bjsxMTYxMzMwO2o7MTg3OTM7MjA0ODs5MzI7MTA4MA", "index": 4, "submittedBy": "RT Staff", "height": 1024, "imageId": 1161330, "thumbnail": "https://resizing.flixster.com/3uhZSKHqcDzF2kGtNo_22eMjTOE=/80x80/v1.bjsxMTYxMzMwO2o7MTg3OTM7MjA0ODs5MzI7MTA4MA", "submittedDate": "2016-07-30", "id": "multiuse-1161330", "photoType": "movie", "width": 884}, {"url": "https://resizing.flixster.com/0GaSUIpGPIUq5Hc5AFKLXbxKI4I=/1024x512/v1.bjsxMTYxMzMxO2o7MTg3OTQ7MjA0ODsyMTYwOzEwODA", "index": 5, "submittedBy": "RT Staff", "height": 512, "imageId": 1161331, "thumbnail": "https://resizing.flixster.com/-FZ1DGsC-qk4V8WJplJd53_8uyM=/80x80/v1.bjsxMTYxMzMxO2o7MTg3OTQ7MjA0ODsyMTYwOzEwODA", "submittedDate": "2016-07-30", "id": "multiuse-1161331", "photoType": "movie", "width": 1024}, {"url": "https://resizing.flixster.com/CGlXasqpTpfCT-uO5owVde5lv54=/1024x579/v1.bjsxMTYxMzMyO2o7MTg3OTU7MjA0ODsxOTEwOzEwODA", "index": 6, "submittedBy": "RT Staff", "height": 579, "imageId": 1161332, "thumbnail": "https://resizing.flixster.com/OzVRNoggsD_JezxMLMUyVZ7ei4I=/80x80/v1.bjsxMTYxMzMyO2o7MTg3OTU7MjA0ODsxOTEwOzEwODA", "submittedDate": "2016-07-30", "id": "multiuse-1161332", "photoType": "movie", "width": 1024}, {"url": "https://resizing.flixster.com/L1dTtUCwV4CoCiaHohmw17j6Abk=/600x356/v1.aDs2OTI5O2o7MTg4MDk7MjA0ODs3MDA7NDE1", "index": 7, "submittedBy": "RT Staff", "height": 356, "imageId": 6929, "thumbnail": "https://resizing.flixster.com/qDqUPg81lo5Nja0pxWK61GS8Jkk=/80x80/v1.aDs2OTI5O2o7MTg4MDk7MjA0ODs3MDA7NDE1", "submittedDate": "2010-03-29", "id": "movie-6929", "photoType": "movie", "width": 600}, {"url": "https://resizing.flixster.com/tsvjKoQSk5TvaCuWAtxAWrY-jio=/600x351/v1.aDszNjk0O2o7MTg3Njk7MjA0ODs3MDA7NDA5", "index": 8, "submittedBy": "RT Staff", "height": 351, "imageId": 3694, "thumbnail": "https://resizing.flixster.com/nk9O-t8jBP7HdecRCCsOSnzgRNo=/80x80/v1.aDszNjk0O2o7MTg3Njk7MjA0ODs3MDA7NDA5", "submittedDate": "2010-03-29", "id": "movie-3694", "photoType": "movie", "width": 600}, {"url": "https://resizing.flixster.com/4QnnG-Jcrh1HSs6CZXA3W9rme3Q=/405x600/v1.aDszMjQ7ajsxODc3NDsyMDQ4OzQ3Mzs3MDA", "index": 9, "submittedBy": "RT Staff", "height": 600, "imageId": 324, "thumbnail": "https://resizing.flixster.com/B5xx2Kde9_hzGNj_ZG258b2DaWk=/80x80/v1.aDszMjQ7ajsxODc3NDsyMDQ4OzQ3Mzs3MDA", "submittedDate": "2010-03-29", "id": "movie-324", "photoType": "movie", "width": 405}], "length": 10}, "id": 9385}