{"url": "/m/waste-land/", "isOnOpening": false, "boxoffice": "$0.1M", "genreSet": [{"displayName": "Documentary", "id": 8}, {"displayName": "Musical & Performing Arts", "id": 12}, {"displayName": "Art House & International", "id": 4}], "officialUrl": "http://www.wastelandmovie.com/", "isInTheaters": false, "synopsis": "Filmed over nearly three years, WASTE LAND follows renowned artist Vik Muniz as he journeys from his home base in Brooklyn to his native Brazil and the world's largest garbage dump, Jardim Gramacho, located on the outskirts of Rio de Janeiro. There he photographs an eclectic band of \"catadores\" -- or self-designated pickers of recyclable materials. Muniz's initial objective was to \"paint\" the catadores with garbage. However, his collaboration with these inspiring characters as they recreate photographic images of themselves out of garbage reveals both dignity and despair as the catadores begin to re-imagine their lives. Walker (Devil's Playground, Blindsight) has great access to the entire process and, in the end, offers stirring evidence of the transformative power of art and the alchemy of the human spirit.-- (C) Official Site", "links": {"alternate": "//www.rottentomatoes.com/m/waste-land/"}, "runningTime": 95, "year": 2010, "trackingType": "DvdOther", "status": "Live", "isPlaying": false, "isOnDVD": true, "runningTimeStr": "1 hr. 35 min.", "ratingSummary": {"topcount": 30, "consensus": "Waste Land begins with an eco-friendly premise, but quickly transforms into an uplifting portrait of the power of art and the dignity of the human spirit.", "topCritics": {"hasScore": true, "numReviews": 30, "meterClass": "certified", "numRotten": 0, "numFresh": 30, "hasReviews": true, "meterValue": 100, "averageRating": 7.647727}, "audience": {"meterScore": 90, "averageScore": 4.269728660583496, "numTotal": 8026, "ratingType": "viewed"}, "allcount": 71, "rottencount": 0, "dvdcount": 1, "allCritics": {"hasScore": true, "numReviews": 71, "meterClass": "certified", "numRotten": 0, "numFresh": 71, "hasReviews": true, "meterValue": 100, "averageRating": 8.08}, "freshcount": 71}, "mpaaRating": "Unrated", "vanity": "waste-land", "studio": "Arthouse Films", "purchaseOptions": {"amazon": {"url": "http://www.amazon.com/gp/product/B004QMBTEE/ref=atv_feed_catalog?tag=rottetomao_aiv_mv-20", "isPrime": false, "type": "buy"}, "netflix": {"streamingId": "70129386"}, "iTunes": {"url": "https://itunes.apple.com/movie/waste-land/id420123160?uo=5", "price": "7.99"}}, "reviews": {"total": 71, "links": {"alternate": "//www.rottentomatoes.com/m/waste-land/#reviews", "self": "api.flixster.com/movies/waste-land/reviews.json?review_type=mob&country=us&page=1", "prev": "api.flixster.com/movies/waste-land/reviews.json?review_type=mob&country=us&page=0", "next": "api.flixster.com/movies/waste-land/reviews.json?review_type=mob&country=us&page=2"}, "reviews": [{"isRotten": false, "url": "http://www.sandiegoreader.com/news/2010/nov/23/movie-harry-potter/?page=1&", "creationDate": 1479150963000, "isFresh": true, "id": 2361960, "quote": "With Walker and cinematographer Dudu Miranda, Muniz has a hawk's eye for the weird beauty of bulldozed hillocks of trash and the catador faces that he chose to star in photographic portraits.", "links": {"review": "http://www.sandiegoreader.com/news/2010/nov/23/movie-harry-potter/?page=1&"}, "publication": {"url": "", "name": "San Diego Reader"}, "isTop": true, "freshness": "fresh", "critic": {"url": "/critic/david-elliott", "name": "David Elliott", "id": 3073, "thumbnailImage": "https://d2a5cgar23scu2.cloudfront.net/static/images/redesign/user.none.tmb.jpg"}, "original_score": "3/5"}, {"isRotten": false, "url": "http://www.guardian.co.uk/film/2011/feb/27/waste-land-vik-muniz-review", "publication": {"url": "", "name": "Guardian"}, "isTop": true, "creationDate": 1298897047000, "isFresh": true, "freshness": "fresh", "critic": {"url": "/critic/philip-french", "name": "Philip French", "id": 5636, "thumbnailImage": "https://d2a5cgar23scu2.cloudfront.net/static/images/redesign/user.none.tmb.jpg"}, "quote": "Muniz is a gifted, modest and altogether delightful man, and his project is both aesthetically fascinating and philosophically stimulating.", "id": 1961759, "links": {"review": "http://www.guardian.co.uk/film/2011/feb/27/waste-land-vik-muniz-review"}}, {"isRotten": false, "isFresh": true, "publication": {"url": "", "name": "London Evening Standard"}, "isTop": true, "creationDate": 1298644874000, "freshness": "fresh", "critic": {"url": "/critic/derek-malcolm", "name": "Derek Malcolm", "id": 368, "thumbnailImage": "https://d2a5cgar23scu2.cloudfront.net/static/images/redesign/user.none.tmb.jpg"}, "quote": "A well-made and often uplifting film that refuses to get angry yet still manages to point out that things aren't as they should be for a great many.", "id": 1961409, "original_score": "4/5", "links": {}}, {"isRotten": false, "url": "http://www.independent.co.uk/arts-entertainment/films/reviews/waste-land-pg-2224664.html", "creationDate": 1298639709000, "isFresh": true, "id": 1961340, "quote": "The glimpses of favela life will make you thank your lucky stars you weren't born there.", "links": {"review": "http://www.independent.co.uk/arts-entertainment/films/reviews/waste-land-pg-2224664.html"}, "publication": {"url": "", "name": "Independent (UK)"}, "isTop": true, "freshness": "fresh", "critic": {"url": "/critic/anthony-quinn", "name": "Anthony Quinn", "id": 12377, "thumbnailImage": "https://d2a5cgar23scu2.cloudfront.net/static/images/redesign/user.none.tmb.jpg"}, "original_score": "3/5"}, {"isRotten": false, "url": "http://www.littlewhitelies.co.uk/theatrical-reviews/waste-land-2-14003", "creationDate": 1298588413000, "isFresh": true, "id": 1961204, "quote": "Perhaps not life-changing but certainly life-affirming.", "links": {"review": "http://www.littlewhitelies.co.uk/theatrical-reviews/waste-land-2-14003"}, "publication": {"url": "", "name": "Little White Lies"}, "isTop": true, "freshness": "fresh", "critic": {"url": "/critic/jason-goodyer", "name": "Jason Goodyer", "id": 13883, "thumbnailImage": "https://d2a5cgar23scu2.cloudfront.net/static/images/redesign/user.none.tmb.jpg"}, "original_score": "4/5"}, {"isRotten": false, "url": "http://www.guardian.co.uk/film/2011/feb/24/waste-land-review", "creationDate": 1298587790000, "isFresh": true, "id": 1961198, "quote": "This is undoubtedly a bold raid into an unknown territory - both geographic and conceptual - that the prosperous classes prefer not to think about.", "links": {"review": "http://www.guardian.co.uk/film/2011/feb/24/waste-land-review"}, "publication": {"url": "", "name": "Guardian"}, "isTop": true, "freshness": "fresh", "critic": {"url": "/critic/peter-bradshaw", "name": "Peter Bradshaw", "id": 408, "thumbnailImage": "https://d2a5cgar23scu2.cloudfront.net/static/images/redesign/user.none.tmb.jpg"}, "original_score": "4/5"}, {"isRotten": false, "url": "https://www.macleans.ca/uncategorized/opening-weekend-made-in-dagenham-love-and-other-drugs-faster-the-nutcracker-in-3-d-waste-land/", "publication": {"url": "", "name": "Maclean's Magazine"}, "isTop": false, "creationDate": 1553730405000, "isFresh": true, "freshness": "fresh", "critic": {"url": "/critic/brian-d-johnson", "name": "Brian D. Johnson", "id": 709, "thumbnailImage": "https://d2a5cgar23scu2.cloudfront.net/static/images/redesign/user.none.tmb.jpg"}, "quote": "[Director Lucy] Walker's documentary is an eye-opening trip to a part of the world where garbage serves as liquid currency for people who salvage dignity from degradation with intelligence and grace.", "id": 2571224, "links": {"review": "https://www.macleans.ca/uncategorized/opening-weekend-made-in-dagenham-love-and-other-drugs-faster-the-nutcracker-in-3-d-waste-land/"}}, {"isRotten": false, "url": "https://cine-vue.com/2011/02/film-review-waste-land.html", "creationDate": 1541637728000, "isFresh": true, "id": 2529843, "quote": "What shines through is the strength of the Brazilian landfill workers optimism and uplifting spirit which makes Waste Land more than worth watching.", "links": {"review": "https://cine-vue.com/2011/02/film-review-waste-land.html"}, "publication": {"url": "", "name": "CineVue"}, "isTop": false, "freshness": "fresh", "critic": {"url": "/critic/oliver-sunley", "name": "Oliver Sunley", "id": 23577, "thumbnailImage": "https://d2a5cgar23scu2.cloudfront.net/static/images/redesign/user.none.tmb.jpg"}, "original_score": "4/5"}, {"isRotten": false, "url": "http://imagejournal.org/page/blog/trash-transformed", "creationDate": 1339539984000, "isFresh": true, "id": 2089213, "quote": "This conversion of garbage into humanitarian aid is just the beginning. Practical charity gives way to life-changing intimacy.", "links": {"review": "http://imagejournal.org/page/blog/trash-transformed"}, "publication": {"url": "", "name": "Image"}, "isTop": false, "freshness": "fresh", "critic": {"url": "/critic/jeffrey-overstreet", "name": "Jeffrey Overstreet", "id": 3956, "thumbnailImage": "https://resizing.flixster.com/Dahx2DzZp60e0sNjlQh-qDBbnOk=/72x72/v1.YzsxNzExO2o7MTg3NjY7MjA0ODszODszOQ"}, "original_score": "A-"}, {"isRotten": false, "url": "http://www.sbs.com.au/films/movie/12466/Waste-Land", "publication": {"url": "", "name": "sbs.com.au"}, "isTop": false, "creationDate": 1322717012000, "isFresh": true, "freshness": "fresh", "critic": {"url": "/critic/simon-foster", "name": "Simon Foster", "id": 13592, "thumbnailImage": "https://resizing.flixster.com/4v-HSB3xYH3i9jlV84tA1JJBvkk=/72x72/v1.YzsyOTAyO2c7MTg3ODc7MjA0ODsxNTA7MTUw"}, "quote": "The breadth of gratitude these catadores feel towards Muniz and the life-experience they undertake makes for an intelligent, emotional movie. ", "id": 2031170, "links": {"review": "http://www.sbs.com.au/films/movie/12466/Waste-Land"}}, {"isRotten": false, "url": "http://djardine.blogspot.com/2011/08/waste-land-ukbrazil-2010-lucy-walker.html", "creationDate": 1313810607000, "isFresh": true, "id": 2004952, "quote": "Waste Land is a real treasure, the sort of heartwarming and life affirming study of people, lacking in both sentimentality and cynicism, that uplifts the audience and elevates the art form", "links": {"review": "http://djardine.blogspot.com/2011/08/waste-land-ukbrazil-2010-lucy-walker.html"}, "publication": {"url": "", "name": "Cinemania"}, "isTop": false, "freshness": "fresh", "critic": {"url": "/critic/dan-jardine", "name": "Dan Jardine", "id": 79, "thumbnailImage": "https://resizing.flixster.com/Ym4Y47paTIjf2LNi_yBx61MOzYk=/72x72/v1.YzsxNTg5O2c7MTg3Nzk7MjA0ODszODs0Mw"}, "original_score": "90/100"}, {"isRotten": false, "url": "http://www.birminghampost.net/life-leisure-birmingham-guide/birmingham-culture/film-news/2011/04/13/movie-reviews-red-riding-hood-your-highness-winnie-the-pooh-waste-land-65233-28514153/", "creationDate": 1302700707000, "isFresh": true, "id": 1977099, "quote": "Waste Land fuses the design concepts behind two of the most high-profile animations of recent years, Rio and the Oscar-winning Wall-E, into an essay about how hard some people are prepared to work.", "links": {"review": "http://www.birminghampost.net/life-leisure-birmingham-guide/birmingham-culture/film-news/2011/04/13/movie-reviews-red-riding-hood-your-highness-winnie-the-pooh-waste-land-65233-28514153/"}, "publication": {"name": "Birmingham Post"}, "isTop": false, "freshness": "fresh", "critic": {"url": "/critic/graham-young", "name": "Graham Young", "id": 13635, "thumbnailImage": "https://d2a5cgar23scu2.cloudfront.net/static/images/redesign/user.none.tmb.jpg"}, "original_score": "4/5"}]}, "casts": {"screenwriters": [], "directors": [{"url": "/celebrity/lucy_walker/", "name": "Lucy Walker", "thumbnailImg": "https://d2a5cgar23scu2.cloudfront.net/static/images/redesign/actor.default.tmb.gif"}, {"url": "/celebrity/joao_jardim/", "name": "Jo\u00e3o Jardim", "thumbnailImg": "https://d2a5cgar23scu2.cloudfront.net/static/images/redesign/actor.default.tmb.gif"}, {"url": "/celebrity/karen_harley/", "name": "Karen Harley", "thumbnailImg": "https://d2a5cgar23scu2.cloudfront.net/static/images/redesign/actor.default.tmb.gif"}], "creators": [], "producers": [{"url": "/celebrity/angus_aynsley/", "name": "Angus Aynsley", "thumbnailImg": "https://d2a5cgar23scu2.cloudfront.net/static/images/redesign/actor.default.tmb.gif"}, {"url": "/celebrity/hank_levine/", "name": "Hank Levine", "thumbnailImg": "https://d2a5cgar23scu2.cloudfront.net/static/images/redesign/actor.default.tmb.gif"}, {"url": "/celebrity/peter-martin/", "name": "Peter Martin", "thumbnailImg": "https://d2a5cgar23scu2.cloudfront.net/static/images/redesign/actor.default.tmb.gif"}], "castItems": [{"person": {"url": "/celebrity/vik_muniz/", "name": "Vik Muniz", "thumbnailImg": "https://d2a5cgar23scu2.cloudfront.net/static/images/redesign/actor.default.tmb.gif"}}, {"person": {"url": "/celebrity/fabio_ghivelder/", "name": "Fabio Ghivelder", "thumbnailImg": "https://d2a5cgar23scu2.cloudfront.net/static/images/redesign/actor.default.tmb.gif"}}, {"person": {"url": "/celebrity/sebastiao_carlos_dos_santos/", "name": "Sebastiao Carlos Dos Santos", "thumbnailImg": "https://d2a5cgar23scu2.cloudfront.net/static/images/redesign/actor.default.tmb.gif"}}, {"person": {"url": "/celebrity/jose_carlos_da_silva_bala_lopes/", "name": "Jose Carlos da Silva Bala Lopes", "thumbnailImg": "https://d2a5cgar23scu2.cloudfront.net/static/images/redesign/actor.default.tmb.gif"}}, {"person": {"url": "/celebrity/suelem_pereira_dias/", "name": "Suelem Pereira Dias", "thumbnailImg": "https://d2a5cgar23scu2.cloudfront.net/static/images/redesign/actor.default.tmb.gif"}}, {"person": {"url": "/celebrity/isis_rodrigues_garros/", "name": "Isis Rodrigues Garros", "thumbnailImg": "https://d2a5cgar23scu2.cloudfront.net/static/images/redesign/actor.default.tmb.gif"}}, {"person": {"url": "/celebrity/leide_laurentina_da_silva/", "name": "Leide Laurentina da Silva", "thumbnailImg": "https://d2a5cgar23scu2.cloudfront.net/static/images/redesign/actor.default.tmb.gif"}}, {"person": {"url": "/celebrity/valter_dos_santos/", "name": "Valter Dos Santos", "thumbnailImg": "https://d2a5cgar23scu2.cloudfront.net/static/images/redesign/actor.default.tmb.gif"}}, {"person": {"url": "/celebrity/magna_de_franca_santos/", "name": "Magna de Franca Santos", "thumbnailImg": "https://d2a5cgar23scu2.cloudfront.net/static/images/redesign/actor.default.tmb.gif"}}]}, "title": "Waste Land", "adjustedScore": 101.46189267534918, "ratings": {"critics_rating": "Certified Fresh", "audience_score": 90, "dvdReleaseDate": 1300172400000, "critics_score": 100, "theaterReleaseDate": 1288335600000, "audience_rating": "Upright"}, "videoClips": {"mainTrailer": {"hlsUrl": "http://video.internetvideoarchive.net/video.m3u8?cmd=6&publishedid=274363&customerid=300120&e=1619087381789&sub=RTO&fmt=11&h=380b0b236adaa1648e94ecaac633510f", "seconds": 15, "minutes": 2, "id": 11123323, "title": "Waste Land", "thumbUrl": "http://content.internetvideoarchive.com/content/photos/6996/274363_005.jpg", "mp4Url": "http://video.internetvideoarchive.net/video.mp4?cmd=6&publishedid=274363&customerid=300120&e=1619087381789&sub=RTO&fmt=4&videokbrate=750&h=4b41ae8e08602625c9ed0a273754564c"}, "size": 1, "videoClips": [{"hlsUrl": "http://video.internetvideoarchive.net/video.m3u8?cmd=6&publishedid=274363&customerid=300120&e=1619087381789&sub=RTO&fmt=11&h=380b0b236adaa1648e94ecaac633510f", "seconds": 15, "minutes": 2, "id": 11123323, "title": "Waste Land", "thumbUrl": "http://content.internetvideoarchive.com/content/photos/6996/274363_005.jpg", "mp4Url": "http://video.internetvideoarchive.net/video.mp4?cmd=6&publishedid=274363&customerid=300120&e=1619087381789&sub=RTO&fmt=4&videokbrate=750&h=4b41ae8e08602625c9ed0a273754564c"}]}, "isUpcoming": false, "posters": {"original": "https://resizing.flixster.com/IpTjgQ6SLNZ1K30RpT_3I_OLKdQ=/1536x2048/v1.bTsxMTMyMTQ5NTtqOzE4ODg2OzIwNDg7MTUzNjsyMDQ4", "detailed": "https://resizing.flixster.com/BpiYmqYBQNBfiVARyy82E-6rmzg=/180x240/v1.bTsxMTMyMTQ5NTtqOzE4ODg2OzIwNDg7MTUzNjsyMDQ4", "profile": "https://resizing.flixster.com/gy76CqwWX3OKlA5QgpY31oUgTMg=/120x160/v1.bTsxMTMyMTQ5NTtqOzE4ODg2OzIwNDg7MTUzNjsyMDQ4", "thumbnail": "https://resizing.flixster.com/ngCX2JQcjO7sQVghEbwfFynjYio=/54x72/v1.bTsxMTMyMTQ5NTtqOzE4ODg2OzIwNDg7MTUzNjsyMDQ4"}, "isLimited": true, "mainTrailer": {"thumbUrl": "https://content.internetvideoarchive.com/content/photos/6996/274363_005.jpg", "hlsUrl": "http://video.internetvideoarchive.net/video.m3u8?cmd=6&publishedid=274363&customerid=300120&e=1619087381530&sub=RTO&fmt=11&h=0b9d0681b0072f3e3195cc30ef4b0eff", "id": 11123323, "mp4Url": "http://video.internetvideoarchive.net/video.mp4?cmd=6&publishedid=274363&customerid=300120&e=1619087381530&sub=RTO&fmt=4&videokbrate=750&h=c6fa19106aee2513059ed66d11d278ec"}, "photos": {"photos": [{"url": "https://resizing.flixster.com/br5ygLHPTs0qoAAw-jB5AJumJPY=/700x525/v1.bjs3NDg4OTtqOzE4Nzc0OzIwNDg7NzAwOzUyNQ", "index": 0, "submittedBy": "RT Staff", "height": 525, "imageId": 74889, "thumbnail": "https://resizing.flixster.com/3pqd8hQLz9BGG4158jU6MAQndqU=/80x80/v1.bjs3NDg4OTtqOzE4Nzc0OzIwNDg7NzAwOzUyNQ", "submittedDate": "2014-06-30", "id": "multiuse-74889", "photoType": "movie", "width": 700}, {"url": "https://resizing.flixster.com/HdQKRl31ayiWtZe3lDYE4ru1eZE=/700x525/v1.bjs3NDg5MDtqOzE4Nzc1OzIwNDg7NzAwOzUyNQ", "index": 1, "submittedBy": "RT Staff", "height": 525, "imageId": 74890, "thumbnail": "https://resizing.flixster.com/UDfbGuIAX3tjmaJ34JZBRVeC1sY=/80x80/v1.bjs3NDg5MDtqOzE4Nzc1OzIwNDg7NzAwOzUyNQ", "submittedDate": "2014-06-30", "id": "multiuse-74890", "photoType": "movie", "width": 700}, {"url": "https://resizing.flixster.com/H9ZoDgWTssaznOOKQhvrrDzA0gQ=/700x525/v1.bjs3NDg5MTtqOzE4Nzc2OzIwNDg7NzAwOzUyNQ", "index": 2, "submittedBy": "RT Staff", "height": 525, "imageId": 74891, "thumbnail": "https://resizing.flixster.com/dqKqPc2Lh6tfrQofkd9b7Efh_48=/80x80/v1.bjs3NDg5MTtqOzE4Nzc2OzIwNDg7NzAwOzUyNQ", "submittedDate": "2014-06-30", "id": "multiuse-74891", "photoType": "movie", "width": 700}, {"url": "https://resizing.flixster.com/--V7azyhaGwg_A6zIOGxWVTDp6g=/700x525/v1.bjs3NDg5MjtqOzE4Nzc3OzIwNDg7NzAwOzUyNQ", "index": 3, "submittedBy": "RT Staff", "height": 525, "imageId": 74892, "thumbnail": "https://resizing.flixster.com/WyHq0CvE6ToUBD-DDTs3Ky2egxk=/80x80/v1.bjs3NDg5MjtqOzE4Nzc3OzIwNDg7NzAwOzUyNQ", "submittedDate": "2014-06-30", "id": "multiuse-74892", "photoType": "movie", "width": 700}, {"url": "https://resizing.flixster.com/Asfrfarsrp6E6mMRg7XCj68Lkto=/600x399/v1.aDs3MDc2NDtqOzE4Nzg5OzIwNDg7MzAwODsyMDAw", "index": 4, "submittedBy": "RT Staff", "height": 399, "imageId": 70764, "thumbnail": "https://resizing.flixster.com/aO7jCyWJZT8mW2KWP2EEJaP5fOM=/80x80/v1.aDs3MDc2NDtqOzE4Nzg5OzIwNDg7MzAwODsyMDAw", "submittedDate": "2010-10-26", "caption": "", "id": "movie-70764", "photoType": "movie", "width": 600}, {"url": "https://resizing.flixster.com/Rhi_KTzJF6wWD8xnJrXa2XMVdjo=/400x600/v1.aDs3MDc2NTtqOzE4NzkwOzIwNDg7MTE4MTsxNzcy", "index": 5, "submittedBy": "RT Staff", "height": 600, "imageId": 70765, "thumbnail": "https://resizing.flixster.com/v2MKpuCdVN5_OR6KYQrSMHuaLvY=/80x80/v1.aDs3MDc2NTtqOzE4NzkwOzIwNDg7MTE4MTsxNzcy", "submittedDate": "2010-10-26", "caption": "", "id": "movie-70765", "photoType": "movie", "width": 400}, {"url": "https://resizing.flixster.com/Z_NLG2tMDiwOZQm0pitN45tBaFI=/400x600/v1.aDs3MDc2NjtqOzE4NzkxOzIwNDg7MTg5MDsyODM1", "index": 6, "submittedBy": "RT Staff", "height": 600, "imageId": 70766, "thumbnail": "https://resizing.flixster.com/xQNKJQ0Qxk652vG72sow1vor-6w=/80x80/v1.aDs3MDc2NjtqOzE4NzkxOzIwNDg7MTg5MDsyODM1", "submittedDate": "2010-10-26", "caption": "", "id": "movie-70766", "photoType": "movie", "width": 400}, {"url": "https://resizing.flixster.com/N4UlpI5aZ-MqBZeHuI00ONFVUuU=/600x338/v1.aDs3MDc2NztqOzE4NzkyOzIwNDg7ODAwMDs0NTAw", "index": 7, "submittedBy": "RT Staff", "height": 338, "imageId": 70767, "thumbnail": "https://resizing.flixster.com/5pIjDTxoS74R4ITqiW7rNfRxPkU=/80x80/v1.aDs3MDc2NztqOzE4NzkyOzIwNDg7ODAwMDs0NTAw", "submittedDate": "2010-10-26", "caption": "", "id": "movie-70767", "photoType": "movie", "width": 600}, {"url": "https://resizing.flixster.com/mJpMcE6r5MMSRagOiHR1C--mSxs=/600x338/v1.aDs3MDc2MjtqOzE4Nzg3OzIwNDg7ODAwMDs0NTAw", "index": 8, "submittedBy": "RT Staff", "height": 338, "imageId": 70762, "thumbnail": "https://resizing.flixster.com/5QQIFsvmqIXqQygjYu9FDMD9YOw=/80x80/v1.aDs3MDc2MjtqOzE4Nzg3OzIwNDg7ODAwMDs0NTAw", "submittedDate": "2010-10-26", "caption": "", "id": "movie-70762", "photoType": "movie", "width": 600}, {"url": "https://resizing.flixster.com/pzbF2h6Z1QmGJ0UHtOfk_o-3ySQ=/600x338/v1.aDs3MDc2MDtqOzE4Nzg1OzIwNDg7ODAwMDs0NTAw", "index": 9, "submittedBy": "RT Staff", "height": 338, "imageId": 70760, "thumbnail": "https://resizing.flixster.com/1EGvsDDcp7p-YiNtbdprKnMXfS8=/80x80/v1.aDs3MDc2MDtqOzE4Nzg1OzIwNDg7ODAwMDs0NTAw", "submittedDate": "2010-10-26", "caption": "", "id": "movie-70760", "photoType": "movie", "width": 600}, {"url": "https://resizing.flixster.com/JVhE46eA1vR8TOlEjx-wv9FhWmE=/331x600/v1.aDs3MDc2MTtqOzE4Nzg2OzIwNDg7MTE4MTsyMTQw", "index": 10, "submittedBy": "RT Staff", "height": 600, "imageId": 70761, "thumbnail": "https://resizing.flixster.com/kmCWYO_bCdiT1K-tTcfJOgVp8oE=/80x80/v1.aDs3MDc2MTtqOzE4Nzg2OzIwNDg7MTE4MTsyMTQw", "submittedDate": "2010-10-26", "caption": "", "id": "movie-70761", "photoType": "movie", "width": 331}, {"url": "https://resizing.flixster.com/-ckwnTF4MbHzl80tGqE1uW9y3B0=/470x600/v1.aDs3MDc1NjtqOzE4NzgxOzIwNDg7MjM1MDszMDAw", "index": 11, "submittedBy": "RT Staff", "height": 600, "imageId": 70756, "thumbnail": "https://resizing.flixster.com/t9TYiu0Pvq7V_NXb9Tc6gavCXdA=/80x80/v1.aDs3MDc1NjtqOzE4NzgxOzIwNDg7MjM1MDszMDAw", "submittedDate": "2010-10-26", "caption": "", "id": "movie-70756", "photoType": "movie", "width": 470}, {"url": "https://resizing.flixster.com/aIfjB1r3Qjp6GXmuXz_KbCyCogw=/475x600/v1.aDs3MDc1NztqOzE4NzgyOzIwNDg7MjM3NDszMDAw", "index": 12, "submittedBy": "RT Staff", "height": 600, "imageId": 70757, "thumbnail": "https://resizing.flixster.com/kfzQPcRi3-jnDiu3mqBzwOvkDL4=/80x80/v1.aDs3MDc1NztqOzE4NzgyOzIwNDg7MjM3NDszMDAw", "submittedDate": "2010-10-26", "caption": "", "id": "movie-70757", "photoType": "movie", "width": 475}, {"url": "https://resizing.flixster.com/7M0-LQ3fkEgskm0L7oC0bVf2Ecs=/600x400/v1.aDs3MDc1ODtqOzE4NzgzOzIwNDg7MTY1MDsxMTAw", "index": 13, "submittedBy": "RT Staff", "height": 400, "imageId": 70758, "thumbnail": "https://resizing.flixster.com/p4sJ74OjIpT0CTXYjp4lU10yQGA=/80x80/v1.aDs3MDc1ODtqOzE4NzgzOzIwNDg7MTY1MDsxMTAw", "submittedDate": "2010-10-26", "caption": "", "id": "movie-70758", "photoType": "movie", "width": 600}], "length": 14}, "id": 770856666}