{"url": "/m/afghan_star/", "isOnOpening": false, "genreSet": [{"displayName": "Documentary", "id": 8}, {"displayName": "Television", "id": 16}, {"displayName": "Musical & Performing Arts", "id": 12}, {"displayName": "Art House & International", "id": 4}, {"displayName": "Special Interest", "id": 15}], "officialUrl": "http://www.afghanstardocumentary.com/", "isInTheaters": false, "synopsis": "After 30 years of war and Taliban rule, \"Pop Idol\" has come to television in Afghanistan. Here, we follow four contestants as they risk their lives to sing in competition.", "links": {"alternate": "//www.rottentomatoes.com/m/afghan_star/"}, "runningTime": 87, "year": 2009, "trackingType": "DvdOther", "status": "Live", "isPlaying": false, "isOnDVD": true, "runningTimeStr": "1 hr. 27 min.", "ratingSummary": {"topcount": 27, "consensus": "An enlightening and sobering documentary on Afghanistan's very own X-Factor.", "topCritics": {"hasScore": true, "numReviews": 27, "meterClass": "certified", "numRotten": 0, "numFresh": 27, "hasReviews": true, "meterValue": 100, "averageRating": 7.615385}, "audience": {"meterScore": 75, "averageScore": 3.546896457672119, "numTotal": 7892, "ratingType": "viewed"}, "allcount": 62, "rottencount": 0, "dvdcount": 1, "allCritics": {"hasScore": true, "numReviews": 62, "meterClass": "certified", "numRotten": 0, "numFresh": 62, "hasReviews": true, "meterValue": 100, "averageRating": 7.67}, "freshcount": 62}, "mpaaRating": "Unrated", "vanity": "afghan_star", "photos": {"photos": [{"url": "https://resizing.flixster.com/23ncv6W81AFqhc4wb8dTgB_qR0E=/300x200/v1.bjs4OTkwNDtqOzE4ODA1OzIwNDg7MzAwOzIwMA", "index": 0, "submittedBy": "RT Staff", "height": 200, "imageId": 89904, "thumbnail": "https://resizing.flixster.com/1KCQNnRbgILpnh9oe4tzWtD91IA=/80x80/v1.bjs4OTkwNDtqOzE4ODA1OzIwNDg7MzAwOzIwMA", "submittedDate": "2014-06-30", "id": "multiuse-89904", "photoType": "movie", "width": 300}, {"url": "https://resizing.flixster.com/s0S1A1I2XQjhOI9GS0gd-MvIwkw=/300x200/v1.bjs4OTkwNTtqOzE4ODA2OzIwNDg7MzAwOzIwMA", "index": 1, "submittedBy": "RT Staff", "height": 200, "imageId": 89905, "thumbnail": "https://resizing.flixster.com/gcF-2yuOr3yFsBt0ulL_doNGB0w=/80x80/v1.bjs4OTkwNTtqOzE4ODA2OzIwNDg7MzAwOzIwMA", "submittedDate": "2014-06-30", "id": "multiuse-89905", "photoType": "movie", "width": 300}, {"url": "https://resizing.flixster.com/QUbgWdu5COdM8EgroFe1L65c_50=/1023x682/v1.bjs4OTkwNjtqOzE4ODA3OzIwNDg7MTUzNjsxMDI0", "index": 2, "submittedBy": "RT Staff", "height": 682, "imageId": 89906, "thumbnail": "https://resizing.flixster.com/qG2UJtEisrKjiqUGj1LumCUEf-w=/80x80/v1.bjs4OTkwNjtqOzE4ODA3OzIwNDg7MTUzNjsxMDI0", "submittedDate": "2014-06-30", "id": "multiuse-89906", "photoType": "movie", "width": 1023}, {"url": "https://resizing.flixster.com/33mibcY50zgHvFMGVAtvi5h3h38=/945x630/v1.bjs4OTkwNztqOzE4ODA4OzIwNDg7OTQ1OzYzMA", "index": 3, "submittedBy": "RT Staff", "height": 630, "imageId": 89907, "thumbnail": "https://resizing.flixster.com/D-NfZY6SW2hDHJHlvTQcreKdlJ8=/80x80/v1.bjs4OTkwNztqOzE4ODA4OzIwNDg7OTQ1OzYzMA", "submittedDate": "2014-06-30", "id": "multiuse-89907", "photoType": "movie", "width": 945}, {"url": "https://resizing.flixster.com/_EWbSSCYLREuMhNUQsLjuhfjtPk=/1023x682/v1.bjs4OTkwODtqOzE4ODA5OzIwNDg7MTUzNjsxMDI0", "index": 4, "submittedBy": "RT Staff", "height": 682, "imageId": 89908, "thumbnail": "https://resizing.flixster.com/52c3F50nl7B85sL0T_KpyHjadyY=/80x80/v1.bjs4OTkwODtqOzE4ODA5OzIwNDg7MTUzNjsxMDI0", "submittedDate": "2014-06-30", "id": "multiuse-89908", "photoType": "movie", "width": 1023}, {"url": "https://resizing.flixster.com/TUpAK7bEOEnlzfDct1Dztg32xq0=/893x1024/v1.bjs4OTkwOTtqOzE4ODEwOzIwNDg7MjA3MjsyMzc2", "index": 5, "submittedBy": "RT Staff", "height": 1024, "imageId": 89909, "thumbnail": "https://resizing.flixster.com/5wMOBqW1YNfcl3o1Wj4iPYYclII=/80x80/v1.bjs4OTkwOTtqOzE4ODEwOzIwNDg7MjA3MjsyMzc2", "submittedDate": "2014-06-30", "id": "multiuse-89909", "photoType": "movie", "width": 893}, {"url": "https://resizing.flixster.com/7mtsbJXEnK2rno9mxnrhTNp57XA=/600x400/v1.aDsxOTA4MTtqOzE4NzY2OzIwNDg7NjUyOzQzNQ", "index": 6, "submittedBy": "RT Staff", "height": 400, "imageId": 19081, "thumbnail": "https://resizing.flixster.com/tOPPoCu_gOLN6ghnD-6QpWivzLs=/80x80/v1.aDsxOTA4MTtqOzE4NzY2OzIwNDg7NjUyOzQzNQ", "submittedDate": "2010-03-29", "id": "movie-19081", "photoType": "movie", "width": 600}, {"url": "https://resizing.flixster.com/zqUuXcYHQvFuNPdA1muzqiAaxZY=/600x400/v1.aDsxNjY0MztqOzE4ODAzOzIwNDg7NjUyOzQzNQ", "index": 7, "submittedBy": "RT Staff", "height": 400, "imageId": 16643, "thumbnail": "https://resizing.flixster.com/2AvD40qZeO_k9YJzC4ANG5Wve2M=/80x80/v1.aDsxNjY0MztqOzE4ODAzOzIwNDg7NjUyOzQzNQ", "submittedDate": "2010-03-29", "id": "movie-16643", "photoType": "movie", "width": 600}, {"url": "https://resizing.flixster.com/xoOHHR3OEiWdTSu5wxRj5qntJds=/441x600/v1.aDsxMzk0MjtqOzE4ODAyOzIwNDg7NDc5OzY1Mg", "index": 8, "submittedBy": "RT Staff", "height": 600, "imageId": 13942, "thumbnail": "https://resizing.flixster.com/igvtShP2dN0RUPHNOml4tAdI6mg=/80x80/v1.aDsxMzk0MjtqOzE4ODAyOzIwNDg7NDc5OzY1Mg", "submittedDate": "2010-03-29", "id": "movie-13942", "photoType": "movie", "width": 441}, {"url": "https://resizing.flixster.com/-ePboujC2suP9WeqLbsKIVOGmz0=/400x600/v1.aDsxMTAxMDtqOzE4Nzk1OzIwNDg7NDM1OzY1Mg", "index": 9, "submittedBy": "RT Staff", "height": 600, "imageId": 11010, "thumbnail": "https://resizing.flixster.com/V1jWmtzSTrx4H5jKvmVYMfQyALk=/80x80/v1.aDsxMTAxMDtqOzE4Nzk1OzIwNDg7NDM1OzY1Mg", "submittedDate": "2010-03-29", "id": "movie-11010", "photoType": "movie", "width": 400}, {"url": "https://resizing.flixster.com/iap0kwPv4aWjGVHSMes-1iPCy0w=/600x400/v1.aDs3OTA1O2o7MTg3OTU7MjA0ODs2NTI7NDM1", "index": 10, "submittedBy": "RT Staff", "height": 400, "imageId": 7905, "thumbnail": "https://resizing.flixster.com/DHLI1B24lJ3mtaTlGv75YtLmKy8=/80x80/v1.aDs3OTA1O2o7MTg3OTU7MjA0ODs2NTI7NDM1", "submittedDate": "2010-03-29", "id": "movie-7905", "photoType": "movie", "width": 600}, {"url": "https://resizing.flixster.com/Gdbf0naZIAOCXkVoKpegbCtIU3o=/600x400/v1.aDs0NjcwO2o7MTg4MDA7MjA0ODs2NTI7NDM1", "index": 11, "submittedBy": "RT Staff", "height": 400, "imageId": 4670, "thumbnail": "https://resizing.flixster.com/84Em5gxCDWIBs1rdxzTZNLgj5F8=/80x80/v1.aDs0NjcwO2o7MTg4MDA7MjA0ODs2NTI7NDM1", "submittedDate": "2010-03-29", "id": "movie-4670", "photoType": "movie", "width": 600}, {"url": "https://resizing.flixster.com/LrtK0jKrI5APVLrQzjKfqkP0ppE=/600x400/v1.aDsxMzAwO2o7MTg4MDU7MjA0ODs2NTI7NDM1", "index": 12, "submittedBy": "RT Staff", "height": 400, "imageId": 1300, "thumbnail": "https://resizing.flixster.com/XDnsyGFI_h-XGVGvJ99y34zoLFg=/80x80/v1.aDsxMzAwO2o7MTg4MDU7MjA0ODs2NTI7NDM1", "submittedDate": "2010-03-29", "id": "movie-1300", "photoType": "movie", "width": 600}], "length": 13}, "studio": "Zeitgeist Films", "purchaseOptions": {"netflix": {"streamingId": "70113929"}, "iTunes": {"url": "https://itunes.apple.com/movie/afghan-star/id573065000?uo=5", "price": "7.99"}}, "reviews": {"total": 62, "links": {"alternate": "//www.rottentomatoes.com/m/afghan_star/#reviews", "self": "api.flixster.com/movies/afghan-star/reviews.json?review_type=mob&country=us&page=1", "prev": "api.flixster.com/movies/afghan-star/reviews.json?review_type=mob&country=us&page=0", "next": "api.flixster.com/movies/afghan-star/reviews.json?review_type=mob&country=us&page=2"}, "reviews": [{"isRotten": false, "isFresh": true, "publication": {"url": "", "name": "Time Out"}, "isTop": true, "creationDate": 1321535766000, "freshness": "fresh", "critic": {"url": "/critic/david-fear", "name": "David Fear", "id": 3607, "thumbnailImage": "https://resizing.flixster.com/E67hq5Ib6ebh7CrUhrOVZce_rh4=/72x72/v1.YzszNTYzO2o7MTg3NzM7MjA0ODszMDA7MzAw"}, "quote": "While its style and structure conform to the well-worn template established by docs like Spellbound, its success lies in creating an accessible, fun way into serious issues.", "id": 2026283, "links": {}}, {"isRotten": false, "url": "http://www.austinchronicle.com/gyrobase/Calendar/Film?Film=oid%3a796444", "creationDate": 1255710811000, "isFresh": true, "id": 1850502, "quote": "One of the more surreal docs to come down the pike in some time.", "links": {"review": "http://www.austinchronicle.com/gyrobase/Calendar/Film?Film=oid%3a796444"}, "publication": {"url": "", "name": "Austin Chronicle"}, "isTop": true, "freshness": "fresh", "critic": {"url": "/critic/marc-savlov", "name": "Marc Savlov", "id": 138, "thumbnailImage": "https://d2a5cgar23scu2.cloudfront.net/static/images/redesign/user.none.tmb.jpg"}, "original_score": "3/5"}, {"isRotten": false, "isFresh": true, "publication": {"url": "", "name": "St. Louis Post-Dispatch"}, "isTop": true, "creationDate": 1253211226000, "freshness": "fresh", "critic": {"url": "/critic/joe-williams", "name": "Joe Williams", "id": 11677, "thumbnailImage": "https://resizing.flixster.com/EzArk5TbQVJ-dadmaPzmEmefpSs=/72x72/v1.YzsxNzg2O2o7MTg3OTY7MjA0ODszODs0NQ"}, "quote": "Of all the films to come out of the conflict, Afghan Star is the most provocative, because its message that people are essentially the same is a dubious, double-edge sword.", "id": 1845152, "original_score": "3/4", "links": {}}, {"isRotten": false, "url": "http://www.moviefreak.com/artman/publish/movies_afghanstar.shtml", "creationDate": 1252088817000, "isFresh": true, "id": 1842555, "quote": "It's hard not to look at the effect this program is having on the country and not come away thinking military might isn't the solution a lot of those in power would like us to believe it is.", "links": {"review": "http://www.moviefreak.com/artman/publish/movies_afghanstar.shtml"}, "publication": {"url": "", "name": "MovieFreak.com"}, "isTop": true, "freshness": "fresh", "critic": {"url": "/critic/sara-michelle-fetters-8689", "name": "Sara Michelle Fetters", "id": 8689, "thumbnailImage": "https://resizing.flixster.com/fauFn-iMBqolsSpUiBLppNuzdek=/72x72/v1.YzsyNzc4O2c7MTg3OTg7MjA0ODsxNTA7MTUw"}, "original_score": "3/4"}, {"isRotten": false, "url": "http://www.sfgate.com/cgi-bin/article.cgi?file=/c/a/2009/08/21/MV2719AMT4.DTL", "creationDate": 1250881203000, "isFresh": true, "id": 1839789, "quote": "Like The Kite Runner novel and movie, the documentary Afghan Star succeeds at dramatizing the lives of Afghans, but those we see on screen are real flesh-and-blood characters -- people who let their true feelings emerge.", "links": {"review": "http://www.sfgate.com/cgi-bin/article.cgi?file=/c/a/2009/08/21/MV2719AMT4.DTL"}, "publication": {"url": "", "name": "San Francisco Chronicle"}, "isTop": true, "freshness": "fresh", "critic": {"url": "/critic/jonathan-curiel", "name": "Jonathan Curiel", "id": 3586, "thumbnailImage": "https://d2a5cgar23scu2.cloudfront.net/static/images/redesign/user.none.tmb.jpg"}, "original_score": "4/4"}, {"isRotten": false, "url": "http://seattletimes.nwsource.com/html/movies/2009701662_mr21afghanstar.html", "creationDate": 1250880675000, "isFresh": true, "id": 1839780, "quote": "An informative documentary revealing how decades of war and years of Taliban repression have fallen to the wayside, however briefly, as Kabul's answer to American Idol seduces a violence-weary Afghanistan.", "links": {"review": "http://seattletimes.nwsource.com/html/movies/2009701662_mr21afghanstar.html"}, "publication": {"url": "", "name": "Seattle Times"}, "isTop": true, "freshness": "fresh", "critic": {"url": "/critic/michael-upchurch", "name": "Michael Upchurch", "id": 13098, "thumbnailImage": "https://d2a5cgar23scu2.cloudfront.net/static/images/redesign/user.none.tmb.jpg"}, "original_score": "3/4"}, {"isRotten": false, "url": "https://rollcredits.online/2009/03/27/rvafghan-2/", "creationDate": 1572552360000, "isFresh": true, "id": 2641296, "quote": "It's absolutely fascinating to see such a familiar talent show format - complete with sharp-tongued judges and starry-eyed wannabees - in such a vastly different setting. ", "links": {"review": "https://rollcredits.online/2009/03/27/rvafghan-2/"}, "publication": {"url": "", "name": "Roll Credits"}, "isTop": false, "freshness": "fresh", "critic": {"url": "/critic/nikki-baughan", "name": "Nikki Baughan", "id": 13417, "thumbnailImage": "https://d2a5cgar23scu2.cloudfront.net/static/images/redesign/user.none.tmb.jpg"}, "original_score": "4/5"}, {"isRotten": false, "url": "http://www.fromthefrontrow.net/2009/06/review-afghan-star.html", "creationDate": 1564980800000, "isFresh": true, "id": 2611844, "quote": "So much more than a reality show, it is a microcosm of the birth of a new democracy, of a free people facing the dawn of a new day. ", "links": {"review": "http://www.fromthefrontrow.net/2009/06/review-afghan-star.html"}, "publication": {"url": "", "name": "From the Front Row"}, "isTop": false, "freshness": "fresh", "critic": {"url": "/critic/matthew-lucas", "name": "Matthew Lucas", "id": 25079, "thumbnailImage": "https://resizing.flixster.com/hC9DIwh8TBZinZWNombChPlC53Y=/72x72/v1.YzszMzgzO2o7MTg3NzM7MjA0ODszMDA7MzAw"}, "original_score": "3/4"}, {"isRotten": false, "url": "http://www.emanuellevy.com/review/afghan-star-7/", "creationDate": 1308776842000, "isFresh": true, "id": 1992871, "quote": "Timely and intriguing docu was the winner of the Directing and Audience Awards at the Sundance Film Fest.", "links": {"review": "http://www.emanuellevy.com/review/afghan-star-7/"}, "publication": {"url": "", "name": "EmanuelLevy.Com"}, "isTop": false, "freshness": "fresh", "critic": {"url": "/critic/emanuel-levy", "name": "Emanuel Levy", "id": 1101, "thumbnailImage": "https://resizing.flixster.com/mHwU2AJdZmjIwpbJ4a4Tc2lUEgA=/72x72/v1.YzsxNjM4O2c7MTg3ODM7MjA0ODszODs0MA"}, "original_score": "B"}, {"isRotten": false, "url": "http://dcist.com/2009/06/afghan_star_silverdocs.php", "creationDate": 1276489326000, "isFresh": true, "id": 1888824, "quote": "For all the dramatic pull of the competition and insight into current culture and politics in Afghanistan, it's a bit of a shame that the film itself is such a dry affair.", "links": {"review": "http://dcist.com/2009/06/afghan_star_silverdocs.php"}, "publication": {"name": "DCist"}, "isTop": false, "freshness": "fresh", "critic": {"url": "/critic/ian-buckwalter", "name": "Ian Buckwalter", "id": 13793, "thumbnailImage": "https://resizing.flixster.com/EloATNtP6e8HvS81_M2WNPXCIL8=/72x72/v1.YzsyMjQxO2o7MTg4MDE7MjA0ODsyMDA7MjUw"}, "original_score": "6/10"}, {"isRotten": false, "url": "http://www.seanax.com/2010/03/31/dvds-for-03-30-10-an-education-for-pedro-costa-and-sherlock-holmes/", "publication": {"name": "Seanax.com"}, "isTop": false, "creationDate": 1271041767000, "isFresh": true, "freshness": "fresh", "critic": {"url": "/critic/sean-axmaker", "name": "Sean Axmaker", "id": 229, "thumbnailImage": "https://resizing.flixster.com/OM9B-lRGDZvI9N_pbymYi4o5aGo=/72x72/v1.YzsxNjAxO2c7MTg3OTE7MjA0ODszODs0OA"}, "quote": "... more than a popular phenomenon, this documentary shows how a simple, completely apolitical piece of entertainment crosses ethnic, regional and cultural borders...", "id": 1879347, "links": {"review": "http://www.seanax.com/2010/03/31/dvds-for-03-30-10-an-education-for-pedro-costa-and-sherlock-holmes/"}}, {"isRotten": false, "url": "http://projectionbooth.blogspot.com/2010/03/afghan-star.html", "publication": {"name": "Projection Booth"}, "isTop": false, "creationDate": 1268940566000, "isFresh": true, "freshness": "fresh", "critic": {"url": "/critic/rob-humanick", "name": "Rob Humanick", "id": 12145, "thumbnailImage": "https://resizing.flixster.com/-JdHv_lsEVxbqQfG6drQo_Egqew=/72x72/v1.YzsyMjEzO2o7MTg3NzM7MjA0ODsxMDA7ODc"}, "quote": "For once, the McDonald's-like spreading of American culture abroad seems to have actually been a good thing.", "id": 1875473, "links": {"review": "http://projectionbooth.blogspot.com/2010/03/afghan-star.html"}}]}, "casts": {"screenwriters": [], "directors": [{"url": "/celebrity/havana-marking/", "name": "Havana Marking", "thumbnailImg": "https://d2a5cgar23scu2.cloudfront.net/static/images/redesign/actor.default.tmb.gif"}], "creators": [], "producers": [{"url": "/celebrity/havana-marking/", "name": "Havana Marking", "thumbnailImg": "https://d2a5cgar23scu2.cloudfront.net/static/images/redesign/actor.default.tmb.gif"}], "castItems": [{"person": {"url": "/celebrity/rafi_naabzada/", "name": "Rafi Naabzada", "thumbnailImg": "https://d2a5cgar23scu2.cloudfront.net/static/images/redesign/actor.default.tmb.gif"}}, {"person": {"url": "/celebrity/rafi_nabzaada/", "name": "Rafi Nabzaada", "thumbnailImg": "https://d2a5cgar23scu2.cloudfront.net/static/images/redesign/actor.default.tmb.gif"}}, {"person": {"url": "/celebrity/lima_sahar/", "name": "Lima Sahar", "thumbnailImg": "https://d2a5cgar23scu2.cloudfront.net/static/images/redesign/actor.default.tmb.gif"}}, {"person": {"url": "/celebrity/fayez_hameed/", "name": "Fayez Hameed", "thumbnailImg": "https://d2a5cgar23scu2.cloudfront.net/static/images/redesign/actor.default.tmb.gif"}}, {"person": {"url": "/celebrity/setara_hussainzada/", "name": "Setara Hussainzada", "thumbnailImg": "https://d2a5cgar23scu2.cloudfront.net/static/images/redesign/actor.default.tmb.gif"}}, {"person": {"url": "/celebrity/hameed_sakhizada/", "name": "Hameed Sakhizada", "thumbnailImg": "https://d2a5cgar23scu2.cloudfront.net/static/images/redesign/actor.default.tmb.gif"}}]}, "title": "Afghan Star", "adjustedScore": 101.2871477054744, "ratings": {"critics_rating": "Certified Fresh", "audience_score": 75, "dvdReleaseDate": 1269932400000, "critics_score": 100, "theaterReleaseDate": 1245999600000, "audience_rating": "Upright"}, "videoClips": {"mainTrailer": {"hlsUrl": "http://video.internetvideoarchive.net/video.m3u8?cmd=6&publishedid=330527&customerid=300120&e=1619087384719&sub=RTO&fmt=11&h=8daa35fdda6c7d8fc83a952e66081f85", "seconds": 44, "minutes": 2, "id": 11024514, "title": "Afghan Star", "thumbUrl": "http://content.internetvideoarchive.com/content/photos/6231/330527_007.jpg", "mp4Url": "http://video.internetvideoarchive.net/video.mp4?cmd=6&publishedid=330527&customerid=300120&e=1619087384719&sub=RTO&fmt=4&videokbrate=750&h=8aad00605b57b86f96a4b28694a98a1f"}, "size": 1, "videoClips": [{"hlsUrl": "http://video.internetvideoarchive.net/video.m3u8?cmd=6&publishedid=330527&customerid=300120&e=1619087384719&sub=RTO&fmt=11&h=8daa35fdda6c7d8fc83a952e66081f85", "seconds": 44, "minutes": 2, "id": 11024514, "title": "Afghan Star", "thumbUrl": "http://content.internetvideoarchive.com/content/photos/6231/330527_007.jpg", "mp4Url": "http://video.internetvideoarchive.net/video.mp4?cmd=6&publishedid=330527&customerid=300120&e=1619087384719&sub=RTO&fmt=4&videokbrate=750&h=8aad00605b57b86f96a4b28694a98a1f"}]}, "isUpcoming": false, "posters": {"original": "https://resizing.flixster.com/lUNA-yke4vGxefV-gSBqhrzhpHA=/2051x3000/v1.bTsxMTIzNzQxOTtqOzE4ODY5OzIwNDg7MjA1MTszMDAw", "detailed": "https://resizing.flixster.com/_JfFDQdtG8o5Ps6YAWD7CyptjzE=/180x263/v1.bTsxMTIzNzQxOTtqOzE4ODY5OzIwNDg7MjA1MTszMDAw", "profile": "https://resizing.flixster.com/tn3a9sHTvVbp9JvrK2UIdgl8s7Q=/120x176/v1.bTsxMTIzNzQxOTtqOzE4ODY5OzIwNDg7MjA1MTszMDAw", "thumbnail": "https://resizing.flixster.com/OsmijEiXwL-kaM1HWyI-9JpdZPU=/54x79/v1.bTsxMTIzNzQxOTtqOzE4ODY5OzIwNDg7MjA1MTszMDAw"}, "isLimited": false, "mainTrailer": {"thumbUrl": "https://content.internetvideoarchive.com/content/photos/6231/330527_007.jpg", "hlsUrl": "http://video.internetvideoarchive.net/video.m3u8?cmd=6&publishedid=330527&customerid=300120&e=1619087384436&sub=RTO&fmt=11&h=fff50f4e31396afde08b44cdd198cf58", "id": 11024514, "mp4Url": "http://video.internetvideoarchive.net/video.mp4?cmd=6&publishedid=330527&customerid=300120&e=1619087384436&sub=RTO&fmt=4&videokbrate=750&h=0f5898034d118d6c0d2998ae8246c0ec"}, "advisory": "", "id": 770803271}