{"url": "/m/amadeus/", "isOnOpening": false, "genreSet": [{"displayName": "Musical & Performing Arts", "id": 12}, {"displayName": "Drama", "id": 9}], "officialUrl": "https://www.warnerbros.com/amadeus", "isInTheaters": false, "synopsis": "For this film adaptation of Peter Shaffer's Broadway hit, director Milos Forman returned to the city of Prague that he'd left behind during the Czech political crises of 1968, bringing along his usual cinematographer and fellow Czech expatriate, Miroslav Ondr\u00edcek. Amadeus is an expansion of a Viennese \"urban legend\" concerning the death of 18th century musical genius Wolfgang Amadeus Mozart. From the vantage point of an insane asylum, aging royal composer Salieri (F. Murray Abraham) recalls the events of three decades earlier, when the young Mozart (Tom Hulce) first gained favor in the court of Austrian emperor Joseph II (Jeffrey Jones). Salieri was incensed that God would bless so vulgar and obnoxious a young snipe as Mozart with divine genius. Why was Salieri -- so disciplined, so devoted to his art, and so willing to toady to his superiors -- not touched by God? Unable to match Mozart's talent, Salieri uses his influence in court to sabotage the young upstart's career. Disguising himself as a mysterious benefactor, Salieri commissions the backbreaking Requiem, which eventually costs Mozart his health, wealth, and life. Among the film's many pearls of dialogue, the best line goes to the emperor, who rejects a Mozart composition on the grounds that it has \"too many notes.\" Amadeus won eight Academy Awards, including Best Picture, Best Director, Best Adapted Screenplay, and Best Actor for F. Murray Abraham. In 2002, the film received a theatrical re-release as \"Amadeus: The Director's Cut,\" a version that includes 20 minutes of additional footage. ~ Hal Erickson, Rovi", "links": {"alternate": "//www.rottentomatoes.com/m/amadeus/"}, "runningTime": 158, "year": 1984, "trackingType": "DvdOther", "status": "Live", "isPlaying": false, "isOnDVD": true, "runningTimeStr": "2 hr. 38 min.", "ratingSummary": {"topcount": 30, "consensus": "A lavish, entertaining, powerful film about the life and influence, both positive and negative, of one of Western culture's great artists.", "topCritics": {"hasScore": true, "numReviews": 30, "meterClass": "certified", "numRotten": 2, "numFresh": 28, "hasReviews": true, "meterValue": 93, "averageRating": 9.265625}, "audience": {"meterScore": 95, "averageScore": 3.9240522384643555, "numTotal": 179970, "ratingType": "viewed"}, "allcount": 100, "rottencount": 7, "dvdcount": 13, "allCritics": {"hasScore": true, "numReviews": 100, "meterClass": "certified", "numRotten": 7, "numFresh": 93, "hasReviews": true, "meterValue": 93, "averageRating": 8.93}, "freshcount": 93}, "mpaaRating": "R", "vanity": "amadeus", "photos": {"photos": [{"url": "https://resizing.flixster.com/pn6mhILO3nE1NXVx8DDO5g3gdss=/677x1024/v1.bjs3NDA2MDM7ajsxODgxMTsyMDQ4OzMzNTY7NTA3NQ", "index": 0, "submittedBy": "RT Staff", "height": 1024, "imageId": 740603, "thumbnail": "https://resizing.flixster.com/Sefw3FsW62oal6WR-0DJ2nfeEWw=/80x80/v1.bjs3NDA2MDM7ajsxODgxMTsyMDQ4OzMzNTY7NTA3NQ", "submittedDate": "2015-06-11", "id": "multiuse-740603", "photoType": "movie", "width": 677}, {"url": "https://resizing.flixster.com/6e-dxdb2xMDZkD6CSs0morZcn2M=/1024x665/v1.bjs3NDA2MDQ7ajsxODgxMjsyMDQ4OzI1MTM7MTYzMw", "index": 1, "submittedBy": "RT Staff", "height": 665, "imageId": 740604, "thumbnail": "https://resizing.flixster.com/d2CcDP3F_IbMQsQ6H-AFSuAMXL4=/80x80/v1.bjs3NDA2MDQ7ajsxODgxMjsyMDQ4OzI1MTM7MTYzMw", "submittedDate": "2015-06-11", "id": "multiuse-740604", "photoType": "movie", "width": 1024}, {"url": "https://resizing.flixster.com/XkSUHWyHv6mxmQL8Md-wKBTd7SU=/1024x675/v1.bjs3NDA2MDU7ajsxODgxMzsyMDQ4OzIzMDQ7MTUxOQ", "index": 2, "submittedBy": "RT Staff", "height": 675, "imageId": 740605, "thumbnail": "https://resizing.flixster.com/kMyWBEkQs4YV9zTQfyQcDF4yiDk=/80x80/v1.bjs3NDA2MDU7ajsxODgxMzsyMDQ4OzIzMDQ7MTUxOQ", "submittedDate": "2015-06-11", "id": "multiuse-740605", "photoType": "movie", "width": 1024}, {"url": "https://resizing.flixster.com/SF2d6p3pOfWAA5l6hh0_qcKnXoQ=/676x1024/v1.bjs3NDA2MDY7ajsxODgxNDsyMDQ4OzE1MjA7MjMwNA", "index": 3, "submittedBy": "RT Staff", "height": 1024, "imageId": 740606, "thumbnail": "https://resizing.flixster.com/aUK27eeSbcdCpJE02jWm1Ji4PVg=/80x80/v1.bjs3NDA2MDY7ajsxODgxNDsyMDQ4OzE1MjA7MjMwNA", "submittedDate": "2015-06-11", "id": "multiuse-740606", "photoType": "movie", "width": 676}, {"url": "https://resizing.flixster.com/rMy3H0euHMmIlKSWN2lZLYrJmio=/600x386/v1.aDsyMTM0NjtqOzE4NzgxOzIwNDg7NzAwOzQ1MA", "index": 4, "submittedBy": "RT Staff", "height": 386, "imageId": 21346, "thumbnail": "https://resizing.flixster.com/pR2bpTPvOL9C075tR-D53OFB0mc=/80x80/v1.aDsyMTM0NjtqOzE4NzgxOzIwNDg7NzAwOzQ1MA", "submittedDate": "2010-03-29", "id": "movie-21346", "photoType": "movie", "width": 600}, {"url": "https://resizing.flixster.com/Jc07gakye5u8NPjeankSrkY3a08=/600x389/v1.aDsxOTEyNTtqOzE4NzY1OzIwNDg7NzAwOzQ1NA", "index": 5, "submittedBy": "RT Staff", "height": 389, "imageId": 19125, "thumbnail": "https://resizing.flixster.com/I6TbzgHIdXbU_TmnArCkYSSlf3g=/80x80/v1.aDsxOTEyNTtqOzE4NzY1OzIwNDg7NzAwOzQ1NA", "submittedDate": "2010-03-29", "id": "movie-19125", "photoType": "movie", "width": 600}, {"url": "https://resizing.flixster.com/VO8F_Ew8X6D2RvTcJqhp_b8XkJk=/401x600/v1.aDsxNjY4NztqOzE4ODAyOzIwNDg7NDY4OzcwMA", "index": 6, "submittedBy": "RT Staff", "height": 600, "imageId": 16687, "thumbnail": "https://resizing.flixster.com/89TdeRyToUwHUdktcfs3fClVJ6c=/80x80/v1.aDsxNjY4NztqOzE4ODAyOzIwNDg7NDY4OzcwMA", "submittedDate": "2010-03-29", "id": "movie-16687", "photoType": "movie", "width": 401}, {"url": "https://resizing.flixster.com/rZ7NYirQRzaCz-6Mr0cO4EU7gSU=/600x387/v1.aDsxMzk4NjtqOzE4ODAxOzIwNDg7NzAwOzQ1MQ", "index": 7, "submittedBy": "RT Staff", "height": 387, "imageId": 13986, "thumbnail": "https://resizing.flixster.com/P57EYzEBvEwm00qofMniRkBdfm0=/80x80/v1.aDsxMzk4NjtqOzE4ODAxOzIwNDg7NzAwOzQ1MQ", "submittedDate": "2010-03-29", "id": "movie-13986", "photoType": "movie", "width": 600}, {"url": "https://resizing.flixster.com/c0idDZnc1eI7zhkaCI2vPbh4mwI=/600x395/v1.aDsxMTA1NDtqOzE4Nzk0OzIwNDg7NzAwOzQ2MQ", "index": 8, "submittedBy": "RT Staff", "height": 395, "imageId": 11054, "thumbnail": "https://resizing.flixster.com/0FNTPh9LagjUHpeUBVrf6DKbNiQ=/80x80/v1.aDsxMTA1NDtqOzE4Nzk0OzIwNDg7NzAwOzQ2MQ", "submittedDate": "2010-03-29", "id": "movie-11054", "photoType": "movie", "width": 600}, {"url": "https://resizing.flixster.com/mZflJ-Odv2yZL9KC3pirVpfyssc=/401x600/v1.aDs3OTQ5O2o7MTg3OTQ7MjA0ODs0Njg7NzAw", "index": 9, "submittedBy": "RT Staff", "height": 600, "imageId": 7949, "thumbnail": "https://resizing.flixster.com/f0MT2dur5G7B5hEv6Or1hikJR2c=/80x80/v1.aDs3OTQ5O2o7MTg3OTQ7MjA0ODs0Njg7NzAw", "submittedDate": "2010-03-29", "id": "movie-7949", "photoType": "movie", "width": 401}, {"url": "https://resizing.flixster.com/mEeX4X0P5JImU4d1u0ym1al80_Y=/600x382/v1.aDs0NzE0O2o7MTg3OTk7MjA0ODs3MDA7NDQ2", "index": 10, "submittedBy": "RT Staff", "height": 382, "imageId": 4714, "thumbnail": "https://resizing.flixster.com/rAlq1OEmvwCNh-V2i1dEyujOlUI=/80x80/v1.aDs0NzE0O2o7MTg3OTk7MjA0ODs3MDA7NDQ2", "submittedDate": "2010-03-29", "id": "movie-4714", "photoType": "movie", "width": 600}, {"url": "https://resizing.flixster.com/6k4H7bfIHuTX78Ys5gyDD4iqVwI=/600x386/v1.aDsxMzQzO2o7MTg4MDM7MjA0ODs3MDA7NDUw", "index": 11, "submittedBy": "RT Staff", "height": 386, "imageId": 1343, "thumbnail": "https://resizing.flixster.com/MQinYAtXR4XwSKtUrJ9fWdE319c=/80x80/v1.aDsxMzQzO2o7MTg4MDM7MjA0ODs3MDA7NDUw", "submittedDate": "2010-03-29", "id": "movie-1343", "photoType": "movie", "width": 600}], "length": 12}, "studio": "Warner Bros. Pictures", "purchaseOptions": {"netflix": {"streamingId": "247351"}, "vudu": {"url": "https://www.vudu.com/content/movies/details/Amadeus-Directors-Cut/9083", "type": "buy"}, "flixster": {"url": "amadeus", "movieId": "ID: 2000011461; SKU:451863; Type: B (SD Buy)", "type": "buy"}, "iTunes": {"url": "https://itunes.apple.com/movie/amadeus-directors-cut/id297032832?uo=5", "price": "14.99"}}, "reviews": {"total": 100, "links": {"alternate": "//www.rottentomatoes.com/m/amadeus/#reviews", "self": "api.flixster.com/movies/amadeus/reviews.json?review_type=mob&country=us&page=1", "prev": "api.flixster.com/movies/amadeus/reviews.json?review_type=mob&country=us&page=0", "next": "api.flixster.com/movies/amadeus/reviews.json?review_type=mob&country=us&page=2"}, "reviews": [{"isRotten": false, "url": "https://archive.org/stream/NewsUK1985UKEnglish/Jan%2018%201985%2C%20The%20Times%2C%20%2362039%2C%20UK%20%28en%29#page/n11/mode/2up", "publication": {"url": "", "name": "Times (UK)"}, "isTop": true, "creationDate": 1579729593000, "isFresh": true, "freshness": "fresh", "critic": {"url": "/critic/geoff-brown", "name": "Geoff Brown", "id": 16265, "thumbnailImage": "https://d2a5cgar23scu2.cloudfront.net/static/images/redesign/user.none.tmb.jpg"}, "quote": "Tom HuIce's brattish Mozart builds in strength and sensitivity as the film proceeds; F. Murray Abraham's Salieri impresses immediately.", "id": 2662450, "links": {"review": "https://archive.org/stream/NewsUK1985UKEnglish/Jan%2018%201985%2C%20The%20Times%2C%20%2362039%2C%20UK%20%28en%29#page/n11/mode/2up"}}, {"isRotten": false, "url": "https://www.washingtonpost.com/archive/lifestyle/1984/09/21/some-power-much-glory-in-amadeus/151939c5-6bee-40a8-bfdf-87a2c87aadf3/", "publication": {"url": "", "name": "Washington Post"}, "isTop": true, "creationDate": 1579656049000, "isFresh": true, "freshness": "fresh", "critic": {"url": "/critic/rita-kempley", "name": "Rita Kempley", "id": 17, "thumbnailImage": "https://d2a5cgar23scu2.cloudfront.net/static/images/redesign/user.none.tmb.jpg"}, "quote": "Amadeus isn't meant to be a biography of the composer's life, but a bawdy, black fantasy, a fiction based on a few curious facts. Peter Shaffer adapted the screenplay from his own stage play: What was intimate is now opulent.", "id": 2662252, "links": {"review": "https://www.washingtonpost.com/archive/lifestyle/1984/09/21/some-power-much-glory-in-amadeus/151939c5-6bee-40a8-bfdf-87a2c87aadf3/"}}, {"isRotten": false, "url": "https://archive.org/stream/TheGuardian1985UKEnglish/Jan%2017%201985%2C%20The%20Guardian%2C%20%2358%2C%20UK%20%28en%29#page/n9/mode/2up", "publication": {"url": "", "name": "Guardian"}, "isTop": true, "creationDate": 1579655951000, "isFresh": true, "freshness": "fresh", "critic": {"url": "/critic/tim-pulleine", "name": "Tim Pulleine", "id": 22179, "thumbnailImage": "https://d2a5cgar23scu2.cloudfront.net/static/images/redesign/user.none.tmb.jpg"}, "quote": "A substantial achievement -- and graced by an uncommonly distinguished score.", "id": 2662251, "links": {"review": "https://archive.org/stream/TheGuardian1985UKEnglish/Jan%2017%201985%2C%20The%20Guardian%2C%20%2358%2C%20UK%20%28en%29#page/n9/mode/2up"}}, {"isRotten": true, "url": "https://archive.org/stream/TheDailyTelegraph1985UKEnglish/Jan%2018%201985%2C%20The%20Daily%20Telegraph%2C%20%2340304%2C%20UK%20%28en%29#page/n9/mode/2up", "publication": {"url": "", "name": "Daily Telegraph (UK)"}, "isTop": true, "creationDate": 1579655689000, "isFresh": false, "freshness": "rotten", "critic": {"url": "/critic/patrick-gibbs", "name": "Patrick Gibbs", "id": 15841, "thumbnailImage": "https://d2a5cgar23scu2.cloudfront.net/static/images/redesign/user.none.tmb.jpg"}, "quote": "What starts as an absorbing study of historical characters and situations ends as just another elaborate and over-long Hollywood style costume-piece.", "id": 2662250, "links": {"review": "https://archive.org/stream/TheDailyTelegraph1985UKEnglish/Jan%2018%201985%2C%20The%20Daily%20Telegraph%2C%20%2340304%2C%20UK%20%28en%29#page/n9/mode/2up"}}, {"isRotten": false, "url": "http://pqasb.pqarchiver.com/boston-sub/doc/294122848.html?FMT=FT&FMTS=ABS:FT&type=current&date=May+27%2C+1983&author=McCABE%2C+BRUCE&pub=Boston+Globe+%28pre-1997+Fulltext%29&edition=&startpage=1&desc=BRUCE+MCCABE%3B+THANKS%21+WE+NEEDED+THAT%3B+SOMETHING+W", "publication": {"name": "Boston Globe"}, "isTop": true, "creationDate": 1524784480000, "isFresh": true, "freshness": "fresh", "critic": {"url": "/critic/bruce-mccabe", "name": "Bruce McCabe", "id": 2994, "thumbnailImage": "https://d2a5cgar23scu2.cloudfront.net/static/images/redesign/user.none.tmb.jpg"}, "quote": "The skill of Amadeus is in making you sympathize with Salieri, as slimy and despicable as he is, because of his flaws. He appeals to your sense of democracy, even though you know that talent -- certainly genius -- isn't parceled out democratically.", "id": 2473937, "links": {"review": "http://pqasb.pqarchiver.com/boston-sub/doc/294122848.html?FMT=FT&FMTS=ABS:FT&type=current&date=May+27%2C+1983&author=McCABE%2C+BRUCE&pub=Boston+Globe+%28pre-1997+Fulltext%29&edition=&startpage=1&desc=BRUCE+MCCABE%3B+THANKS%21+WE+NEEDED+THAT%3B+SOMETHING+W"}}, {"isRotten": false, "url": "https://archive.org/details/Sight_and_Sound_1985_04_BFI_GB/page/n67", "publication": {"url": "", "name": "Sight & Sound"}, "isTop": true, "creationDate": 1425424273000, "isFresh": true, "freshness": "fresh", "critic": {"url": "/critic/gilbert-adair", "name": "Gilbert Adair", "id": 15699, "thumbnailImage": "https://d2a5cgar23scu2.cloudfront.net/static/images/redesign/user.none.tmb.jpg"}, "quote": "[Forman's] is a genuine adaptation, not only because the play is permitted to stretch its legs beyond the pop-up book confines of a proscenium arch, but because he has leavened its High Art pretensions with a dash of showbiz raciness.", "id": 2249474, "links": {"review": "https://archive.org/details/Sight_and_Sound_1985_04_BFI_GB/page/n67"}}, {"isRotten": false, "url": "https://www.thegate.ca/film/046178/amadeus-the-best-old-timey-movie-about-youthful-fears/", "publication": {"url": "", "name": "The Gate"}, "isTop": false, "creationDate": 1605810120000, "isFresh": true, "freshness": "fresh", "critic": {"url": "/critic/andrew-parker", "name": "Andrew Parker", "id": 17603, "thumbnailImage": "https://d2a5cgar23scu2.cloudfront.net/static/images/redesign/user.none.tmb.jpg"}, "quote": "Amadeus is not only one of the best films made about professional jealousy and classical music, it's also - rather uniquely - a young person's movie.", "id": 2743626, "links": {"review": "https://www.thegate.ca/film/046178/amadeus-the-best-old-timey-movie-about-youthful-fears/"}}, {"isRotten": false, "url": "http://www.larsenonfilm.com/amadeus", "creationDate": 1602016079000, "isFresh": true, "id": 2731829, "quote": "...a case study for the theological notion of common grace.", "links": {"review": "http://www.larsenonfilm.com/amadeus"}, "publication": {"name": "LarsenOnFilm"}, "isTop": false, "freshness": "fresh", "critic": {"url": "/critic/josh-larsen", "name": "Josh Larsen", "id": 5862, "thumbnailImage": "https://resizing.flixster.com/INwXGggtlQY2hz5MUWofbVNavfk=/72x72/v1.YzszMTIzO2o7MTg3ODM7MjA0ODsyOTY7Mjgz"}, "original_score": "3.5/4"}, {"isRotten": false, "url": "http://gonewiththetwins.com/new/amadeus-1984/", "creationDate": 1598851938000, "isFresh": true, "id": 2718547, "quote": "From the first few seconds of the film, it's evident that the music will guide it to cinematic perfection.", "links": {"review": "http://gonewiththetwins.com/new/amadeus-1984/"}, "publication": {"url": "", "name": "Gone With The Twins"}, "isTop": false, "freshness": "fresh", "critic": {"url": "/critic/mike-massie", "name": "Mike Massie", "id": 27168, "thumbnailImage": "https://resizing.flixster.com/cKCY6tR9EskewGPlb8BlnvWesZU=/72x72/v1.YzszNjc3O2o7MTg3OTc7MjA0ODszMDA7MzAw"}, "original_score": "10/10"}, {"isRotten": false, "url": "http://www.hollywoodjesus.com/amadeus/", "publication": {"url": "", "name": "Hollywood Jesus"}, "isTop": false, "creationDate": 1586478740000, "isFresh": true, "freshness": "fresh", "critic": {"url": "/critic/ed-travis", "name": "Ed Travis", "id": 23436, "thumbnailImage": "https://resizing.flixster.com/2czZkMM0cZMBVEqOp6tixMBIpiA=/72x72/v1.YzszMTYxO2o7MTg3NzY7MjA0ODszMDA7MzAx"}, "quote": "Amadeus is a film of high accolade...this film is grand on every level and I'm glad to have experienced it.", "id": 2682242, "links": {"review": "http://www.hollywoodjesus.com/amadeus/"}}, {"isRotten": false, "url": "https://archive.macleans.ca/article/1984/10/1/a-duet-of-jealousy-and-genius", "publication": {"url": "", "name": "Maclean's Magazine"}, "isTop": false, "creationDate": 1579740435000, "isFresh": true, "freshness": "fresh", "critic": {"url": "/critic/mark-czarnecki", "name": "Mark Czarnecki", "id": 26530, "thumbnailImage": "https://d2a5cgar23scu2.cloudfront.net/static/images/redesign/user.none.tmb.jpg"}, "quote": "The film's awesome achievements will remind audiences how rich and challenging a cinematic experience can be.", "id": 2662527, "links": {"review": "https://archive.macleans.ca/article/1984/10/1/a-duet-of-jealousy-and-genius"}}, {"isRotten": false, "url": "https://www.filmsite.org/amadeus.html", "creationDate": 1569624832000, "isFresh": true, "id": 2630508, "quote": "Amadeus (1984) was director Milos Forman's stunning, opulent fictional biography of musical prodigy Wolfgang Amadeus Mozart, based on the Tony-winning Broadway play...", "links": {"review": "https://www.filmsite.org/amadeus.html"}, "publication": {"url": "", "name": "Filmsite"}, "isTop": false, "freshness": "fresh", "critic": {"url": "/critic/tim-dirks", "name": "Tim Dirks", "id": 2, "thumbnailImage": "https://resizing.flixster.com/YLKhCBtohLWHB76z-5jiFMLQG1M=/72x72/v1.YzszNDY1O2o7MTg3NjU7MjA0ODs4NDA7OTE5"}, "original_score": "A+"}]}, "casts": {"screenwriters": [{"url": "/celebrity/peter_shaffer/", "name": "Peter Shaffer", "thumbnailImg": "https://d2a5cgar23scu2.cloudfront.net/static/images/redesign/actor.default.tmb.gif"}], "directors": [{"url": "/celebrity/milos_forman/", "name": "Milos Forman", "thumbnailImg": "https://resizing.flixster.com/HvVT1LeRuMw2JHHpNTlGmW3qmro=/80x80/v1.cjs4MTMzO2o7MTg3OTg7MjA0ODs0MzI7NjUy"}], "creators": [], "producers": [{"url": "/celebrity/saul_zaentz/", "name": "Saul Zaentz", "thumbnailImg": "https://d2a5cgar23scu2.cloudfront.net/static/images/redesign/actor.default.tmb.gif"}, {"url": "/celebrity/1056637-michael_hausman/", "name": "Michael Hausman", "thumbnailImg": "https://d2a5cgar23scu2.cloudfront.net/static/images/redesign/actor.default.tmb.gif"}, {"url": "/celebrity/bertil_ohlsson/", "name": "Bertil Ohlsson", "thumbnailImg": "https://d2a5cgar23scu2.cloudfront.net/static/images/redesign/actor.default.tmb.gif"}], "castItems": [{"person": {"url": "/celebrity/thomas_hulce/", "name": "Tom Hulce", "thumbnailImg": "https://resizing.flixster.com/8Cf8QzI7jRH8OYkQpuAlUkRhh9A=/80x80/v1.cDsxMTI0Nzc0NDtqOzE4ODg5OzIwNDg7MTYzODsxMDU3"}, "characters": [{"name": "Wolfgang Amadeus Mozart"}]}, {"person": {"url": "/celebrity/f_murray_abraham/", "name": "F. Murray Abraham", "thumbnailImg": "https://resizing.flixster.com/84RDPRAX14YN1vQ_W4dOsAnLFL0=/80x80/v1.cjs0OTE0MTtqOzE4NzY2OzIwNDg7MTc0NTsxODY2"}, "characters": [{"name": "Antonio Salieri"}]}, {"person": {"url": "/celebrity/elizabeth_berridge/", "name": "Elizabeth Berridge", "thumbnailImg": "https://resizing.flixster.com/Vtyk5PfExwuhaPA7UWTwle3wxQs=/80x80/v1.cDsxMjY0NDUyNjtqOzE4Nzk3OzIwNDg7MjAwOzI3MA"}, "characters": [{"name": "Constanze Mozart"}]}, {"person": {"url": "/celebrity/simon_callow/", "name": "Simon Callow", "thumbnailImg": "https://resizing.flixster.com/UikwSgVbWK9TN7MiDm5_w5FjI1U=/80x80/v1.cjs0NzkzMDtqOzE4NzcwOzIwNDg7MjI2NDsyMjY0"}, "characters": [{"name": "Emanuel Schikaneder"}]}, {"person": {"url": "/celebrity/roy_dotrice/", "name": "Roy Dotrice", "thumbnailImg": "https://resizing.flixster.com/OKfV22i5RTy11lMogTvde_W-W7Y=/80x80/v1.cDs5NjczNDU2O2o7MTg4MTc7MjA0ODszMTE7NDA2"}, "characters": [{"name": "Leopold Mozart"}]}, {"person": {"url": "/celebrity/christine_ebersole/", "name": "Christine Ebersole", "thumbnailImg": "https://resizing.flixster.com/-Rpz9EapjRPBuNeo6nYv6gijr7I=/80x80/v1.cjszMTI4NTtqOzE4Nzc1OzIwNDg7NDEwOzYwMA"}, "characters": [{"name": "Katerina Cavalieri"}]}, {"person": {"url": "/celebrity/jeffrey_jones/", "name": "Jeffrey Jones", "thumbnailImg": "https://resizing.flixster.com/W-j6ee3A5G_TMIGoHitblKEbUmg=/80x80/v1.cDsxMTExMTM1NTtqOzE4ODQ4OzIwNDg7MjU5OzE3NQ"}, "characters": [{"name": "Emperor Joseph II"}]}, {"person": {"url": "/celebrity/charles_kay/", "name": "Charles Kay", "thumbnailImg": "https://d2a5cgar23scu2.cloudfront.net/static/images/redesign/actor.default.tmb.gif"}, "characters": [{"name": "Count Orsini-Rosenberg"}]}, {"person": {"url": "/celebrity/lisbeth_bartlett/", "name": "Lisbeth Bartlett", "thumbnailImg": "https://d2a5cgar23scu2.cloudfront.net/static/images/redesign/actor.default.tmb.gif"}, "characters": [{"name": "Papagena"}]}, {"person": {"url": "/celebrity/1000812-kenny_baker/", "name": "Kenny Baker", "thumbnailImg": "https://resizing.flixster.com/2nenLpa2L2OxukAp3LpPBf_syjY=/80x80/v1.cjs0ODI2NTtqOzE4NzkwOzIwNDg7MjMyOzIzMg"}, "characters": [{"name": "Parody Commendatore"}]}, {"person": {"url": "/celebrity/barbara_bryne/", "name": "Barbara Bryne", "thumbnailImg": "https://d2a5cgar23scu2.cloudfront.net/static/images/redesign/actor.default.tmb.gif"}, "characters": [{"name": "Frau Weber"}]}, {"person": {"url": "/celebrity/barbara_byrne/", "name": "Barbara Byrne", "thumbnailImg": "https://d2a5cgar23scu2.cloudfront.net/static/images/redesign/actor.default.tmb.gif"}, "characters": [{"name": "Frau Weber"}]}, {"person": {"url": "/celebrity/martin_cavani/", "name": "Martin Cavani", "thumbnailImg": "https://d2a5cgar23scu2.cloudfront.net/static/images/redesign/actor.default.tmb.gif"}, "characters": [{"name": "Young Salieri"}]}, {"person": {"url": "/celebrity/roderick_cook/", "name": "Roderick Cook", "thumbnailImg": "https://d2a5cgar23scu2.cloudfront.net/static/images/redesign/actor.default.tmb.gif"}, "characters": [{"name": "Count Von Strack"}]}, {"person": {"url": "/celebrity/milan_demjanenko/", "name": "Milan Demjanenko", "thumbnailImg": "https://d2a5cgar23scu2.cloudfront.net/static/images/redesign/actor.default.tmb.gif"}, "characters": [{"name": "Karl Mozart"}]}, {"person": {"url": "/celebrity/peter_digesu/", "name": "Peter DiGesu", "thumbnailImg": "https://d2a5cgar23scu2.cloudfront.net/static/images/redesign/actor.default.tmb.gif"}, "characters": [{"name": "Francesco Salieri"}]}, {"person": {"url": "/celebrity/richard_edward_frank/", "name": "Richard Edward Frank", "thumbnailImg": "https://d2a5cgar23scu2.cloudfront.net/static/images/redesign/actor.default.tmb.gif"}, "characters": [{"name": "Father Vogler"}]}, {"person": {"url": "/celebrity/patrick-hines/", "name": "Patrick Hines", "thumbnailImg": "https://d2a5cgar23scu2.cloudfront.net/static/images/redesign/actor.default.tmb.gif"}, "characters": [{"name": "Kappelmeister Bonno"}]}, {"person": {"url": "/celebrity/nicholas_kepros/", "name": "Nicholas Kepros", "thumbnailImg": "https://d2a5cgar23scu2.cloudfront.net/static/images/redesign/actor.default.tmb.gif"}, "characters": [{"name": "Archbishop Colloredo"}]}, {"person": {"url": "/celebrity/philip_lenkowsky/", "name": "Philip Lenkowsky", "thumbnailImg": "https://resizing.flixster.com/DeE4FKIjl2Q-NcV0K4_3AFrw9xU=/80x80/v1.cDsxMjExOTMxMTtqOzE4NzcxOzIwNDg7MjA0OzIwOA"}, "characters": [{"name": "Salieri's Servant"}]}, {"person": {"url": "/celebrity/herman_meckler/", "name": "Herman Meckler", "thumbnailImg": "https://d2a5cgar23scu2.cloudfront.net/static/images/redesign/actor.default.tmb.gif"}, "characters": [{"name": "Priest"}]}, {"person": {"url": "/celebrity/jonathan_moore/", "name": "Jonathan Moore", "thumbnailImg": "https://d2a5cgar23scu2.cloudfront.net/static/images/redesign/actor.default.tmb.gif"}, "characters": [{"name": "Baron Van Swieten"}]}, {"person": {"url": "/celebrity/cynthia_nixon/", "name": "Cynthia Nixon", "thumbnailImg": "https://resizing.flixster.com/mzkVEB7b5gR5B2AuT1InDgiLFVw=/80x80/v1.cjs0Nzc5MztqOzE4NzY4OzIwNDg7MjgwOzI1MA"}, "characters": [{"name": "Lorl"}]}, {"person": {"url": "/celebrity/brian_pettifer/", "name": "Brian Pettifer", "thumbnailImg": "https://resizing.flixster.com/IWFxda7G-ARLjzXQ6lzTf8sy9po=/80x80/v1.cjs0NTY5ODtqOzE4Nzg4OzIwNDg7NDU5OzQwOQ"}, "characters": [{"name": "Hospital Attendant"}]}, {"person": {"url": "/celebrity/vincent_schiavelli/", "name": "Vincent Schiavelli", "thumbnailImg": "https://resizing.flixster.com/AhBZGyHg2ZSSrNFHbYRHiCLCBcg=/80x80/v1.cDsxMDk4MjIwMTtqOzE4ODg4OzIwNDg7MjY2OzE1MA"}, "characters": [{"name": "Salieri's Valet"}]}, {"person": {"url": "/celebrity/douglas-seale/", "name": "Douglas Seale", "thumbnailImg": "https://resizing.flixster.com/FbuhV0er2PtwmvdJd6GjdUdBuZI=/80x80/v1.cDs5MDAzNjcyO2o7MTg4MDY7MjA0ODszNjA7MjEy"}, "characters": [{"name": "Count Arco"}]}, {"person": {"url": "/celebrity/miroslav_sekera/", "name": "Miroslav Sekera", "thumbnailImg": "https://d2a5cgar23scu2.cloudfront.net/static/images/redesign/actor.default.tmb.gif"}, "characters": [{"name": "Young Mozart"}]}, {"person": {"url": "/celebrity/gil_amelio/", "name": "Gil Amelio", "thumbnailImg": "https://d2a5cgar23scu2.cloudfront.net/static/images/redesign/actor.default.tmb.gif"}}, {"person": {"url": "/celebrity/kenneth_mcmillan/", "name": "Kenneth McMillan", "thumbnailImg": "https://resizing.flixster.com/uO-H2mzB4Grum87dewYH6zMw8oI=/80x80/v1.cDsxMDQ5Mjk3OTtqOzE4ODU1OzIwNDg7MzM3OzI4MQ"}}, {"person": {"url": "/celebrity/john_j_strauss/", "name": "John J. Strauss", "thumbnailImg": "https://d2a5cgar23scu2.cloudfront.net/static/images/redesign/actor.default.tmb.gif"}, "characters": [{"name": "Conductor"}]}, {"person": {"url": "/celebrity/karlheinz_teuber/", "name": "Karl-Heinz Teuber", "thumbnailImg": "https://d2a5cgar23scu2.cloudfront.net/static/images/redesign/actor.default.tmb.gif"}, "characters": [{"name": "Wig Salesman"}]}, {"person": {"url": "/celebrity/dana_vavrova/", "name": "Dana V\u00e1vrov\u00e1", "thumbnailImg": "https://d2a5cgar23scu2.cloudfront.net/static/images/redesign/actor.default.tmb.gif"}}, {"person": {"url": "/celebrity/neville_marriner_3/", "name": "Neville Marriner", "thumbnailImg": "https://d2a5cgar23scu2.cloudfront.net/static/images/redesign/actor.default.tmb.gif"}}]}, "title": "Amadeus", "adjustedScore": 101.23830200009238, "ratings": {"critics_rating": "Certified Fresh", "audience_score": 95, "dvdReleaseDate": 882259200000, "critics_score": 93, "theaterReleaseDate": 463302000000, "audience_rating": "Upright"}, "videoClips": {"mainTrailer": {"hlsUrl": "http://video.internetvideoarchive.net/video.m3u8?cmd=6&publishedid=2982&customerid=300120&e=1619087390308&sub=RTO&fmt=11&h=64d822f987f2833bc93657b00fd6a775", "seconds": 21, "minutes": 2, "id": 10906562, "title": "Amadeus", "thumbUrl": "http://content.internetvideoarchive.com/content/photos/8542/2982_064.jpg", "mp4Url": "http://video.internetvideoarchive.net/video.mp4?cmd=6&publishedid=2982&customerid=300120&e=1619087390308&sub=RTO&fmt=4&videokbrate=750&h=760f484a58df60784c0fa68d276c015c"}, "size": 1, "videoClips": [{"hlsUrl": "http://video.internetvideoarchive.net/video.m3u8?cmd=6&publishedid=2982&customerid=300120&e=1619087390308&sub=RTO&fmt=11&h=64d822f987f2833bc93657b00fd6a775", "seconds": 21, "minutes": 2, "id": 10906562, "title": "Amadeus", "thumbUrl": "http://content.internetvideoarchive.com/content/photos/8542/2982_064.jpg", "mp4Url": "http://video.internetvideoarchive.net/video.mp4?cmd=6&publishedid=2982&customerid=300120&e=1619087390308&sub=RTO&fmt=4&videokbrate=750&h=760f484a58df60784c0fa68d276c015c"}]}, "isUpcoming": false, "posters": {"original": "https://resizing.flixster.com/_STSzHA9WMuvLyPgUljFMYckfN0=/800x1200/v1.bTsxMTE2ODAyNztqOzE4ODY2OzIwNDg7ODAwOzEyMDA", "detailed": "https://resizing.flixster.com/1yqa9pbYehBFnlFCUB76vU4qHNw=/180x270/v1.bTsxMTE2ODAyNztqOzE4ODY2OzIwNDg7ODAwOzEyMDA", "profile": "https://resizing.flixster.com/jAgTomFy53mxaPcvh1p2lN6het4=/120x180/v1.bTsxMTE2ODAyNztqOzE4ODY2OzIwNDg7ODAwOzEyMDA", "thumbnail": "https://resizing.flixster.com/eJdwEv_CxWKGqYgM6FUTNU05Af4=/54x81/v1.bTsxMTE2ODAyNztqOzE4ODY2OzIwNDg7ODAwOzEyMDA"}, "isLimited": false, "mainTrailer": {"thumbUrl": "https://content.internetvideoarchive.com/content/photos/8542/2982_064.jpg", "hlsUrl": "http://video.internetvideoarchive.net/video.m3u8?cmd=6&publishedid=2982&customerid=300120&e=1619087389873&sub=RTO&fmt=11&h=4705110226757344aee3405f8438e55d", "id": 10906562, "mp4Url": "http://video.internetvideoarchive.net/video.mp4?cmd=6&publishedid=2982&customerid=300120&e=1619087389873&sub=RTO&fmt=4&videokbrate=750&h=7918b8e5f873472e99fc580d9cb866ca"}, "advisory": "for brief nudity", "id": 10286}