{"url": "/m/we_are_the_best/", "isOnOpening": false, "genreSet": [{"displayName": "Drama", "id": 9}, {"displayName": "Musical & Performing Arts", "id": 12}, {"displayName": "Comedy", "id": 6}], "officialUrl": "http://www.magpictures.com/wearethebest/", "isInTheaters": false, "synopsis": "WE ARE THE BEST! is Moodysson's adaptation of his wife Coco's graphic novel about three young misfits growing up in early '80s Stockholm. Pixieish, mohawk-sporting Klara (Mira Grosin) and her best friend Bobo (Mira Barkhammar) are 13-year-old rebels looking for a cause. Despite having no instruments-or discernible musical talent-the two put all their energy into forming an all-girl punk band, recruiting their shy, classical guitar-playing schoolmate Hedvig (Liv LeMoyne) as the third wheel. With tender affection for his young characters and the period in which his film is set, Moodysson paints an ebullient and sharply observant portrait of DIY spirit and growing up different. (c) Magnolia", "links": {"alternate": "//www.rottentomatoes.com/m/we_are_the_best/"}, "runningTime": 102, "year": 2014, "trackingType": "DvdOther", "status": "Live", "isPlaying": false, "isOnDVD": true, "runningTimeStr": "1 hr. 42 min.", "ratingSummary": {"topcount": 54, "consensus": "Sweet, empathetic, and shot through with a palpable joy, We Are the Best! offers a tender tribute to the bittersweet tumult of adolescence.", "topCritics": {"hasScore": true, "numReviews": 54, "meterClass": "certified", "numRotten": 2, "numFresh": 52, "hasReviews": true, "meterValue": 96, "averageRating": 8.026316}, "audience": {"meterScore": 78, "averageScore": 3.8156723976135254, "numTotal": 6017, "ratingType": "viewed"}, "allcount": 137, "rottencount": 5, "dvdcount": 1, "allCritics": {"hasScore": true, "numReviews": 137, "meterClass": "certified", "numRotten": 5, "numFresh": 132, "hasReviews": true, "meterValue": 96, "averageRating": 7.92}, "freshcount": 132}, "mpaaRating": "Unrated", "vanity": "we_are_the_best", "studio": "Magnolia Pictures", "purchaseOptions": {"amazon": {"url": "http://www.amazon.com/gp/product/B00L5SA5SS/ref=atv_feed_catalog?tag=rottetomao_aiv_mv-20", "isPrime": false, "type": "rent"}, "vudu": {"url": "https://www.vudu.com/content/movies/details/We-Are-the-Best/555324", "type": "buy"}, "iTunes": {"url": "https://itunes.apple.com/movie/we-are-the-best/id889458333?uo=5", "price": "9.99"}}, "reviews": {"total": 137, "links": {"alternate": "//www.rottentomatoes.com/m/we_are_the_best/#reviews", "self": "api.flixster.com/movies/we-are-the-best/reviews.json?review_type=mob&country=us&page=1", "prev": "api.flixster.com/movies/we-are-the-best/reviews.json?review_type=mob&country=us&page=0", "next": "api.flixster.com/movies/we-are-the-best/reviews.json?review_type=mob&country=us&page=2"}, "reviews": [{"isRotten": false, "url": "https://www.bitchmedia.org/post/we-are-the-best-is-a-joyous-coming-of-age-film-about-young-punks", "publication": {"url": "", "name": "Bitch Media"}, "isTop": true, "creationDate": 1611276084000, "isFresh": true, "freshness": "fresh", "critic": {"url": "/critic/chiara-grassia", "name": "Chiara Grassia", "id": 28103, "thumbnailImage": "https://d2a5cgar23scu2.cloudfront.net/static/images/redesign/user.none.tmb.jpg"}, "quote": "An infectiously joyous coming-of-age story.", "id": 2758562, "links": {"review": "https://www.bitchmedia.org/post/we-are-the-best-is-a-joyous-coming-of-age-film-about-young-punks"}}, {"isRotten": false, "url": "https://www.thetimes.co.uk/article/we-are-the-best-v5mp25wt2pc", "publication": {"url": "", "name": "Times (UK)"}, "isTop": true, "creationDate": 1514751976000, "isFresh": true, "freshness": "fresh", "critic": {"url": "/critic/kate-muir", "name": "Kate Muir", "id": 13654, "thumbnailImage": "https://resizing.flixster.com/LPoS7uX6IqV31i8rYwk3HQ0ZA68=/72x72/v1.YzsyNjI5O2c7MTg3ODQ7MjA0ODsxNTA7MTUw"}, "quote": "The insightful and cracklingly funny story is an antidote to Hannah Montana and the shallow Hollywood teenagers on the Disney Channel, obsessed by their French manicures.", "id": 2446815, "links": {"review": "https://www.thetimes.co.uk/article/we-are-the-best-v5mp25wt2pc"}}, {"isRotten": false, "url": "http://www.theaustralian.com.au/arts/review/film-reviews-the-house-of-magic-we-are-the-best/story-fn9n8gph-1227064138035", "creationDate": 1420441686000, "isFresh": true, "id": 2240448, "quote": "For all their moodiness and irascibility, the girls come across as warm and believable, and there are funny moments when they take to the streets to raise money for a new guitar.", "links": {"review": "http://www.theaustralian.com.au/arts/review/film-reviews-the-house-of-magic-we-are-the-best/story-fn9n8gph-1227064138035"}, "publication": {"url": "", "name": "The Australian"}, "isTop": true, "freshness": "fresh", "critic": {"url": "/critic/evan-williams-13063", "name": "Evan Williams", "id": 13063, "thumbnailImage": "https://d2a5cgar23scu2.cloudfront.net/static/images/redesign/user.none.tmb.jpg"}, "original_score": "3/5"}, {"isRotten": true, "isFresh": false, "publication": {"url": "", "name": "New Yorker"}, "isTop": true, "creationDate": 1420439987000, "freshness": "rotten", "critic": {"url": "/critic/richard-brody", "name": "Richard Brody", "id": 12902, "thumbnailImage": "https://d2a5cgar23scu2.cloudfront.net/static/images/redesign/user.none.tmb.jpg"}, "quote": "A pallid and terminally cutesy movie that succeeds by stoking blandly happy feelings.", "id": 2240443, "links": {}}, {"isRotten": false, "isFresh": true, "publication": {"url": "", "name": "At the Movies (Australia)"}, "isTop": true, "creationDate": 1411761923000, "freshness": "fresh", "critic": {"url": "/critic/david-stratton", "name": "David Stratton", "id": 3080, "thumbnailImage": "https://resizing.flixster.com/vLJVb8VE4LgP9aEFivSCPb743eg=/72x72/v1.YzszNzEwO2o7MTg3ODU7MjA0ODszMDA7MzAw"}, "quote": "The young actresses are just flawless and I think Lukas Moodysson really tells this story well.", "id": 2225182, "original_score": "3.5/5", "links": {}}, {"isRotten": false, "url": "http://www.smh.com.au/entertainment/movies/we-are-the-best-review-teen-angst-nailed-20140917-10hztp.html", "creationDate": 1411433798000, "isFresh": true, "id": 2224316, "quote": "The performances of all three young actors are superb, soulful, honest and full of joy. Their dialogue is often ridiculously funny and there's no sense of manufactured drama.", "links": {"review": "http://www.smh.com.au/entertainment/movies/we-are-the-best-review-teen-angst-nailed-20140917-10hztp.html"}, "publication": {"url": "", "name": "Sydney Morning Herald"}, "isTop": true, "freshness": "fresh", "critic": {"url": "/critic/paul-byrnes", "name": "Paul Byrnes", "id": 8638, "thumbnailImage": "https://d2a5cgar23scu2.cloudfront.net/static/images/redesign/user.none.tmb.jpg"}, "original_score": "4/5"}, {"isRotten": false, "url": "http://battleshippretension.com/the-title-says-it-all-by-scott-nye/", "publication": {"url": "http://battleshippretension.com", "name": "Battleship Pretension"}, "isTop": false, "creationDate": 1614823759000, "isFresh": true, "freshness": "fresh", "critic": {"url": "/critic/scott-nye", "name": "Scott Nye", "id": 22764, "thumbnailImage": "https://resizing.flixster.com/LnViStGYMeSORpoXEuCbwIrt25E=/72x72/v1.YzszMDQ3O2o7MTg3OTc7MjA0ODsxNzI2OzE3MjY"}, "quote": "The crowd with which I saw it last November was positively vibrating the whole time. The title does not lie.", "id": 2773246, "links": {"publication": "http://battleshippretension.com", "review": "http://battleshippretension.com/the-title-says-it-all-by-scott-nye/"}}, {"isRotten": false, "url": "https://www.memphisflyer.com/memphis/we-are-the-best/Content?oid=3722384", "publication": {"name": "Memphis Flyer"}, "isTop": false, "creationDate": 1578515454000, "isFresh": true, "freshness": "fresh", "critic": {"url": "/critic/chris-mccoy", "name": "Chris McCoy", "id": 26249, "thumbnailImage": "https://resizing.flixster.com/ep2OW1z4d7XB7HPPiKQjzJZz-xA=/72x72/v1.YzszNTM2O2o7MTg3OTE7MjA0ODszMDA7MzAw"}, "quote": "It's the details of the journey that matter in this good-natured film. Bobo, Klara, and Hedwig's story of Sweden's finest teenage girl punk band will feel universal to everyone who has ever set out to prove that punk won't die on their watch.", "id": 2658480, "links": {"review": "https://www.memphisflyer.com/memphis/we-are-the-best/Content?oid=3722384"}}, {"isRotten": false, "url": "https://thereader.com/film/wearethebestreview", "creationDate": 1565121155000, "isFresh": true, "id": 2612826, "quote": "We Are the Best (Vi \u00e4r bast) sports a cocksure swagger in its title alone, and rightfully so. It is a boisterous rejoinder to the usual simplistic, tame depiction of adolescent girls. ", "links": {"review": "https://thereader.com/film/wearethebestreview"}, "publication": {"url": "", "name": "The Reader (Omaha, NE)"}, "isTop": false, "freshness": "fresh", "critic": {"url": "/critic/ryan-syrek", "name": "Ryan Syrek", "id": 25325, "thumbnailImage": "https://resizing.flixster.com/RfUJaMOxGh6ltKLizn6LvHo-uEA=/72x72/v1.YzszNDA1O2o7MTg3OTU7MjA0ODszMDA7MzAw"}, "original_score": "A"}, {"isRotten": false, "url": "http://waytooindie.com/review/movie/we-are-the-best/", "creationDate": 1560901585000, "isFresh": true, "id": 2598356, "quote": "Moodysson's film is hard to dislike, and while it puts more emphasis on the light in light-hearted, We Are The Best! is time well spent.", "links": {"review": "http://waytooindie.com/review/movie/we-are-the-best/"}, "publication": {"url": "", "name": "Way Too Indie"}, "isTop": false, "freshness": "fresh", "critic": {"url": "/critic/cj-prince", "name": "C.J. Prince", "id": 19927, "thumbnailImage": "https://d2a5cgar23scu2.cloudfront.net/static/images/redesign/user.none.tmb.jpg"}, "original_score": "7.4/10"}, {"isRotten": false, "url": "http://www.dogandwolf.com/2014/04/we-are-the-best-review/", "creationDate": 1559865256000, "isFresh": true, "id": 2594831, "quote": "We Are the Best is a warm-hearted crowd and critics pleaser about coming of age, and female friendship that passes the Bechdel Test.", "links": {"publication": "http://www.dogandwolf.com/", "review": "http://www.dogandwolf.com/2014/04/we-are-the-best-review/"}, "publication": {"url": "http://www.dogandwolf.com/", "name": "Dog and Wolf"}, "isTop": false, "freshness": "fresh", "critic": {"url": "/critic/alexa-dalby", "name": "Alexa Dalby", "id": 22696, "thumbnailImage": "https://resizing.flixster.com/J1kfQi4rPXaTp36b8Jxah0XPOEI=/72x72/v1.YzszMDU4O2c7MTg4MDg7MjA0ODsxNTA7MTUw"}, "original_score": "3/5"}, {"isRotten": false, "url": "https://cine-vue.com/2014/04/film-review-we-are-the-best.html", "creationDate": 1553124517000, "isFresh": true, "id": 2568961, "quote": "Expertly combining a youthful desire for agency and rebellion with the death throes of the Swedish punk movement, it's a heart-warming tale with three captivating performances from its young female leads.", "links": {"review": "https://cine-vue.com/2014/04/film-review-we-are-the-best.html"}, "publication": {"url": "", "name": "CineVue"}, "isTop": false, "freshness": "fresh", "critic": {"url": "/critic/ben-nicholson", "name": "Ben Nicholson", "id": 16804, "thumbnailImage": "https://resizing.flixster.com/DacgWtMFIFaxkuIzsTVgL5wby4k=/72x72/v1.YzsyNjkxO2c7MTg4MDE7MjA0ODsxNTA7MTUw"}, "original_score": "4/5"}]}, "casts": {"screenwriters": [{"url": "/celebrity/lukas_moodysson/", "name": "Lukas Moodysson", "thumbnailImg": "https://resizing.flixster.com/QXgfU5to93Q_LdKAU-0o-4EE0RM=/80x80/v1.cDs2OTQ5NDM4O2o7MTg4ODg7MjA0ODsyMzA7MzEw"}], "directors": [{"url": "/celebrity/lukas_moodysson/", "name": "Lukas Moodysson", "thumbnailImg": "https://resizing.flixster.com/QXgfU5to93Q_LdKAU-0o-4EE0RM=/80x80/v1.cDs2OTQ5NDM4O2o7MTg4ODg7MjA0ODsyMzA7MzEw"}], "creators": [], "producers": [{"url": "/celebrity/lars_jonsson/", "name": "Lars Jonsson", "thumbnailImg": "https://d2a5cgar23scu2.cloudfront.net/static/images/redesign/actor.default.tmb.gif"}, {"url": "/celebrity/christian_wikander/", "name": "Christian Wikander", "thumbnailImg": "https://d2a5cgar23scu2.cloudfront.net/static/images/redesign/actor.default.tmb.gif"}, {"url": "/celebrity/jessica_ask/", "name": "Jessica Ask", "thumbnailImg": "https://d2a5cgar23scu2.cloudfront.net/static/images/redesign/actor.default.tmb.gif"}, {"url": "/celebrity/marie_cecilie_gade/", "name": "Marie Cecilie Gade", "thumbnailImg": "https://d2a5cgar23scu2.cloudfront.net/static/images/redesign/actor.default.tmb.gif"}], "castItems": [{"person": {"url": "/celebrity/mira_barkhammar/", "name": "Mira Barkhammar", "thumbnailImg": "https://d2a5cgar23scu2.cloudfront.net/static/images/redesign/actor.default.tmb.gif"}, "characters": [{"name": "Bobo"}]}, {"person": {"url": "/celebrity/liv_lemoyne/", "name": "Liv LeMoyne", "thumbnailImg": "https://d2a5cgar23scu2.cloudfront.net/static/images/redesign/actor.default.tmb.gif"}, "characters": [{"name": "Hedvig"}]}, {"person": {"url": "/celebrity/mira_grosin/", "name": "Mira Grosin", "thumbnailImg": "https://d2a5cgar23scu2.cloudfront.net/static/images/redesign/actor.default.tmb.gif"}, "characters": [{"name": "Klara"}]}, {"person": {"url": "/celebrity/alexander_karlsson/", "name": "Alexander Karlsson", "thumbnailImg": "https://d2a5cgar23scu2.cloudfront.net/static/images/redesign/actor.default.tmb.gif"}, "characters": [{"name": "Himself (uncredited)"}]}, {"person": {"url": "/celebrity/david_dencik/", "name": "David Dencik", "thumbnailImg": "https://resizing.flixster.com/vw3oy-X2kJNixrjxa9rBOT3R7C4=/80x80/v1.cDsxMDk1MjQzOTtqOzE4ODcwOzIwNDg7MzY4OzI5NQ"}, "characters": [{"name": "Klara's Father"}]}, {"person": {"url": "/celebrity/johan_liljemark/", "name": "Johan Liljemark", "thumbnailImg": "https://d2a5cgar23scu2.cloudfront.net/static/images/redesign/actor.default.tmb.gif"}, "characters": [{"name": "Kenneth"}]}, {"person": {"url": "/celebrity/mattias_wiberg/", "name": "Mattias Wiberg", "thumbnailImg": "https://d2a5cgar23scu2.cloudfront.net/static/images/redesign/actor.default.tmb.gif"}, "characters": [{"name": "Roger"}]}, {"person": {"url": "/celebrity/jonathan_salomonsson/", "name": "Jonathan Salomonsson", "thumbnailImg": "https://d2a5cgar23scu2.cloudfront.net/static/images/redesign/actor.default.tmb.gif"}, "characters": [{"name": "Elis"}]}, {"person": {"url": "/celebrity/alvin_strollo/", "name": "Alvin Strollo", "thumbnailImg": "https://d2a5cgar23scu2.cloudfront.net/static/images/redesign/actor.default.tmb.gif"}, "characters": [{"name": "Mackan"}]}, {"person": {"url": "/celebrity/anna_rydgren/", "name": "Anna Rydgren", "thumbnailImg": "https://d2a5cgar23scu2.cloudfront.net/static/images/redesign/actor.default.tmb.gif"}, "characters": [{"name": "Bobo's Mother"}]}, {"person": {"url": "/celebrity/peter_r_eriksson/", "name": "Peter R. Eriksson", "thumbnailImg": "https://d2a5cgar23scu2.cloudfront.net/static/images/redesign/actor.default.tmb.gif"}, "characters": [{"name": "Bobo's Father"}]}, {"person": {"url": "/celebrity/charlie_falk/", "name": "Charlie Falk", "thumbnailImg": "https://d2a5cgar23scu2.cloudfront.net/static/images/redesign/actor.default.tmb.gif"}, "characters": [{"name": "Linus"}]}, {"person": {"url": "/celebrity/lena_carlsson/", "name": "Lena Carlsson", "thumbnailImg": "https://d2a5cgar23scu2.cloudfront.net/static/images/redesign/actor.default.tmb.gif"}, "characters": [{"name": "Klara's Mother"}]}, {"person": {"url": "/celebrity/emrik_ekholm/", "name": "Emrik Ekholm", "thumbnailImg": "https://d2a5cgar23scu2.cloudfront.net/static/images/redesign/actor.default.tmb.gif"}, "characters": [{"name": "Klara's Younger Brother"}]}, {"person": {"url": "/celebrity/anne_sophie_rase/", "name": "Anne-Sophie Rase", "thumbnailImg": "https://d2a5cgar23scu2.cloudfront.net/static/images/redesign/actor.default.tmb.gif"}, "characters": [{"name": "Hedvig's Mother"}]}, {"person": {"url": "/celebrity/lily_moodysson/", "name": "Lily Moodysson", "thumbnailImg": "https://d2a5cgar23scu2.cloudfront.net/static/images/redesign/actor.default.tmb.gif"}, "characters": [{"name": "Hedvig's Younger Sister"}]}, {"person": {"url": "/celebrity/vanja_engstrom/", "name": "Vanja Engstr\u00f6m", "thumbnailImg": "https://d2a5cgar23scu2.cloudfront.net/static/images/redesign/actor.default.tmb.gif"}, "characters": [{"name": "Sandra"}]}, {"person": {"url": "/celebrity/linnea_thornvall/", "name": "Linnea Th\u00f6rnvall", "thumbnailImg": "https://d2a5cgar23scu2.cloudfront.net/static/images/redesign/actor.default.tmb.gif"}, "characters": [{"name": "Ann"}]}, {"person": {"url": "/celebrity/ylva_olaison/", "name": "Ylva Olaison", "thumbnailImg": "https://d2a5cgar23scu2.cloudfront.net/static/images/redesign/actor.default.tmb.gif"}, "characters": [{"name": "Youth Recreation Leader"}]}, {"person": {"url": "/celebrity/kaj_ahlgren/", "name": "Kaj Ahlgren", "thumbnailImg": "https://d2a5cgar23scu2.cloudfront.net/static/images/redesign/actor.default.tmb.gif"}, "characters": [{"name": "P.E. Teacher"}]}, {"person": {"url": "/celebrity/steve_kratz/", "name": "Steve Kratz", "thumbnailImg": "https://d2a5cgar23scu2.cloudfront.net/static/images/redesign/actor.default.tmb.gif"}, "characters": [{"name": "Santa Claus"}]}, {"person": {"url": "/celebrity/nick_kankaanpaa/", "name": "Nick Kankaanp\u00e4\u00e4", "thumbnailImg": "https://d2a5cgar23scu2.cloudfront.net/static/images/redesign/actor.default.tmb.gif"}, "characters": [{"name": "Iron Fist"}]}, {"person": {"url": "/celebrity/edvin_ottosson/", "name": "Edvin Ottosson", "thumbnailImg": "https://d2a5cgar23scu2.cloudfront.net/static/images/redesign/actor.default.tmb.gif"}, "characters": [{"name": "Iron Fist"}]}, {"person": {"url": "/celebrity/karl_felix_klaesson/", "name": "Karl Felix Klaesson", "thumbnailImg": "https://d2a5cgar23scu2.cloudfront.net/static/images/redesign/actor.default.tmb.gif"}, "characters": [{"name": "Iron Fist"}]}, {"person": {"url": "/celebrity/victor_norlin_ericsson/", "name": "Victor Norlin Ericsson", "thumbnailImg": "https://d2a5cgar23scu2.cloudfront.net/static/images/redesign/actor.default.tmb.gif"}, "characters": [{"name": "Iron Fist"}]}, {"person": {"url": "/celebrity/petter_andersson/", "name": "Petter Andersson", "thumbnailImg": "https://d2a5cgar23scu2.cloudfront.net/static/images/redesign/actor.default.tmb.gif"}, "characters": [{"name": "Bobo's Mother's Friend"}]}, {"person": {"url": "/celebrity/danilo_bejarnao/", "name": "Danilo Bejarnao", "thumbnailImg": "https://d2a5cgar23scu2.cloudfront.net/static/images/redesign/actor.default.tmb.gif"}, "characters": [{"name": "Bobo's Mother's Friend"}]}]}, "title": "We Are the Best!", "adjustedScore": 101.02489115616342, "ratings": {"critics_rating": "Certified Fresh", "audience_score": 78, "dvdReleaseDate": 1403247600000, "critics_score": 96, "theaterReleaseDate": 1401433200000, "audience_rating": "Upright"}, "videoClips": {"size": 0, "videoClips": []}, "isUpcoming": false, "posters": {"original": "https://resizing.flixster.com/buGhJSrzxJ0HVOyHluGznTxmBc0=/1500x2222/v1.bTsxMTE3NzUwNDtqOzE4ODkzOzIwNDg7MTUwMDsyMjIy", "detailed": "https://resizing.flixster.com/ffCFql15Fdu5YVj_9z137bzrZMw=/180x267/v1.bTsxMTE3NzUwNDtqOzE4ODkzOzIwNDg7MTUwMDsyMjIy", "profile": "https://resizing.flixster.com/-bU5kXS0DP9v43Xd6-N8mfdETDg=/120x178/v1.bTsxMTE3NzUwNDtqOzE4ODkzOzIwNDg7MTUwMDsyMjIy", "thumbnail": "https://resizing.flixster.com/XGDtd122k3BRx5Gmvdv4KkGOQGI=/54x80/v1.bTsxMTE3NzUwNDtqOzE4ODkzOzIwNDg7MTUwMDsyMjIy"}, "isLimited": true, "mainTrailer": {}, "photos": {"photos": [{"url": "https://resizing.flixster.com/1iyoHYEgonCHR6YegUze4u1v4GU=/1024x512/v1.bjs3NjE5O2o7MTg3Nzk7MjA0ODsyMDAwOzEwMDA", "index": 0, "submittedBy": "RT Staff", "height": 512, "imageId": 7619, "thumbnail": "https://resizing.flixster.com/c2fHsZoeMPvOOnA4c__TxcO9JHY=/80x80/v1.bjs3NjE5O2o7MTg3Nzk7MjA0ODsyMDAwOzEwMDA", "submittedDate": "2014-05-12", "id": "multiuse-7619", "photoType": "movie", "width": 1024}, {"url": "https://resizing.flixster.com/76vr2V9Xqu83ieX2RfKdV5duUY4=/1024x512/v1.bjs3NjIwO2o7MTg3ODA7MjA0ODs1NzYwOzI4ODA", "index": 1, "submittedBy": "RT Staff", "height": 512, "imageId": 7620, "thumbnail": "https://resizing.flixster.com/bocyob__Qzla9Hmy6YuSLtDfEEM=/80x80/v1.bjs3NjIwO2o7MTg3ODA7MjA0ODs1NzYwOzI4ODA", "submittedDate": "2014-05-12", "id": "multiuse-7620", "photoType": "movie", "width": 1024}, {"url": "https://resizing.flixster.com/mNp2KN0EkO2fvEIgvGmDWzs9uyA=/1024x512/v1.bjs3NjIyO2o7MTg3ODI7MjA0ODs1NjE2OzI4MDg", "index": 2, "submittedBy": "RT Staff", "height": 512, "imageId": 7622, "thumbnail": "https://resizing.flixster.com/EKdsmrhCRJQjoIys1Ej7Ny0GqDA=/80x80/v1.bjs3NjIyO2o7MTg3ODI7MjA0ODs1NjE2OzI4MDg", "submittedDate": "2014-05-12", "id": "multiuse-7622", "photoType": "movie", "width": 1024}, {"url": "https://resizing.flixster.com/Ta9hK3UlB1YmxehPr6mKk2qwfXU=/1024x512/v1.bjs3NjI0O2o7MTg3ODQ7MjA0ODs1NzYwOzI4ODA", "index": 3, "submittedBy": "RT Staff", "height": 512, "imageId": 7624, "thumbnail": "https://resizing.flixster.com/SRHwf2SIO1uAXt8WsWVL6-z6ruc=/80x80/v1.bjs3NjI0O2o7MTg3ODQ7MjA0ODs1NzYwOzI4ODA", "submittedDate": "2014-05-12", "id": "multiuse-7624", "photoType": "movie", "width": 1024}, {"url": "https://resizing.flixster.com/_nYRR4mBIuzoddwlbeHQrUq9s7E=/522x261/v1.bjs1MjM1MTc7ajsxODgwMzsyMDQ4OzUyMjsyNjE", "index": 4, "submittedBy": "RT Staff", "height": 261, "imageId": 523517, "thumbnail": "https://resizing.flixster.com/MLewz9vVV27Xygb1ieQ1f-Ojfdc=/80x80/v1.bjs1MjM1MTc7ajsxODgwMzsyMDQ4OzUyMjsyNjE", "submittedDate": "2015-03-09", "id": "multiuse-523517", "photoType": "movie", "width": 522}, {"url": "https://resizing.flixster.com/sjXyOxgZ6if_hZsqvWPirG4cDLI=/405x600/v1.aDsxMTY5ODc7ajsxODc5ODsyMDQ4OzE1MDA7MjIyMg", "index": 5, "submittedBy": "RT Staff", "height": 600, "imageId": 116987, "thumbnail": "https://resizing.flixster.com/YrcyTffDFFd2A_XcbR9NFVkvCEg=/80x80/v1.aDsxMTY5ODc7ajsxODc5ODsyMDQ4OzE1MDA7MjIyMg", "submittedDate": "2014-04-17", "caption": "", "id": "movie-116987", "photoType": "movie", "width": 405}, {"url": "https://resizing.flixster.com/xBcpbXwXM2qucjx_RodIzp1819Q=/600x456/v1.aDsxMTY5NDM7ajsxODc5OTsyMDQ4OzIwMDA7MTUxOQ", "index": 6, "submittedBy": "RT Staff", "height": 456, "imageId": 116943, "thumbnail": "https://resizing.flixster.com/tCSE5bTz4iJhYZptLyQl4RvFG8E=/80x80/v1.aDsxMTY5NDM7ajsxODc5OTsyMDQ4OzIwMDA7MTUxOQ", "submittedDate": "2014-04-16", "caption": "", "id": "movie-116943", "photoType": "movie", "width": 600}, {"url": "https://resizing.flixster.com/E1UXHgaZiMabtQSC6aBsRTpBb4s=/600x400/v1.aDsxMTY5NDQ7ajsxODgwMDsyMDQ4OzU3NjA7Mzg0MA", "index": 7, "submittedBy": "RT Staff", "height": 400, "imageId": 116944, "thumbnail": "https://resizing.flixster.com/ugRQnJY_sTEZj6_J_QOC04KrB_U=/80x80/v1.aDsxMTY5NDQ7ajsxODgwMDsyMDQ4OzU3NjA7Mzg0MA", "submittedDate": "2014-04-16", "caption": "", "id": "movie-116944", "photoType": "movie", "width": 600}, {"url": "https://resizing.flixster.com/Swz0pYokf0aTKz5ea45w5nfVh5Q=/600x400/v1.aDsxMTY5NDU7ajsxODgwMTsyMDQ4OzU2MTY7Mzc0NA", "index": 8, "submittedBy": "RT Staff", "height": 400, "imageId": 116945, "thumbnail": "https://resizing.flixster.com/gXaEjam5H7AOKXDmzKx5aI9CfJk=/80x80/v1.aDsxMTY5NDU7ajsxODgwMTsyMDQ4OzU2MTY7Mzc0NA", "submittedDate": "2014-04-16", "caption": "", "id": "movie-116945", "photoType": "movie", "width": 600}, {"url": "https://resizing.flixster.com/hZ4KxjOqfxq57jbkaE_BAVt-83k=/600x400/v1.aDsxMTY5NDY7ajsxODgwMjsyMDQ4OzU3NjA7Mzg0MA", "index": 9, "submittedBy": "RT Staff", "height": 400, "imageId": 116946, "thumbnail": "https://resizing.flixster.com/TVvaGcVLGm0N8eS3Up6OwnZXT7Y=/80x80/v1.aDsxMTY5NDY7ajsxODgwMjsyMDQ4OzU3NjA7Mzg0MA", "submittedDate": "2014-04-16", "caption": "", "id": "movie-116946", "photoType": "movie", "width": 600}, {"url": "https://resizing.flixster.com/WJrc4h6KhpScluDv6wTdzig3z7o=/433x600/v1.aDsxMTY5NDc7ajsxODgwMzsyMDQ4OzU2MTY7Nzc4OA", "index": 10, "submittedBy": "RT Staff", "height": 600, "imageId": 116947, "thumbnail": "https://resizing.flixster.com/923iS1ElDtzimsAzyaHpo4Nf528=/80x80/v1.aDsxMTY5NDc7ajsxODgwMzsyMDQ4OzU2MTY7Nzc4OA", "submittedDate": "2014-04-16", "caption": "", "id": "movie-116947", "photoType": "movie", "width": 433}, {"url": "https://resizing.flixster.com/gS-olvi8CjmATYDVL88qv-RBMuk=/600x400/v1.aDsxMTY5NDg7ajsxODgwNDsyMDQ4OzQzNjg7MjkxMg", "index": 11, "submittedBy": "RT Staff", "height": 400, "imageId": 116948, "thumbnail": "https://resizing.flixster.com/5T0eX7X5bZXfTcNlOpgs4epQFZw=/80x80/v1.aDsxMTY5NDg7ajsxODgwNDsyMDQ4OzQzNjg7MjkxMg", "submittedDate": "2014-04-16", "caption": "", "id": "movie-116948", "photoType": "movie", "width": 600}, {"url": "https://resizing.flixster.com/wD_OZrXhqdnnDbXdguccTd_z7qM=/600x456/v1.aDsxMTY5Mzc7ajsxODc5MzsyMDQ4OzIwMDA7MTUxOQ", "index": 12, "submittedBy": "RT Staff", "height": 456, "imageId": 116937, "thumbnail": "https://resizing.flixster.com/9jhJKFmuaWieFeZlxWEdbBTixZk=/80x80/v1.aDsxMTY5Mzc7ajsxODc5MzsyMDQ4OzIwMDA7MTUxOQ", "submittedDate": "2014-04-16", "caption": "", "id": "movie-116937", "photoType": "movie", "width": 600}, {"url": "https://resizing.flixster.com/lI_WCCvLJmh2Y2rezfH_SI6fXBE=/600x400/v1.aDsxMTY5Mzg7ajsxODc5NDsyMDQ4OzU3NjA7Mzg0MA", "index": 13, "submittedBy": "RT Staff", "height": 400, "imageId": 116938, "thumbnail": "https://resizing.flixster.com/N_17DQedths_MKMy-_FcOIjpesI=/80x80/v1.aDsxMTY5Mzg7ajsxODc5NDsyMDQ4OzU3NjA7Mzg0MA", "submittedDate": "2014-04-16", "caption": "", "id": "movie-116938", "photoType": "movie", "width": 600}, {"url": "https://resizing.flixster.com/WRrf6WHJKupPxm_F3PG9Sp24uVU=/600x400/v1.aDsxMTY5Mzk7ajsxODc5NTsyMDQ4OzU2MTY7Mzc0NA", "index": 14, "submittedBy": "RT Staff", "height": 400, "imageId": 116939, "thumbnail": "https://resizing.flixster.com/MFCLK97IrY0YSN9n0ZALo_ot1A4=/80x80/v1.aDsxMTY5Mzk7ajsxODc5NTsyMDQ4OzU2MTY7Mzc0NA", "submittedDate": "2014-04-16", "caption": "", "id": "movie-116939", "photoType": "movie", "width": 600}, {"url": "https://resizing.flixster.com/i6aO5RWQLWa_nE1ygU01-iOY5NM=/600x400/v1.aDsxMTY5NDA7ajsxODc5NjsyMDQ4OzU3NjA7Mzg0MA", "index": 15, "submittedBy": "RT Staff", "height": 400, "imageId": 116940, "thumbnail": "https://resizing.flixster.com/SM9iBksQ0Bdm_-VwbyPDjD965Xo=/80x80/v1.aDsxMTY5NDA7ajsxODc5NjsyMDQ4OzU3NjA7Mzg0MA", "submittedDate": "2014-04-16", "caption": "", "id": "movie-116940", "photoType": "movie", "width": 600}, {"url": "https://resizing.flixster.com/cVk899CW3LnSgn9QDTnGzOxNxbQ=/433x600/v1.aDsxMTY5NDE7ajsxODc5NzsyMDQ4OzU2MTY7Nzc4OA", "index": 16, "submittedBy": "RT Staff", "height": 600, "imageId": 116941, "thumbnail": "https://resizing.flixster.com/jnoVaGlO5r42yZNTm8qiyA2iOJs=/80x80/v1.aDsxMTY5NDE7ajsxODc5NzsyMDQ4OzU2MTY7Nzc4OA", "submittedDate": "2014-04-16", "caption": "", "id": "movie-116941", "photoType": "movie", "width": 433}, {"url": "https://resizing.flixster.com/c65cxrHZER6qWF_lR4u0HXsSM0M=/600x400/v1.aDsxMTY5NDI7ajsxODc5ODsyMDQ4OzQzNjg7MjkxMg", "index": 17, "submittedBy": "RT Staff", "height": 400, "imageId": 116942, "thumbnail": "https://resizing.flixster.com/OEyOiqGjANOW0T03L8jVpOTN7Q8=/80x80/v1.aDsxMTY5NDI7ajsxODc5ODsyMDQ4OzQzNjg7MjkxMg", "submittedDate": "2014-04-16", "caption": "", "id": "movie-116942", "photoType": "movie", "width": 600}], "length": 18}, "id": 771363530}