{"url": "/m/disneys_aladdin/", "isOnOpening": false, "genreSet": [{"displayName": "Action & Adventure", "id": 1}, {"displayName": "Animation", "id": 2}, {"displayName": "Kids & Family", "id": 11}, {"displayName": "Musical & Performing Arts", "id": 12}, {"displayName": "Comedy", "id": 6}], "officialUrl": "http://disney.go.com/vault/archives/characters/aladdin/aladdin.html", "isInTheaters": false, "synopsis": "Robin Williams's dizzying and hilarious voicing of the Genie is the main attraction of Aladdin, the third in the series of modern Disney animated movies that began with 1989's The Little Mermaid and heralded a new age for the genre. After a sultan (Douglas Seale) gives his daughter, Jasmine (Linda Larkin), three days to find a husband, she escapes the palace and encounters the street-savvy urchin Aladdin (Scott Weinger), who charms his way into her heart. While the sultan's Vizier, Jafar (Jonathan Freeman), weaves a spell so that he may marry Jasmine and become sultan himself, Aladdin discovers the Genie's lamp in a cave, rubs it, and sets the mystical entity free, leading the Genie to pledge his undying loyalty to the dazzled youth. Aladdin begins his quest to defeat Jafar and win the hand of the princess, with the Genie's help. Monsters, Disney's trademark talking animals, and a flying carpet all figure into the ensuing adventures, but Williams' Genie, who can change into anything or anybody, steals the show as he launches into one crazed monologue after another, impersonating figures from Ed Sullivan to Elvis Presley. ~ Don Kaye, Rovi", "links": {"alternate": "//www.rottentomatoes.com/m/disneys_aladdin/"}, "runningTime": 90, "year": 1992, "trackingType": "DvdOther", "status": "Live", "isPlaying": false, "isOnDVD": true, "runningTimeStr": "1 hr. 30 min.", "ratingSummary": {"topcount": 21, "consensus": "A highly entertaining entry in Disney's renaissance era,\" Aladdin is beautifully drawn, with near-classic songs and a cast of scene-stealing characters.", "topCritics": {"hasScore": true, "numReviews": 21, "meterClass": "certified", "numRotten": 1, "numFresh": 20, "hasReviews": true, "meterValue": 95, "averageRating": 8.0625}, "audience": {"meterScore": 92, "averageScore": 3.7453229427337646, "numTotal": 939233, "ratingType": "viewed"}, "allcount": 74, "rottencount": 4, "dvdcount": 18, "allCritics": {"hasScore": true, "numReviews": 74, "meterClass": "certified", "numRotten": 4, "numFresh": 70, "hasReviews": true, "meterValue": 95, "averageRating": 8.15}, "freshcount": 70}, "mpaaRating": "G", "vanity": "disneys_aladdin", "studio": "Walt Disney Pictures", "purchaseOptions": {"amazon": {"url": "http://www.amazon.com/gp/product/B00YMIT76O/ref=atv_feed_catalog?tag=rottetomao_aiv_mv-20", "isPrime": false, "type": "buy"}, "vudu": {"url": "https://www.vudu.com/content/movies/details/Aladdin-Walt-Disney-Signature-Edition/1194949", "type": "buy"}, "iTunes": {"url": "https://itunes.apple.com/movie/aladdin/id297806649?uo=5", "price": "14.99"}}, "reviews": {"total": 74, "links": {"alternate": "//www.rottentomatoes.com/m/disneys_aladdin/#reviews", "self": "api.flixster.com/movies/disneys-aladdin/reviews.json?review_type=mob&country=us&page=1", "prev": "api.flixster.com/movies/disneys-aladdin/reviews.json?review_type=mob&country=us&page=0", "next": "api.flixster.com/movies/disneys-aladdin/reviews.json?review_type=mob&country=us&page=2"}, "reviews": [{"isRotten": false, "url": "https://www.hollywoodreporter.com/review/aladdin-review-movie-1992-1257885", "publication": {"url": "", "name": "Hollywood Reporter"}, "isTop": true, "creationDate": 1575659860000, "isFresh": true, "freshness": "fresh", "critic": {"url": "/critic/duane-byrge", "name": "Duane Byrge", "id": 986, "thumbnailImage": "https://d2a5cgar23scu2.cloudfront.net/static/images/redesign/user.none.tmb.jpg"}, "quote": "The magical, the mystical, the mysterious -- all those powers that lurk within movies but are rarely tapped are unleashed in Disney's latest magnificent animation, Aladdin.", "id": 2651691, "links": {"review": "https://www.hollywoodreporter.com/review/aladdin-review-movie-1992-1257885"}}, {"isRotten": false, "url": "http://articles.latimes.com/1992-11-11/entertainment/ca-38_1_aladdin", "publication": {"url": "", "name": "Los Angeles Times"}, "isTop": true, "creationDate": 1384914603000, "isFresh": true, "freshness": "fresh", "critic": {"url": "/critic/kenneth-turan", "name": "Kenneth Turan", "id": 420, "thumbnailImage": "https://resizing.flixster.com/GGcmim4Df8Ts84r2ovfXvoUtweo=/72x72/v1.YzsyNjgzO2c7MTg3OTM7MjA0ODsxNTA7MTUw"}, "quote": "Aladdin is a film of wonders. To see it is to be the smallest child, open-mouthed at the screen's sense of magic, as well as the most knowing adult, eager to laugh at some surprisingly sly humor.", "id": 2175462, "links": {"review": "http://articles.latimes.com/1992-11-11/entertainment/ca-38_1_aladdin"}}, {"isRotten": false, "isFresh": true, "publication": {"url": "", "name": "New Yorker"}, "isTop": true, "creationDate": 1384913381000, "freshness": "fresh", "critic": {"url": "/critic/michael-sragow", "name": "Michael Sragow", "id": 107, "thumbnailImage": "https://resizing.flixster.com/Av265y5M9WMXvUWrkg1aOknV_KI=/72x72/v1.YzsxNTkyO2c7MTg3ODI7MjA0ODszODs0Mg"}, "quote": "What makes this animated feature such intense, giddy fun is the eruption of uninhibited parody that Robin Williams provides as the voice of the Genie in Aladdin's lamp.", "id": 2175461, "links": {}}, {"isRotten": false, "url": "http://articles.chicagotribune.com/1992-11-25/features/9204170958_1_aladdin-computer-animation-ron-clements", "creationDate": 1384913327000, "isFresh": true, "id": 2175460, "quote": "Aladdin is a marvel of the cartoonist's art.", "links": {"review": "http://articles.chicagotribune.com/1992-11-25/features/9204170958_1_aladdin-computer-animation-ron-clements"}, "publication": {"url": "", "name": "Chicago Tribune"}, "isTop": true, "freshness": "fresh", "critic": {"url": "/critic/dave-kehr", "name": "Dave Kehr", "id": 15, "thumbnailImage": "https://resizing.flixster.com/9JKqg6sYG8Ma4MxlrqIMwc3jppc=/72x72/v1.YzszNjQ3O2o7MTg3Njc7MjA0ODszMDA7MzAw"}, "original_score": "3/4"}, {"isRotten": false, "url": "http://community.seattletimes.nwsource.com/archive/?date=19921125&slug=1526564", "creationDate": 1384913275000, "isFresh": true, "id": 2175459, "quote": "Disney's latest animated feature is a thoroughly satisfying musical-comedy romp.", "links": {"review": "http://community.seattletimes.nwsource.com/archive/?date=19921125&slug=1526564"}, "publication": {"url": "", "name": "Seattle Times"}, "isTop": true, "freshness": "fresh", "critic": {"url": "/critic/john-hartl", "name": "John Hartl", "id": 22, "thumbnailImage": "https://d2a5cgar23scu2.cloudfront.net/static/images/redesign/user.none.tmb.jpg"}, "original_score": "3.5/4"}, {"isRotten": false, "url": "http://articles.philly.com/1992-11-25/entertainment/26010175_1_aladdin-animators-princess-jasmine", "creationDate": 1384913239000, "isFresh": true, "id": 2175458, "quote": "Forget about the lamp. Aladdin is all anyone could wish for in holiday entertainment.", "links": {"review": "http://articles.philly.com/1992-11-25/entertainment/26010175_1_aladdin-animators-princess-jasmine"}, "publication": {"name": "Philadelphia Inquirer"}, "isTop": true, "freshness": "fresh", "critic": {"url": "/critic/desmond-ryan", "name": "Desmond Ryan", "id": 1088, "thumbnailImage": "https://d2a5cgar23scu2.cloudfront.net/static/images/redesign/user.none.tmb.jpg"}, "original_score": "3.5/4"}, {"isRotten": false, "url": "http://gonewiththetwins.com/new/aladdin-1992/", "creationDate": 1599639134000, "isFresh": true, "id": 2722120, "quote": "The entire production is one of collaborative innovation and ingenious filmmaking choices.", "links": {"review": "http://gonewiththetwins.com/new/aladdin-1992/"}, "publication": {"url": "", "name": "Gone With The Twins"}, "isTop": false, "freshness": "fresh", "critic": {"url": "/critic/mike-massie", "name": "Mike Massie", "id": 27168, "thumbnailImage": "https://resizing.flixster.com/cKCY6tR9EskewGPlb8BlnvWesZU=/72x72/v1.YzszNjc3O2o7MTg3OTc7MjA0ODszMDA7MzAw"}, "original_score": "10/10"}, {"isRotten": false, "url": "https://archive.macleans.ca/article/1992/11/30/magic-carpet-rides", "publication": {"url": "", "name": "Maclean's Magazine"}, "isTop": false, "creationDate": 1572477427000, "isFresh": true, "freshness": "fresh", "critic": {"url": "/critic/brian-d-johnson", "name": "Brian D. Johnson", "id": 709, "thumbnailImage": "https://d2a5cgar23scu2.cloudfront.net/static/images/redesign/user.none.tmb.jpg"}, "quote": "Behind the mask of animation, Williams has discovered a limitless stage for stand-up comedy.", "id": 2640889, "links": {"review": "https://archive.macleans.ca/article/1992/11/30/magic-carpet-rides"}}, {"isRotten": false, "url": "http://www.fromthefrontrow.net/2019/09/blu-ray-review-aladdin-1992.html", "creationDate": 1568761988000, "isFresh": true, "id": 2627144, "quote": "Williams' never-ending stream of impersonations and wacky characters are so consistently hilarious that the audience barely has time to breathe between belly laughs.", "links": {"review": "http://www.fromthefrontrow.net/2019/09/blu-ray-review-aladdin-1992.html"}, "publication": {"url": "", "name": "From the Front Row"}, "isTop": false, "freshness": "fresh", "critic": {"url": "/critic/matthew-lucas", "name": "Matthew Lucas", "id": 25079, "thumbnailImage": "https://resizing.flixster.com/hC9DIwh8TBZinZWNombChPlC53Y=/72x72/v1.YzszMzgzO2o7MTg3NzM7MjA0ODszMDA7MzAw"}, "original_score": "3.5/4"}, {"isRotten": false, "url": "https://thefilmfrenzy.com/2019/09/13/view-from-the-couch-aladdin-jezebel-scars-of-dracula-etc/", "creationDate": 1568492547000, "isFresh": true, "id": 2626137, "quote": "It's the supporting roster that makes the movie.", "links": {"review": "https://thefilmfrenzy.com/2019/09/13/view-from-the-couch-aladdin-jezebel-scars-of-dracula-etc/"}, "publication": {"url": "", "name": "Film Frenzy"}, "isTop": false, "freshness": "fresh", "critic": {"url": "/critic/matt-brunson", "name": "Matt Brunson", "id": 5777, "thumbnailImage": "https://resizing.flixster.com/sC65Fi_OccWCWRwVukoyOybQHtA=/72x72/v1.YzsxNzI4O2o7MTg3ODM7MjA0ODszODs0Mg"}, "original_score": "3.5/4"}, {"isRotten": false, "url": "http://thefilmexperience.net/blog/2019/5/22/aladdin-pt-3-free-at-last-a-whole-new-world-awaits.html", "publication": {"url": "", "name": "The Film Experience"}, "isTop": false, "creationDate": 1561490820000, "isFresh": true, "freshness": "fresh", "critic": {"url": "/critic/nathaniel-rogers", "name": "Nathaniel Rogers", "id": 4043, "thumbnailImage": "https://d2a5cgar23scu2.cloudfront.net/static/images/redesign/user.none.tmb.jpg"}, "quote": "Aladdin is essentially two love stories in one, Aladdin and Jasmine get the riding off into the sunset / final kiss image but Aladdin and the Genie's love story is the emotional climax. It's so sweet.", "id": 2600025, "links": {"review": "http://thefilmexperience.net/blog/2019/5/22/aladdin-pt-3-free-at-last-a-whole-new-world-awaits.html"}}, {"isRotten": false, "url": "https://www.youtube.com/watch?v=IqLbyust1rw&index=28&list=PL7wz447AgL4zvyd7KAHcNX2sw4IxyyvK0", "creationDate": 1550095262000, "isFresh": true, "id": 2558478, "quote": "Robin Williams's performance [is] not only one of the greatest Disney performances of all time, I think it's one of the greatest supporting performances ever.", "links": {"review": "https://www.youtube.com/watch?v=IqLbyust1rw&index=28&list=PL7wz447AgL4zvyd7KAHcNX2sw4IxyyvK0"}, "publication": {"url": "", "name": "Rachel's Reviews (YouTube)"}, "isTop": false, "freshness": "fresh", "critic": {"url": "/critic/rachel-wagner", "name": "Rachel Wagner", "id": 23964, "thumbnailImage": "https://resizing.flixster.com/CvuVoWlOH-LcGgLgTU2V23hxVvM=/72x72/v1.YzszMjU3O2o7MTg3ODI7MjA0ODszMDA7MzAw"}, "original_score": "8/10"}]}, "casts": {"screenwriters": [{"url": "/celebrity/ron_clements/", "name": "Ron Clements", "thumbnailImg": "https://resizing.flixster.com/SyD0nC9rBCaK751sTCvfHTznOYo=/80x80/v1.cDs5MDAzODY0O2o7MTg4MTg7MjA0ODs0MDA7MzAy"}, {"url": "/celebrity/john_musker/", "name": "John Musker", "thumbnailImg": "https://resizing.flixster.com/Ivd75LgVAO-R1r_FFYrpAFC7I4w=/80x80/v1.cDszMTcyNTc3O2o7MTg4Nzg7MjA0ODsxNzE7MjQ4"}, {"url": "/celebrity/ted_elliott/", "name": "Ted Elliott", "thumbnailImg": "https://d2a5cgar23scu2.cloudfront.net/static/images/redesign/actor.default.tmb.gif"}, {"url": "/celebrity/terry_rossio/", "name": "Terry Rossio", "thumbnailImg": "https://d2a5cgar23scu2.cloudfront.net/static/images/redesign/actor.default.tmb.gif"}], "directors": [{"url": "/celebrity/john_musker/", "name": "John Musker", "thumbnailImg": "https://resizing.flixster.com/Ivd75LgVAO-R1r_FFYrpAFC7I4w=/80x80/v1.cDszMTcyNTc3O2o7MTg4Nzg7MjA0ODsxNzE7MjQ4"}, {"url": "/celebrity/ron_clements/", "name": "Ron Clements", "thumbnailImg": "https://resizing.flixster.com/SyD0nC9rBCaK751sTCvfHTznOYo=/80x80/v1.cDs5MDAzODY0O2o7MTg4MTg7MjA0ODs0MDA7MzAy"}], "creators": [], "producers": [{"url": "/celebrity/ron_clements/", "name": "Ron Clements", "thumbnailImg": "https://resizing.flixster.com/SyD0nC9rBCaK751sTCvfHTznOYo=/80x80/v1.cDs5MDAzODY0O2o7MTg4MTg7MjA0ODs0MDA7MzAy"}, {"url": "/celebrity/john_musker/", "name": "John Musker", "thumbnailImg": "https://resizing.flixster.com/Ivd75LgVAO-R1r_FFYrpAFC7I4w=/80x80/v1.cDszMTcyNTc3O2o7MTg4Nzg7MjA0ODsxNzE7MjQ4"}, {"url": "/celebrity/donald_w_ernst/", "name": "Donald W. Ernst", "thumbnailImg": "https://d2a5cgar23scu2.cloudfront.net/static/images/redesign/actor.default.tmb.gif"}, {"url": "/celebrity/amy_pell/", "name": "Amy Pell", "thumbnailImg": "https://d2a5cgar23scu2.cloudfront.net/static/images/redesign/actor.default.tmb.gif"}], "castItems": [{"person": {"url": "/celebrity/scott_weinger_5/", "name": "Scott Weinger", "thumbnailImg": "https://resizing.flixster.com/smBtE4TWUeaJ89fSd__rkA9j1h4=/80x80/v1.cDs5MDAzNzI4O2o7MTg4MTc7MjA0ODszNjA7MjE0"}, "characters": [{"name": "Aladdin"}]}, {"person": {"url": "/celebrity/robin_williams/", "name": "Robin Williams", "thumbnailImg": "https://resizing.flixster.com/q4sWQBzj9hv6Fz3wM8n8OFkEIa8=/80x80/v1.cjs0OTUyMDtqOzE4Nzg1OzIwNDg7MjAxNjszMDAw"}, "characters": [{"name": "Genie"}]}, {"person": {"url": "/celebrity/linda_larkin/", "name": "Linda Larkin", "thumbnailImg": "https://resizing.flixster.com/s2om2HcJ3R1xbEwpmQPKo3CmTfY=/80x80/v1.cDs5MDAzNzAxO2o7MTg3OTA7MjA0ODszNjA7MjEy"}, "characters": [{"name": "Jasmine"}]}, {"person": {"url": "/celebrity/jonathan-freeman/", "name": "Jonathan Freeman", "thumbnailImg": "https://resizing.flixster.com/QEbxFK9eHtCXYs0TUVK9qyPPIAw=/80x80/v1.cDs5MDAzNzE4O2o7MTg4MDc7MjA0ODszNjA7MjEy"}, "characters": [{"name": "Jafar"}]}, {"person": {"url": "/celebrity/john_freeman_4/", "name": "John Freeman", "thumbnailImg": "https://d2a5cgar23scu2.cloudfront.net/static/images/redesign/actor.default.tmb.gif"}, "characters": [{"name": "Jafar"}]}, {"person": {"url": "/celebrity/gilbert_gottfried/", "name": "Gilbert Gottfried", "thumbnailImg": "https://resizing.flixster.com/dtce9ZdCJkKR1R0_MPGRD9QLtZ4=/80x80/v1.cDs1NTc5NTYwO2o7MTg3OTQ7MjA0ODsyOTk7Mjk4"}, "characters": [{"name": "Iago"}]}, {"person": {"url": "/celebrity/lea_salonga/", "name": "Lea Salonga", "thumbnailImg": "https://resizing.flixster.com/E_dA3eXT11Oej6kYV5jejo4pAdU=/80x80/v1.cDsxMDk2NDI5ODtqOzE4ODQ5OzIwNDg7MjIwOzI1NQ"}, "characters": [{"name": "Jasmine (Singing Voice)"}]}, {"person": {"url": "/celebrity/brad_kane/", "name": "Brad Kane", "thumbnailImg": "https://d2a5cgar23scu2.cloudfront.net/static/images/redesign/actor.default.tmb.gif"}, "characters": [{"name": "Aladdin (Singing Voice)"}]}, {"person": {"url": "/celebrity/frank_welker/", "name": "Frank Welker", "thumbnailImg": "https://resizing.flixster.com/AfrpafI_9xGPj-Fc32ddyWsjYxM=/80x80/v1.cDsxMTIzNTcwNztqOzE4ODY3OzIwNDg7NDgwOzM2MA"}, "characters": [{"name": "Abu"}]}, {"person": {"url": "/celebrity/douglas-seale/", "name": "Douglas Seale", "thumbnailImg": "https://resizing.flixster.com/FbuhV0er2PtwmvdJd6GjdUdBuZI=/80x80/v1.cDs5MDAzNjcyO2o7MTg4MDY7MjA0ODszNjA7MjEy"}, "characters": [{"name": "Sultan"}]}, {"person": {"url": "/celebrity/charlie_adler_4/", "name": "Charlie Adler", "thumbnailImg": "https://resizing.flixster.com/umbhiSe7bfMb3qlJJWvdezhE50M=/80x80/v1.cDsxMTI2NTMyNjtqOzE4ODc2OzIwNDg7MzAwOzQ1MA"}, "characters": [{"name": "Gazeem"}]}, {"person": {"url": "/celebrity/jack_angel/", "name": "Jack Angel", "thumbnailImg": "https://resizing.flixster.com/REnrA_RQUNilUMXljH9yHXPu_Tg=/80x80/v1.cDsxMzQ5MzY2MDtqOzE4NzkxOzIwNDg7NjkxOzEwMjQ"}}, {"person": {"url": "/celebrity/philip_l_clarke/", "name": "Philip L. Clarke", "thumbnailImg": "https://d2a5cgar23scu2.cloudfront.net/static/images/redesign/actor.default.tmb.gif"}}, {"person": {"url": "/celebrity/corey_burton/", "name": "Corey Burton", "thumbnailImg": "https://resizing.flixster.com/5EFgP2HO9RzpyaaxWNzlvpi7BKs=/80x80/v1.cDs1NzE2NjkwO2o7MTg4MTE7MjA0ODsyNTA7MTY3"}, "characters": [{"name": "Prince Achmed"}]}, {"person": {"url": "/celebrity/philip_clarke/", "name": "Philip Clarke", "thumbnailImg": "https://d2a5cgar23scu2.cloudfront.net/static/images/redesign/actor.default.tmb.gif"}}, {"person": {"url": "/celebrity/jennifer_darling/", "name": "Jennifer Darling", "thumbnailImg": "https://d2a5cgar23scu2.cloudfront.net/static/images/redesign/actor.default.tmb.gif"}}, {"person": {"url": "/celebrity/debi_derryberry/", "name": "Debi Derryberry", "thumbnailImg": "https://resizing.flixster.com/SB0jQh0HMWFQlJvdtK9lweAyzFs=/80x80/v1.cDs3MjgzNjI0O2o7MTg4NjM7MjA0ODsxNTA7MTUw"}}, {"person": {"url": "/celebrity/bruce_gooch/", "name": "Bruce Gooch", "thumbnailImg": "https://d2a5cgar23scu2.cloudfront.net/static/images/redesign/actor.default.tmb.gif"}}, {"person": {"url": "/celebrity/jerry_houser/", "name": "Jerry Houser", "thumbnailImg": "https://resizing.flixster.com/De2b5dDcb-xEDdG71DMxy3DMQi4=/80x80/v1.cDsxMTU2OTI2NztqOzE4ODkwOzIwNDg7MjM4OzI4MQ"}}, {"person": {"url": "/celebrity/vera_lockwood/", "name": "Vera Lockwood", "thumbnailImg": "https://d2a5cgar23scu2.cloudfront.net/static/images/redesign/actor.default.tmb.gif"}}, {"person": {"url": "/celebrity/sherry_lynn/", "name": "Sherry Lynn", "thumbnailImg": "https://d2a5cgar23scu2.cloudfront.net/static/images/redesign/actor.default.tmb.gif"}}, {"person": {"url": "/celebrity/albert_tavares_4/", "name": "Albert Tavares", "thumbnailImg": "https://d2a5cgar23scu2.cloudfront.net/static/images/redesign/actor.default.tmb.gif"}}, {"person": {"url": "/celebrity/mickie_t_mcgowan/", "name": "Mickie T. McGowan", "thumbnailImg": "https://d2a5cgar23scu2.cloudfront.net/static/images/redesign/actor.default.tmb.gif"}}, {"person": {"url": "/celebrity/patrick_pinney/", "name": "Patrick Pinney", "thumbnailImg": "https://d2a5cgar23scu2.cloudfront.net/static/images/redesign/actor.default.tmb.gif"}}, {"person": {"url": "/celebrity/phil_proctor/", "name": "Phil Proctor", "thumbnailImg": "https://resizing.flixster.com/HHP7VcMnBj0t-SFmKLAmvVJ4Ycc=/80x80/v1.cDsxMjkzOTE0NjtqOzE4ODA1OzIwNDg7NTkwOzM5MA"}}, {"person": {"url": "/celebrity/771897969/", "name": "David Friedman", "thumbnailImg": "https://d2a5cgar23scu2.cloudfront.net/static/images/redesign/actor.default.tmb.gif"}}]}, "title": "Aladdin", "adjustedScore": 100.36657719044669, "ratings": {"critics_rating": "Certified Fresh", "audience_score": 92, "dvdReleaseDate": 1096959600000, "critics_score": 95, "theaterReleaseDate": 721468800000, "audience_rating": "Upright"}, "videoClips": {"mainTrailer": {"hlsUrl": "http://video.internetvideoarchive.net/video.m3u8?cmd=6&publishedid=http://link.theplatform.com/s/NGweTC/media/9YAaWbGTdyUY&customerid=300120&e=1619087443922&sub=RTO&fmt=11&h=42e89b02f0bfd4e27da9df070a0f1958", "seconds": 22, "minutes": 20, "id": 11329921, "title": "Disney vs. Pixar", "thumbUrl": "http://resizing.flixster.com/RAMKX9WwKzQfq2HHRDPGkBW2h0U=/171x128/v1.bjsyNjA1NTQ5O2o7MTg4NDA7MjA0ODsxMDgwOzE5MjA", "mp4Url": "http://video.internetvideoarchive.net/video.mp4?cmd=6&publishedid=http://link.theplatform.com/s/NGweTC/media/9YAaWbGTdyUY&customerid=300120&e=1619087443922&sub=RTO&fmt=4&videokbrate=750&h=948830678d271e64a86d95d3fef54aba"}, "size": 2, "videoClips": [{"hlsUrl": "http://video.internetvideoarchive.net/video.m3u8?cmd=6&publishedid=http://link.theplatform.com/s/NGweTC/media/9YAaWbGTdyUY&customerid=300120&e=1619087443922&sub=RTO&fmt=11&h=42e89b02f0bfd4e27da9df070a0f1958", "seconds": 22, "minutes": 20, "id": 11329921, "title": "Disney vs. Pixar", "thumbUrl": "http://resizing.flixster.com/RAMKX9WwKzQfq2HHRDPGkBW2h0U=/171x128/v1.bjsyNjA1NTQ5O2o7MTg4NDA7MjA0ODsxMDgwOzE5MjA", "mp4Url": "http://video.internetvideoarchive.net/video.mp4?cmd=6&publishedid=http://link.theplatform.com/s/NGweTC/media/9YAaWbGTdyUY&customerid=300120&e=1619087443922&sub=RTO&fmt=4&videokbrate=750&h=948830678d271e64a86d95d3fef54aba"}, {"hlsUrl": "http://video.internetvideoarchive.net/video.m3u8?cmd=6&publishedid=http://link.theplatform.com/s/NGweTC/media/kdanEcI286HM&customerid=300120&e=1619087443922&sub=RTO&fmt=11&h=d09ec82feed694e03c0a9c97b60381e6", "seconds": 13, "minutes": 1, "id": 11305704, "title": "Aladdin: Trailer 1", "thumbUrl": "http://resizing.flixster.com/TwME-3K1MOkM6NipaqL4XfR44FA=/171x128/v1.bjsxODgxOTc4O2o7MTg3ODY7MjA0ODsxMDgwOzE5MjA", "mp4Url": "http://video.internetvideoarchive.net/video.mp4?cmd=6&publishedid=http://link.theplatform.com/s/NGweTC/media/kdanEcI286HM&customerid=300120&e=1619087443922&sub=RTO&fmt=4&videokbrate=750&h=7376f60b4485f368d6df1d4b5ca3f80c"}]}, "isUpcoming": false, "posters": {"original": "https://resizing.flixster.com/A6B5ryCvyRbMXOvToGnKQU2GTDk=/2250x3000/v1.bTsxMTIwNzEzMztqOzE4ODY3OzIwNDg7MjI1MDszMDAw", "detailed": "https://resizing.flixster.com/gszEpmdA-3X7cRuYx15Xn-0XiJI=/180x240/v1.bTsxMTIwNzEzMztqOzE4ODY3OzIwNDg7MjI1MDszMDAw", "profile": "https://resizing.flixster.com/xyomK7fM1Re-uoL7UFMhaFNwlRk=/120x160/v1.bTsxMTIwNzEzMztqOzE4ODY3OzIwNDg7MjI1MDszMDAw", "thumbnail": "https://resizing.flixster.com/XbUVFI0UEKjWeVY0n4yCQFH3QAU=/54x72/v1.bTsxMTIwNzEzMztqOzE4ODY3OzIwNDg7MjI1MDszMDAw"}, "isLimited": false, "mainTrailer": {"thumbUrl": "https://resizing.flixster.com/RAMKX9WwKzQfq2HHRDPGkBW2h0U=/171x128/v1.bjsyNjA1NTQ5O2o7MTg4NDA7MjA0ODsxMDgwOzE5MjA", "hlsUrl": "http://video.internetvideoarchive.net/video.m3u8?cmd=6&publishedid=http://link.theplatform.com/s/NGweTC/media/9YAaWbGTdyUY&customerid=300120&e=1619087443538&sub=RTO&fmt=11&h=7c7a5871495c40989296798606308c71", "id": 11329921, "mp4Url": "http://video.internetvideoarchive.net/video.mp4?cmd=6&publishedid=http://link.theplatform.com/s/NGweTC/media/9YAaWbGTdyUY&customerid=300120&e=1619087443539&sub=RTO&fmt=4&videokbrate=750&h=842a8471353f935ccb09594ffd9e6f7e"}, "photos": {"photos": [], "length": 0}, "id": 9383}