{"url": "/m/beware_of_mr_baker/", "isOnOpening": false, "boxoffice": "$65.4k", "genreSet": [{"displayName": "Musical & Performing Arts", "id": 12}, {"displayName": "Documentary", "id": 8}], "officialUrl": "http://bewareofmrbaker.com", "isInTheaters": false, "synopsis": "At home with rock 'n' roll monster Ginger Baker, Cream's legendary scarlet-maned, hell-raising drummer. This no-holds-barred, sad, and hilarious portrait of the man referred to as rock's first great drummer (and perhaps still its best) lets him tell his own story, intercut with footage of his continent-hopping life, from London to L.A., Nigeria, Italy, South Africa, and (way) beyond. Baker may have broken the mold musically, but his violent, dyspeptic mood swings, fueled by a multi-decade heroin addiction, went a long way to making him persona non grata even among the music greats who still revere his work. Eric Clapton, Johnny Rotten, Charlie Watts, and Lars Ulrich, Baker's 4 wives, and 3 grown children all have something to say about him: \"He's a force of nature,\" \"he's the greatest drummer any of us had ever heard,\" \"he's mad,\" and \"he's fairly consistently horrible\" are just a few of them.", "links": {"alternate": "//www.rottentomatoes.com/m/beware_of_mr_baker/"}, "runningTime": 100, "year": 2012, "trackingType": "DvdOther", "status": "Live", "isPlaying": false, "isOnDVD": true, "runningTimeStr": "1 hr. 40 min.", "ratingSummary": {"topcount": 27, "consensus": "Free of the hagiographic overtones that dog many documentary profiles, Beware of Mr. Baker presents a clear-eyed, thoroughly gripping look at one of rock's greatest -- and most personally problematic -- musicians.", "topCritics": {"hasScore": true, "numReviews": 27, "meterClass": "certified", "numRotten": 1, "numFresh": 26, "hasReviews": true, "meterValue": 96, "averageRating": 7.458333}, "audience": {"meterScore": 87, "averageScore": 4.068912506103516, "numTotal": 3801, "ratingType": "viewed"}, "allcount": 53, "rottencount": 1, "dvdcount": 0, "allCritics": {"hasScore": true, "numReviews": 53, "meterClass": "certified", "numRotten": 1, "numFresh": 52, "hasReviews": true, "meterValue": 98, "averageRating": 7.77}, "freshcount": 52}, "mpaaRating": "Unrated", "vanity": "beware_of_mr_baker", "studio": "Independent Films", "purchaseOptions": {"amazon": {"url": "http://www.amazon.com/gp/product/B00BLGYWUQ/ref=atv_feed_catalog?tag=rottetomao_aiv_mv-20", "isPrime": false, "type": "rent"}, "netflix": {"streamingId": "70234494"}, "iTunes": {"url": "https://itunes.apple.com/movie/beware-of-mr-baker/id596207398?uo=5", "price": "9.99"}}, "reviews": {"total": 53, "links": {"alternate": "//www.rottentomatoes.com/m/beware_of_mr_baker/#reviews", "self": "api.flixster.com/movies/beware-of-mr-baker/reviews.json?review_type=mob&country=us&page=1", "prev": "api.flixster.com/movies/beware-of-mr-baker/reviews.json?review_type=mob&country=us&page=0", "next": "api.flixster.com/movies/beware-of-mr-baker/reviews.json?review_type=mob&country=us&page=2"}, "reviews": [{"isRotten": false, "url": "http://metro.co.uk/2013/05/17/beware-of-mr-baker-is-a-compelling-documentary-about-a-true-rock-hellraiser-3763098/", "creationDate": 1504633219000, "isFresh": true, "id": 2415858, "quote": "A cracking story, buzzily edited, this warts-and-warts portrait delivers an illuminating insight into recent rock history. Don't miss it.", "links": {"publication": "http://https://metro.co.uk/", "review": "http://metro.co.uk/2013/05/17/beware-of-mr-baker-is-a-compelling-documentary-about-a-true-rock-hellraiser-3763098/"}, "publication": {"url": "http://https://metro.co.uk/", "name": "metro.co.uk"}, "isTop": true, "freshness": "fresh", "critic": {"url": "/critic/larushka-ivan-zadeh", "name": "Larushka Ivan-Zadeh", "id": 12629, "thumbnailImage": "https://resizing.flixster.com/gyelYFrTDlTrVCu5IERnYXVJ3mg=/72x72/v1.YzszMjU2O2o7MTg3ODE7MjA0ODszMDA7MzAw"}, "original_score": "4/5"}, {"isRotten": false, "url": "http://www.standard.co.uk/goingout/film/beware-of-mr-baker--film-review-8620274.html", "creationDate": 1368790822000, "isFresh": true, "id": 2142664, "quote": "Bleakly entertaining, Beware of Mr Baker neither eulogises nor patronises its subject; one day (though possibly not soon), Baker may take it upon himself to say thanks.", "links": {"review": "http://www.standard.co.uk/goingout/film/beware-of-mr-baker--film-review-8620274.html"}, "publication": {"url": "", "name": "London Evening Standard"}, "isTop": true, "freshness": "fresh", "critic": {"url": "/critic/charlotte-osullivan", "name": "Charlotte O'Sullivan", "id": 5385, "thumbnailImage": "https://d2a5cgar23scu2.cloudfront.net/static/images/redesign/user.none.tmb.jpg"}, "original_score": "4/5"}, {"isRotten": false, "url": "http://www.telegraph.co.uk/culture/film/filmreviews/10062721/Beware-of-Mr-Baker-review.html?utm_source=feedly", "creationDate": 1368730962000, "isFresh": true, "id": 2142441, "quote": "It's a broadly forgiving portrait of an impossible, irascible talent, who seems to have treated life much like his instrument.", "links": {"review": "http://www.telegraph.co.uk/culture/film/filmreviews/10062721/Beware-of-Mr-Baker-review.html?utm_source=feedly"}, "publication": {"url": "", "name": "Daily Telegraph (UK)"}, "isTop": true, "freshness": "fresh", "critic": {"url": "/critic/tim-robey", "name": "Tim Robey", "id": 5619, "thumbnailImage": "https://d2a5cgar23scu2.cloudfront.net/static/images/redesign/user.none.tmb.jpg"}, "original_score": "3/5"}, {"isRotten": false, "url": "http://www.guardian.co.uk/film/2013/may/16/beware-of-mr-baker-review?utm_source=feedly", "creationDate": 1368723261000, "isFresh": true, "id": 2142416, "quote": "We are always being told that books and movies have to have \"sympathetic\" lead characters - well, here's a documentary that does very well without one.", "links": {"review": "http://www.guardian.co.uk/film/2013/may/16/beware-of-mr-baker-review?utm_source=feedly"}, "publication": {"url": "", "name": "Guardian"}, "isTop": true, "freshness": "fresh", "critic": {"url": "/critic/peter-bradshaw", "name": "Peter Bradshaw", "id": 408, "thumbnailImage": "https://d2a5cgar23scu2.cloudfront.net/static/images/redesign/user.none.tmb.jpg"}, "original_score": "4/5"}, {"isRotten": false, "url": "http://www.littlewhitelies.co.uk/theatrical-reviews/beware-of-mr-baker-23781", "creationDate": 1368713674000, "isFresh": true, "id": 2142386, "quote": "An interesting character study interspersed with classic rock, jazz and Afrobeat clips. Nothing more, but certainly nothing less.", "links": {"review": "http://www.littlewhitelies.co.uk/theatrical-reviews/beware-of-mr-baker-23781"}, "publication": {"url": "", "name": "Little White Lies"}, "isTop": true, "freshness": "fresh", "critic": {"url": "/critic/mark-asch", "name": "Mark Asch", "id": 14738, "thumbnailImage": "https://d2a5cgar23scu2.cloudfront.net/static/images/redesign/user.none.tmb.jpg"}, "original_score": "3/5"}, {"isRotten": false, "url": "http://www.ft.com/intl/cms/s/2/87bae7ba-be00-11e2-9b27-00144feab7de.html?ftcamp=published_links%2Frss%2Flife-arts_film-television%2Ffeed%2F%2Fproduct&utm_source=feedly#axzz2TSPgSDhA", "creationDate": 1368711433000, "isFresh": true, "id": 2142361, "quote": "It's all insanely enjoyable.", "links": {"review": "http://www.ft.com/intl/cms/s/2/87bae7ba-be00-11e2-9b27-00144feab7de.html?ftcamp=published_links%2Frss%2Flife-arts_film-television%2Ffeed%2F%2Fproduct&utm_source=feedly#axzz2TSPgSDhA"}, "publication": {"url": "", "name": "Financial Times"}, "isTop": true, "freshness": "fresh", "critic": {"url": "/critic/nigel-andrews", "name": "Nigel Andrews", "id": 12627, "thumbnailImage": "https://d2a5cgar23scu2.cloudfront.net/static/images/redesign/user.none.tmb.jpg"}, "original_score": "4/5"}, {"isRotten": false, "url": "https://cine-vue.com/2013/05/film-review-beware-of-mr-baker.html", "creationDate": 1551136571000, "isFresh": true, "id": 2561490, "quote": "A deceptively unconventional rock 'n' roll tale of drink, drugs, drums and ponies, Bulger's Beware of Mr. Baker saddens as much as it elates. ", "links": {"review": "https://cine-vue.com/2013/05/film-review-beware-of-mr-baker.html"}, "publication": {"url": "", "name": "CineVue"}, "isTop": false, "freshness": "fresh", "critic": {"url": "/critic/daniel-green", "name": "Daniel Green", "id": 14419, "thumbnailImage": "https://resizing.flixster.com/LSVyvBidZvgpESl44uyVUdFSUvI=/72x72/v1.YzsyNjkwO2c7MTg4MDA7MjA0ODsxNTA7MTUw"}, "original_score": "4/5"}, {"isRotten": false, "url": "https://www.washingtonexaminer.com/movie-review-ginger-baker-is-cream-of-a-mad-crop", "creationDate": 1545085979000, "isFresh": true, "id": 2541664, "quote": "As jaw-dropping as Ginger Baker's drumming is, the man himself is even more rattling.", "links": {"review": "https://www.washingtonexaminer.com/movie-review-ginger-baker-is-cream-of-a-mad-crop"}, "publication": {"url": "", "name": "Washington Examiner"}, "isTop": false, "freshness": "fresh", "critic": {"url": "/critic/kelly-jane-torrance", "name": "Kelly Jane Torrance", "id": 15652, "thumbnailImage": "https://d2a5cgar23scu2.cloudfront.net/static/images/redesign/user.none.tmb.jpg"}, "original_score": "3/4"}, {"isRotten": false, "url": "http://dcist.com/2013/01/out_of_frame_beware_or_mr_baker.php", "publication": {"name": "DCist"}, "isTop": false, "creationDate": 1535657631000, "isFresh": true, "freshness": "fresh", "critic": {"url": "/critic/pat-padua-17819", "name": "Pat Padua", "id": 17819, "thumbnailImage": "https://resizing.flixster.com/MKjxJj_SIoAIf-L51LqDQf3g24E=/72x72/v1.YzszMDA4O2o7MTg4MDM7MjA0ODsxMTQ5OzExNDk"}, "quote": "The kind of august rogue who threatens to put his director in hospital and punches him in the face with a cane-and makes him like it.", "id": 2505504, "links": {"review": "http://dcist.com/2013/01/out_of_frame_beware_or_mr_baker.php"}}, {"isRotten": false, "url": "https://decider.com/2018/04/27/beware-of-mr-baker-review/", "publication": {"url": "", "name": "Decider"}, "isTop": false, "creationDate": 1525096411000, "isFresh": true, "freshness": "fresh", "critic": {"url": "/critic/benjamin-h-smith", "name": "Benjamin H. Smith", "id": 20607, "thumbnailImage": "https://d2a5cgar23scu2.cloudfront.net/static/images/redesign/user.none.tmb.jpg"}, "quote": "...essential viewing for classic rock fans and anyone who loves a good rogue of questionable moral character, undeniable talent and a road case full of excellent stories.", "id": 2474508, "links": {"review": "https://decider.com/2018/04/27/beware-of-mr-baker-review/"}}, {"isRotten": false, "url": "http://www.dailymail.co.uk/home/event/article-2324983/The-Great-Gatsby-Yes-spectacular-Baz-Luhrmanns-reworking-Scott-Fitzgerald-classic-1990s-Ibiza-1920s-Long-Island.html", "creationDate": 1509483382000, "isFresh": true, "id": 2431991, "quote": "What makes this an excellent music doc is the sadness that comes through the madness.", "links": {"review": "http://www.dailymail.co.uk/home/event/article-2324983/The-Great-Gatsby-Yes-spectacular-Baz-Luhrmanns-reworking-Scott-Fitzgerald-classic-1990s-Ibiza-1920s-Long-Island.html"}, "publication": {"url": "", "name": "The Mail on Sunday (UK)"}, "isTop": false, "freshness": "fresh", "critic": {"url": "/critic/matthew-bond", "name": "Matthew Bond", "id": 6469, "thumbnailImage": "https://d2a5cgar23scu2.cloudfront.net/static/images/redesign/user.none.tmb.jpg"}, "original_score": "4/5"}, {"isRotten": false, "url": "https://dennisschwartzreviews.com/bewareofmrbaker", "creationDate": 1387105546000, "isFresh": true, "id": 2179280, "quote": "An entertaining doc on the volatile but great jazz and rock drummer, the controversial London born Ginger Baker.", "links": {"review": "https://dennisschwartzreviews.com/bewareofmrbaker"}, "publication": {"url": "", "name": "Dennis Schwartz Movie Reviews"}, "isTop": false, "freshness": "fresh", "critic": {"url": "/critic/dennis-schwartz", "name": "Dennis Schwartz", "id": 1315, "thumbnailImage": "https://resizing.flixster.com/kyiLmOjDXUivr6Ya_6H1tLzM7Mc=/72x72/v1.YzszNzc0O2o7MTg4MDQ7MjA0ODsxNjE5OzE2MTk"}, "original_score": "B"}]}, "casts": {"screenwriters": [{"url": "/celebrity/jay_bulger/", "name": "Jay Bulger", "thumbnailImg": "https://d2a5cgar23scu2.cloudfront.net/static/images/redesign/actor.default.tmb.gif"}], "directors": [{"url": "/celebrity/jay_bulger/", "name": "Jay Bulger", "thumbnailImg": "https://d2a5cgar23scu2.cloudfront.net/static/images/redesign/actor.default.tmb.gif"}], "creators": [], "producers": [{"url": "/celebrity/jay_bulger/", "name": "Jay Bulger", "thumbnailImg": "https://d2a5cgar23scu2.cloudfront.net/static/images/redesign/actor.default.tmb.gif"}, {"url": "/celebrity/erik_h_gordon/", "name": "Erik H. Gordon", "thumbnailImg": "https://d2a5cgar23scu2.cloudfront.net/static/images/redesign/actor.default.tmb.gif"}, {"url": "/celebrity/fisher_stevens/", "name": "Fisher Stevens", "thumbnailImg": "https://resizing.flixster.com/TyNuvFncNOcx3Av2Z05UeSntuwc=/80x80/v1.cjsyNzAzMTtqOzE4Nzk2OzIwNDg7NDAwOzYwMA"}, {"url": "/celebrity/andrew_s_karsch/", "name": "Andrew S Karsch", "thumbnailImg": "https://d2a5cgar23scu2.cloudfront.net/static/images/redesign/actor.default.tmb.gif"}, {"url": "/celebrity/alice_henty/", "name": "Alice Henty", "thumbnailImg": "https://d2a5cgar23scu2.cloudfront.net/static/images/redesign/actor.default.tmb.gif"}], "castItems": [{"person": {"url": "/celebrity/ginger-baker/", "name": "Ginger Baker", "thumbnailImg": "https://resizing.flixster.com/rRmr_3yVdTEjchgGBWhZbd201Dg=/80x80/v1.cDsxMjkzMTE2MDtqOzE4Nzg0OzIwNDg7MzAwOzMzMQ"}}, {"person": {"url": "/celebrity/eric_clapton/", "name": "Eric Clapton", "thumbnailImg": "https://resizing.flixster.com/0SgOEi_Ei94n2rWHiQqB1YL-BzM=/80x80/v1.cDszNDU0NDAxO2o7MTg4NzA7MjA0ODsxNzcyOzE3NzI"}}, {"person": {"url": "/celebrity/steve_winwood/", "name": "Steve Winwood", "thumbnailImg": "https://resizing.flixster.com/-vzGHw0PF9rqN-7cDaeTS0FakSg=/80x80/v1.cjszNTgwNDtqOzE4Nzk0OzIwNDg7NjAwOzQxMQ"}}, {"person": {"url": "/celebrity/carlos_santana/", "name": "Carlos Santana", "thumbnailImg": "https://resizing.flixster.com/MqMW47VDv9lKLuGQ4gf-KgSdnSs=/80x80/v1.cDsxMTUxOTkwMTtqOzE4ODg5OzIwNDg7NDcyOzQzNg"}}, {"person": {"url": "/celebrity/jack_bruce/", "name": "Jack Bruce", "thumbnailImg": "https://resizing.flixster.com/imDiSx9vJiLWIA8e2L6du-nntw4=/80x80/v1.cDsxMjkzMTE2MTtqOzE4Nzg1OzIwNDg7NDMyOzQ5OQ"}}, {"person": {"url": "/celebrity/mickey_hart/", "name": "Mickey Hart", "thumbnailImg": "https://d2a5cgar23scu2.cloudfront.net/static/images/redesign/actor.default.tmb.gif"}}, {"person": {"url": "/celebrity/max_weinberg/", "name": "Max Weinberg", "thumbnailImg": "https://resizing.flixster.com/bDfhhHz5Tc3f2SS2GEej60d1-Xs=/80x80/v1.cjs0OTg2NjtqOzE4NzcxOzIwNDg7MTk5NzszMDAw"}}, {"person": {"url": "/celebrity/chadd_smith/", "name": "Chadd Smith", "thumbnailImg": "https://resizing.flixster.com/OnZ__5OIkxlAFBWjiV_gw7EpxNQ=/80x80/v1.cDsxMzg0NjUwMztqOzE4NzkzOzIwNDg7MjExOzMxOA"}}, {"person": {"url": "/celebrity/femi_kuti/", "name": "Femi Kuti", "thumbnailImg": "https://d2a5cgar23scu2.cloudfront.net/static/images/redesign/actor.default.tmb.gif"}}, {"person": {"url": "/celebrity/neil_peart/", "name": "Neil Peart", "thumbnailImg": "https://resizing.flixster.com/2xzaCnhEtN9Bakk_xa_mG6jVlOA=/80x80/v1.cDsxMDYyNTY0MjtqOzE4ODU5OzIwNDg7OTQ7MTE3"}}, {"person": {"url": "/celebrity/stuart_copeland/", "name": "Stuart Copeland", "thumbnailImg": "https://d2a5cgar23scu2.cloudfront.net/static/images/redesign/actor.default.tmb.gif"}}, {"person": {"url": "/celebrity/stewart_copeland/", "name": "Stewart Copeland", "thumbnailImg": "https://resizing.flixster.com/L-VEI1D2lDCOsZZY4k9ynpCp9Hw=/80x80/v1.cjsyODY4OTtqOzE4Nzg5OzIwNDg7Mzk5OzYwMA"}}, {"person": {"url": "/celebrity/johnny_rotten/", "name": "Johnny Rotten", "thumbnailImg": "https://resizing.flixster.com/1SLFIEdRlD2QQU_6iD6Syj1doQw=/80x80/v1.cDsxMjk5Mzk1NztqOzE4ODA3OzIwNDg7NDcwOzM1NQ"}}, {"person": {"url": "/celebrity/masters_of_reality/", "name": "Masters of Reality", "thumbnailImg": "https://d2a5cgar23scu2.cloudfront.net/static/images/redesign/actor.default.tmb.gif"}}]}, "title": "Beware Of Mr. Baker", "adjustedScore": 99.21467283432158, "ratings": {"critics_rating": "Certified Fresh", "audience_score": 87, "dvdReleaseDate": 1368514800000, "critics_score": 98, "theaterReleaseDate": 1354089600000, "audience_rating": "Upright"}, "videoClips": {"mainTrailer": {"hlsUrl": "http://video.internetvideoarchive.net/video.m3u8?cmd=6&publishedid=799308&customerid=300120&e=1619087464206&sub=RTO&fmt=11&h=d02a4360b6e42f1d64e8e798a88d92fa", "seconds": 52, "minutes": 2, "id": 11175244, "title": "Beware Of Mr. Baker", "thumbUrl": "http://content.internetvideoarchive.com/content/photos/7649/799308_023.jpg", "mp4Url": "http://video.internetvideoarchive.net/video.mp4?cmd=6&publishedid=799308&customerid=300120&e=1619087464206&sub=RTO&fmt=4&videokbrate=750&h=4b16aefccded2710dfd2c9cd2addc5c1"}, "size": 1, "videoClips": [{"hlsUrl": "http://video.internetvideoarchive.net/video.m3u8?cmd=6&publishedid=799308&customerid=300120&e=1619087464206&sub=RTO&fmt=11&h=d02a4360b6e42f1d64e8e798a88d92fa", "seconds": 52, "minutes": 2, "id": 11175244, "title": "Beware Of Mr. Baker", "thumbUrl": "http://content.internetvideoarchive.com/content/photos/7649/799308_023.jpg", "mp4Url": "http://video.internetvideoarchive.net/video.mp4?cmd=6&publishedid=799308&customerid=300120&e=1619087464206&sub=RTO&fmt=4&videokbrate=750&h=4b16aefccded2710dfd2c9cd2addc5c1"}]}, "isUpcoming": false, "posters": {"original": "https://resizing.flixster.com/KzVIFDY646pbJM6oWIZ-YQsz4Oo=/2500x3693/v1.bTsxMTE2OTA1NjtqOzE4ODYwOzIwNDg7MjUwMDszNjkz", "detailed": "https://resizing.flixster.com/rkrwJ6vbiHqnRXnMRBGqcLnlGVI=/180x266/v1.bTsxMTE2OTA1NjtqOzE4ODYwOzIwNDg7MjUwMDszNjkz", "profile": "https://resizing.flixster.com/BHBeQi3S6HiNLCvWp2ONzukONZ8=/120x177/v1.bTsxMTE2OTA1NjtqOzE4ODYwOzIwNDg7MjUwMDszNjkz", "thumbnail": "https://resizing.flixster.com/ayx2FA6P0Anwab0UZ5wV4s6HHWg=/54x80/v1.bTsxMTE2OTA1NjtqOzE4ODYwOzIwNDg7MjUwMDszNjkz"}, "isLimited": true, "mainTrailer": {"thumbUrl": "https://content.internetvideoarchive.com/content/photos/7649/799308_023.jpg", "hlsUrl": "http://video.internetvideoarchive.net/video.m3u8?cmd=6&publishedid=799308&customerid=300120&e=1619087463780&sub=RTO&fmt=11&h=b7a20d2aa43d2ca70f87f21a4925991d", "id": 11175244, "mp4Url": "http://video.internetvideoarchive.net/video.mp4?cmd=6&publishedid=799308&customerid=300120&e=1619087463780&sub=RTO&fmt=4&videokbrate=750&h=cfa053638b1aa81d818b762d2e757900"}, "photos": {"photos": [{"url": "https://resizing.flixster.com/LFUoamwCwaBCBElRbAb3MS4wj-c=/1024x768/v1.bjszODAyMjtqOzE4ODA3OzIwNDg7MTIwMDs5MDA", "index": 0, "submittedBy": "RT Staff", "height": 768, "imageId": 38022, "thumbnail": "https://resizing.flixster.com/saQDaYFlS2m0hnYF5tIFXSBsmKU=/80x80/v1.bjszODAyMjtqOzE4ODA3OzIwNDg7MTIwMDs5MDA", "submittedDate": "2014-06-30", "id": "multiuse-38022", "photoType": "movie", "width": 1024}, {"url": "https://resizing.flixster.com/BZ8vySvzVTeCgh4Ji5RY6kKMwSY=/1024x768/v1.bjszODAyMztqOzE4ODA4OzIwNDg7MTIwMDs5MDA", "index": 1, "submittedBy": "RT Staff", "height": 768, "imageId": 38023, "thumbnail": "https://resizing.flixster.com/VFsJwQxDNKCd4sv67CuqftO-0OQ=/80x80/v1.bjszODAyMztqOzE4ODA4OzIwNDg7MTIwMDs5MDA", "submittedDate": "2014-06-30", "id": "multiuse-38023", "photoType": "movie", "width": 1024}, {"url": "https://resizing.flixster.com/yIEm1YxTwX6HwqWMZsrt08fBp8E=/1024x578/v1.bjsyMjAxMzU2O2o7MTg3OTE7MjA0ODsxNTk0OzkwMA", "index": 2, "submittedBy": "RT Staff", "height": 578, "imageId": 2201356, "thumbnail": "https://resizing.flixster.com/QF6QrzG_Fd0fwdBh5BuRV51uVZ0=/80x80/v1.bjsyMjAxMzU2O2o7MTg3OTE7MjA0ODsxNTk0OzkwMA", "submittedDate": "2019-02-27", "id": "multiuse-2201356", "photoType": "movie", "width": 1024}, {"url": "https://resizing.flixster.com/RxYiIAU0y4-3mmMqncPTamHhuU4=/406x600/v1.aDs5ODcwODtqOzE4Nzg5OzIwNDg7MjUwMDszNjkz", "index": 3, "submittedBy": "RT Staff", "height": 600, "imageId": 98708, "thumbnail": "https://resizing.flixster.com/uc4ktHiQfIVYaOELs9s9GVw_rbU=/80x80/v1.aDs5ODcwODtqOzE4Nzg5OzIwNDg7MjUwMDszNjkz", "submittedDate": "2013-01-28", "caption": "", "id": "movie-98708", "photoType": "movie", "width": 406}, {"url": "https://resizing.flixster.com/6nCE8LNXbhAMbeY5nM9urATvSyQ=/600x402/v1.aDs5NjY5OTtqOzE4ODA1OzIwNDg7MTg3MTsxMjU1", "index": 4, "submittedBy": "RT Staff", "height": 402, "imageId": 96699, "thumbnail": "https://resizing.flixster.com/gbXFqY9vnOFPZ71PZ4ADJZbt_Zs=/80x80/v1.aDs5NjY5OTtqOzE4ODA1OzIwNDg7MTg3MTsxMjU1", "submittedDate": "2012-11-27", "caption": "", "id": "movie-96699", "photoType": "movie", "width": 600}, {"url": "https://resizing.flixster.com/S9KqMf_chdBsHEAVE-ZAV0B2peY=/600x436/v1.aDs5NjY5ODtqOzE4ODA0OzIwNDg7MTE3MDs4NTA", "index": 5, "submittedBy": "RT Staff", "height": 436, "imageId": 96698, "thumbnail": "https://resizing.flixster.com/TmbpPza7L233J6xjBkgReaqWOw0=/80x80/v1.aDs5NjY5ODtqOzE4ODA0OzIwNDg7MTE3MDs4NTA", "submittedDate": "2012-11-27", "caption": "", "id": "movie-96698", "photoType": "movie", "width": 600}, {"url": "https://resizing.flixster.com/wLRfcv2WgOoyt9PB52GaxLOPTm4=/456x600/v1.aDs5NjY5NztqOzE4ODAzOzIwNDg7MjI3MzsyOTkw", "index": 6, "submittedBy": "RT Staff", "height": 600, "imageId": 96697, "thumbnail": "https://resizing.flixster.com/e14eZTxSztCiUVM8mL3x4o8MX1M=/80x80/v1.aDs5NjY5NztqOzE4ODAzOzIwNDg7MjI3MzsyOTkw", "submittedDate": "2012-11-27", "caption": "", "id": "movie-96697", "photoType": "movie", "width": 456}, {"url": "https://resizing.flixster.com/-9f4FC8pEsvryGoLUTPn2NhwqlU=/450x600/v1.aDs5NjY5NjtqOzE4ODAyOzIwNDg7ODE5OzEwOTI", "index": 7, "submittedBy": "RT Staff", "height": 600, "imageId": 96696, "thumbnail": "https://resizing.flixster.com/4vDmy5cNkSSJajl-2j6Z_obMGec=/80x80/v1.aDs5NjY5NjtqOzE4ODAyOzIwNDg7ODE5OzEwOTI", "submittedDate": "2012-11-27", "caption": "", "id": "movie-96696", "photoType": "movie", "width": 450}, {"url": "https://resizing.flixster.com/05aOUH5AKV8eEYdEoafCXrxK_Ho=/388x600/v1.aDs5NjY5NTtqOzE4ODAxOzIwNDg7MzMwMDs1MTAw", "index": 8, "submittedBy": "RT Staff", "height": 600, "imageId": 96695, "thumbnail": "https://resizing.flixster.com/fMeUkRrHNIEA8SIurRRI7EV_QWE=/80x80/v1.aDs5NjY5NTtqOzE4ODAxOzIwNDg7MzMwMDs1MTAw", "submittedDate": "2012-11-27", "caption": "", "id": "movie-96695", "photoType": "movie", "width": 388}, {"url": "https://resizing.flixster.com/YhuhpyESDj-dNlBHFmpvbR7w4js=/600x400/v1.aDs5NjYwNjtqOzE4ODAyOzIwNDg7NjI1OzQxNw", "index": 9, "submittedBy": "RT Staff", "height": 400, "imageId": 96606, "thumbnail": "https://resizing.flixster.com/itgf7X63QCqv6MvAm9CDrfnv5dU=/80x80/v1.aDs5NjYwNjtqOzE4ODAyOzIwNDg7NjI1OzQxNw", "submittedDate": "2012-11-26", "caption": "", "id": "movie-96606", "photoType": "movie", "width": 600}, {"url": "https://resizing.flixster.com/1PMnaNHgxV3pKJaUsFuEKfTTaMc=/600x319/v1.aDs5NjYwNztqOzE4ODAzOzIwNDg7NjY3OzM1NQ", "index": 10, "submittedBy": "RT Staff", "height": 319, "imageId": 96607, "thumbnail": "https://resizing.flixster.com/g8lzBGeklEtuR5KEgqGI7NkEpw8=/80x80/v1.aDs5NjYwNztqOzE4ODAzOzIwNDg7NjY3OzM1NQ", "submittedDate": "2012-11-26", "caption": "", "id": "movie-96607", "photoType": "movie", "width": 600}, {"url": "https://resizing.flixster.com/trL9uwr92xjFSxJrJtT87YSsf28=/600x398/v1.aDs5NjYwODtqOzE4ODA0OzIwNDg7NjAwOzM5OA", "index": 11, "submittedBy": "RT Staff", "height": 398, "imageId": 96608, "thumbnail": "https://resizing.flixster.com/ozk0AXORREhCxvgXdk2CUhSuja4=/80x80/v1.aDs5NjYwODtqOzE4ODA0OzIwNDg7NjAwOzM5OA", "submittedDate": "2012-11-26", "caption": "", "id": "movie-96608", "photoType": "movie", "width": 600}, {"url": "https://resizing.flixster.com/rVeVZ_pvdwsC1TkOgcdv9HLrZTM=/600x401/v1.aDs5NjYwOTtqOzE4ODA1OzIwNDg7NjEwOzQwOA", "index": 12, "submittedBy": "RT Staff", "height": 401, "imageId": 96609, "thumbnail": "https://resizing.flixster.com/xM_HBRCqqB_kBNpb1QkLSuzYnec=/80x80/v1.aDs5NjYwOTtqOzE4ODA1OzIwNDg7NjEwOzQwOA", "submittedDate": "2012-11-26", "caption": "", "id": "movie-96609", "photoType": "movie", "width": 600}, {"url": "https://resizing.flixster.com/yM_-eB0nro8MXFvSzS68VqeI9Mg=/600x337/v1.aDs5NjYxMDtqOzE4ODA2OzIwNDg7NjMwOzM1NA", "index": 13, "submittedBy": "RT Staff", "height": 337, "imageId": 96610, "thumbnail": "https://resizing.flixster.com/fe_dwyhtk3cP546lRbPAMMDDlFc=/80x80/v1.aDs5NjYxMDtqOzE4ODA2OzIwNDg7NjMwOzM1NA", "submittedDate": "2012-11-26", "caption": "", "id": "movie-96610", "photoType": "movie", "width": 600}, {"url": "https://resizing.flixster.com/_XPfODdDcjk66BUWMU7cx7QvT_A=/600x222/v1.aDs5NjU5OTtqOzE4Nzk1OzIwNDg7ODUxOzMxNQ", "index": 14, "submittedBy": "RT Staff", "height": 222, "imageId": 96599, "thumbnail": "https://resizing.flixster.com/MmqzqMz3dKFLqIeXx6I2aG283Zg=/80x80/v1.aDs5NjU5OTtqOzE4Nzk1OzIwNDg7ODUxOzMxNQ", "submittedDate": "2012-11-26", "caption": "", "id": "movie-96599", "photoType": "movie", "width": 600}, {"url": "https://resizing.flixster.com/-7-gSM8H_z27EjLn0B22Ejzn_PU=/551x600/v1.aDs5NjYwMDtqOzE4Nzk2OzIwNDg7NjYxOzcyMA", "index": 15, "submittedBy": "RT Staff", "height": 600, "imageId": 96600, "thumbnail": "https://resizing.flixster.com/PK84aQlzqfDxbBf0Ikwfnldo1VA=/80x80/v1.aDs5NjYwMDtqOzE4Nzk2OzIwNDg7NjYxOzcyMA", "submittedDate": "2012-11-26", "caption": "", "id": "movie-96600", "photoType": "movie", "width": 551}, {"url": "https://resizing.flixster.com/rIlSgw1dU06ovpem2mPItnMayhE=/406x600/v1.aDs5NTI1NztqOzE4ODAzOzIwNDg7MTM4NjsyMDQ4", "index": 16, "submittedBy": "RT Staff", "height": 600, "imageId": 95257, "thumbnail": "https://resizing.flixster.com/gx4VFJKlDzCCunQzFPqYkQ-9zT4=/80x80/v1.aDs5NTI1NztqOzE4ODAzOzIwNDg7MTM4NjsyMDQ4", "submittedDate": "2012-10-25", "caption": "", "id": "movie-95257", "photoType": "movie", "width": 406}], "length": 17}, "id": 771270443}