{"url": "/m/keep_on_keepin_on/", "isOnOpening": false, "boxoffice": "$0.2M", "genreSet": [{"displayName": "Musical & Performing Arts", "id": 12}, {"displayName": "Documentary", "id": 8}], "officialUrl": "http://keeponkeepinon.com/", "isInTheaters": false, "synopsis": "Shot over the course of five years by first time filmmaker Al Hicks, KEEP ON KEEPIN' ON depicts the remarkable story of 93-year-old jazz legend Clark Terry. A living monument to the Golden Era of Jazz, Terry - a mentor to Miles Davis - is among the few performers ever to have played in both Count Basie's and Duke Ellington's bands. In the 1960's, he broke the color barrier as the first African-American staff musician at NBC - on \"The Tonight Show\". Today, after a life spent working with and teaching the most totemic figures in jazz history, Terry continues to attract and cultivate budding talents. KEEP ON KEEPIN' ON highlights his friendship with the preternaturally gifted Justin Kauflin, a blind, 23-year-old piano prodigy who suffers from debilitating stage fright. Not long after Kauflin is invited to compete in an elite Jazz competition, Terry's health takes a turn for the worse. As the clock ticks, we see two friends confront the toughest challenges of their lives. Kauflin's work on the film's score with composer Dave Grusin sets the tone for a story that spans decades, lifetimes and the entire history of modern Jazz, complete with firsthand anecdotes from Jones and Herbie Hancock. KEEP ON KEEPIN' ON is a film crafted with great affection by Hicks - another former student of Terry's - a grace note for his teacher, infused with soulfulness and serendipity. Paula DuPre' Pesmen (behind the Academy Award winning THE COVE and the Oscar nominated CHASING ICE) produced the film with seven time Academy Award nominee Quincy Jones who also counts Terry as his mentor. Jones came on board as producer after literally walking into the film as one of its subjects, discovering Justin's talent purely by chance during a visit at Clark's home. (C) Radius-TWC", "links": {"alternate": "//www.rottentomatoes.com/m/keep_on_keepin_on/"}, "runningTime": 86, "year": 2014, "trackingType": "DvdOther", "status": "Live", "isPlaying": false, "isOnDVD": true, "runningTimeStr": "1 hr. 26 min.", "ratingSummary": {"topcount": 25, "consensus": "Offering keen observations and infectious warmth, Keep On Keepin' On is a joy for jazz buffs and novices alike.", "topCritics": {"hasScore": true, "numReviews": 25, "meterClass": "certified", "numRotten": 1, "numFresh": 24, "hasReviews": true, "meterValue": 96, "averageRating": 7.573529}, "audience": {"meterScore": 88, "averageScore": 4.333333492279053, "numTotal": 1283, "ratingType": "viewed"}, "allcount": 43, "rottencount": 1, "dvdcount": 0, "allCritics": {"hasScore": true, "numReviews": 43, "meterClass": "certified", "numRotten": 1, "numFresh": 42, "hasReviews": true, "meterValue": 98, "averageRating": 7.55}, "freshcount": 42}, "mpaaRating": "R", "vanity": "keep_on_keepin_on", "photos": {"photos": [{"url": "https://resizing.flixster.com/psKDwUwLYUCnxIAl0LFH6iFHvKA=/1024x576/v1.bjs0MzM4NjA7ajsxODc4NTsyMDQ4OzE5MjA7MTA4MA", "index": 0, "submittedBy": "RT Staff", "height": 576, "imageId": 433860, "thumbnail": "https://resizing.flixster.com/T_RSbJ42o0TjFS-c44P2EBiqoiQ=/80x80/v1.bjs0MzM4NjA7ajsxODc4NTsyMDQ4OzE5MjA7MTA4MA", "submittedDate": "2014-08-24", "id": "multiuse-433860", "photoType": "movie", "width": 1024}, {"url": "https://resizing.flixster.com/NF7VwODkauWmkKEX5f07LvkinKs=/918x612/v1.bjs0MzM4NjE7ajsxODc4NjsyMDQ4OzkxODs2MTI", "index": 1, "submittedBy": "RT Staff", "height": 612, "imageId": 433861, "thumbnail": "https://resizing.flixster.com/bgWzzGYWPQ2yKasLXufj2gZ_bgI=/80x80/v1.bjs0MzM4NjE7ajsxODc4NjsyMDQ4OzkxODs2MTI", "submittedDate": "2014-08-24", "id": "multiuse-433861", "photoType": "movie", "width": 918}, {"url": "https://resizing.flixster.com/0XH7BVJx2rLvRtDBl4MHqw4wWyk=/1024x576/v1.bjs0MzM4NjI7ajsxODc4NzsyMDQ4OzE5MjA7MTA4MA", "index": 2, "submittedBy": "RT Staff", "height": 576, "imageId": 433862, "thumbnail": "https://resizing.flixster.com/a_qldRuHr9KwS8tKgOHYVbfAFeI=/80x80/v1.bjs0MzM4NjI7ajsxODc4NzsyMDQ4OzE5MjA7MTA4MA", "submittedDate": "2014-08-24", "id": "multiuse-433862", "photoType": "movie", "width": 1024}, {"url": "https://resizing.flixster.com/mRqyddTsmUiiFplClB4Zvedhngo=/1024x576/v1.bjs0MzM4NjM7ajsxODc4ODsyMDQ4OzE5MjA7MTA4MA", "index": 3, "submittedBy": "RT Staff", "height": 576, "imageId": 433863, "thumbnail": "https://resizing.flixster.com/HnwtuzEL7zdQu8RybKA4pYgROio=/80x80/v1.bjs0MzM4NjM7ajsxODc4ODsyMDQ4OzE5MjA7MTA4MA", "submittedDate": "2014-08-24", "id": "multiuse-433863", "photoType": "movie", "width": 1024}, {"url": "https://resizing.flixster.com/X13dT-gFZIpgjzgfa4WNyLRB1gY=/600x340/v1.bjs0NDMxNTI7ajsxODgwNzsyMDQ4OzYwMDszNDA", "index": 4, "submittedBy": "RT Staff", "height": 340, "imageId": 443152, "thumbnail": "https://resizing.flixster.com/1ViLuZiPaW3Z2ySyYiP61d_m7tU=/80x80/v1.bjs0NDMxNTI7ajsxODgwNzsyMDQ4OzYwMDszNDA", "submittedDate": "2014-09-15", "id": "multiuse-443152", "photoType": "movie", "width": 600}, {"url": "https://resizing.flixster.com/9AjJmJM2ZeWii9Ob7mJOwxFSJ-E=/600x340/v1.bjs0NDMxNTM7ajsxODgwODsyMDQ4OzYwMDszNDA", "index": 5, "submittedBy": "RT Staff", "height": 340, "imageId": 443153, "thumbnail": "https://resizing.flixster.com/YM2gaeqnxZRynpi0CpIyPgfRntI=/80x80/v1.bjs0NDMxNTM7ajsxODgwODsyMDQ4OzYwMDszNDA", "submittedDate": "2014-09-15", "id": "multiuse-443153", "photoType": "movie", "width": 600}, {"url": "https://resizing.flixster.com/k6Y_v41oc4mo7OR1Rf5rFNiKdy4=/600x340/v1.bjs0NDMxNTQ7ajsxODgwOTsyMDQ4OzYwMDszNDA", "index": 6, "submittedBy": "RT Staff", "height": 340, "imageId": 443154, "thumbnail": "https://resizing.flixster.com/tfjrCPs4Knor0fAllLrmyHMhjLc=/80x80/v1.bjs0NDMxNTQ7ajsxODgwOTsyMDQ4OzYwMDszNDA", "submittedDate": "2014-09-15", "id": "multiuse-443154", "photoType": "movie", "width": 600}, {"url": "https://resizing.flixster.com/EF45WMeHovPAMMPDyI9AatK5TZY=/405x600/v1.aDsxMjI4NTA7ajsxODc2NjsyMDQ4OzUwOTs3NTU", "index": 7, "submittedBy": "RT Staff", "height": 600, "imageId": 122850, "thumbnail": "https://resizing.flixster.com/SPKWz3SFGvFfjBw6Xo8Kzb4mybU=/80x80/v1.aDsxMjI4NTA7ajsxODc2NjsyMDQ4OzUwOTs3NTU", "submittedDate": "2014-08-20", "caption": "", "id": "movie-122850", "photoType": "movie", "width": 405}, {"url": "https://resizing.flixster.com/MiV9gLyZ__oa9mGU0oKciUkALwk=/600x338/v1.aDsxMjE4ODk7ajsxODc5NTsyMDQ4OzE5MjA7MTA4MA", "index": 8, "submittedBy": "RT Staff", "height": 338, "imageId": 121889, "thumbnail": "https://resizing.flixster.com/yYhuh5MUidupeUktekx2piIELHU=/80x80/v1.aDsxMjE4ODk7ajsxODc5NTsyMDQ4OzE5MjA7MTA4MA", "submittedDate": "2014-08-05", "caption": "", "id": "movie-121889", "photoType": "movie", "width": 600}, {"url": "https://resizing.flixster.com/Lq98jpwM-hLgsAGX3fgQgq5INLY=/600x338/v1.aDsxMjE4OTA7ajsxODc5NjsyMDQ4OzE5MjA7MTA4MA", "index": 9, "submittedBy": "RT Staff", "height": 338, "imageId": 121890, "thumbnail": "https://resizing.flixster.com/sZoasUIpCIxSsqabFuJXr8Id9Ko=/80x80/v1.aDsxMjE4OTA7ajsxODc5NjsyMDQ4OzE5MjA7MTA4MA", "submittedDate": "2014-08-05", "caption": "", "id": "movie-121890", "photoType": "movie", "width": 600}, {"url": "https://resizing.flixster.com/fzQFAvI6fJ26z9OPdsn-wrYaEJo=/600x338/v1.aDsxMjE4OTE7ajsxODc5NzsyMDQ4OzE5MjA7MTA4MA", "index": 10, "submittedBy": "RT Staff", "height": 338, "imageId": 121891, "thumbnail": "https://resizing.flixster.com/Ll-zGZ6eB-JiYcLhJV_c7uro40E=/80x80/v1.aDsxMjE4OTE7ajsxODc5NzsyMDQ4OzE5MjA7MTA4MA", "submittedDate": "2014-08-05", "caption": "", "id": "movie-121891", "photoType": "movie", "width": 600}, {"url": "https://resizing.flixster.com/70l9oq1UhK6HR2d1TmddhInhevI=/600x400/v1.aDsxMjE4OTI7ajsxODc5ODsyMDQ4OzkxODs2MTI", "index": 11, "submittedBy": "RT Staff", "height": 400, "imageId": 121892, "thumbnail": "https://resizing.flixster.com/KQrVgLtnAk3NIP6tuUNm3Ndbmjk=/80x80/v1.aDsxMjE4OTI7ajsxODc5ODsyMDQ4OzkxODs2MTI", "submittedDate": "2014-08-05", "caption": "", "id": "movie-121892", "photoType": "movie", "width": 600}, {"url": "https://resizing.flixster.com/SvZyriwz2S30eYif4wuZSzFN-i0=/387x600/v1.aDsxMTc1NDk7ajsxODc3NTsyMDQ4OzQ4Nzs3NTU", "index": 12, "submittedBy": "RT Staff", "height": 600, "imageId": 117549, "thumbnail": "https://resizing.flixster.com/pf2huQ53dUSKzYW2fTwYSzJwyao=/80x80/v1.aDsxMTc1NDk7ajsxODc3NTsyMDQ4OzQ4Nzs3NTU", "submittedDate": "2014-04-28", "caption": "", "id": "movie-117549", "photoType": "movie", "width": 387}], "length": 13}, "studio": "Radius-TWC", "purchaseOptions": {"amazon": {"url": "http://www.amazon.com/gp/product/B00S65TOTE/ref=atv_feed_catalog?tag=rottetomao_aiv_mv-20", "isPrime": false, "type": "buy"}, "netflix": {"streamingId": "80011709"}, "vudu": {"url": "https://www.vudu.com/content/movies/details/Keep-on-Keepin-On/625395", "type": "buy"}, "iTunes": {"url": "https://itunes.apple.com/movie/keep-on-keepin-on/id947539505?uo=5", "price": "9.99"}}, "reviews": {"total": 43, "links": {"alternate": "//www.rottentomatoes.com/m/keep_on_keepin_on/#reviews", "self": "api.flixster.com/movies/keep-on-keepin-on/reviews.json?review_type=mob&country=us&page=1", "prev": "api.flixster.com/movies/keep-on-keepin-on/reviews.json?review_type=mob&country=us&page=0", "next": "api.flixster.com/movies/keep-on-keepin-on/reviews.json?review_type=mob&country=us&page=2"}, "reviews": [{"isRotten": false, "url": "http://grantland.com/hollywood-prospectus/whiplash-chazelle-movie-review/", "publication": {"url": "", "name": "Grantland"}, "isTop": true, "creationDate": 1421089748000, "isFresh": true, "freshness": "fresh", "critic": {"url": "/critic/wesley-morris", "name": "Wesley Morris", "id": 1301, "thumbnailImage": "https://resizing.flixster.com/pqoE7oQCbmE9s2hwJmPS96vabJY=/72x72/v1.YzszNjE3O2o7MTg3ODI7MjA0ODszMDA7MzAw"}, "quote": "[A] moving, observant documentary about the relationship between the ailing 93-year-old legend and master trumpeter Clark Terry and Justin Kauflin, a blind pianist Terry successfully mentored.", "id": 2241964, "links": {"review": "http://grantland.com/hollywood-prospectus/whiplash-chazelle-movie-review/"}}, {"isRotten": false, "url": "http://www.smh.com.au/entertainment/movies/keep-on-keepin-on-review-teaching-and-all-that-jazz-20141217-128zws.html", "creationDate": 1421089510000, "isFresh": true, "id": 2241963, "quote": "Terry's enveloping warmth, wisdom and good nature give the Oscar-shortlisted documentary much of its energy.", "links": {"review": "http://www.smh.com.au/entertainment/movies/keep-on-keepin-on-review-teaching-and-all-that-jazz-20141217-128zws.html"}, "publication": {"url": "", "name": "The Age (Australia)"}, "isTop": true, "freshness": "fresh", "critic": {"url": "/critic/philippa-hawker", "name": "Philippa Hawker", "id": 13093, "thumbnailImage": "https://d2a5cgar23scu2.cloudfront.net/static/images/redesign/user.none.tmb.jpg"}, "original_score": "3.5/5"}, {"isRotten": false, "url": "http://www.bostonglobe.com/arts/movies/2014/12/04/making-beautiful-music-together-keep-keepin/GOiT0eK6vAcrmFSyLHz3CO/story.html", "creationDate": 1417742641000, "isFresh": true, "id": 2236139, "quote": "\"Keep on Keepin' On\" might document the passing of a musical torch from one century to the next, but for one sticking point: The first torch plain refuses to go out.", "links": {"review": "http://www.bostonglobe.com/arts/movies/2014/12/04/making-beautiful-music-together-keep-keepin/GOiT0eK6vAcrmFSyLHz3CO/story.html"}, "publication": {"name": "Boston Globe"}, "isTop": true, "freshness": "fresh", "critic": {"url": "/critic/ty-burr", "name": "Ty Burr", "id": 1294, "thumbnailImage": "https://resizing.flixster.com/Jspvf9TMpa3o_bWJhJspOqlOJrU=/72x72/v1.YzsxNTA3O2c7MTg3ODc7MjA0ODszODs1MQ"}, "original_score": "3.5/4"}, {"isRotten": false, "url": "http://www.philly.com/philly/entertainment/movies/20141121__Keep_On_Keepin__On___Life_of_jazz_trumpeter_Clark_Terry.html", "creationDate": 1416570514000, "isFresh": true, "id": 2234614, "quote": "What really makes Keep On Keepin' On such a heart-tugging, three-handkerchief crowd pleaser is that at heart, it's a buddy movie.", "links": {"review": "http://www.philly.com/philly/entertainment/movies/20141121__Keep_On_Keepin__On___Life_of_jazz_trumpeter_Clark_Terry.html"}, "publication": {"name": "Philadelphia Inquirer"}, "isTop": true, "freshness": "fresh", "critic": {"url": "/critic/dan-deluca", "name": "Dan DeLuca", "id": 5615, "thumbnailImage": "https://d2a5cgar23scu2.cloudfront.net/static/images/redesign/user.none.tmb.jpg"}, "original_score": "3.5/4"}, {"isRotten": false, "url": "http://www.theglobeandmail.com/arts/film/film-reviews/keep-on-keepin-on-a-soulful-story-of-bebop-benevolence/article21576223/", "creationDate": 1415968332000, "isFresh": true, "id": 2233607, "quote": "Terry produced some of the happiest sounds in the history of jazz; Keep on Keepin' On keeps the smiles coming.", "links": {"review": "http://www.theglobeandmail.com/arts/film/film-reviews/keep-on-keepin-on-a-soulful-story-of-bebop-benevolence/article21576223/"}, "publication": {"url": "", "name": "Globe and Mail"}, "isTop": true, "freshness": "fresh", "critic": {"url": "/critic/brad-wheeler", "name": "Brad Wheeler", "id": 10998, "thumbnailImage": "https://d2a5cgar23scu2.cloudfront.net/static/images/redesign/user.none.tmb.jpg"}, "original_score": "3/4"}, {"isRotten": false, "url": "http://www.thestar.com/entertainment/movies/2014/11/13/keep_on_keepin_on_wolves_one_chance_the_better_angels_emptying_the_skies_reviews.html", "creationDate": 1415934516000, "isFresh": true, "id": 2233550, "quote": "As joyful as a jumping jazz riff, Keep on Keepin' On is an inspiring story of devotion, dedication and multi-generational friendship.", "links": {"review": "http://www.thestar.com/entertainment/movies/2014/11/13/keep_on_keepin_on_wolves_one_chance_the_better_angels_emptying_the_skies_reviews.html"}, "publication": {"url": "", "name": "Toronto Star"}, "isTop": true, "freshness": "fresh", "critic": {"url": "/critic/linda-barnard", "name": "Linda Barnard", "id": 11895, "thumbnailImage": "https://d2a5cgar23scu2.cloudfront.net/static/images/redesign/user.none.tmb.jpg"}, "original_score": "3.5/4"}, {"isRotten": false, "url": "https://macguff.in/macguffin-content/film-review-keep-keepin/", "creationDate": 1594935021000, "isFresh": true, "id": 2705424, "quote": "Keep On Keepin' On is all about taking the past to inform the present and enrich the future. ", "links": {"review": "https://macguff.in/macguffin-content/film-review-keep-keepin/"}, "publication": {"url": "", "name": "The MacGuffin"}, "isTop": false, "freshness": "fresh", "critic": {"url": "/critic/allen-almachar", "name": "Allen Almachar", "id": 27251, "thumbnailImage": "https://resizing.flixster.com/685wa0E3pM9hb-0fDGyxkU_RFPI=/72x72/v1.YzszNzIzO2o7MTg3OTg7MjA0ODszMDA7MzAw"}, "original_score": "A"}, {"isRotten": false, "url": "https://www.boulderweekly.com/entertainment/screen/a-tale-of-two-masters/", "publication": {"url": "http://www.boulderweekly.com", "name": "Boulder Weekly"}, "isTop": false, "creationDate": 1561166249000, "isFresh": true, "freshness": "fresh", "critic": {"url": "/critic/michael-j-casey", "name": "Michael J. Casey", "id": 24459, "thumbnailImage": "https://resizing.flixster.com/lGt6skvudDvl5mKKAvG7nKqs578=/72x72/v1.YzszMzEyO2o7MTg3OTI7MjA0ODszMDA7MzAw"}, "quote": "Keep On Keepin' On is a delight.", "id": 2599474, "links": {"publication": "http://www.boulderweekly.com", "review": "https://www.boulderweekly.com/entertainment/screen/a-tale-of-two-masters/"}}, {"isRotten": false, "url": "http://cinemacy.com/keep-keepin/", "publication": {"url": "", "name": "Cinemacy"}, "isTop": false, "creationDate": 1541714477000, "isFresh": true, "freshness": "fresh", "critic": {"url": "/critic/morgan-rojas", "name": "Morgan Rojas", "id": 22380, "thumbnailImage": "https://resizing.flixster.com/Clsw8Auu1ikew-0RFN6RyFFwhSw=/72x72/v1.YzsyOTMwO2o7MTg3NzA7MjA0ODszODA7Mzgw"}, "quote": "Keep On Keepin' On is a testament to the power of music and how, in the right hands, it can truly change the world.", "id": 2530328, "links": {"review": "http://cinemacy.com/keep-keepin/"}}, {"isRotten": false, "url": "https://spectrumculture.com/2014/09/22/keep-on-keepin-on/", "publication": {"url": "", "name": "Spectrum Culture"}, "isTop": false, "creationDate": 1535483497000, "isFresh": true, "freshness": "fresh", "critic": {"url": "/critic/pat-padua-17819", "name": "Pat Padua", "id": 17819, "thumbnailImage": "https://resizing.flixster.com/MKjxJj_SIoAIf-L51LqDQf3g24E=/72x72/v1.YzszMDA4O2o7MTg4MDM7MjA0ODsxMTQ5OzExNDk"}, "quote": "Keep on Keepin' On does convey the artistry of jazz, and is full of musical pleasures. But more than that, it conveys the generous spirit of friendship, and a way of living that stays resilient and joyful in the face of life's trials.", "id": 2504172, "links": {"review": "https://spectrumculture.com/2014/09/22/keep-on-keepin-on/"}}, {"isRotten": false, "url": "http://concreteplayground.com/melbourne/event/keep-on-keepin-on/", "creationDate": 1420148135000, "isFresh": true, "id": 2239828, "quote": "This infectious jazz doco will leave you feeling a little more content than Whiplash.", "links": {"review": "http://concreteplayground.com/melbourne/event/keep-on-keepin-on/"}, "publication": {"url": "", "name": "Concrete Playground"}, "isTop": false, "freshness": "fresh", "critic": {"url": "/critic/tom-clift", "name": "Tom Clift", "id": 14191, "thumbnailImage": "https://resizing.flixster.com/Q0165M0KFNJxuTZ1Rvc8UzgsrBg=/72x72/v1.YzsyNDE2O2o7MTg3OTY7MjA0ODs3Mjs3Mg"}, "original_score": "3/5"}, {"isRotten": false, "url": "http://www.moviehabit.com/review.php?story=kee_le14", "publication": {"name": "Movie Habit"}, "isTop": false, "creationDate": 1420134963000, "isFresh": true, "freshness": "fresh", "critic": {"url": "/critic/robert-denerstein", "name": "Robert Denerstein", "id": 98, "thumbnailImage": "https://resizing.flixster.com/EmMBWWMzOiB26JMBCbls0c420YM=/72x72/v1.YzsxNTkxO2c7MTg3ODE7MjA0ODszODs0OA"}, "quote": "One of the year's most affecting documentaries", "id": 2239809, "links": {"review": "http://www.moviehabit.com/review.php?story=kee_le14"}}]}, "casts": {"screenwriters": [{"url": "/celebrity/davis_coombe/", "name": "Davis Coombe", "thumbnailImg": "https://d2a5cgar23scu2.cloudfront.net/static/images/redesign/actor.default.tmb.gif"}, {"url": "/celebrity/alan_hicks/", "name": "Alan Hicks", "thumbnailImg": "https://d2a5cgar23scu2.cloudfront.net/static/images/redesign/actor.default.tmb.gif"}], "directors": [{"url": "/celebrity/alan_hicks/", "name": "Alan Hicks", "thumbnailImg": "https://d2a5cgar23scu2.cloudfront.net/static/images/redesign/actor.default.tmb.gif"}], "creators": [], "producers": [{"url": "/celebrity/paula_dupre_pesmen/", "name": "Paula Dupre Pesmen", "thumbnailImg": "https://d2a5cgar23scu2.cloudfront.net/static/images/redesign/actor.default.tmb.gif"}, {"url": "/celebrity/quincy_jones/", "name": "Quincy Jones", "thumbnailImg": "https://resizing.flixster.com/xVQdsOKWslvJo7scZkmgjBbf2v4=/80x80/v1.cjsyMjQ5MztqOzE4ODAzOzIwNDg7NjAwOzQyNg"}, {"url": "/celebrity/john_caulkins/", "name": "John Caulkins", "thumbnailImg": "https://d2a5cgar23scu2.cloudfront.net/static/images/redesign/actor.default.tmb.gif"}, {"url": "/celebrity/karl_kister/", "name": "Karl Kister", "thumbnailImg": "https://d2a5cgar23scu2.cloudfront.net/static/images/redesign/actor.default.tmb.gif"}], "castItems": [{"person": {"url": "/celebrity/clark_terry/", "name": "Clark Terry", "thumbnailImg": "https://d2a5cgar23scu2.cloudfront.net/static/images/redesign/actor.default.tmb.gif"}}, {"person": {"url": "/celebrity/herbie_hancock/", "name": "Herbie Hancock", "thumbnailImg": "https://resizing.flixster.com/Hh3Qcp7DdI1WX-PlWPafv7rCBu0=/80x80/v1.cjszNDIwNDtqOzE4NzY5OzIwNDg7NDMzOzY1Mg"}}, {"person": {"url": "/celebrity/quincy_jones/", "name": "Quincy Jones", "thumbnailImg": "https://resizing.flixster.com/xVQdsOKWslvJo7scZkmgjBbf2v4=/80x80/v1.cjsyMjQ5MztqOzE4ODAzOzIwNDg7NjAwOzQyNg"}}, {"person": {"url": "/celebrity/justin_kauflin/", "name": "Justin Kauflin", "thumbnailImg": "https://d2a5cgar23scu2.cloudfront.net/static/images/redesign/actor.default.tmb.gif"}}, {"person": {"url": "/celebrity/arturo_sandoval/", "name": "Arturo Sandoval", "thumbnailImg": "https://d2a5cgar23scu2.cloudfront.net/static/images/redesign/actor.default.tmb.gif"}}, {"person": {"url": "/celebrity/bill_cosby/", "name": "Bill Cosby", "thumbnailImg": "https://resizing.flixster.com/vU5I2wEuy7-pQwbqRMdw2dK6Zck=/80x80/v1.cjs0OTc0MztqOzE4NzgzOzIwNDg7MTk1MDszMDAw"}}, {"person": {"url": "/celebrity/mulgrew_miller/", "name": "Mulgrew Miller", "thumbnailImg": "https://d2a5cgar23scu2.cloudfront.net/static/images/redesign/actor.default.tmb.gif"}}, {"person": {"url": "/celebrity/phyllis_kauflin/", "name": "Phyllis Kauflin", "thumbnailImg": "https://d2a5cgar23scu2.cloudfront.net/static/images/redesign/actor.default.tmb.gif"}}, {"person": {"url": "/celebrity/frank_kauflin/", "name": "Frank Kauflin", "thumbnailImg": "https://d2a5cgar23scu2.cloudfront.net/static/images/redesign/actor.default.tmb.gif"}}, {"person": {"url": "/celebrity/simmie_armstrong_jr/", "name": "Simmie Armstrong, Jr.", "thumbnailImg": "https://d2a5cgar23scu2.cloudfront.net/static/images/redesign/actor.default.tmb.gif"}}, {"person": {"url": "/celebrity/miles_davis/", "name": "Miles Davis", "thumbnailImg": "https://resizing.flixster.com/vtJe19Cew-kq7n-5o1bgwabhF1g=/80x80/v1.cDsxMzgyNTQwODtqOzE4ODAzOzIwNDg7Mzg0OzI5OA"}}, {"person": {"url": "/celebrity/christian_mcbride_4/", "name": "Christian McBride", "thumbnailImg": "https://d2a5cgar23scu2.cloudfront.net/static/images/redesign/actor.default.tmb.gif"}}, {"person": {"url": "/celebrity/terri_lyne_carrington/", "name": "Terri Lyne Carrington", "thumbnailImg": "https://d2a5cgar23scu2.cloudfront.net/static/images/redesign/actor.default.tmb.gif"}}, {"person": {"url": "/celebrity/terry_lyne_carrington/", "name": "Terry Lyne Carrington", "thumbnailImg": "https://d2a5cgar23scu2.cloudfront.net/static/images/redesign/actor.default.tmb.gif"}}, {"person": {"url": "/celebrity/wynton_marsalis/", "name": "Wynton Marsalis", "thumbnailImg": "https://resizing.flixster.com/-cflK5GuTD07_UrOK_MfHBj3UOY=/80x80/v1.cjsyMjIyMTtqOzE4ODAxOzIwNDg7NjAwOzUxNQ"}}, {"person": {"url": "/celebrity/diane_reeves/", "name": "Dianne Reeves", "thumbnailImg": "https://d2a5cgar23scu2.cloudfront.net/static/images/redesign/actor.default.tmb.gif"}}, {"person": {"url": "/celebrity/rodney_whitaker_2/", "name": "Rodney Whitaker", "thumbnailImg": "https://d2a5cgar23scu2.cloudfront.net/static/images/redesign/actor.default.tmb.gif"}}, {"person": {"url": "/celebrity/billy_williams/", "name": "Billy Williams", "thumbnailImg": "https://d2a5cgar23scu2.cloudfront.net/static/images/redesign/actor.default.tmb.gif"}, "characters": [{"name": "Justin Kauflin Trio"}]}, {"person": {"url": "/celebrity/kellen_harrison/", "name": "Kellen Harrison", "thumbnailImg": "https://d2a5cgar23scu2.cloudfront.net/static/images/redesign/actor.default.tmb.gif"}}, {"person": {"url": "/celebrity/phil_kuehn/", "name": "Phil Kuehn", "thumbnailImg": "https://d2a5cgar23scu2.cloudfront.net/static/images/redesign/actor.default.tmb.gif"}}, {"person": {"url": "/celebrity/alan_hicks_2/", "name": "Alan Hicks", "thumbnailImg": "https://d2a5cgar23scu2.cloudfront.net/static/images/redesign/actor.default.tmb.gif"}}, {"person": {"url": "/celebrity/kevin_neaton/", "name": "Kevin Neaton", "thumbnailImg": "https://d2a5cgar23scu2.cloudfront.net/static/images/redesign/actor.default.tmb.gif"}}, {"person": {"url": "/celebrity/nick_morrison/", "name": "Nick Morrison", "thumbnailImg": "https://d2a5cgar23scu2.cloudfront.net/static/images/redesign/actor.default.tmb.gif"}}, {"person": {"url": "/celebrity/stantawn_kendrick/", "name": "Stantawn Kendrick", "thumbnailImg": "https://d2a5cgar23scu2.cloudfront.net/static/images/redesign/actor.default.tmb.gif"}}]}, "title": "Keep On Keepin' On", "adjustedScore": 98.89102423149654, "ratings": {"critics_rating": "Certified Fresh", "audience_score": 88, "dvdReleaseDate": 1421136000000, "critics_score": 98, "theaterReleaseDate": 1411110000000, "audience_rating": "Upright"}, "videoClips": {"mainTrailer": {"hlsUrl": "http://video.internetvideoarchive.net/video.m3u8?cmd=6&publishedid=111125&customerid=300120&e=1619087478750&sub=RTO&fmt=11&h=7accbac282bea25a1575c8a88d576676", "seconds": 14, "minutes": 2, "id": 11203195, "title": "Keep On Keepin' On", "thumbUrl": "http://content.internetvideoarchive.com/content/photos/9149/111125_049.jpg", "mp4Url": "http://video.internetvideoarchive.net/video.mp4?cmd=6&publishedid=111125&customerid=300120&e=1619087478750&sub=RTO&fmt=4&videokbrate=750&h=5d07397cce19376d8f1680d24ac045fc"}, "size": 1, "videoClips": [{"hlsUrl": "http://video.internetvideoarchive.net/video.m3u8?cmd=6&publishedid=111125&customerid=300120&e=1619087478750&sub=RTO&fmt=11&h=7accbac282bea25a1575c8a88d576676", "seconds": 14, "minutes": 2, "id": 11203195, "title": "Keep On Keepin' On", "thumbUrl": "http://content.internetvideoarchive.com/content/photos/9149/111125_049.jpg", "mp4Url": "http://video.internetvideoarchive.net/video.mp4?cmd=6&publishedid=111125&customerid=300120&e=1619087478750&sub=RTO&fmt=4&videokbrate=750&h=5d07397cce19376d8f1680d24ac045fc"}]}, "isUpcoming": false, "posters": {"original": "https://resizing.flixster.com/hLnUh-j_BiUWkmqxj6ZrqdPHfpA=/2600x3852/v1.bTsxMTE4OTI5NTtqOzE4ODQ5OzIwNDg7MjYwMDszODUy", "detailed": "https://resizing.flixster.com/_EXV8ulMoAh3o8MjbZ-TDrqklfA=/180x267/v1.bTsxMTE4OTI5NTtqOzE4ODQ5OzIwNDg7MjYwMDszODUy", "profile": "https://resizing.flixster.com/OUxZbciXA8vhbadow1mFggIz6xA=/120x178/v1.bTsxMTE4OTI5NTtqOzE4ODQ5OzIwNDg7MjYwMDszODUy", "thumbnail": "https://resizing.flixster.com/CV1Ei3Msq2pay5Vskb47ymW0wcY=/54x80/v1.bTsxMTE4OTI5NTtqOzE4ODQ5OzIwNDg7MjYwMDszODUy"}, "isLimited": true, "mainTrailer": {"thumbUrl": "https://content.internetvideoarchive.com/content/photos/9149/111125_049.jpg", "hlsUrl": "http://video.internetvideoarchive.net/video.m3u8?cmd=6&publishedid=111125&customerid=300120&e=1619087478363&sub=RTO&fmt=11&h=70925d354ea5e3c984b5d93ef47b6fde", "id": 11203195, "mp4Url": "http://video.internetvideoarchive.net/video.mp4?cmd=6&publishedid=111125&customerid=300120&e=1619087478363&sub=RTO&fmt=4&videokbrate=750&h=9d46d23f6ba011e7ae1eff90e648c449"}, "advisory": "for some language", "id": 771359010}