{"url": "/m/marley/", "isOnOpening": false, "boxoffice": "$1.4M", "genreSet": [{"displayName": "Documentary", "id": 8}, {"displayName": "Musical & Performing Arts", "id": 12}, {"displayName": "Special Interest", "id": 15}], "officialUrl": "http://www.facebook.com/bobmarleymovie", "isInTheaters": false, "synopsis": "Bob Marley's universal appeal, impact on music history and role as a social and political prophet is both unique and unparalleled. Marley is the definitive life story of the musician, revolutionary, and legend, from his early days to his rise to international superstardom. Made with the support of the Marley family, the film features rare footage, incredible performances and revelatory interviews with the people that knew him best. -- (C) Official Site", "links": {"alternate": "//www.rottentomatoes.com/m/marley/"}, "runningTime": 144, "year": 2012, "trackingType": "DvdOther", "status": "Live", "isPlaying": false, "isOnDVD": true, "runningTimeStr": "2 hr. 24 min.", "ratingSummary": {"topcount": 44, "consensus": "Kevin Macdonald's exhaustive, evenhanded portrait of Bob Marley offers electrifying concert footage and fascinating insights into reggae's greatest star.", "topCritics": {"hasScore": true, "numReviews": 44, "meterClass": "certified", "numRotten": 3, "numFresh": 41, "hasReviews": true, "meterValue": 93, "averageRating": 7.771053}, "audience": {"meterScore": 90, "averageScore": 4.278700828552246, "numTotal": 27672, "ratingType": "viewed"}, "allcount": 113, "rottencount": 6, "dvdcount": 4, "allCritics": {"hasScore": true, "numReviews": 113, "meterClass": "certified", "numRotten": 6, "numFresh": 107, "hasReviews": true, "meterValue": 95, "averageRating": 7.93}, "freshcount": 107}, "mpaaRating": "PG-13", "vanity": "marley", "photos": {"photos": [{"url": "https://resizing.flixster.com/LfIpJ3sGjBhLab_Y0_0lrJC0gTs=/1024x768/v1.bjszOTM2NDtqOzE4Nzk5OzIwNDg7MTQ0MDsxMDgw", "index": 0, "submittedBy": "RT Staff", "height": 768, "imageId": 39364, "thumbnail": "https://resizing.flixster.com/nwymtXsMyKQntAxY5pshXlboKJU=/80x80/v1.bjszOTM2NDtqOzE4Nzk5OzIwNDg7MTQ0MDsxMDgw", "submittedDate": "2014-06-30", "id": "multiuse-39364", "photoType": "movie", "width": 1024}, {"url": "https://resizing.flixster.com/-5unAscyKJ_FC9Mlx-wkxI1Im2c=/1024x768/v1.bjszOTM2NTtqOzE4ODAwOzIwNDg7MTQ0MDsxMDgw", "index": 1, "submittedBy": "RT Staff", "height": 768, "imageId": 39365, "thumbnail": "https://resizing.flixster.com/uA5z6zKHSi6zkDQiFzJefeKaAww=/80x80/v1.bjszOTM2NTtqOzE4ODAwOzIwNDg7MTQ0MDsxMDgw", "submittedDate": "2014-06-30", "id": "multiuse-39365", "photoType": "movie", "width": 1024}, {"url": "https://resizing.flixster.com/7SYOe_Q1DgrCtcVIEMkky4YFeUM=/1024x768/v1.bjszOTM2NjtqOzE4ODAxOzIwNDg7MjgxNjsyMTEy", "index": 2, "submittedBy": "RT Staff", "height": 768, "imageId": 39366, "thumbnail": "https://resizing.flixster.com/WF5Nxx_kHsvY5FarCMvq0RR_LZU=/80x80/v1.bjszOTM2NjtqOzE4ODAxOzIwNDg7MjgxNjsyMTEy", "submittedDate": "2014-06-30", "id": "multiuse-39366", "photoType": "movie", "width": 1024}, {"url": "https://resizing.flixster.com/DBisFfOg1HNMRJJhS_-n26PKQdM=/1024x576/v1.bjsyNjAxNDExO2o7MTg4NDY7MjA0ODszMDAwOzE2ODg", "index": 3, "submittedBy": "RT Staff", "height": 576, "imageId": 2601411, "thumbnail": "https://resizing.flixster.com/yJlOz8Gs2wRUYByHELS-tg5WJNc=/80x80/v1.bjsyNjAxNDExO2o7MTg4NDY7MjA0ODszMDAwOzE2ODg", "submittedDate": "2020-09-19", "id": "multiuse-2601411", "photoType": "movie", "width": 1024}, {"url": "https://resizing.flixster.com/jIGs23Rhan8KcvuyAdInmXXAS3M=/1024x1024/v1.bjsyNjAxNDE2O2o7MTg4NTE7MjA0ODsyMDQ4OzIwNDg", "index": 4, "submittedBy": "RT Staff", "height": 1024, "imageId": 2601416, "thumbnail": "https://resizing.flixster.com/iJ4eqDF6yaU-PlbPNmhk0Em2Rik=/80x80/v1.bjsyNjAxNDE2O2o7MTg4NTE7MjA0ODsyMDQ4OzIwNDg", "submittedDate": "2020-09-19", "id": "multiuse-2601416", "photoType": "movie", "width": 1024}, {"url": "https://resizing.flixster.com/OPiY9FS_sVnQidFsH2P8-7D_kWc=/1024x512/v1.bjsyNjAxNDE3O2o7MTg4NTI7MjA0ODsyMDQ4OzEwMjQ", "index": 5, "submittedBy": "RT Staff", "height": 512, "imageId": 2601417, "thumbnail": "https://resizing.flixster.com/psk9BsMxgSkyGzFg9fJ7lH_wqu8=/80x80/v1.bjsyNjAxNDE3O2o7MTg4NTI7MjA0ODsyMDQ4OzEwMjQ", "submittedDate": "2020-09-19", "id": "multiuse-2601417", "photoType": "movie", "width": 1024}, {"url": "https://resizing.flixster.com/Zh3xnDBWNARcMxWfmPVil1qTGbo=/682x1023/v1.bjsyNjAxNDE4O2o7MTg4NTM7MjA0ODsxNjAwOzI0MDA", "index": 6, "submittedBy": "RT Staff", "height": 1023, "imageId": 2601418, "thumbnail": "https://resizing.flixster.com/PlgCg1ccnDo2gEzMtMpkXHhXj4E=/80x80/v1.bjsyNjAxNDE4O2o7MTg4NTM7MjA0ODsxNjAwOzI0MDA", "submittedDate": "2020-09-19", "id": "multiuse-2601418", "photoType": "movie", "width": 682}, {"url": "https://resizing.flixster.com/imm_QI5VqfkPPgXzo5Z81rSR5YQ=/768x1024/v1.bjsyNjAxNDE5O2o7MTg4NTQ7MjA0ODsxNTM2OzIwNDg", "index": 7, "submittedBy": "RT Staff", "height": 1024, "imageId": 2601419, "thumbnail": "https://resizing.flixster.com/rokP3xQ6_M2U0rGPk2SL72x0zRc=/80x80/v1.bjsyNjAxNDE5O2o7MTg4NTQ7MjA0ODsxNTM2OzIwNDg", "submittedDate": "2020-09-19", "id": "multiuse-2601419", "photoType": "movie", "width": 768}, {"url": "https://resizing.flixster.com/LzPIc1aAyD3ddUxMuxYc4RvG1RQ=/1024x768/v1.bjsyNjAxNDIwO2o7MTg4NTU7MjA0ODsyMDQ4OzE1MzY", "index": 8, "submittedBy": "RT Staff", "height": 768, "imageId": 2601420, "thumbnail": "https://resizing.flixster.com/O7_MLHydr3mNkYyNo1LvSC5i1I8=/80x80/v1.bjsyNjAxNDIwO2o7MTg4NTU7MjA0ODsyMDQ4OzE1MzY", "submittedDate": "2020-09-19", "id": "multiuse-2601420", "photoType": "movie", "width": 1024}, {"url": "https://resizing.flixster.com/ZIQCb5Ume8iPdWdU9N19w-0FtJw=/1024x576/v1.bjsyNjAxNDIxO2o7MTg4NTY7MjA0ODsyMDQ4OzExNTI", "index": 9, "submittedBy": "RT Staff", "height": 576, "imageId": 2601421, "thumbnail": "https://resizing.flixster.com/xCXXm02jevJr9RBoHL0rgSBEld8=/80x80/v1.bjsyNjAxNDIxO2o7MTg4NTY7MjA0ODsyMDQ4OzExNTI", "submittedDate": "2020-09-19", "id": "multiuse-2601421", "photoType": "movie", "width": 1024}, {"url": "https://resizing.flixster.com/3o0Zi8xnXopBiJN1ywloVdNqhZ8=/405x600/v1.aDs4ODU1NTtqOzE4ODA2OzIwNDg7MTAxMjsxNTAw", "index": 10, "submittedBy": "RT Staff", "height": 600, "imageId": 88555, "thumbnail": "https://resizing.flixster.com/m5pIWflwvUYwQ9S9LikE7o8mtQA=/80x80/v1.aDs4ODU1NTtqOzE4ODA2OzIwNDg7MTAxMjsxNTAw", "submittedDate": "2012-04-04", "caption": "", "id": "movie-88555", "photoType": "movie", "width": 405}, {"url": "https://resizing.flixster.com/6uasoBSYGRDvjkbauztw2TtpoH0=/401x600/v1.aDs4NzE0ODtqOzE4Nzk0OzIwNDg7MTM2OTsyMDQ4", "index": 11, "submittedBy": "RT Staff", "height": 600, "imageId": 87148, "thumbnail": "https://resizing.flixster.com/xPSE4wwXkIMMOYiu-gwIF7yq7SA=/80x80/v1.aDs4NzE0ODtqOzE4Nzk0OzIwNDg7MTM2OTsyMDQ4", "submittedDate": "2012-02-28", "caption": "", "id": "movie-87148", "photoType": "movie", "width": 401}, {"url": "https://resizing.flixster.com/QNhXhvTN7h5Gttwnd9WPSo8TBf0=/600x338/v1.aDs4NzE0OTtqOzE4Nzk1OzIwNDg7MTkyMDsxMDgw", "index": 12, "submittedBy": "RT Staff", "height": 338, "imageId": 87149, "thumbnail": "https://resizing.flixster.com/s8RfYCYGLbKync1MJ2p9A8RqIE8=/80x80/v1.aDs4NzE0OTtqOzE4Nzk1OzIwNDg7MTkyMDsxMDgw", "submittedDate": "2012-02-28", "caption": "", "id": "movie-87149", "photoType": "movie", "width": 600}, {"url": "https://resizing.flixster.com/qss4ANnFeMqwD6X1zyfjl2e6BKQ=/405x600/v1.aDs4NzE1MDtqOzE4Nzk2OzIwNDg7MTM4MjsyMDQ4", "index": 13, "submittedBy": "RT Staff", "height": 600, "imageId": 87150, "thumbnail": "https://resizing.flixster.com/fBLzRa_oQLqS7qIjgMR6wWgGcIo=/80x80/v1.aDs4NzE1MDtqOzE4Nzk2OzIwNDg7MTM4MjsyMDQ4", "submittedDate": "2012-02-28", "caption": "", "id": "movie-87150", "photoType": "movie", "width": 405}, {"url": "https://resizing.flixster.com/LwC90Z4tc6PeSgm3JzaiaL4oHIA=/400x600/v1.aDs4NzE1MTtqOzE4Nzk3OzIwNDg7MTIyNzsxODQy", "index": 14, "submittedBy": "RT Staff", "height": 600, "imageId": 87151, "thumbnail": "https://resizing.flixster.com/VqpCgnLVaSOh4yWW7W5r-afGlFE=/80x80/v1.aDs4NzE1MTtqOzE4Nzk3OzIwNDg7MTIyNzsxODQy", "submittedDate": "2012-02-28", "caption": "", "id": "movie-87151", "photoType": "movie", "width": 400}, {"url": "https://resizing.flixster.com/snFGlDleddePw9sTwdJVxxJ6gQY=/405x600/v1.aDs4NzE1MjtqOzE4Nzk4OzIwNDg7MTM4NDsyMDQ4", "index": 15, "submittedBy": "RT Staff", "height": 600, "imageId": 87152, "thumbnail": "https://resizing.flixster.com/tGLtkp9Jc_prSMMUrMYXiJrhzqo=/80x80/v1.aDs4NzE1MjtqOzE4Nzk4OzIwNDg7MTM4NDsyMDQ4", "submittedDate": "2012-02-28", "caption": "", "id": "movie-87152", "photoType": "movie", "width": 405}, {"url": "https://resizing.flixster.com/hHB-KkL__DZrL9DkTTl5460XsB4=/402x600/v1.aDs4NzE1MztqOzE4Nzk5OzIwNDg7MTM3MTsyMDQ4", "index": 16, "submittedBy": "RT Staff", "height": 600, "imageId": 87153, "thumbnail": "https://resizing.flixster.com/ZUYUO8NvN_vn3DIH8rrMZqQ10G4=/80x80/v1.aDs4NzE1MztqOzE4Nzk5OzIwNDg7MTM3MTsyMDQ4", "submittedDate": "2012-02-28", "caption": "", "id": "movie-87153", "photoType": "movie", "width": 402}, {"url": "https://resizing.flixster.com/yXkJGSfEoKjLPZYP17WIS9dolmc=/600x338/v1.aDs4NzE1NDtqOzE4ODAwOzIwNDg7MTkyMDsxMDgw", "index": 17, "submittedBy": "RT Staff", "height": 338, "imageId": 87154, "thumbnail": "https://resizing.flixster.com/8mfMcRwaYsKriZcTMa1XUc_SQQQ=/80x80/v1.aDs4NzE1NDtqOzE4ODAwOzIwNDg7MTkyMDsxMDgw", "submittedDate": "2012-02-28", "caption": "", "id": "movie-87154", "photoType": "movie", "width": 600}, {"url": "https://resizing.flixster.com/uqc2iwHD4aVQO69kr7BoPMc_lPs=/600x400/v1.aDs4NzE0NztqOzE4NzkzOzIwNDg7MjA0ODsxMzY1", "index": 18, "submittedBy": "RT Staff", "height": 400, "imageId": 87147, "thumbnail": "https://resizing.flixster.com/VhTQwZXCAzNCE9VLryVsJT8FbY8=/80x80/v1.aDs4NzE0NztqOzE4NzkzOzIwNDg7MjA0ODsxMzY1", "submittedDate": "2012-02-28", "caption": "", "id": "movie-87147", "photoType": "movie", "width": 600}, {"url": "https://resizing.flixster.com/0u98n-kiuAsokGnBBVJThri68O8=/405x600/v1.aDs4Njg0NTtqOzE4ODA2OzIwNDg7MTAxMjsxNTAw", "index": 19, "submittedBy": "RT Staff", "height": 600, "imageId": 86845, "thumbnail": "https://resizing.flixster.com/fiwjqBuA7_qWBXFppT3kB8WZXP0=/80x80/v1.aDs4Njg0NTtqOzE4ODA2OzIwNDg7MTAxMjsxNTAw", "submittedDate": "2012-02-17", "caption": "", "id": "movie-86845", "photoType": "movie", "width": 405}], "length": 20}, "studio": "Magnolia Pictures", "purchaseOptions": {"netflix": {"streamingId": "70232197"}, "vudu": {"url": "https://www.vudu.com/content/movies/details/Marley/306423", "type": "buy"}, "iTunes": {"url": "https://itunes.apple.com/movie/marley/id513207186?uo=5", "price": "9.99"}}, "reviews": {"total": 113, "links": {"alternate": "//www.rottentomatoes.com/m/marley/#reviews", "self": "api.flixster.com/movies/marley/reviews.json?review_type=mob&country=us&page=1", "prev": "api.flixster.com/movies/marley/reviews.json?review_type=mob&country=us&page=0", "next": "api.flixster.com/movies/marley/reviews.json?review_type=mob&country=us&page=2"}, "reviews": [{"isRotten": false, "isFresh": true, "publication": {"url": "", "name": "NOW Toronto"}, "isTop": true, "creationDate": 1337343312000, "freshness": "fresh", "critic": {"url": "/critic/radheyan-simonpillai", "name": "Radheyan Simonpillai", "id": 13336, "thumbnailImage": "https://resizing.flixster.com/iyHBKONiF8qNoDgcHj0SoyjdcSo=/72x72/v1.YzsxODIwO2c7MTg3ODU7MjA0ODszODs0Mg"}, "quote": "Marley aficionados will be astonished by the depth and breadth of the documentary, which portrays the musician known as Tuff Gong as both a fallible man and an untouchable legend.", "id": 2085210, "original_score": "4/5", "links": {}}, {"isRotten": false, "url": "http://www.theglobeandmail.com/news/arts/movies/adoring-marley-biopic-may-be-overdoing-it/article2436118/", "creationDate": 1337337585000, "isFresh": true, "id": 2085105, "quote": "Marley is highly watchable, finely crafted legacy preservation - and it's either a white-washed sham or awesomely shaded.", "links": {"review": "http://www.theglobeandmail.com/news/arts/movies/adoring-marley-biopic-may-be-overdoing-it/article2436118/"}, "publication": {"url": "", "name": "Globe and Mail"}, "isTop": true, "freshness": "fresh", "critic": {"url": "/critic/brad-wheeler", "name": "Brad Wheeler", "id": 10998, "thumbnailImage": "https://d2a5cgar23scu2.cloudfront.net/static/images/redesign/user.none.tmb.jpg"}, "original_score": "3/4"}, {"isRotten": false, "isFresh": true, "publication": {"url": "", "name": "Toronto Star"}, "isTop": true, "creationDate": 1337249670000, "freshness": "fresh", "critic": {"url": "/critic/peter-howell", "name": "Peter Howell", "id": 947, "thumbnailImage": "https://resizing.flixster.com/dg3IUPFNsPE1F8FMBtjomvceuy8=/72x72/v1.YzsyNTY4O2c7MTg3Njg7MjA0ODsxNTA7MTUw"}, "quote": "It wants to show us the man behind the famous dreads, beatific smile and durable songs of love, hope and longing. In this task it succeeds admirably.", "id": 2084704, "original_score": "3/4", "links": {}}, {"isRotten": false, "url": "http://dwightbrownink.com/marley-12/", "creationDate": 1335269718000, "isFresh": true, "id": 2075327, "quote": "You'll walk away from this ambitious documentary longing to hear Marley's voice again (thank heaven for iTunes) and with a deep respect for a man.", "links": {"review": "http://dwightbrownink.com/marley-12/"}, "publication": {"url": "", "name": "National Newspaper Publishers Association "}, "isTop": true, "freshness": "fresh", "critic": {"url": "/critic/dwight-brown-18916", "name": "Dwight Brown", "id": 18916, "thumbnailImage": "https://resizing.flixster.com/u4vJ_qeeqLzoBQk5J3K6LcLcjZI=/72x72/v1.YzszODUxO2o7MTg3OTE7MjA0ODszMDA7MzAw"}, "original_score": "3.5/4"}, {"isRotten": false, "url": "http://www.usatoday.com/life/movies/reviews/story/2012-04-20/marley-documentary-ziggy-marley/54435508/1?csp=34life&utm_source=feedburner&utm_medium=feed&utm_campaign=Feed%3A+UsatodaycomMovies-TopStories+%28Life+-+Movies+-+Top+Stories%29&utm_content=Google", "creationDate": 1334953337000, "isFresh": true, "id": 2074948, "quote": "Sprinkled with riffs, concert footage and home videos, the family-authorized documentary does what the artist usually did: When in doubt, return to the beat.", "links": {"review": "http://www.usatoday.com/life/movies/reviews/story/2012-04-20/marley-documentary-ziggy-marley/54435508/1?csp=34life&utm_source=feedburner&utm_medium=feed&utm_campaign=Feed%3A+UsatodaycomMovies-TopStories+%28Life+-+Movies+-+Top+Stories%29&utm_content=Google"}, "publication": {"url": "", "name": "USA Today"}, "isTop": true, "freshness": "fresh", "critic": {"url": "/critic/scott-bowles", "name": "Scott Bowles", "id": 12114, "thumbnailImage": "https://resizing.flixster.com/SqZhvklLVbvenav71pMyl0IBz30=/72x72/v1.YzsyMjM1O2o7MTg3OTU7MjA0ODsyMDA7MjUw"}, "original_score": "3.5/4"}, {"isRotten": false, "url": "http://www.chicagoreader.com/chicago/marley/Film?oid=6074265", "publication": {"url": "", "name": "Chicago Reader"}, "isTop": true, "creationDate": 1334950308000, "isFresh": true, "freshness": "fresh", "critic": {"url": "/critic/peter-margasak", "name": "Peter Margasak", "id": 12271, "thumbnailImage": "https://d2a5cgar23scu2.cloudfront.net/static/images/redesign/user.none.tmb.jpg"}, "quote": "Macdonald supplies some interesting and novel details about the musician's life and art, though the movie's narrative arc and documentary methods are totally predictable.", "id": 2074933, "links": {"review": "http://www.chicagoreader.com/chicago/marley/Film?oid=6074265"}}, {"isRotten": false, "url": "https://www.ioncinema.com/news/disc-reviews/marley-blu-ray-review", "publication": {"url": "http://https://www.ioncinema.com", "name": "IONCINEMA.com"}, "isTop": false, "creationDate": 1605827531000, "isFresh": true, "freshness": "fresh", "critic": {"url": "/critic/jordan-m-smith", "name": "Jordan M. Smith", "id": 23766, "thumbnailImage": "https://resizing.flixster.com/uqlx9SE2exLq3Qv2nRduu0eKtJs=/72x72/v1.YzszMTk1O2o7MTg3NjU7MjA0ODszMDA7MzAw"}, "quote": "While not the most inventive or efficient bio-doc, Macdonald's feature serves as the most complete visual record of Marley's legacy, and for that alone it deserves a view or two.", "id": 2743773, "links": {"publication": "http://https://www.ioncinema.com", "review": "https://www.ioncinema.com/news/disc-reviews/marley-blu-ray-review"}}, {"isRotten": false, "url": "https://www.niagara-gazette.com/news/night_and_day/calleri-watching-classic-hitchcock-and-pondering-jason-bourne/article_b4ad7a6b-f3df-55d4-9ec6-3abd19872673.html", "publication": {"url": "", "name": "Niagara Gazette"}, "isTop": false, "creationDate": 1596995612000, "isFresh": true, "freshness": "fresh", "critic": {"url": "/critic/michael-calleri", "name": "Michael Calleri", "id": 24953, "thumbnailImage": "https://d2a5cgar23scu2.cloudfront.net/static/images/redesign/user.none.tmb.jpg"}, "quote": "When \"Marley\" was originally released, the rare concert footage and previously unheard music tracks were an exuberantly received revelation.", "id": 2712137, "links": {"review": "https://www.niagara-gazette.com/news/night_and_day/calleri-watching-classic-hitchcock-and-pondering-jason-bourne/article_b4ad7a6b-f3df-55d4-9ec6-3abd19872673.html"}}, {"isRotten": false, "url": "https://battleroyalewithcheese.com/2020/08/marley-review/", "publication": {"url": "", "name": "Battle Royale With Cheese"}, "isTop": false, "creationDate": 1596546710000, "isFresh": true, "freshness": "fresh", "critic": {"url": "/critic/grace-williams", "name": "Grace Williams", "id": 25159, "thumbnailImage": "https://d2a5cgar23scu2.cloudfront.net/static/images/redesign/user.none.tmb.jpg"}, "quote": "A must-see documentary for Bob Marley fans, but also for fans of politics and making positive change.", "id": 2710697, "links": {"review": "https://battleroyalewithcheese.com/2020/08/marley-review/"}}, {"isRotten": false, "url": "https://filmthreat.com/reviews/marley/", "creationDate": 1596125809000, "isFresh": true, "id": 2709621, "quote": "Marley is a one-of-a-kind documentary with impeccable pacing, beautiful visuals, and honest storytellers willing to deliver even the most unwelcome information.", "links": {"review": "https://filmthreat.com/reviews/marley/"}, "publication": {"url": "", "name": "Film Threat"}, "isTop": false, "freshness": "fresh", "critic": {"url": "/critic/kyle-bain", "name": "Kyle Bain", "id": 26893, "thumbnailImage": "https://d2a5cgar23scu2.cloudfront.net/static/images/redesign/user.none.tmb.jpg"}, "original_score": "8/10"}, {"isRotten": true, "url": "https://pnabarro.wordpress.com/2012/04/23/marley/", "creationDate": 1588032307000, "isFresh": false, "id": 2686098, "quote": "Macdonald makes the easy - but understandable - decision to chart a layman's whistlestop tour through the major events and turning points of Marley's life.", "links": {"review": "https://pnabarro.wordpress.com/2012/04/23/marley/"}, "publication": {"url": "", "name": "Patrick Nabarro"}, "isTop": false, "freshness": "rotten", "critic": {"url": "/critic/pj-nabarro", "name": "PJ Nabarro", "id": 23462, "thumbnailImage": "https://resizing.flixster.com/265FY97ZPzUl48aEXLRB9bdT_fo=/72x72/v1.YzszMTc4O2o7MTg3OTM7MjA0ODszMDA7MzAw"}, "original_score": "3/5"}, {"isRotten": false, "url": "http://takeonecinema.net/2012/marley/", "publication": {"url": "", "name": "TAKE ONE Magazine"}, "isTop": false, "creationDate": 1581608693000, "isFresh": true, "freshness": "fresh", "critic": {"url": "/critic/jim-ross", "name": "Jim Ross", "id": 25410, "thumbnailImage": "https://resizing.flixster.com/6GenVTAZdf5qKkVQ7F5diFlmtLc=/72x72/v1.YzszNTkzO2o7MTg4MDM7MjA0ODszMDA7MzAw"}, "quote": "The end result is a truly fascinating film full of insight and humour.", "id": 2669132, "links": {"review": "http://takeonecinema.net/2012/marley/"}}]}, "casts": {"screenwriters": [], "directors": [{"url": "/celebrity/kevin_macdonald/", "name": "Kevin Macdonald", "thumbnailImg": "https://d2a5cgar23scu2.cloudfront.net/static/images/redesign/actor.default.tmb.gif"}], "creators": [], "producers": [{"url": "/celebrity/steve_bing/", "name": "Steve Bing", "thumbnailImg": "https://d2a5cgar23scu2.cloudfront.net/static/images/redesign/actor.default.tmb.gif"}, {"url": "/celebrity/charles_steel/", "name": "Charles Steel", "thumbnailImg": "https://d2a5cgar23scu2.cloudfront.net/static/images/redesign/actor.default.tmb.gif"}, {"url": "/celebrity/zach_schwartz/", "name": "Zach Schwartz", "thumbnailImg": "https://d2a5cgar23scu2.cloudfront.net/static/images/redesign/actor.default.tmb.gif"}], "castItems": [{"person": {"url": "/celebrity/bob_marley/", "name": "Bob Marley", "thumbnailImg": "https://resizing.flixster.com/3kU5V8Kj9KyY6ZeUvU6oEjofCRQ=/80x80/v1.cDsxMzc1MjMzNztqOzE4ODExOzIwNDg7NTM1OzMzMg"}}, {"person": {"url": "/celebrity/rita_marley/", "name": "Rita Marley", "thumbnailImg": "https://resizing.flixster.com/smvsDLzDwAkzWbHEuPWnGA2v40k=/80x80/v1.cDsxMjIwODc2NTtqOzE4ODExOzIwNDg7MTk4OzIxNw"}}, {"person": {"url": "/celebrity/neville_bunny_wailer_livingston/", "name": "Neville 'Bunny Wailer' Livingston", "thumbnailImg": "https://d2a5cgar23scu2.cloudfront.net/static/images/redesign/actor.default.tmb.gif"}}, {"person": {"url": "/celebrity/chris_blackwell/", "name": "Chris Blackwell", "thumbnailImg": "https://d2a5cgar23scu2.cloudfront.net/static/images/redesign/actor.default.tmb.gif"}}, {"person": {"url": "/celebrity/cindy_breakspeare/", "name": "Cindy Breakspeare", "thumbnailImg": "https://d2a5cgar23scu2.cloudfront.net/static/images/redesign/actor.default.tmb.gif"}}, {"person": {"url": "/celebrity/cedella_marley/", "name": "Cedella Marley", "thumbnailImg": "https://resizing.flixster.com/HhG9pcC1jt3Cl0fQT7RkYKOdv2g=/80x80/v1.cDsxMzcxMzQ1NTtqOzE4ODA4OzIwNDg7NDE0OzU1Mw"}}, {"person": {"url": "/celebrity/ziggy_marley/", "name": "Ziggy Marley", "thumbnailImg": "https://resizing.flixster.com/ntKnqNr36mI7snJkoTe1ZO-Ernw=/80x80/v1.cDsxMjg4NjkyMjtqOzE4NzgxOzIwNDg7Mjk5OzMwMA"}}, {"person": {"url": "/celebrity/jimmy_cliff/", "name": "Jimmy Cliff", "thumbnailImg": "https://d2a5cgar23scu2.cloudfront.net/static/images/redesign/actor.default.tmb.gif"}}, {"person": {"url": "/celebrity/lee_perry/", "name": "Lee Perry", "thumbnailImg": "https://resizing.flixster.com/O-JOvVU6EMOglDCO1ueRZas-RzU=/80x80/v1.cDsxMjMwNDY3NTtqOzE4NzgyOzIwNDg7MzQ4OzQwMA"}}, {"person": {"url": "/celebrity/lee_scratch_perry/", "name": "Lee Scratch Perry", "thumbnailImg": "https://d2a5cgar23scu2.cloudfront.net/static/images/redesign/actor.default.tmb.gif"}}, {"person": {"url": "/celebrity/carlton_pee_wee_fraser/", "name": "Carlton \"Pee-Wee\" Fraser", "thumbnailImg": "https://d2a5cgar23scu2.cloudfront.net/static/images/redesign/actor.default.tmb.gif"}}, {"person": {"url": "/celebrity/cedella_booker/", "name": "Cedella Booker", "thumbnailImg": "https://d2a5cgar23scu2.cloudfront.net/static/images/redesign/actor.default.tmb.gif"}}]}, "title": "Marley", "adjustedScore": 98.72184962789318, "ratings": {"critics_rating": "Certified Fresh", "audience_score": 90, "dvdReleaseDate": 1344322800000, "critics_score": 95, "theaterReleaseDate": 1334905200000, "audience_rating": "Upright"}, "videoClips": {"mainTrailer": {"hlsUrl": "http://video.internetvideoarchive.net/video.m3u8?cmd=6&publishedid=422606&customerid=300120&e=1619087483281&sub=RTO&fmt=11&h=855a1f2e45aa94d7768625dd45b1099c", "seconds": 52, "minutes": 1, "id": 11162674, "title": "Marley", "thumbUrl": "http://content.internetvideoarchive.com/content/photos/7605/422606_007.jpg", "mp4Url": "http://video.internetvideoarchive.net/video.mp4?cmd=6&publishedid=422606&customerid=300120&e=1619087483281&sub=RTO&fmt=4&videokbrate=750&h=dd861e0dc8f24b522d0047fa96088688"}, "size": 1, "videoClips": [{"hlsUrl": "http://video.internetvideoarchive.net/video.m3u8?cmd=6&publishedid=422606&customerid=300120&e=1619087483281&sub=RTO&fmt=11&h=855a1f2e45aa94d7768625dd45b1099c", "seconds": 52, "minutes": 1, "id": 11162674, "title": "Marley", "thumbUrl": "http://content.internetvideoarchive.com/content/photos/7605/422606_007.jpg", "mp4Url": "http://video.internetvideoarchive.net/video.mp4?cmd=6&publishedid=422606&customerid=300120&e=1619087483281&sub=RTO&fmt=4&videokbrate=750&h=dd861e0dc8f24b522d0047fa96088688"}]}, "isUpcoming": false, "posters": {"original": "https://resizing.flixster.com/2_jXTCcZmz8MvJwQABFtgxfpBBw=/800x1200/v1.bTsxMTE3OTY2NTtqOzE4ODQ5OzIwNDg7ODAwOzEyMDA", "detailed": "https://resizing.flixster.com/nJbGzsqLdROHy3S202VLBMMLYl4=/180x270/v1.bTsxMTE3OTY2NTtqOzE4ODQ5OzIwNDg7ODAwOzEyMDA", "profile": "https://resizing.flixster.com/qW2LOpgJWFNtBHn516Q7b966RIQ=/120x180/v1.bTsxMTE3OTY2NTtqOzE4ODQ5OzIwNDg7ODAwOzEyMDA", "thumbnail": "https://resizing.flixster.com/NeCVZDLBE9ozmBa86UQOvAP4Cr4=/54x81/v1.bTsxMTE3OTY2NTtqOzE4ODQ5OzIwNDg7ODAwOzEyMDA"}, "isLimited": true, "mainTrailer": {"thumbUrl": "https://content.internetvideoarchive.com/content/photos/7605/422606_007.jpg", "hlsUrl": "http://video.internetvideoarchive.net/video.m3u8?cmd=6&publishedid=422606&customerid=300120&e=1619087483004&sub=RTO&fmt=11&h=83e205c2c0f4e4280d91c95a53d9f297", "id": 11162674, "mp4Url": "http://video.internetvideoarchive.net/video.mp4?cmd=6&publishedid=422606&customerid=300120&e=1619087483004&sub=RTO&fmt=4&videokbrate=750&h=393d3f0ea291ebdbf089c319f47408f9"}, "advisory": "for drug content, thematic elements and some violent images", "id": 771269025}