{"url": "/m/full_monty/", "isOnOpening": false, "genreSet": [{"displayName": "Musical & Performing Arts", "id": 12}, {"displayName": "Comedy", "id": 6}], "officialUrl": "", "isInTheaters": false, "synopsis": "Six guys with nothing left to lose try losing their clothing for fun and profit in this international hit comedy. Gaz (Robert Carlyle) and Dave (Mark Addy) are two former steelworkers in the British industrial town of Sheffield who have been devastated by the economic downturn in their community. Gaz is threatened with losing visitation rights with his son if he can't pay his child support, while Dave feels emasculated by his inability to support his wife. One day, Gaz stops by a local pub for a drink and is told it's women only tonight -- the Chippendales male exotic dancing troupe is playing, and they are demanding a hefty cover charge. Gaz decides there's nothing a bunch of pantywaists from America can do that he and his pals can't do better, and decides to form his own crew of male strippers, called \"Hard Steel.\" However, the local talent pool leaves a bit to be desired. Gaz isn't bad looking, but Dave is a bit heavy and very self conscious about it. Horse (Paul Barber) was probably hot stuff at Soul Night in the mid-70's, but his joints don't move like they used to. Guy (Hugo Speer) can't dance to save his life, but makes the troupe because ... well, let's say he and Dirk Diggler would have a lot to say to each other. Lomper (Steve Huison) is sometimes too busy attempting suicide to practice. And Gerald (Tom Wilkinson), their choreographer, isn't much on male exotic dancing -- ballroom dancing is more his speed. While \"Hard Steel\"'s performances are more amusing then enticing, for the first time since they lost their jobs the men have a reason to get up in the morning; joining the group has given them a circle of friendship, and a renewed sense of purpose. Combining broad comedy with believable and well-drawn characters, The Full Monty was a major box-office hit both in England and the United States and was nominated for Academy Awards as Best Picture, Best Director, and Best Original Screenplay. ~ Mark Deming, Rovi", "links": {"alternate": "//www.rottentomatoes.com/m/full_monty/"}, "runningTime": 91, "year": 1997, "trackingType": "DvdOther", "status": "Live", "isPlaying": false, "isOnDVD": true, "runningTimeStr": "1 hr. 31 min.", "ratingSummary": {"topcount": 11, "consensus": "Cheeky and infectiously good-natured, The Full Monty bares its big beating heart with a sly dose of ribald comedy.", "topCritics": {"hasScore": true, "numReviews": 11, "meterClass": "certified", "numRotten": 0, "numFresh": 11, "hasReviews": true, "meterValue": 100, "averageRating": 7.625}, "audience": {"meterScore": 79, "averageScore": 3.3035545349121094, "numTotal": 180077, "ratingType": "viewed"}, "allcount": 50, "rottencount": 2, "dvdcount": 6, "allCritics": {"hasScore": true, "numReviews": 50, "meterClass": "certified", "numRotten": 2, "numFresh": 48, "hasReviews": true, "meterValue": 96, "averageRating": 7.5}, "freshcount": 48}, "mpaaRating": "R", "vanity": "full_monty", "photos": {"photos": [{"url": "https://resizing.flixster.com/kmR5R-A6yr-tNTtOcSKbbFMh5K0=/1024x697/v1.bjsxMzUyNDA7ajsxODc4MTsyMDQ4OzIwMDA7MTM2MQ", "index": 0, "submittedBy": "RT Staff", "height": 697, "imageId": 135240, "thumbnail": "https://resizing.flixster.com/nhqaUoeKS2HVainon2rrpQKR2s0=/80x80/v1.bjsxMzUyNDA7ajsxODc4MTsyMDQ4OzIwMDA7MTM2MQ", "submittedDate": "2014-07-01", "id": "multiuse-135240", "photoType": "movie", "width": 1024}, {"url": "https://resizing.flixster.com/cYu8HG0M-D1Q00KQog0jq5IqNGE=/1024x673/v1.bjsxMzUyNDE7ajsxODc4MjsyMDQ4OzIwMDA7MTMxNQ", "index": 1, "submittedBy": "RT Staff", "height": 673, "imageId": 135241, "thumbnail": "https://resizing.flixster.com/a2SkQS_pl5dtCJSxHROKBRcDZOg=/80x80/v1.bjsxMzUyNDE7ajsxODc4MjsyMDQ4OzIwMDA7MTMxNQ", "submittedDate": "2014-07-01", "id": "multiuse-135241", "photoType": "movie", "width": 1024}, {"url": "https://resizing.flixster.com/N9TcOmV1QDgTbhHTDE5FeWmW_Xk=/1024x673/v1.bjsxMzUyNDI7ajsxODc4MzsyMDQ4OzIwMDA7MTMxNQ", "index": 2, "submittedBy": "RT Staff", "height": 673, "imageId": 135242, "thumbnail": "https://resizing.flixster.com/Cs8yN4z-jHvqSukx4s2LC-ITvzs=/80x80/v1.bjsxMzUyNDI7ajsxODc4MzsyMDQ4OzIwMDA7MTMxNQ", "submittedDate": "2014-07-01", "id": "multiuse-135242", "photoType": "movie", "width": 1024}, {"url": "https://resizing.flixster.com/EVsKRZejqk68VNc-rRlTV9BJ01E=/900x506/v1.bjsyNTc4ODg4O2o7MTg4Njc7MjA0ODs5MDA7NTA2", "index": 3, "submittedBy": "RT Staff", "height": 506, "imageId": 2578888, "thumbnail": "https://resizing.flixster.com/C7fdRjWFNO0CJRIQJ0I-rBIiFkE=/80x80/v1.bjsyNTc4ODg4O2o7MTg4Njc7MjA0ODs5MDA7NTA2", "submittedDate": "2020-08-07", "id": "multiuse-2578888", "photoType": "movie", "width": 900}, {"url": "https://resizing.flixster.com/zV4eiCiJ8BDzIoqS_R4F5e8aybo=/683x1024/v1.bjsyNTc4ODg5O2o7MTg4Njg7MjA0ODsxMjAwOzE3OTk", "index": 4, "submittedBy": "RT Staff", "height": 1024, "imageId": 2578889, "thumbnail": "https://resizing.flixster.com/9iIIGFjU1YlLFsPUWDaZFMhuXeI=/80x80/v1.bjsyNTc4ODg5O2o7MTg4Njg7MjA0ODsxMjAwOzE3OTk", "submittedDate": "2020-08-07", "id": "multiuse-2578889", "photoType": "movie", "width": 683}], "length": 5}, "studio": "Twentieth Century Fox Home Entertainment", "purchaseOptions": {"amazon": {"url": "http://www.amazon.com/gp/video/primesignup?t=0m0s&redirectToAsin=B009EEVWZA&tag=rottetomao_piv_mv-20", "isPrime": true}, "vudu": {"url": "https://www.vudu.com/content/movies/details/The-Full-Monty/7698", "type": "buy"}, "iTunes": {"url": "https://itunes.apple.com/movie/the-full-monty/id280385640?uo=5", "price": "4.99"}}, "reviews": {"total": 50, "links": {"alternate": "//www.rottentomatoes.com/m/full_monty/#reviews", "self": "api.flixster.com/movies/the-full-monty/reviews.json?review_type=mob&country=us&page=1", "prev": "api.flixster.com/movies/the-full-monty/reviews.json?review_type=mob&country=us&page=0", "next": "api.flixster.com/movies/the-full-monty/reviews.json?review_type=mob&country=us&page=2"}, "reviews": [{"isRotten": false, "url": "http://www.newsweek.com/shaking-their-booty-172032", "publication": {"url": "", "name": "Newsweek"}, "isTop": true, "creationDate": 1519778660000, "isFresh": true, "freshness": "fresh", "critic": {"url": "/critic/david-ansen", "name": "David Ansen", "id": 774, "thumbnailImage": "https://resizing.flixster.com/88-P1uy1qLIB_a7vPT43dl0XsQA=/72x72/v1.YzsxNjIxO2c7MTg3NjY7MjA0ODszODszMw"}, "quote": "The Full Monty finds both pathos and laughs in its farfetched conceit, avoiding the pitfalls of sappiness and shtik. Odds are good you'll exit grinning.", "id": 2460921, "links": {"review": "http://www.newsweek.com/shaking-their-booty-172032"}}, {"isRotten": false, "url": "http://www.rogerebert.com/reviews/the-full-monty-1997", "creationDate": 946713600000, "isFresh": true, "id": 71956, "quote": "From this grim working-class prospect, The Full Monty creates a lovable comedy.", "links": {"review": "http://www.rogerebert.com/reviews/the-full-monty-1997"}, "publication": {"url": "", "name": "Chicago Sun-Times"}, "isTop": true, "freshness": "fresh", "critic": {"url": "/critic/roger-ebert", "name": "Roger Ebert", "id": 16, "thumbnailImage": "https://resizing.flixster.com/Z1azjSA-72PEwykgNULa0bwtX1A=/72x72/v1.YzsyNTY5O2c7MTg3Njk7MjA0ODsxNTA7MTUw"}, "original_score": "3/4"}, {"isRotten": false, "url": "http://www.austinchronicle.com/gyrobase/Calendar/Film?Film=oid%3a141607", "creationDate": 946713600000, "isFresh": true, "id": 72023, "quote": "The Full Monty is feel-good comedy with none of the pejorative hints of innocuous blandness that term so often implies.", "links": {"review": "http://www.austinchronicle.com/gyrobase/Calendar/Film?Film=oid%3a141607"}, "publication": {"url": "", "name": "Austin Chronicle"}, "isTop": true, "freshness": "fresh", "critic": {"url": "/critic/russell-smith", "name": "Russell Smith", "id": 584, "thumbnailImage": "https://d2a5cgar23scu2.cloudfront.net/static/images/redesign/user.none.tmb.jpg"}, "original_score": "3/5"}, {"isRotten": false, "isFresh": true, "publication": {"url": "", "name": "USA Today"}, "isTop": true, "creationDate": 946713600000, "freshness": "fresh", "critic": {"url": "/critic/susan-wloszczyna", "name": "Susan Wloszczyna", "id": 1276, "thumbnailImage": "https://resizing.flixster.com/Ulpf2kDEpu93g67MW6oCy7infTE=/72x72/v1.YzsxNjYyO2c7MTg4MDc7MjA0ODszODszOA"}, "quote": "It's a familiar show-biz routine but one that's spangled with happy surprises and sharp acting.", "id": 72043, "original_score": "3.5/4", "links": {}}, {"isRotten": false, "isFresh": true, "publication": {"url": "", "name": "Entertainment Weekly"}, "isTop": true, "creationDate": 1315421243000, "freshness": "fresh", "critic": {"url": "/critic/lisa-schwarzbaum", "name": "Lisa Schwarzbaum", "id": 1172, "thumbnailImage": "https://resizing.flixster.com/L2OfhzM3FW31CC7RDfJ3f4zWIM4=/72x72/v1.YzsxNjQ3O2c7MTg3OTI7MjA0ODszODs0OA"}, "id": 2008918, "original_score": "B", "links": {}}, {"isRotten": false, "url": "http://www.globeandmail.com/servlet/ArticleNews/movie/MOVIEREVIEWS/19970919/TAMONT", "publication": {"url": "", "name": "Globe and Mail"}, "isTop": true, "creationDate": 1026486142000, "isFresh": true, "freshness": "fresh", "id": 737609, "original_score": "3/4", "links": {"review": "http://www.globeandmail.com/servlet/ArticleNews/movie/MOVIEREVIEWS/19970919/TAMONT"}}, {"isRotten": false, "url": "https://www.heraldsun.com.au/entertainment/movies/leigh-paatsch/your-night-in-every-movie-on-tv-tonight-rated-or-slated/news-story/b2db0a2274e163fdf2098769921255a3", "creationDate": 1599827139000, "isFresh": true, "id": 2723095, "quote": "Upbeat, crowd-pleasing tale of six unemployed steel workers faced with an unusual choice to guarantee their livelihood.", "links": {"review": "https://www.heraldsun.com.au/entertainment/movies/leigh-paatsch/your-night-in-every-movie-on-tv-tonight-rated-or-slated/news-story/b2db0a2274e163fdf2098769921255a3"}, "publication": {"url": "", "name": "Herald Sun (Australia)"}, "isTop": false, "freshness": "fresh", "critic": {"url": "/critic/leigh-paatsch", "name": "Leigh Paatsch", "id": 13081, "thumbnailImage": "https://d2a5cgar23scu2.cloudfront.net/static/images/redesign/user.none.tmb.jpg"}, "original_score": "3.5/5"}, {"isRotten": false, "url": "https://www.thedailybeast.com/whats-new-on-netflix-hulu-hbo-amazon-in-april-a-streaming-guide-for-coronavirus-quarantine?ref=wrap", "publication": {"url": "", "name": "The Daily Beast"}, "isTop": false, "creationDate": 1585959128000, "isFresh": true, "freshness": "fresh", "critic": {"url": "/critic/laura-bradley", "name": "Laura Bradley", "id": 17615, "thumbnailImage": "https://d2a5cgar23scu2.cloudfront.net/static/images/redesign/user.none.tmb.jpg"}, "quote": "This movie walked so that Magic Mike could run. Social commentary? Check. Unlikely pathos? Check. Male strippers? Six checks! ", "id": 2681185, "links": {"review": "https://www.thedailybeast.com/whats-new-on-netflix-hulu-hbo-amazon-in-april-a-streaming-guide-for-coronavirus-quarantine?ref=wrap"}}, {"isRotten": false, "url": "https://pnabarro.wordpress.com/2017/07/21/the-full-monty/", "creationDate": 1541282288000, "isFresh": true, "id": 2528039, "quote": "The Full Monty carries beneath its feelgood trajectory an exquisite air of gallows humour mixed with a dash of melancholy and a wee sprinkling of empathetic leftist politics.", "links": {"review": "https://pnabarro.wordpress.com/2017/07/21/the-full-monty/"}, "publication": {"url": "", "name": "Patrick Nabarro"}, "isTop": false, "freshness": "fresh", "critic": {"url": "/critic/pj-nabarro", "name": "PJ Nabarro", "id": 23462, "thumbnailImage": "https://resizing.flixster.com/265FY97ZPzUl48aEXLRB9bdT_fo=/72x72/v1.YzszMTc4O2o7MTg3OTM7MjA0ODszMDA7MzAw"}, "original_score": "3/5"}, {"isRotten": false, "url": "https://oneroomwithaview.com/2017/08/29/hot-stuff-the-full-monty-20-years-on/", "publication": {"url": "", "name": "One Room With A View"}, "isTop": false, "creationDate": 1535139039000, "isFresh": true, "freshness": "fresh", "critic": {"url": "/critic/stephanie-watts", "name": "Stephanie Watts", "id": 22661, "thumbnailImage": "https://resizing.flixster.com/DZM6CwLEJGWAH-txKl9qzGCVOJA=/72x72/v1.YzsyOTcwO2o7MTg3NjU7MjA0ODs5NjA7OTYw"}, "quote": "Its social commentary, its unlikely but charismatic cast, and heartfelt but humorous writing has made it a film that many people find hard to forget.", "id": 2501824, "links": {"review": "https://oneroomwithaview.com/2017/08/29/hot-stuff-the-full-monty-20-years-on/"}}, {"isRotten": false, "url": "http://antagonie.blogspot.com/2012/07/blockbuster-history-men-taking-off.html", "creationDate": 1341257691000, "isFresh": true, "id": 2093749, "quote": "Largely sweet and insubstantial, not so much \"funny\" as it is charming and grin-making.", "links": {"review": "http://antagonie.blogspot.com/2012/07/blockbuster-history-men-taking-off.html"}, "publication": {"name": "Antagony & Ecstasy"}, "isTop": false, "freshness": "fresh", "critic": {"url": "/critic/tim-brayton", "name": "Tim Brayton", "id": 12682, "thumbnailImage": "https://resizing.flixster.com/t87aEPD3_0heWdT2Cx2CpPwgZ7k=/72x72/v1.YzszODU2O2o7MTg3OTY7MjA0ODszMDA7MzAw"}, "original_score": "7/10"}, {"isRotten": false, "url": "http://www.commonsensemedia.org/movie-reviews/full-monty ", "creationDate": 1293989660000, "isFresh": true, "id": 1950574, "quote": "Who knew male strippers could be so sweet?", "links": {"review": "http://www.commonsensemedia.org/movie-reviews/full-monty "}, "publication": {"url": "", "name": "Common Sense Media"}, "isTop": false, "freshness": "fresh", "critic": {"url": "/critic/joyce-slaton", "name": "Joyce Slaton", "id": 13990, "thumbnailImage": "https://d2a5cgar23scu2.cloudfront.net/static/images/redesign/user.none.tmb.jpg"}, "original_score": "4/5"}]}, "casts": {"screenwriters": [{"url": "/celebrity/simon_beaufoy/", "name": "Simon Beaufoy", "thumbnailImg": "https://d2a5cgar23scu2.cloudfront.net/static/images/redesign/actor.default.tmb.gif"}, {"url": "/celebrity/simon_beaufor/", "name": "Simon Beaufor", "thumbnailImg": "https://d2a5cgar23scu2.cloudfront.net/static/images/redesign/actor.default.tmb.gif"}], "directors": [{"url": "/celebrity/peter_cattaneo/", "name": "Peter Cattaneo", "thumbnailImg": "https://d2a5cgar23scu2.cloudfront.net/static/images/redesign/actor.default.tmb.gif"}], "creators": [], "producers": [{"url": "/celebrity/paul_bucknor/", "name": "Paul Bucknor", "thumbnailImg": "https://d2a5cgar23scu2.cloudfront.net/static/images/redesign/actor.default.tmb.gif"}, {"url": "/celebrity/polly_leys/", "name": "Polly Leys", "thumbnailImg": "https://d2a5cgar23scu2.cloudfront.net/static/images/redesign/actor.default.tmb.gif"}, {"url": "/celebrity/uberto_pasolini/", "name": "Uberto Pasolini", "thumbnailImg": "https://d2a5cgar23scu2.cloudfront.net/static/images/redesign/actor.default.tmb.gif"}], "castItems": [{"person": {"url": "/celebrity/robert_carlyle/", "name": "Robert Carlyle", "thumbnailImg": "https://resizing.flixster.com/AgYRs7XqDOtRZHbWZ3uCo5Z-ZC4=/80x80/v1.cDsxMTIyMjQzNTtqOzE4ODY5OzIwNDg7NTcwOzcyNQ"}, "characters": [{"name": "Gaz"}]}, {"person": {"url": "/celebrity/tom_wilkenson/", "name": "Tom Wilkinson", "thumbnailImg": "https://resizing.flixster.com/ZTgjXXQeTObVJnfz1el2Q6AQZDk=/80x80/v1.cjs0NDk0MTtqOzE4Nzk2OzIwNDg7MjIwOzE5Ng"}, "characters": [{"name": "Gerald"}]}, {"person": {"url": "/celebrity/mark_addy/", "name": "Mark Addy", "thumbnailImg": "https://resizing.flixster.com/utNnCV39LL2zE5QHkyfX8-wxdks=/80x80/v1.cjs0NDcwNTtqOzE4Nzg1OzIwNDg7Mzc5OzMzOA"}, "characters": [{"name": "Dave"}]}, {"person": {"url": "/celebrity/steve-huison/", "name": "Steve Huison", "thumbnailImg": "https://resizing.flixster.com/LpBlkAPK1tfLgBVsEO2DiEQT4ws=/80x80/v1.cDsxMDQ2Mjc1MjtqOzE4ODY4OzIwNDg7MzAwOzM3Ng"}, "characters": [{"name": "Lomper"}]}, {"person": {"url": "/celebrity/paul_barber/", "name": "Paul Barber", "thumbnailImg": "https://resizing.flixster.com/0Eco1IjeTjbScugILoyE4acboi8=/80x80/v1.cDsxMDQ2Mjg3NDtqOzE4ODU1OzIwNDg7NDY4OzY3MA"}, "characters": [{"name": "Horse"}]}, {"person": {"url": "/celebrity/hugo_speer/", "name": "Hugo Speer", "thumbnailImg": "https://resizing.flixster.com/dpi5nGz8SUbVZn3UTqkvMtqb4aY=/80x80/v1.cDsxMDQ2MjgwNDtqOzE4ODc1OzIwNDg7MzY4OzQ2Ng"}, "characters": [{"name": "Guy"}]}, {"person": {"url": "/celebrity/lesley_sharp/", "name": "Lesley Sharp", "thumbnailImg": "https://resizing.flixster.com/Mj2443myBceBbQm_EiB_f-Wu5bU=/80x80/v1.cDsxMTE0ODMxNTtqOzE4ODY0OzIwNDg7MjcwOzI1MA"}, "characters": [{"name": "Jean"}]}, {"person": {"url": "/celebrity/emily_woof/", "name": "Emily Woof", "thumbnailImg": "https://resizing.flixster.com/3mdCINuWn346oS37xXkqrExMdhE=/80x80/v1.cDs2MzQ4NjY4O2o7MTg4NjE7MjA0ODsxMDIyOzU1Mw"}, "characters": [{"name": "Mandy"}]}, {"person": {"url": "/celebrity/william-snape/", "name": "William Snape", "thumbnailImg": "https://resizing.flixster.com/qsNMji5OjwqfjCo3pODe5OWj4GU=/80x80/v1.cDsxMDQ2MjczMjtqOzE4ODQ4OzIwNDg7Mzg2OzQ1NA"}, "characters": [{"name": "Nathan"}]}, {"person": {"url": "/celebrity/dierdre_costello/", "name": "Dierdre Costello", "thumbnailImg": "https://d2a5cgar23scu2.cloudfront.net/static/images/redesign/actor.default.tmb.gif"}, "characters": [{"name": "Linda"}]}, {"person": {"url": "/celebrity/deirdre_costello/", "name": "Deirdre Costello", "thumbnailImg": "https://d2a5cgar23scu2.cloudfront.net/static/images/redesign/actor.default.tmb.gif"}, "characters": [{"name": "Linda"}]}, {"person": {"url": "/celebrity/bruce_jones/", "name": "Bruce Jones", "thumbnailImg": "https://d2a5cgar23scu2.cloudfront.net/static/images/redesign/actor.default.tmb.gif"}, "characters": [{"name": "Reg"}]}, {"person": {"url": "/celebrity/paul_butterworth/", "name": "Paul Butterworth", "thumbnailImg": "https://d2a5cgar23scu2.cloudfront.net/static/images/redesign/actor.default.tmb.gif"}, "characters": [{"name": "Barry"}]}, {"person": {"url": "/celebrity/dave-hill/", "name": "Dave Hill", "thumbnailImg": "https://d2a5cgar23scu2.cloudfront.net/static/images/redesign/actor.default.tmb.gif"}, "characters": [{"name": "Alan"}]}, {"person": {"url": "/celebrity/andrew_livingstone/", "name": "Andrew Livingston", "thumbnailImg": "https://d2a5cgar23scu2.cloudfront.net/static/images/redesign/actor.default.tmb.gif"}, "characters": [{"name": "Terry"}]}, {"person": {"url": "/celebrity/vinny_dhillon/", "name": "Vinny Dhillon", "thumbnailImg": "https://d2a5cgar23scu2.cloudfront.net/static/images/redesign/actor.default.tmb.gif"}, "characters": [{"name": "Sharon"}]}, {"person": {"url": "/celebrity/kate_layden/", "name": "Kate Layden", "thumbnailImg": "https://d2a5cgar23scu2.cloudfront.net/static/images/redesign/actor.default.tmb.gif"}, "characters": [{"name": "Bee"}]}, {"person": {"url": "/celebrity/joanna-swain/", "name": "Joanna Swain", "thumbnailImg": "https://d2a5cgar23scu2.cloudfront.net/static/images/redesign/actor.default.tmb.gif"}, "characters": [{"name": "Sheryl"}]}, {"person": {"url": "/celebrity/1144556-diane_lane/", "name": "Diane Lane", "thumbnailImg": "https://resizing.flixster.com/oebH1P2YoD9C22v3Fhwr6ut3Lv8=/80x80/v1.cjs0NzU4ODtqOzE4Nzg4OzIwNDg7MjgwOzI1MA"}, "characters": [{"name": "Louise"}]}, {"person": {"url": "/celebrity/kate-rutter/", "name": "Kate Rutter", "thumbnailImg": "https://d2a5cgar23scu2.cloudfront.net/static/images/redesign/actor.default.tmb.gif"}, "characters": [{"name": "Dole Clerk"}]}, {"person": {"url": "/celebrity/june_broughton/", "name": "June Broughton", "thumbnailImg": "https://d2a5cgar23scu2.cloudfront.net/static/images/redesign/actor.default.tmb.gif"}, "characters": [{"name": "Lomper's Mum"}]}, {"person": {"url": "/celebrity/glenn_cunningham/", "name": "Glenn Cunningham", "thumbnailImg": "https://d2a5cgar23scu2.cloudfront.net/static/images/redesign/actor.default.tmb.gif"}, "characters": [{"name": "Police Inspector"}]}, {"person": {"url": "/celebrity/chris_brailsford/", "name": "Chris Brailsford", "thumbnailImg": "https://d2a5cgar23scu2.cloudfront.net/static/images/redesign/actor.default.tmb.gif"}, "characters": [{"name": "Duty Sergeant"}]}, {"person": {"url": "/celebrity/steve_garti/", "name": "Steve Garti", "thumbnailImg": "https://d2a5cgar23scu2.cloudfront.net/static/images/redesign/actor.default.tmb.gif"}, "characters": [{"name": "Policeman"}]}, {"person": {"url": "/celebrity/malcolm_pitt/", "name": "Malcolm Pitt", "thumbnailImg": "https://d2a5cgar23scu2.cloudfront.net/static/images/redesign/actor.default.tmb.gif"}, "characters": [{"name": "Job Club Manager"}]}, {"person": {"url": "/celebrity/dennis_blanch/", "name": "Dennis Blanch", "thumbnailImg": "https://d2a5cgar23scu2.cloudfront.net/static/images/redesign/actor.default.tmb.gif"}, "characters": [{"name": "Director"}]}, {"person": {"url": "/celebrity/daryl_fishwick/", "name": "Daryl Fishwick", "thumbnailImg": "https://d2a5cgar23scu2.cloudfront.net/static/images/redesign/actor.default.tmb.gif"}, "characters": [{"name": "Social Worker"}]}, {"person": {"url": "/celebrity/david_lonsdale/", "name": "David Lonsdale", "thumbnailImg": "https://d2a5cgar23scu2.cloudfront.net/static/images/redesign/actor.default.tmb.gif"}, "characters": [{"name": "Repossession Man"}]}, {"person": {"url": "/celebrity/muriel_hunt/", "name": "Muriel Hunt", "thumbnailImg": "https://d2a5cgar23scu2.cloudfront.net/static/images/redesign/actor.default.tmb.gif"}, "characters": [{"name": "Horse's Mum"}]}, {"person": {"url": "/celebrity/fiona_watts/", "name": "Fiona Watts", "thumbnailImg": "https://d2a5cgar23scu2.cloudfront.net/static/images/redesign/actor.default.tmb.gif"}, "characters": [{"name": "Beryl"}]}, {"person": {"url": "/celebrity/theresa_maduemezia/", "name": "Theresa Maduemezia", "thumbnailImg": "https://d2a5cgar23scu2.cloudfront.net/static/images/redesign/actor.default.tmb.gif"}, "characters": [{"name": "Horse's Sister"}]}, {"person": {"url": "/celebrity/british_steel_stocksbridge_band/", "name": "British Steel Stocksbridge Band", "thumbnailImg": "https://d2a5cgar23scu2.cloudfront.net/static/images/redesign/actor.default.tmb.gif"}, "characters": [{"name": "brass band"}]}, {"person": {"url": "/celebrity/fiona_nelson/", "name": "Fiona Nelson", "thumbnailImg": "https://d2a5cgar23scu2.cloudfront.net/static/images/redesign/actor.default.tmb.gif"}, "characters": [{"name": "Horse's Sister"}]}]}, "title": "The Full Monty", "adjustedScore": 98.58317627077346, "ratings": {"critics_rating": "Certified Fresh", "audience_score": 79, "dvdReleaseDate": 941529600000, "critics_score": 96, "theaterReleaseDate": 871455600000, "audience_rating": "Upright"}, "videoClips": {"mainTrailer": {"hlsUrl": "http://video.internetvideoarchive.net/video.m3u8?cmd=6&publishedid=7224&customerid=300120&e=1619087494536&sub=RTO&fmt=11&h=9dfe8716c1249905002d004b5c9e34aa", "seconds": 45, "minutes": 0, "id": 10904835, "title": "The Full Monty", "thumbUrl": "http://content.internetvideoarchive.com/content/photos/171/7224_002.jpg", "mp4Url": "http://video.internetvideoarchive.net/video.mp4?cmd=6&publishedid=7224&customerid=300120&e=1619087494536&sub=RTO&fmt=4&videokbrate=750&h=db0661e9a4af58c3624ba9084dbf5c2e"}, "size": 1, "videoClips": [{"hlsUrl": "http://video.internetvideoarchive.net/video.m3u8?cmd=6&publishedid=7224&customerid=300120&e=1619087494536&sub=RTO&fmt=11&h=9dfe8716c1249905002d004b5c9e34aa", "seconds": 45, "minutes": 0, "id": 10904835, "title": "The Full Monty", "thumbUrl": "http://content.internetvideoarchive.com/content/photos/171/7224_002.jpg", "mp4Url": "http://video.internetvideoarchive.net/video.mp4?cmd=6&publishedid=7224&customerid=300120&e=1619087494536&sub=RTO&fmt=4&videokbrate=750&h=db0661e9a4af58c3624ba9084dbf5c2e"}]}, "isUpcoming": false, "posters": {"original": "https://resizing.flixster.com/-jBkfI5hkYpaJ9M7RPjsloGiIGw=/900x1200/v1.bTsxMTI5MDkxODtqOzE4ODYzOzIwNDg7OTAwOzEyMDA", "detailed": "https://resizing.flixster.com/YO7GyADi_qHNm-GSkpSELNwS0KI=/180x240/v1.bTsxMTI5MDkxODtqOzE4ODYzOzIwNDg7OTAwOzEyMDA", "profile": "https://resizing.flixster.com/kJY5g9j_fswLqnJA_Tg7lLZuaMQ=/120x160/v1.bTsxMTI5MDkxODtqOzE4ODYzOzIwNDg7OTAwOzEyMDA", "thumbnail": "https://resizing.flixster.com/qDKjnsgtHourrdelYIqCVjXfA3o=/54x72/v1.bTsxMTI5MDkxODtqOzE4ODYzOzIwNDg7OTAwOzEyMDA"}, "isLimited": false, "mainTrailer": {"thumbUrl": "https://content.internetvideoarchive.com/content/photos/171/7224_002.jpg", "hlsUrl": "http://video.internetvideoarchive.net/video.m3u8?cmd=6&publishedid=7224&customerid=300120&e=1619087493932&sub=RTO&fmt=11&h=3c86c9a1b7c5d075a59824df326c4934", "id": 10904835, "mp4Url": "http://video.internetvideoarchive.net/video.mp4?cmd=6&publishedid=7224&customerid=300120&e=1619087493932&sub=RTO&fmt=4&videokbrate=750&h=ccad5325c6373b044c830299f78605e0"}, "advisory": "For language and some nudity", "id": 13301}