{"url": "/m/49_up/", "isOnOpening": false, "genreSet": [{"displayName": "Documentary", "id": 8}, {"displayName": "Television", "id": 16}, {"displayName": "Musical & Performing Arts", "id": 12}, {"displayName": "Special Interest", "id": 15}], "runningTime": 135, "isInTheaters": false, "synopsis": "\"49 Up\" is the seventh film in a series of landmark documentaries that began 42 years ago when UK-based Granada's \"World in Action\" team, inspired by the Jesuit maxim \"Give me the child until he is seven and I will give you the man,\" interviewed a diverse group of seven-year-old children from all over England, asking them about their lives and their dreams for the future. Michael Apted, a researcher for the original film, has returned to interview the \"children\" every seven years since, at ages 14, 21, 28, 35, 42 and, now again, at age 49. In this latest chapter, more life-changing decisions are revealed, more shocking announcements made and more of the original group take part than ever before, speaking out on a variety of subjects including love, marriage, career, class and prejudice.", "links": {"alternate": "//www.rottentomatoes.com/m/49_up/"}, "year": 2006, "trackingType": "DvdOther", "status": "Live", "isPlaying": false, "isOnDVD": true, "runningTimeStr": "2 hr. 15 min.", "ratingSummary": {"topcount": 33, "consensus": "The latest installment in this remarkable series, 49 Up is a satisfying continuation of Michael Apted's singular sociological and cinematic experiment.", "topCritics": {"hasScore": true, "numReviews": 33, "meterClass": "certified", "numRotten": 1, "numFresh": 32, "hasReviews": true, "meterValue": 97, "averageRating": 8.164062}, "audience": {"meterScore": 86, "averageScore": 3.228853225708008, "numTotal": 27418, "ratingType": "viewed"}, "allcount": 65, "rottencount": 2, "dvdcount": 2, "allCritics": {"hasScore": true, "numReviews": 65, "meterClass": "certified", "numRotten": 2, "numFresh": 63, "hasReviews": true, "meterValue": 97, "averageRating": 8.15}, "freshcount": 63}, "mpaaRating": "Unrated", "vanity": "49_up", "studio": "ITV", "purchaseOptions": {}, "reviews": {"total": 65, "links": {"alternate": "//www.rottentomatoes.com/m/49_up/#reviews", "self": "api.flixster.com/movies/49-up/reviews.json?review_type=mob&country=us&page=1", "prev": "api.flixster.com/movies/49-up/reviews.json?review_type=mob&country=us&page=0", "next": "api.flixster.com/movies/49-up/reviews.json?review_type=mob&country=us&page=2"}, "reviews": [{"isRotten": false, "url": "http://www.chicagoreader.com/chicago/49-up/Film?oid=1069334", "publication": {"url": "", "name": "Chicago Reader"}, "isTop": true, "creationDate": 1344994026000, "isFresh": true, "freshness": "fresh", "critic": {"url": "/critic/j-r-jones", "name": "J. R. Jones", "id": 8085, "thumbnailImage": "https://d2a5cgar23scu2.cloudfront.net/static/images/redesign/user.none.tmb.jpg"}, "quote": "This seventh installment is utterly fascinating, drawing heavily on footage from the previous movies to follow each child on the journey into middle age.", "id": 2099467, "links": {"review": "http://www.chicagoreader.com/chicago/49-up/Film?oid=1069334"}}, {"isRotten": false, "url": "http://www.rogerebert.com/reviews/49-up-2006", "creationDate": 1162589628000, "isFresh": true, "id": 1554060, "quote": "Michael Apted's Up series remains one of the great imaginative leaps in film.", "links": {"review": "http://www.rogerebert.com/reviews/49-up-2006"}, "publication": {"url": "", "name": "Chicago Sun-Times"}, "isTop": true, "freshness": "fresh", "critic": {"url": "/critic/roger-ebert", "name": "Roger Ebert", "id": 16, "thumbnailImage": "https://resizing.flixster.com/Z1azjSA-72PEwykgNULa0bwtX1A=/72x72/v1.YzsyNTY5O2c7MTg3Njk7MjA0ODsxNTA7MTUw"}, "original_score": "4/4"}, {"isRotten": false, "isFresh": true, "publication": {"url": "", "name": "Chicago Tribune"}, "isTop": true, "creationDate": 1162501445000, "freshness": "fresh", "critic": {"url": "/critic/michael-wilmington", "name": "Michael Wilmington", "id": 258, "thumbnailImage": "https://resizing.flixster.com/69YruALURyjMc-SeJwdCRhDpmc0=/72x72/v1.YzsxNjAzO2c7MTg3OTM7MjA0ODszODs0Nw"}, "quote": "I can think of no single movie, fictional or factual, that more strongly awakens our common humanity or that establishes such a marvelous, tight bond with its characters.", "id": 1553753, "original_score": "4/4", "links": {}}, {"isRotten": false, "isFresh": true, "publication": {"url": "", "name": "The New Republic"}, "isTop": true, "creationDate": 1161897080000, "freshness": "fresh", "critic": {"url": "/critic/stanley-kauffmann", "name": "Stanley Kauffmann", "id": 350, "thumbnailImage": "https://resizing.flixster.com/UdKaGyRuhhdo9BcD4v4B3iQMkY8=/72x72/v1.YzsyNjk2O2c7MTg4MDY7MjA0ODsxNTA7MTUw"}, "quote": "The segments are so cleverly arranged -- [director Michael Apted] includes past pictorial references for each of the people we revisit -- that now there is something almost mystical involved.", "id": 1551069, "links": {}}, {"isRotten": false, "isFresh": true, "publication": {"url": "", "name": "Film.com"}, "isTop": true, "creationDate": 1160801710000, "freshness": "fresh", "critic": {"url": "/critic/sean-p-means", "name": "Sean P. Means", "id": 159, "thumbnailImage": "https://resizing.flixster.com/7BW9zSCqrWIKZnCvlNBO6Ywbs2k=/72x72/v1.YzsxNTk4O2c7MTg3ODg7MjA0ODszODs0Mg"}, "quote": "But a funny thing happened on the way to the class-warfare lecture: Most of the subjects got on with living their lives, ignoring their class distinctions in the process.", "id": 1548197, "original_score": "3.5/4", "links": {}}, {"isRotten": false, "url": "http://community.seattletimes.nwsource.com/archive/?slug=up13&date=20061013", "creationDate": 1160774379000, "isFresh": true, "id": 1548088, "quote": "I'll wait breathlessly for 56 Up, and hope this brave group will speak to the camera again; giving us the gift of a share in their lives.", "links": {"review": "http://community.seattletimes.nwsource.com/archive/?slug=up13&date=20061013"}, "publication": {"url": "", "name": "Seattle Times"}, "isTop": true, "freshness": "fresh", "critic": {"url": "/critic/moira-macdonald", "name": "Moira MacDonald", "id": 699, "thumbnailImage": "https://resizing.flixster.com/yh8deQZmOZiknc-RhrcMVbuBsVg=/72x72/v1.YzsxNjE4O2c7MTg4MDg7MjA0ODszODs1Mg"}, "original_score": "4/4"}, {"isRotten": false, "url": "http://www.cinepassion.org/Archives/Departed49Science.html", "publication": {"name": "CinePassion"}, "isTop": false, "creationDate": 1251488106000, "isFresh": true, "freshness": "fresh", "critic": {"url": "/critic/fernando-f-croce", "name": "Fernando F. Croce", "id": 11739, "thumbnailImage": "https://d2a5cgar23scu2.cloudfront.net/static/images/redesign/user.none.tmb.jpg"}, "quote": "Essential viewing", "id": 1841133, "links": {"review": "http://www.cinepassion.org/Archives/Departed49Science.html"}}, {"isRotten": false, "url": "http://www.colesmithey.com/capsules/2006/10/49_up.html", "creationDate": 1240622861000, "isFresh": true, "id": 1816050, "quote": "There should not be an adult in the western world who isn't at least tacitly familiar with Michael Apted's groundbreaking documentary series based on the idea that a person's personality is formed by the age of seven.", "links": {"review": "http://www.colesmithey.com/capsules/2006/10/49_up.html"}, "publication": {"name": "ColeSmithey.com"}, "isTop": false, "freshness": "fresh", "critic": {"url": "/critic/cole-smithey", "name": "Cole Smithey", "id": 3041, "thumbnailImage": "https://resizing.flixster.com/5KxvopKA55f2rpedJavspuLZBaI=/72x72/v1.YzsyNjMzO2c7MTg3ODg7MjA0ODsxNTA7MTUw"}, "original_score": "A"}, {"isRotten": true, "isFresh": false, "publication": {"name": "Boston Phoenix"}, "isTop": false, "creationDate": 1240481788000, "freshness": "rotten", "critic": {"url": "/critic/peter-keough", "name": "Peter Keough", "id": 184, "thumbnailImage": "https://resizing.flixster.com/xSl6AS5S8DIf6V3bRypS5Pve1k0=/72x72/v1.YzsyNDA5O2c7MTg3ODk7MjA0ODszODs0Mg"}, "quote": "In 42 years has the series brought any insight into issues of class, politics, or culture? Perhaps only insofar as nearly all the participants, regardless of background, end up as the same bourgeois, middle-aged mediocrities.", "id": 1815283, "original_score": "2.5/4", "links": {}}, {"isRotten": false, "url": "http://www.eurweb.com/story/eur37159.cfm", "creationDate": 1191066391000, "isFresh": true, "id": 1676178, "quote": "Time-lapse cinematography taken at seven year intervals.", "links": {"review": "http://www.eurweb.com/story/eur37159.cfm"}, "publication": {"name": "EURWeb"}, "isTop": false, "freshness": "fresh", "critic": {"url": "/critic/kam-williams", "name": "Kam Williams", "id": 12230, "thumbnailImage": "https://resizing.flixster.com/BtjsCX1Spp7NW8wYuoUbDQznn3M=/72x72/v1.YzsxNzk2O2c7MTg4MDY7MjA0ODszODs0Mg"}, "original_score": "4/4"}, {"isRotten": false, "url": "http://www.filmjournal.com/filmjournal/reviews/article_display.jsp?vnu_content_id=1003220811", "publication": {"url": "", "name": "Film Journal International"}, "isTop": false, "creationDate": 1172749011000, "isFresh": true, "freshness": "fresh", "critic": {"url": "/critic/eric-monder", "name": "Eric Monder", "id": 1103, "thumbnailImage": "https://d2a5cgar23scu2.cloudfront.net/static/images/redesign/user.none.tmb.jpg"}, "quote": "Even those wondering about the gaps and \"missing pieces\" or what will happen in the future will not be disappointed by this remarkable work.", "id": 1603344, "links": {"review": "http://www.filmjournal.com/filmjournal/reviews/article_display.jsp?vnu_content_id=1003220811"}}, {"isRotten": false, "isFresh": true, "publication": {"url": "", "name": "The Nation"}, "isTop": false, "creationDate": 1163250317000, "freshness": "fresh", "critic": {"url": "/critic/stuart-klawans", "name": "Stuart Klawans", "id": 354, "thumbnailImage": "https://d2a5cgar23scu2.cloudfront.net/static/images/redesign/user.none.tmb.jpg"}, "quote": "The wonder of 49 Up is its unfolding, within a little more than two hours, of so many specific lives...", "id": 1555984, "links": {}}]}, "casts": {"screenwriters": [], "directors": [{"url": "/celebrity/michael_apted/", "name": "Michael Apted", "thumbnailImg": "https://resizing.flixster.com/d4e8L6PI57LI179tFXtuq_YByK0=/80x80/v1.cDs2Njc4NjU1O2o7MTg4Njc7MjA0ODsxNTA7MjI4"}], "creators": [], "producers": [{"url": "/celebrity/michael_apted/", "name": "Michael Apted", "thumbnailImg": "https://resizing.flixster.com/d4e8L6PI57LI179tFXtuq_YByK0=/80x80/v1.cDs2Njc4NjU1O2o7MTg4Njc7MjA0ODsxNTA7MjI4"}, {"url": "/celebrity/claire_lewis/", "name": "Claire Lewis", "thumbnailImg": "https://d2a5cgar23scu2.cloudfront.net/static/images/redesign/actor.default.tmb.gif"}], "castItems": [{"person": {"url": "/celebrity/bruce_balden/", "name": "Bruce Balden", "thumbnailImg": "https://resizing.flixster.com/MFoFSA6aWeg8ZMVvHPKJu5S9hE4=/80x80/v1.cDszNTg4ODk2O2o7MTg4NjI7MjA0ODs3Mjs5NQ"}}, {"person": {"url": "/celebrity/jacqueline_bassett/", "name": "Jacqueline Bassett", "thumbnailImg": "https://d2a5cgar23scu2.cloudfront.net/static/images/redesign/actor.default.tmb.gif"}}, {"person": {"url": "/celebrity/symon_basterfield/", "name": "Symon Basterfield", "thumbnailImg": "https://d2a5cgar23scu2.cloudfront.net/static/images/redesign/actor.default.tmb.gif"}}, {"person": {"url": "/celebrity/andrew_brackfield/", "name": "Andrew Brackfield", "thumbnailImg": "https://d2a5cgar23scu2.cloudfront.net/static/images/redesign/actor.default.tmb.gif"}}, {"person": {"url": "/celebrity/john_brisby/", "name": "John Brisby", "thumbnailImg": "https://d2a5cgar23scu2.cloudfront.net/static/images/redesign/actor.default.tmb.gif"}}, {"person": {"url": "/celebrity/suzanne_dewey/", "name": "Suzanne Dewey", "thumbnailImg": "https://d2a5cgar23scu2.cloudfront.net/static/images/redesign/actor.default.tmb.gif"}}, {"person": {"url": "/celebrity/charles_furneaux/", "name": "Charles Furneaux", "thumbnailImg": "https://d2a5cgar23scu2.cloudfront.net/static/images/redesign/actor.default.tmb.gif"}}, {"person": {"url": "/celebrity/nicholas_hitchon/", "name": "Nicholas Hitchon", "thumbnailImg": "https://d2a5cgar23scu2.cloudfront.net/static/images/redesign/actor.default.tmb.gif"}}, {"person": {"url": "/celebrity/neil_hughes/", "name": "Neil Hughes", "thumbnailImg": "https://d2a5cgar23scu2.cloudfront.net/static/images/redesign/actor.default.tmb.gif"}}, {"person": {"url": "/celebrity/lynn_johnson/", "name": "Lynn Johnson", "thumbnailImg": "https://d2a5cgar23scu2.cloudfront.net/static/images/redesign/actor.default.tmb.gif"}}, {"person": {"url": "/celebrity/paul_kligerman/", "name": "Paul Kligerman", "thumbnailImg": "https://d2a5cgar23scu2.cloudfront.net/static/images/redesign/actor.default.tmb.gif"}}, {"person": {"url": "/celebrity/susan_sullivan/", "name": "Susan Sullivan", "thumbnailImg": "https://resizing.flixster.com/kFDfFF_l6fY6GEnR_CNWLMqtncs=/80x80/v1.cDsxMTkyNDc1NjtqOzE4Nzk0OzIwNDg7NDY3OzQ4MA"}}, {"person": {"url": "/celebrity/tony_walker/", "name": "Tony Walker", "thumbnailImg": "https://d2a5cgar23scu2.cloudfront.net/static/images/redesign/actor.default.tmb.gif"}}]}, "title": "49 Up", "adjustedScore": 98.54047166787828, "ratings": {"critics_rating": "Certified Fresh", "audience_score": 86, "dvdReleaseDate": 1163491200000, "critics_score": 97, "theaterReleaseDate": 1160118000000, "audience_rating": "Upright"}, "videoClips": {"size": 0, "videoClips": []}, "isUpcoming": false, "posters": {"original": "https://resizing.flixster.com/HESNOcPgJrSHYb3QfmHeOKwDNpQ=/200x300/v1.bTsxMjE4OTYyNztqOzE4Nzk4OzIwNDg7MjAwOzMwMA", "detailed": "https://resizing.flixster.com/15kB9e3G9XONnTslVJLzEUaR5LI=/180x270/v1.bTsxMjE4OTYyNztqOzE4Nzk4OzIwNDg7MjAwOzMwMA", "profile": "https://resizing.flixster.com/6c6YYCEWZhbLiR5rVQjChpLby3A=/120x180/v1.bTsxMjE4OTYyNztqOzE4Nzk4OzIwNDg7MjAwOzMwMA", "thumbnail": "https://resizing.flixster.com/AuoaPs_lEHksCXYJZ5GQYswgmT0=/54x81/v1.bTsxMjE4OTYyNztqOzE4Nzk4OzIwNDg7MjAwOzMwMA"}, "isLimited": true, "mainTrailer": {}, "photos": {"photos": [{"url": "https://resizing.flixster.com/Fe9jDS7PsgZSEwdSS9b2FcxZeH4=/300x200/v1.bjszNjAxNjM7ajsxODc5NzsyMDQ4OzMwMDsyMDA", "index": 0, "submittedBy": "RT Staff", "height": 200, "imageId": 360163, "thumbnail": "https://resizing.flixster.com/wnKdI8b_HrwidfWDdKwmo4_cyJ0=/80x80/v1.bjszNjAxNjM7ajsxODc5NzsyMDQ4OzMwMDsyMDA", "submittedDate": "2014-07-05", "id": "multiuse-360163", "photoType": "movie", "width": 300}, {"url": "https://resizing.flixster.com/MKvqQkJGiOxX4jW4_82ZB5Itbj4=/300x200/v1.bjszNjAxNjQ7ajsxODc5ODsyMDQ4OzMwMDsyMDA", "index": 1, "submittedBy": "RT Staff", "height": 200, "imageId": 360164, "thumbnail": "https://resizing.flixster.com/4p675_POYs23-6C7NSmSGRvdpBI=/80x80/v1.bjszNjAxNjQ7ajsxODc5ODsyMDQ4OzMwMDsyMDA", "submittedDate": "2014-07-05", "id": "multiuse-360164", "photoType": "movie", "width": 300}, {"url": "https://resizing.flixster.com/ndYWLE-O74PMVC3CjjZoaUg1ZaU=/300x200/v1.bjszNjAxNjU7ajsxODc5OTsyMDQ4OzMwMDsyMDA", "index": 2, "submittedBy": "RT Staff", "height": 200, "imageId": 360165, "thumbnail": "https://resizing.flixster.com/Rvdo4csFC3w-DzKLzR-b7eeuhIY=/80x80/v1.bjszNjAxNjU7ajsxODc5OTsyMDQ4OzMwMDsyMDA", "submittedDate": "2014-07-05", "id": "multiuse-360165", "photoType": "movie", "width": 300}, {"url": "https://resizing.flixster.com/lRMAfBLtVOwJqpo8MmbElT5YyNc=/300x200/v1.bjszNjAxNjY7ajsxODgwMDsyMDQ4OzMwMDsyMDA", "index": 3, "submittedBy": "RT Staff", "height": 200, "imageId": 360166, "thumbnail": "https://resizing.flixster.com/yzSqw7iHUti6w9RnW_Hfk6FvWPI=/80x80/v1.bjszNjAxNjY7ajsxODgwMDsyMDQ4OzMwMDsyMDA", "submittedDate": "2014-07-05", "id": "multiuse-360166", "photoType": "movie", "width": 300}, {"url": "https://resizing.flixster.com/yWwW-1qqoY_0Snoj55RRmx2YiPs=/381x600/v1.aDsxMDIyMztqOzE4NzczOzIwNDg7NDQ0OzcwMA", "index": 4, "submittedBy": "RT Staff", "height": 600, "imageId": 10223, "thumbnail": "https://resizing.flixster.com/HVICu_Nk2S1Q1uP5S8RNNbe8OiA=/80x80/v1.aDsxMDIyMztqOzE4NzczOzIwNDg7NDQ0OzcwMA", "submittedDate": "2010-03-29", "id": "movie-10223", "photoType": "movie", "width": 381}, {"url": "https://resizing.flixster.com/W7nogieBxCf5YB0UT_VO2n4NyK8=/438x600/v1.aDs3MTE4O2o7MTg3NzM7MjA0ODs1MTE7NzAw", "index": 5, "submittedBy": "RT Staff", "height": 600, "imageId": 7118, "thumbnail": "https://resizing.flixster.com/pkY3Z9V3DmNLiYB9ThQrYLHmLVY=/80x80/v1.aDs3MTE4O2o7MTg3NzM7MjA0ODs1MTE7NzAw", "submittedDate": "2010-03-29", "id": "movie-7118", "photoType": "movie", "width": 438}, {"url": "https://resizing.flixster.com/Wp_vC4m5UrYUYsFg6woboyev5pc=/363x600/v1.aDszODgzO2o7MTg3Nzg7MjA0ODs0MjM7NzAw", "index": 6, "submittedBy": "RT Staff", "height": 600, "imageId": 3883, "thumbnail": "https://resizing.flixster.com/zJsvMONkUC4PDtQaKkGdNgE5nJ0=/80x80/v1.aDszODgzO2o7MTg3Nzg7MjA0ODs0MjM7NzAw", "submittedDate": "2010-03-29", "id": "movie-3883", "photoType": "movie", "width": 363}, {"url": "https://resizing.flixster.com/24WbyOOdqx19f1bZPRyQ7SmFjp8=/600x420/v1.aDs1MTM7ajsxODc4MzsyMDQ4OzcwMDs0OTA", "index": 7, "submittedBy": "RT Staff", "height": 420, "imageId": 513, "thumbnail": "https://resizing.flixster.com/-e6dsWG187J1LeqJ8JuKZg2fTiU=/80x80/v1.aDs1MTM7ajsxODc4MzsyMDQ4OzcwMDs0OTA", "submittedDate": "2010-03-29", "id": "movie-513", "photoType": "movie", "width": 600}], "length": 8}, "id": 336025522}