{"url": "/m/cabaret/", "isOnOpening": false, "genreSet": [{"displayName": "Drama", "id": 9}, {"displayName": "Musical & Performing Arts", "id": 12}, {"displayName": "Classics", "id": 5}], "officialUrl": "", "isInTheaters": false, "synopsis": "Adapted from the Broadway show, this hard-hitting musical drama is set in decadent 1930s Berlin during Hitler's rise to power. The film chronicles Cambridge student Brian Roberts' friendship with the high-spirited Sally Bowles, a singer at the sleazy Kit Kat nightclub, where the anti-Semitic emcee sets a tone of debauchery.", "links": {"alternate": "//www.rottentomatoes.com/m/cabaret/"}, "runningTime": 124, "year": 1972, "trackingType": "DvdOther", "status": "Live", "isPlaying": false, "isOnDVD": true, "runningTimeStr": "2 hr. 4 min.", "ratingSummary": {"topcount": 9, "consensus": "Great performances and evocative musical numbers help Cabaret secure its status as a stylish, socially conscious classic.", "topCritics": {"hasScore": true, "numReviews": 9, "meterClass": "certified", "numRotten": 1, "numFresh": 8, "hasReviews": true, "meterValue": 89, "averageRating": 7.638889}, "audience": {"meterScore": 87, "averageScore": 3.815715789794922, "numTotal": 36026, "ratingType": "viewed"}, "allcount": 43, "rottencount": 3, "dvdcount": 6, "allCritics": {"hasScore": true, "numReviews": 43, "meterClass": "certified", "numRotten": 3, "numFresh": 40, "hasReviews": true, "meterValue": 93, "averageRating": 8.3}, "freshcount": 40}, "mpaaRating": "PG", "vanity": "cabaret", "studio": "Twentieth Century Fox Home Entertainment", "purchaseOptions": {"amazon": {"url": "http://www.amazon.com/gp/product/B000I5SY5U/ref=atv_feed_catalog?tag=rottetomao_aiv_mv-20", "isPrime": false, "type": "rent"}, "netflix": {"streamingId": "342645"}, "vudu": {"url": "https://www.vudu.com/content/movies/details/Cabaret/9078", "type": "buy"}, "flixster": {"url": "cabaret", "movieId": "ID: 2000001468; SKU:431890; Type: B (SD Buy)", "type": "buy"}, "iTunes": {"url": "https://itunes.apple.com/movie/cabaret/id278873289?uo=5", "price": "12.99"}}, "reviews": {"total": 43, "links": {"alternate": "//www.rottentomatoes.com/m/cabaret/#reviews", "self": "api.flixster.com/movies/cabaret/reviews.json?review_type=mob&country=us&page=1", "prev": "api.flixster.com/movies/cabaret/reviews.json?review_type=mob&country=us&page=0", "next": "api.flixster.com/movies/cabaret/reviews.json?review_type=mob&country=us&page=2"}, "reviews": [{"isRotten": false, "url": "https://www.empireonline.com/movies/reviews/cabaret-review/", "creationDate": 1591983228000, "isFresh": true, "id": 2696051, "quote": "Liza Minnelli and Joel Grey are electrifying; director Bob Fosse's choreography and the camera work are scintillating.", "links": {"review": "https://www.empireonline.com/movies/reviews/cabaret-review/"}, "publication": {"url": "", "name": "Empire Magazine"}, "isTop": true, "freshness": "fresh", "critic": {"url": "/critic/kim-newman", "name": "Kim Newman", "id": 1159, "thumbnailImage": "https://resizing.flixster.com/RHNBYtiZuxH35Ev-lutMzhPLRKo=/72x72/v1.YzsxNTAxO2c7MTg3ODE7MjA0ODszODs0Ng"}, "original_score": "4/5"}, {"isRotten": true, "url": "http://www.time.com/time/magazine/article/0,9171,905820,00.html", "publication": {"url": "", "name": "TIME Magazine"}, "isTop": true, "creationDate": 1218566820000, "isFresh": false, "freshness": "rotten", "critic": {"url": "/critic/jay-cocks", "name": "Jay Cocks", "id": 12620, "thumbnailImage": "https://d2a5cgar23scu2.cloudfront.net/static/images/redesign/user.none.tmb.jpg"}, "quote": "Bob Fosse's direction is as chaotic as it was in his previous Sweet Charity, a desperate scramble after a style.", "id": 1748720, "links": {"review": "http://www.time.com/time/magazine/article/0,9171,905820,00.html"}}, {"isRotten": false, "url": "http://www.variety.com/review/VE1117789631.html?categoryid=31&cs=1", "publication": {"url": "", "name": "Variety"}, "isTop": true, "creationDate": 1182995073000, "isFresh": true, "freshness": "fresh", "critic": {"url": "/critic/variety-staff", "name": "Variety Staff", "id": 12507, "thumbnailImage": "https://resizing.flixster.com/8Z-e2stpP9WriX4ZUvtumMg0pB0=/72x72/v1.YzsyNDg3O2c7MTg3Nzc7MjA0ODsxNTI7MTY4"}, "quote": "The screenplay, which never seems to talk down to an audience while at the same time making its candid points with tasteful emphasis, returns the story to a variety of settings.", "id": 1643052, "links": {"review": "http://www.variety.com/review/VE1117789631.html?categoryid=31&cs=1"}}, {"isRotten": false, "url": "http://onfilm.chicagoreader.com/movies/capsules/1534_CABARET", "publication": {"url": "", "name": "Chicago Reader"}, "isTop": true, "creationDate": 1182994996000, "isFresh": true, "freshness": "fresh", "critic": {"url": "/critic/jonathan-rosenbaum", "name": "Jonathan Rosenbaum", "id": 18, "thumbnailImage": "https://resizing.flixster.com/1cTHA-AhKpzD72gBEOroQDcNEeE=/72x72/v1.YzszNjQ4O2o7MTg3Njg7MjA0ODszMDA7MzAw"}, "quote": "Whatever this 1972 feature is, it's entertaining and stylish, though maybe not quite as serious as it wants to be.", "id": 1643051, "links": {"review": "http://onfilm.chicagoreader.com/movies/capsules/1534_CABARET"}}, {"isRotten": false, "url": "http://www.timeout.com/film/reviews/68689/cabaret.html", "publication": {"url": "", "name": "Time Out"}, "isTop": true, "creationDate": 1151148670000, "isFresh": true, "freshness": "fresh", "quote": "Superbly choreographed by Fosse, the cabaret numbers evoke the Berlin of 1931 - city of gaiety and perversion, of champagne and Nazi propaganda - so vividly that only an idiot could fail to perceive that something is rotten in the state of Weimar.", "id": 1520729, "links": {"review": "http://www.timeout.com/film/reviews/68689/cabaret.html"}}, {"isRotten": false, "url": "http://www.rogerebert.com/reviews/cabaret-1972", "creationDate": 1098595487000, "isFresh": true, "id": 1331279, "quote": "...the context of Germany on the eve of the Nazi ascent to power makes the entire musical into an unforgettable cry of despair.", "links": {"review": "http://www.rogerebert.com/reviews/cabaret-1972"}, "publication": {"url": "", "name": "Chicago Sun-Times"}, "isTop": true, "freshness": "fresh", "critic": {"url": "/critic/roger-ebert", "name": "Roger Ebert", "id": 16, "thumbnailImage": "https://resizing.flixster.com/Z1azjSA-72PEwykgNULa0bwtX1A=/72x72/v1.YzsyNTY5O2c7MTg3Njk7MjA0ODsxNTA7MTUw"}, "original_score": "3.5/4"}, {"isRotten": false, "url": "https://4columns.org/orange-michelle/cabaret", "publication": {"url": "", "name": "4Columns"}, "isTop": false, "creationDate": 1600437769000, "isFresh": true, "freshness": "fresh", "critic": {"url": "/critic/michelle-orange", "name": "Michelle Orange", "id": 12338, "thumbnailImage": "https://d2a5cgar23scu2.cloudfront.net/static/images/redesign/user.none.tmb.jpg"}, "quote": "I was an instant convert to Fosse's Cabaret: it was and is nothing but the movie for me. It concentrates Fosse's interest in stories about style-its power to define and transform, to dominate and subdue.", "id": 2726104, "links": {"review": "https://4columns.org/orange-michelle/cabaret"}}, {"isRotten": true, "url": "http://gonewiththetwins.com/new/cabaret-1972/", "creationDate": 1598517631000, "isFresh": false, "id": 2717020, "quote": "The main characters' inebriated antics never seem to amount to anything potent or moving or simply involving.", "links": {"review": "http://gonewiththetwins.com/new/cabaret-1972/"}, "publication": {"url": "", "name": "Gone With The Twins"}, "isTop": false, "freshness": "rotten", "critic": {"url": "/critic/mike-massie", "name": "Mike Massie", "id": 27168, "thumbnailImage": "https://resizing.flixster.com/cKCY6tR9EskewGPlb8BlnvWesZU=/72x72/v1.YzszNjc3O2o7MTg3OTc7MjA0ODszMDA7MzAw"}, "original_score": "3/10"}, {"isRotten": false, "url": "https://www.thelastthingisee.com/2013/02/blu-ray-review-cabaret.html", "creationDate": 1594322601000, "isFresh": true, "id": 2703137, "quote": "The bright, manic glee is countered by small moments of stunning brutality, moments that increase in frequency, size, and viciousness as the film progresses. ", "links": {"review": "https://www.thelastthingisee.com/2013/02/blu-ray-review-cabaret.html"}, "publication": {"url": "", "name": "The Last Thing I See"}, "isTop": false, "freshness": "fresh", "critic": {"url": "/critic/brent-mcknight", "name": "Brent McKnight", "id": 14976, "thumbnailImage": "https://resizing.flixster.com/Av-0sM_gOwGMkJ0bsGLpcWCiG_I=/72x72/v1.YzszNjk4O2o7MTg3NzM7MjA0ODszMDA7MzAw"}, "original_score": "B+"}, {"isRotten": false, "url": "https://www.radiotimes.com/film/hp2tr/cabaret/", "creationDate": 1591983186000, "isFresh": true, "id": 2696050, "quote": "If brash Minnelli seems a mite too talented for the Sally Bowles character, it really doesn't matter: she is, quite simply, magnificent in this role.", "links": {"review": "https://www.radiotimes.com/film/hp2tr/cabaret/"}, "publication": {"url": "", "name": "Radio Times"}, "isTop": false, "freshness": "fresh", "critic": {"url": "/critic/tony-sloman", "name": "Tony Sloman", "id": 13670, "thumbnailImage": "https://d2a5cgar23scu2.cloudfront.net/static/images/redesign/user.none.tmb.jpg"}, "original_score": "5/5"}, {"isRotten": false, "url": "https://www.filmsite.org/caba.html", "creationDate": 1569731572000, "isFresh": true, "id": 2630752, "quote": "Cabaret (1972) is director/choreographer Bob Fosse's defining, decadent, award-winning musical which popularized the phrase: \"Life is a Cabaret.\" It was only Fosse's second film, but won numerous accolades...", "links": {"review": "https://www.filmsite.org/caba.html"}, "publication": {"url": "", "name": "Filmsite"}, "isTop": false, "freshness": "fresh", "critic": {"url": "/critic/tim-dirks", "name": "Tim Dirks", "id": 2, "thumbnailImage": "https://resizing.flixster.com/YLKhCBtohLWHB76z-5jiFMLQG1M=/72x72/v1.YzszNDY1O2o7MTg3NjU7MjA0ODs4NDA7OTE5"}, "original_score": "A+"}, {"isRotten": true, "url": "http://www.nybooks.com/articles/1972/03/23/i-am-a-cabaret/", "publication": {"url": "", "name": "The New York Review of Books"}, "isTop": false, "creationDate": 1515543583000, "isFresh": false, "freshness": "rotten", "critic": {"url": "/critic/wilfrid-sheed", "name": "Wilfrid Sheed", "id": 20722, "thumbnailImage": "https://resizing.flixster.com/L4RDU9lwLj9siuskqnrhzImR690=/72x72/v1.YzszNTU3O2o7MTg3Njc7MjA0ODszMDA7MzAw"}, "quote": "The Bowles cycle is a gruesomely instructive guide to our worst show biz conventions.", "id": 2448842, "links": {"review": "http://www.nybooks.com/articles/1972/03/23/i-am-a-cabaret/"}}]}, "casts": {"screenwriters": [{"url": "/celebrity/1069447-jay_presson_allen/", "name": "Jay Presson Allen", "thumbnailImg": "https://d2a5cgar23scu2.cloudfront.net/static/images/redesign/actor.default.tmb.gif"}, {"url": "/celebrity/hugh_wheeler/", "name": "Hugh Wheeler", "thumbnailImg": "https://d2a5cgar23scu2.cloudfront.net/static/images/redesign/actor.default.tmb.gif"}], "directors": [{"url": "/celebrity/bob_fosse/", "name": "Bob Fosse", "thumbnailImg": "https://resizing.flixster.com/Qk3QXOtUDqHCjdKXcg83ge0Xngs=/80x80/v1.cDs3MDU5OTQwO2o7MTg4NzE7MjA0ODs1MTE7NzU1"}], "creators": [], "producers": [{"url": "/celebrity/cy_feuer/", "name": "Cy Feuer", "thumbnailImg": "https://d2a5cgar23scu2.cloudfront.net/static/images/redesign/actor.default.tmb.gif"}], "castItems": [{"person": {"url": "/celebrity/liza_minnelli/", "name": "Liza Minnelli", "thumbnailImg": "https://resizing.flixster.com/qqPok7qUO8DQEOmQVfB2n_9sdr0=/80x80/v1.cDsxMDM0MjAzNztqOzE4ODQxOzIwNDg7NDExOzQ2Mg"}, "characters": [{"name": "Sally Bowles"}]}, {"person": {"url": "/celebrity/joel_grey/", "name": "Joel Grey", "thumbnailImg": "https://resizing.flixster.com/fpcelBiB4Gn1Fo-Mi2-P-QLBYXY=/80x80/v1.cjsxMjgyMztqOzE4ODA4OzIwNDg7NjUyOzQ3Mw"}, "characters": [{"name": "Master of Ceremonies"}]}, {"person": {"url": "/celebrity/michael_york/", "name": "Michael York", "thumbnailImg": "https://resizing.flixster.com/-bB_68cQBLe1KXDfHRYwaOm7VjI=/80x80/v1.cjsyMjgxNztqOzE4NzY3OzIwNDg7NDAwOzYwMA"}, "characters": [{"name": "Brian Roberts"}]}, {"person": {"url": "/celebrity/marisa_berenson/", "name": "Marisa Berenson", "thumbnailImg": "https://resizing.flixster.com/eKXHoGRPGXHpuQEKlqeK3tDjKGg=/80x80/v1.cjszNTE0NTtqOzE4NzY1OzIwNDg7NTEzOzYwMA"}, "characters": [{"name": "Natalia Landauer"}]}, {"person": {"url": "/celebrity/helmut_griem/", "name": "Helmut Griem", "thumbnailImg": "https://resizing.flixster.com/loSsOY3YrQezgJWsSp1UfSsVm60=/80x80/v1.cDsxMDM0MTk2NTtqOzE4ODU5OzIwNDg7NDYyOzMyNQ"}, "characters": [{"name": "Maximilian von Heune"}]}, {"person": {"url": "/celebrity/fritz_wepper/", "name": "Fritz Wepper", "thumbnailImg": "https://resizing.flixster.com/yBf8DE1YzS4cV2GEIXMbf26qZw0=/80x80/v1.cDsxMjEyMTU3NTtqOzE4Nzg1OzIwNDg7NDIwOzU0OA"}, "characters": [{"name": "Fritz Wendel"}]}, {"person": {"url": "/celebrity/elisabeth_neumann_viertel/", "name": "Elisabeth Neumann-Viertel", "thumbnailImg": "https://d2a5cgar23scu2.cloudfront.net/static/images/redesign/actor.default.tmb.gif"}, "characters": [{"name": "Fraulein Schneider"}]}, {"person": {"url": "/celebrity/george_hartmann/", "name": "George Hartmann", "thumbnailImg": "https://d2a5cgar23scu2.cloudfront.net/static/images/redesign/actor.default.tmb.gif"}, "characters": [{"name": "Willi"}]}, {"person": {"url": "/celebrity/sigrid_von_richtofen/", "name": "Sigrid Von Richtofen", "thumbnailImg": "https://d2a5cgar23scu2.cloudfront.net/static/images/redesign/actor.default.tmb.gif"}, "characters": [{"name": "Fraulein Maur"}]}, {"person": {"url": "/celebrity/helen-vita/", "name": "Helen Vita", "thumbnailImg": "https://d2a5cgar23scu2.cloudfront.net/static/images/redesign/actor.default.tmb.gif"}, "characters": [{"name": "Fraulein Kost"}]}, {"person": {"url": "/celebrity/gerd_vespermann/", "name": "Gerd Vespermann", "thumbnailImg": "https://d2a5cgar23scu2.cloudfront.net/static/images/redesign/actor.default.tmb.gif"}, "characters": [{"name": "Bobby"}]}, {"person": {"url": "/celebrity/ralf_wolter/", "name": "Ralf Wolter", "thumbnailImg": "https://resizing.flixster.com/Q-XBwtA1pN3ujRHbVch7QFA1MR0=/80x80/v1.cDsxNDExMzM0OTtqOzE4ODgyOzIwNDg7ODAwOzYyMQ"}, "characters": [{"name": "Herr Ludwig"}]}, {"person": {"url": "/celebrity/georg_hartmann/", "name": "Georg Hartmann", "thumbnailImg": "https://d2a5cgar23scu2.cloudfront.net/static/images/redesign/actor.default.tmb.gif"}, "characters": [{"name": "Willi"}]}, {"person": {"url": "/celebrity/ricky_renee/", "name": "Ricky Renee", "thumbnailImg": "https://d2a5cgar23scu2.cloudfront.net/static/images/redesign/actor.default.tmb.gif"}, "characters": [{"name": "Elke"}]}, {"person": {"url": "/celebrity/estrongo_nachama/", "name": "Estrongo Nachama", "thumbnailImg": "https://d2a5cgar23scu2.cloudfront.net/static/images/redesign/actor.default.tmb.gif"}, "characters": [{"name": "Cantor"}]}, {"person": {"url": "/celebrity/kathryn_doby/", "name": "Kathryn Doby", "thumbnailImg": "https://d2a5cgar23scu2.cloudfront.net/static/images/redesign/actor.default.tmb.gif"}, "characters": [{"name": "Kit-Kat Dancer"}]}, {"person": {"url": "/celebrity/inge_jaeger/", "name": "Inge Jaeger", "thumbnailImg": "https://d2a5cgar23scu2.cloudfront.net/static/images/redesign/actor.default.tmb.gif"}, "characters": [{"name": "Kit-Kat Dancer"}]}, {"person": {"url": "/celebrity/angelika_koch/", "name": "Angelika Koch", "thumbnailImg": "https://d2a5cgar23scu2.cloudfront.net/static/images/redesign/actor.default.tmb.gif"}, "characters": [{"name": "Kit-Kat Dancer"}]}, {"person": {"url": "/celebrity/helen_velkovorska/", "name": "Helen Velkovorska", "thumbnailImg": "https://d2a5cgar23scu2.cloudfront.net/static/images/redesign/actor.default.tmb.gif"}, "characters": [{"name": "Kit-Kat Dancer"}]}, {"person": {"url": "/celebrity/gitta_schmidt/", "name": "Gitta Schmidt", "thumbnailImg": "https://d2a5cgar23scu2.cloudfront.net/static/images/redesign/actor.default.tmb.gif"}, "characters": [{"name": "Kit-Kat Dancer"}]}, {"person": {"url": "/celebrity/louise_quick/", "name": "Louise Quick", "thumbnailImg": "https://d2a5cgar23scu2.cloudfront.net/static/images/redesign/actor.default.tmb.gif"}, "characters": [{"name": "Kit-Kat Dancer"}]}]}, "title": "Cabaret", "adjustedScore": 98.09108293788512, "ratings": {"critics_rating": "Certified Fresh", "audience_score": 87, "dvdReleaseDate": 893746800000, "critics_score": 93, "theaterReleaseDate": 66816000000, "audience_rating": "Upright"}, "videoClips": {"mainTrailer": {"hlsUrl": "http://video.internetvideoarchive.net/video.m3u8?cmd=6&publishedid=1313&customerid=300120&e=1619087527136&sub=RTO&fmt=11&h=243ac5ab53900a29a0f97dcbf5cbbb51", "seconds": 53, "minutes": 2, "id": 10906013, "title": "Cabaret", "thumbUrl": "http://content.internetvideoarchive.com/content/photos/017/1313_037.jpg", "mp4Url": "http://video.internetvideoarchive.net/video.mp4?cmd=6&publishedid=1313&customerid=300120&e=1619087527136&sub=RTO&fmt=4&videokbrate=750&h=e2546ef28dc31c851e4062659d1e4fd3"}, "size": 2, "videoClips": [{"hlsUrl": "http://video.internetvideoarchive.net/video.m3u8?cmd=6&publishedid=1313&customerid=300120&e=1619087527136&sub=RTO&fmt=11&h=243ac5ab53900a29a0f97dcbf5cbbb51", "seconds": 53, "minutes": 2, "id": 10906013, "title": "Cabaret", "thumbUrl": "http://content.internetvideoarchive.com/content/photos/017/1313_037.jpg", "mp4Url": "http://video.internetvideoarchive.net/video.mp4?cmd=6&publishedid=1313&customerid=300120&e=1619087527136&sub=RTO&fmt=4&videokbrate=750&h=e2546ef28dc31c851e4062659d1e4fd3"}, {"hlsUrl": "http://video.internetvideoarchive.net/video.m3u8?cmd=6&publishedid=http://link.theplatform.com/s/NGweTC/media/zKkHNZXdUCcn&customerid=300120&e=1619087527136&sub=RTO&fmt=11&h=c44b79c6b085d04641ae73fe95eeebf4", "seconds": 52, "minutes": 2, "id": 11310481, "title": "Cabaret: Trailer 1", "thumbUrl": "http://resizing.flixster.com/VFojAt-a8TgkVLDITtp9mvQhSes=/171x128/v1.bjsyMTY5NTI3O2o7MTg3OTA7MjA0ODsxMDgwOzE5MjA", "mp4Url": "http://video.internetvideoarchive.net/video.mp4?cmd=6&publishedid=http://link.theplatform.com/s/NGweTC/media/zKkHNZXdUCcn&customerid=300120&e=1619087527136&sub=RTO&fmt=4&videokbrate=750&h=1fb3db786d961d596b2c1678d9b3bc5c"}]}, "isUpcoming": false, "posters": {"original": "https://resizing.flixster.com/MQgoBSjVOTPfcJWiRl9xOYV6KD8=/2424x3232/v1.bTsxMTIwODE3MztqOzE4ODcyOzIwNDg7MjQyNDszMjMy", "detailed": "https://resizing.flixster.com/drEtqnv9K7XtQN0Aw7CcY5ZFkGI=/180x240/v1.bTsxMTIwODE3MztqOzE4ODcyOzIwNDg7MjQyNDszMjMy", "profile": "https://resizing.flixster.com/3NADxUuG-Kyhl7lnBhKisHjSG2c=/120x160/v1.bTsxMTIwODE3MztqOzE4ODcyOzIwNDg7MjQyNDszMjMy", "thumbnail": "https://resizing.flixster.com/oOB4-1oO-25ZayPfRL3HWnfGR7A=/54x72/v1.bTsxMTIwODE3MztqOzE4ODcyOzIwNDg7MjQyNDszMjMy"}, "isLimited": false, "mainTrailer": {"thumbUrl": "https://content.internetvideoarchive.com/content/photos/017/1313_037.jpg", "hlsUrl": "http://video.internetvideoarchive.net/video.m3u8?cmd=6&publishedid=1313&customerid=300120&e=1619087526749&sub=RTO&fmt=11&h=443eb7ac475dc65f6cf0d49ca8d34f2b", "id": 10906013, "mp4Url": "http://video.internetvideoarchive.net/video.mp4?cmd=6&publishedid=1313&customerid=300120&e=1619087526749&sub=RTO&fmt=4&videokbrate=750&h=d8150be020a985cd2030da64d1b5d6c5"}, "photos": {"photos": [{"url": "https://resizing.flixster.com/NuVx6_OJXQJWUsZoDaEEt8KgHoM=/1024x1024/v1.bjs2ODkwNDE7ajsxODc3MzsyMDQ4OzI0MjQ7MjQyNA", "index": 0, "submittedBy": "RT Staff", "height": 1024, "imageId": 689041, "thumbnail": "https://resizing.flixster.com/BYq3dskSrg7ym6tGcjDXc2-_liE=/80x80/v1.bjs2ODkwNDE7ajsxODc3MzsyMDQ4OzI0MjQ7MjQyNA", "submittedDate": "2015-05-10", "id": "multiuse-689041", "photoType": "movie", "width": 1024}], "length": 1}, "id": 12513}