{"url": "/m/johnny_guitar/", "isOnOpening": false, "genreSet": [{"displayName": "Western", "id": 17}, {"displayName": "Drama", "id": 9}, {"displayName": "Action & Adventure", "id": 1}, {"displayName": "Musical & Performing Arts", "id": 12}, {"displayName": "Classics", "id": 5}], "runningTime": 110, "isInTheaters": false, "synopsis": "Strong-willed saloon-casino owner Vienna squares off against her nemesis, the shrieking Emma Small, who wrongly blames Vienna for her brother's death.", "links": {"alternate": "//www.rottentomatoes.com/m/johnny_guitar/"}, "year": 1954, "trackingType": "DvdOther", "status": "Live", "isPlaying": false, "isOnDVD": true, "runningTimeStr": "1 hr. 50 min.", "ratingSummary": {"topcount": 13, "consensus": "Johnny Guitar confidently strides through genre conventions, emerging with a brilliant statement that transcends its period setting -- and left an indelible mark.", "topCritics": {"hasScore": true, "numReviews": 13, "meterClass": "certified", "numRotten": 2, "numFresh": 11, "hasReviews": true, "meterValue": 85, "averageRating": 8.527778}, "audience": {"meterScore": 85, "averageScore": 3.962904453277588, "numTotal": 3571, "ratingType": "viewed"}, "allcount": 46, "rottencount": 3, "dvdcount": 4, "allCritics": {"hasScore": true, "numReviews": 46, "meterClass": "certified", "numRotten": 3, "numFresh": 43, "hasReviews": true, "meterValue": 93, "averageRating": 8.52}, "freshcount": 43}, "mpaaRating": "PG", "vanity": "johnny_guitar", "studio": "Republic", "purchaseOptions": {"amazon": {"url": "http://www.amazon.com/gp/video/primesignup?t=0m0s&redirectToAsin=B00HMLUNGG&tag=rottetomao_piv_mv-20", "isPrime": true}, "iTunes": {"url": "https://itunes.apple.com/movie/johnny-guitar-1954/id607598420?uo=5", "price": "6.99"}}, "reviews": {"total": 46, "links": {"alternate": "//www.rottentomatoes.com/m/johnny_guitar/#reviews", "self": "api.flixster.com/movies/johnny-guitar/reviews.json?review_type=mob&country=us&page=1", "prev": "api.flixster.com/movies/johnny-guitar/reviews.json?review_type=mob&country=us&page=0", "next": "api.flixster.com/movies/johnny-guitar/reviews.json?review_type=mob&country=us&page=2"}, "reviews": [{"isRotten": false, "url": "https://www.rogerebert.com/reviews/johnny-guitar-1954", "creationDate": 1516832499000, "isFresh": true, "id": 2452567, "quote": "A cheap Western from Republic Pictures, yes. And also one of the boldest and most stylized films of its time, quirky, political, twisted.", "links": {"review": "https://www.rogerebert.com/reviews/johnny-guitar-1954"}, "publication": {"url": "", "name": "RogerEbert.com"}, "isTop": true, "freshness": "fresh", "critic": {"url": "/critic/roger-ebert", "name": "Roger Ebert", "id": 16, "thumbnailImage": "https://resizing.flixster.com/Z1azjSA-72PEwykgNULa0bwtX1A=/72x72/v1.YzsyNTY5O2c7MTg3Njk7MjA0ODsxNTA7MTUw"}, "original_score": "4/4"}, {"isRotten": false, "url": "http://www.theguardian.com/film/2016/may/05/johnny-guitar-review-nicholas-ray-joan-crawford-sterling-hayden-1954-western", "creationDate": 1462482470000, "isFresh": true, "id": 2325196, "quote": "Unforgettably strange and brilliant.", "links": {"review": "http://www.theguardian.com/film/2016/may/05/johnny-guitar-review-nicholas-ray-joan-crawford-sterling-hayden-1954-western"}, "publication": {"url": "", "name": "Guardian"}, "isTop": true, "freshness": "fresh", "critic": {"url": "/critic/peter-bradshaw", "name": "Peter Bradshaw", "id": 408, "thumbnailImage": "https://d2a5cgar23scu2.cloudfront.net/static/images/redesign/user.none.tmb.jpg"}, "original_score": "5/5"}, {"isRotten": false, "url": "http://www.timeout.com/london/film/johnny-guitar", "creationDate": 1462284659000, "isFresh": true, "id": 2324603, "quote": "A movie for anyone who's ever been judged on their appearance, their outlook or the way they choose to live. ", "links": {"review": "http://www.timeout.com/london/film/johnny-guitar"}, "publication": {"url": "", "name": "Time Out"}, "isTop": true, "freshness": "fresh", "critic": {"url": "/critic/tom-huddleston", "name": "Tom Huddleston", "id": 13077, "thumbnailImage": "https://resizing.flixster.com/YLvOMjVYezqhkpJuAkPhJ-NO4qQ=/72x72/v1.YzsyNDQ4O2c7MTg3ODM7MjA0ODszODs0Mg"}, "original_score": "5/5"}, {"isRotten": false, "url": "http://www.timeout.com/us/film/johnny-guitar", "creationDate": 1447456578000, "isFresh": true, "id": 2294454, "quote": "It's not just Joan's campiness -- her line readings take on an almost incantatory quality -- but the way the whole thing feels like a stealth therapy session for smart actors trapped in horse-opera stereotypes.", "links": {"review": "http://www.timeout.com/us/film/johnny-guitar"}, "publication": {"url": "", "name": "Time Out"}, "isTop": true, "freshness": "fresh", "critic": {"url": "/critic/joshua-rothkopf", "name": "Joshua Rothkopf", "id": 5859, "thumbnailImage": "https://resizing.flixster.com/eRS5Bxmblh-G42HbgQffo6dtLb0=/72x72/v1.YzsyNjcwO2c7MTg3ODA7MjA0ODsxNTA7MTUw"}, "original_score": "5/5"}, {"isRotten": false, "url": "http://www.villagevoice.com/film/nicholas-ray-s-johnny-guitar-thrills-and-confounds-again-in-a-gorgeous-restoration-7885171", "publication": {"url": "", "name": "Village Voice"}, "isTop": true, "creationDate": 1447156378000, "isFresh": true, "freshness": "fresh", "critic": {"url": "/critic/aaron-hillis", "name": "Aaron Hillis", "id": 8141, "thumbnailImage": "https://resizing.flixster.com/Z0DJ3UjewJERPUFiDgrIemYjBSA=/72x72/v1.YzsxNTMyO2o7MTg3Njc7MjA0ODszODs1MQ"}, "quote": "A slyly radical psychosexual oddity busting through genre conventions, beyond its Old West Arizona setting ...", "id": 2293466, "links": {"review": "http://www.villagevoice.com/film/nicholas-ray-s-johnny-guitar-thrills-and-confounds-again-in-a-gorgeous-restoration-7885171"}}, {"isRotten": false, "url": "http://www.newyorker.com/goings-on-about-town/movies/johnny-guitar", "publication": {"url": "", "name": "New Yorker"}, "isTop": true, "creationDate": 1447073098000, "isFresh": true, "freshness": "fresh", "critic": {"url": "/critic/richard-brody", "name": "Richard Brody", "id": 12902, "thumbnailImage": "https://d2a5cgar23scu2.cloudfront.net/static/images/redesign/user.none.tmb.jpg"}, "quote": "The acidulous palette of the costumes and the d\u00e9cor conjure Ray's insolent, isolated fury; though the action is set in the nineteenth century, the actors break out of the story to foreshadow the stylishly electric revolutions to come.", "id": 2293330, "links": {"review": "http://www.newyorker.com/goings-on-about-town/movies/johnny-guitar"}}, {"isRotten": false, "url": "https://archive.org/details/cahiersducinemainenglish8feb1967/Cahiers_du_Cinema_The_1950s_Neo-Realism_Hollywood_New_Wave/page/n119/mode/2up", "publication": {"url": "", "name": "Cahiers du Cin\u00e9ma"}, "isTop": false, "creationDate": 1612207640000, "isFresh": true, "freshness": "fresh", "critic": {"url": "/critic/francois-truffaut", "name": "Francois Truffaut", "id": 3786, "thumbnailImage": "https://d2a5cgar23scu2.cloudfront.net/static/images/redesign/user.none.tmb.jpg"}, "quote": "Johnny Guitar is not really a Western, nor is it an 'intellectual Western'. It is a Western that is dream-like, magical, unreal to a degree, delirious.", "id": 2762624, "links": {"review": "https://archive.org/details/cahiersducinemainenglish8feb1967/Cahiers_du_Cinema_The_1950s_Neo-Realism_Hollywood_New_Wave/page/n119/mode/2up"}}, {"isRotten": true, "url": "http://desistfilm.com/il-cinema-ritrovato-2017-in-favour-of-experience/", "publication": {"url": "", "name": "Desist Film"}, "isTop": false, "creationDate": 1548360345000, "isFresh": false, "freshness": "rotten", "critic": {"url": "/critic/tara-judah", "name": "Tara Judah", "id": 16020, "thumbnailImage": "https://resizing.flixster.com/kqPdvjSQeW7BcdJztZzltyshiqI=/72x72/v1.YzszMjM3O2o7MTg4MDc7MjA0ODszMDA7MzAw"}, "quote": "While I won't say that I loved the film (it retains enough of its genre's tropes to not quite work for me), I was surprised by how glorious the sets and landscapes looked.", "id": 2550596, "links": {"review": "http://desistfilm.com/il-cinema-ritrovato-2017-in-favour-of-experience/"}}, {"isRotten": false, "url": "http://www.patheos.com/blogs/evetushnet/2018/08/kill-my-friend-three-short-movie-reviews.html", "publication": {"url": "", "name": "Patheos"}, "isTop": false, "creationDate": 1536276806000, "isFresh": true, "freshness": "fresh", "critic": {"url": "/critic/eve-tushnet", "name": "Eve Tushnet", "id": 22507, "thumbnailImage": "https://d2a5cgar23scu2.cloudfront.net/static/images/redesign/user.none.tmb.jpg"}, "quote": "Double-crosses, beautiful losers, gunplay and waterfalls and fire and whiskey, it's all here. ", "id": 2507762, "links": {"review": "http://www.patheos.com/blogs/evetushnet/2018/08/kill-my-friend-three-short-movie-reviews.html"}}, {"isRotten": false, "url": "http://www.larsenonfilm.com/johnny-guitar", "creationDate": 1529889426000, "isFresh": true, "id": 2486626, "quote": "Mildred Pierce unleashed on the wild, wild West.", "links": {"review": "http://www.larsenonfilm.com/johnny-guitar"}, "publication": {"name": "LarsenOnFilm"}, "isTop": false, "freshness": "fresh", "critic": {"url": "/critic/josh-larsen", "name": "Josh Larsen", "id": 5862, "thumbnailImage": "https://resizing.flixster.com/INwXGggtlQY2hz5MUWofbVNavfk=/72x72/v1.YzszMTIzO2o7MTg3ODM7MjA0ODsyOTY7Mjgz"}, "original_score": "3.5/4"}, {"isRotten": false, "url": "http://www.radiotimes.com/film/rm95/johnny-guitar/", "creationDate": 1516832344000, "isFresh": true, "id": 2452566, "quote": "This baroque bonanza fascinates on so many levels that it demands to be repeatedly viewed and reviewed.", "links": {"review": "http://www.radiotimes.com/film/rm95/johnny-guitar/"}, "publication": {"url": "", "name": "Radio Times"}, "isTop": false, "freshness": "fresh", "critic": {"url": "/critic/david-parkinson", "name": "David Parkinson", "id": 3959, "thumbnailImage": "https://d2a5cgar23scu2.cloudfront.net/static/images/redesign/user.none.tmb.jpg"}, "original_score": "4/5"}, {"isRotten": false, "url": "https://familyhometheater.com/2016/09/28/johnny-guitar-blu-ray/", "creationDate": 1516144851000, "isFresh": true, "id": 2450257, "quote": "Compared to other Westerns, Johnny Guitar is high art--richly atmospheric and with noir elements that will remind viewers of such dramatic films as Key Largo.", "links": {"review": "https://familyhometheater.com/2016/09/28/johnny-guitar-blu-ray/"}, "publication": {"url": "", "name": "Family Home Theater"}, "isTop": false, "freshness": "fresh", "critic": {"url": "/critic/james-plath", "name": "James Plath", "id": 8011, "thumbnailImage": "https://resizing.flixster.com/lb9VzfnffMFSUjoDkNs0nZpuK4w=/72x72/v1.YzsxNzUxO2c7MTg4MDY7MjA0ODszODs0Mg"}, "original_score": "B+"}]}, "casts": {"screenwriters": [{"url": "/celebrity/1059805-philip_yordan/", "name": "Philip Yordan", "thumbnailImg": "https://d2a5cgar23scu2.cloudfront.net/static/images/redesign/actor.default.tmb.gif"}], "directors": [{"url": "/celebrity/nicholas_ray/", "name": "Nicholas Ray", "thumbnailImg": "https://resizing.flixster.com/ocLFmtX7ldUpB2X6odDK7Jt2hpo=/80x80/v1.cDsxMTE4Njg2NztqOzE4ODUxOzIwNDg7NTAwOzMzOA"}], "creators": [], "producers": [{"url": "/celebrity/herbert_j_yates/", "name": "Herbert J. Yates", "thumbnailImg": "https://d2a5cgar23scu2.cloudfront.net/static/images/redesign/actor.default.tmb.gif"}], "castItems": [{"person": {"url": "/celebrity/joan_crawford/", "name": "Joan Crawford", "thumbnailImg": "https://resizing.flixster.com/7CP_W9-s3ybVjUNvrzLA5qxknw8=/80x80/v1.cDsxMTExNDQwNztqOzE4ODg1OzIwNDg7NzIwOzU2MA"}, "characters": [{"name": "Vienna"}]}, {"person": {"url": "/celebrity/mercedes_mccambridge/", "name": "Mercedes McCambridge", "thumbnailImg": "https://resizing.flixster.com/Jv5IBEAnsO_u8BaldOm0RWAqf3U=/80x80/v1.cDsxMjg0NTU3ODtqOzE4NzkxOzIwNDg7MzIwOzI0MA"}, "characters": [{"name": "Emma Small"}]}, {"person": {"url": "/celebrity/sterling_hayden/", "name": "Sterling Hayden", "thumbnailImg": "https://resizing.flixster.com/Oj6CX1EfX9mmsedZ9wn8gVXt63U=/80x80/v1.cDs0Njk1NTk3O2o7MTg4MDE7MjA0ODszNjQ7NDcz"}, "characters": [{"name": "Johnny Guitar"}]}, {"person": {"url": "/celebrity/scott_brady/", "name": "Scott Brady", "thumbnailImg": "https://resizing.flixster.com/37Ka2iITMEYPk3ZGxI-RvwZ7KpQ=/80x80/v1.cDsxMTY4NDc5NztqOzE4NzcyOzIwNDg7MTQ2NTsyMTQw"}, "characters": [{"name": "Dancin' Kid"}, {"name": "Dancin'Kid"}]}, {"person": {"url": "/celebrity/ward_bond/", "name": "Ward Bond", "thumbnailImg": "https://resizing.flixster.com/wZt3uc1BbReitlZd_zbg3v_6mGI=/80x80/v1.cDs3Mzk1NzY1O2o7MTg4NjU7MjA0ODszNjI7NDUw"}, "characters": [{"name": "John McIvers"}]}, {"person": {"url": "/celebrity/ben_cooper/", "name": "Ben Cooper", "thumbnailImg": "https://resizing.flixster.com/GUJwUyYOfOP0deWlRAHGfJH0zdM=/80x80/v1.cDsxMjA3NDQ4MjtqOzE4ODA2OzIwNDg7MTY1OzIwMA"}, "characters": [{"name": "Turkey Ralston"}]}, {"person": {"url": "/celebrity/ernest_borgnine/", "name": "Ernest Borgnine", "thumbnailImg": "https://resizing.flixster.com/QIJQw6TNMXyFgq1DI6lHwcsjxuE=/80x80/v1.cjszNjY1MDtqOzE4Nzg1OzIwNDg7NDg1OzYwMA"}, "characters": [{"name": "Bart Lonergan"}]}, {"person": {"url": "/celebrity/john_carradine/", "name": "John Carradine", "thumbnailImg": "https://resizing.flixster.com/EErTWd4G7qwtCLq7xsm7NkzjBiE=/80x80/v1.cDs5NjczODIwO2o7MTg4MjE7MjA0ODszODQ7MjQz"}, "characters": [{"name": "Old Tom"}]}, {"person": {"url": "/celebrity/royal_dano/", "name": "Royal Dano", "thumbnailImg": "https://resizing.flixster.com/sQ0-pCsKEQXCTiwgFvB_p49uQOU=/80x80/v1.cDs5NTkxMzczO2o7MTg4MTQ7MjA0ODs0NjM7NDYz"}, "characters": [{"name": "Corey"}]}, {"person": {"url": "/celebrity/frank_ferguson/", "name": "Frank Ferguson", "thumbnailImg": "https://resizing.flixster.com/nTSAyOptoPGCkY06TIQP-9g06oE=/80x80/v1.cDsxMzU1NDMyOTtqOzE4ODAwOzIwNDg7MTMxOzIwMA"}, "characters": [{"name": "Marshal Williams"}]}, {"person": {"url": "/celebrity/paul_fix/", "name": "Paul Fix", "thumbnailImg": "https://resizing.flixster.com/Yu7Uo9AQgunyyd4qvSkzU0mT8No=/80x80/v1.cDsxMTYzMzIxMDtqOzE4ODg5OzIwNDg7MzA3OzQ0Mg"}, "characters": [{"name": "Eddie"}]}, {"person": {"url": "/celebrity/rhys_williams/", "name": "Rhys Williams", "thumbnailImg": "https://resizing.flixster.com/4aJChnI_OBluSLnv_9HyBCVjw0A=/80x80/v1.cDsxMTk2MjAyNDtqOzE4ODAyOzIwNDg7MTg2OzIzMg"}, "characters": [{"name": "Mr. Andrews"}]}, {"person": {"url": "/celebrity/ian_macdonald/", "name": "Ian MacDonald", "thumbnailImg": "https://d2a5cgar23scu2.cloudfront.net/static/images/redesign/actor.default.tmb.gif"}, "characters": [{"name": "Pete"}]}, {"person": {"url": "/celebrity/will_wright/", "name": "Will Wright", "thumbnailImg": "https://d2a5cgar23scu2.cloudfront.net/static/images/redesign/actor.default.tmb.gif"}, "characters": [{"name": "Ned"}]}, {"person": {"url": "/celebrity/john_maxwell/", "name": "John Maxwell", "thumbnailImg": "https://d2a5cgar23scu2.cloudfront.net/static/images/redesign/actor.default.tmb.gif"}, "characters": [{"name": "Jake"}]}, {"person": {"url": "/celebrity/robert_osterloh/", "name": "Robert Osterloh", "thumbnailImg": "https://resizing.flixster.com/I9PZFDKP3MQSoPag0cNmZbDkFA8=/80x80/v1.cDsxMjU4NDAwNztqOzE4ODAyOzIwNDg7MTQyOzIwMA"}, "characters": [{"name": "Sam"}]}, {"person": {"url": "/celebrity/trevor_bardette/", "name": "Trevor Bardette", "thumbnailImg": "https://d2a5cgar23scu2.cloudfront.net/static/images/redesign/actor.default.tmb.gif"}, "characters": [{"name": "Jenks"}]}, {"person": {"url": "/celebrity/sumner_williams/", "name": "Sumner Williams", "thumbnailImg": "https://d2a5cgar23scu2.cloudfront.net/static/images/redesign/actor.default.tmb.gif"}, "characters": [{"name": "Posse Member"}]}, {"person": {"url": "/celebrity/sheb_wooley/", "name": "Sheb Wooley", "thumbnailImg": "https://resizing.flixster.com/FIwVh3FObP4riSgEDLJYsSav04s=/80x80/v1.cDs5NDE0MDE2O2o7MTg3OTk7MjA0ODszNDI7NDMy"}, "characters": [{"name": "Posse Member"}]}, {"person": {"url": "/celebrity/denver_pyle/", "name": "Denver Pyle", "thumbnailImg": "https://resizing.flixster.com/daKNNr8vbo51wQzDNkQG0IGJKYI=/80x80/v1.cDsxNDExMjE3NztqOzE4ODgwOzIwNDg7MzI0OzM2Mg"}, "characters": [{"name": "Posse Member"}]}, {"person": {"url": "/celebrity/clem_harvey/", "name": "Clem Harvey", "thumbnailImg": "https://d2a5cgar23scu2.cloudfront.net/static/images/redesign/actor.default.tmb.gif"}, "characters": [{"name": "Posse Member"}]}, {"person": {"url": "/celebrity/frank_marlowe/", "name": "Frank Marlowe", "thumbnailImg": "https://d2a5cgar23scu2.cloudfront.net/static/images/redesign/actor.default.tmb.gif"}, "characters": [{"name": "Frank"}]}, {"person": {"url": "/celebrity/victor_young/", "name": "Victor Young", "thumbnailImg": "https://d2a5cgar23scu2.cloudfront.net/static/images/redesign/actor.default.tmb.gif"}}, {"person": {"url": "/celebrity/1059805-philip_yordan/", "name": "Philip Yordan", "thumbnailImg": "https://d2a5cgar23scu2.cloudfront.net/static/images/redesign/actor.default.tmb.gif"}}, {"person": {"url": "/celebrity/roy_chanslor/", "name": "Roy Chanslor", "thumbnailImg": "https://d2a5cgar23scu2.cloudfront.net/static/images/redesign/actor.default.tmb.gif"}}, {"person": {"url": "/celebrity/howard_wilson/", "name": "Howard Wilson", "thumbnailImg": "https://d2a5cgar23scu2.cloudfront.net/static/images/redesign/actor.default.tmb.gif"}}]}, "title": "Johnny Guitar", "adjustedScore": 97.85152394036534, "ratings": {"critics_rating": "Certified Fresh", "audience_score": 85, "dvdReleaseDate": 1221548400000, "critics_score": 93, "theaterReleaseDate": -492368400000, "audience_rating": "Upright"}, "videoClips": {"mainTrailer": {"hlsUrl": "http://video.internetvideoarchive.net/video.m3u8?cmd=6&publishedid=208155&customerid=300120&e=1619087539566&sub=RTO&fmt=11&h=e376a7caad889c1d9040d50f33478770", "seconds": 0, "minutes": 3, "id": 11224676, "title": "Johnny Guitar", "thumbUrl": "http://content.internetvideoarchive.com/content/photos/9499/208155_026.jpg", "mp4Url": "http://video.internetvideoarchive.net/video.mp4?cmd=6&publishedid=208155&customerid=300120&e=1619087539566&sub=RTO&fmt=4&videokbrate=750&h=9d407aeb275a07266392ef6d7150d84e"}, "size": 1, "videoClips": [{"hlsUrl": "http://video.internetvideoarchive.net/video.m3u8?cmd=6&publishedid=208155&customerid=300120&e=1619087539566&sub=RTO&fmt=11&h=e376a7caad889c1d9040d50f33478770", "seconds": 0, "minutes": 3, "id": 11224676, "title": "Johnny Guitar", "thumbUrl": "http://content.internetvideoarchive.com/content/photos/9499/208155_026.jpg", "mp4Url": "http://video.internetvideoarchive.net/video.mp4?cmd=6&publishedid=208155&customerid=300120&e=1619087539566&sub=RTO&fmt=4&videokbrate=750&h=9d407aeb275a07266392ef6d7150d84e"}]}, "isUpcoming": false, "posters": {"original": "https://resizing.flixster.com/dcTWCImk8YHe821D15fFOtwDyJ8=/996x1328/v1.bTsxMTIxNjk2NTtqOzE4ODg5OzIwNDg7OTk2OzEzMjg", "detailed": "https://resizing.flixster.com/DmT8DsBBULAHlFUVcwIo-JWtgCQ=/180x240/v1.bTsxMTIxNjk2NTtqOzE4ODg5OzIwNDg7OTk2OzEzMjg", "profile": "https://resizing.flixster.com/TZE_bwqn1Axq2tnQZNxyfKSCOaA=/120x160/v1.bTsxMTIxNjk2NTtqOzE4ODg5OzIwNDg7OTk2OzEzMjg", "thumbnail": "https://resizing.flixster.com/xUAlsJDCLdi5nVbdW3aGv3QeeQo=/54x72/v1.bTsxMTIxNjk2NTtqOzE4ODg5OzIwNDg7OTk2OzEzMjg"}, "isLimited": true, "mainTrailer": {"thumbUrl": "https://content.internetvideoarchive.com/content/photos/9499/208155_026.jpg", "hlsUrl": "http://video.internetvideoarchive.net/video.m3u8?cmd=6&publishedid=208155&customerid=300120&e=1619087538933&sub=RTO&fmt=11&h=dcbdb2caa97fd6bad914c0f3412c4da3", "id": 11224676, "mp4Url": "http://video.internetvideoarchive.net/video.mp4?cmd=6&publishedid=208155&customerid=300120&e=1619087538933&sub=RTO&fmt=4&videokbrate=750&h=199b005347cbacad12104f9ac4f8c1bf"}, "photos": {"photos": [{"url": "https://resizing.flixster.com/4NX9drd4mwvGTZH-HCq1SLl9n0k=/661x1024/v1.bjs3Mzc3NDA7ajsxODc4MzsyMDQ4OzE2MTk7MjUwOA", "index": 0, "submittedBy": "RT Staff", "height": 1024, "imageId": 737740, "thumbnail": "https://resizing.flixster.com/of8HvrMp8LXMu7f-7jjubLDOb98=/80x80/v1.bjs3Mzc3NDA7ajsxODc4MzsyMDQ4OzE2MTk7MjUwOA", "submittedDate": "2015-06-11", "id": "multiuse-737740", "photoType": "movie", "width": 661}, {"url": "https://resizing.flixster.com/YbgdqUS89AUVbKAPTi26O0atVk8=/679x1024/v1.bjs3Mzc3NDE7ajsxODc4NDsyMDQ4OzE2Mzk7MjQ3Mg", "index": 1, "submittedBy": "RT Staff", "height": 1024, "imageId": 737741, "thumbnail": "https://resizing.flixster.com/qs7INmLERab-rjKz-5h2rzTIbAc=/80x80/v1.bjs3Mzc3NDE7ajsxODc4NDsyMDQ4OzE2Mzk7MjQ3Mg", "submittedDate": "2015-06-11", "id": "multiuse-737741", "photoType": "movie", "width": 679}, {"url": "https://resizing.flixster.com/d8Fr0KNzorFOtgWsxdN1-7-tZco=/1024x709/v1.bjs3Mzc3NDI7ajsxODc4NTsyMDQ4OzIzNjg7MTYzOQ", "index": 2, "submittedBy": "RT Staff", "height": 709, "imageId": 737742, "thumbnail": "https://resizing.flixster.com/fXRPnDShO8rKDSzQtJDrU7JYRo8=/80x80/v1.bjs3Mzc3NDI7ajsxODc4NTsyMDQ4OzIzNjg7MTYzOQ", "submittedDate": "2015-06-11", "id": "multiuse-737742", "photoType": "movie", "width": 1024}, {"url": "https://resizing.flixster.com/faRRm7_NLyhdpjB9lPbt_09PRwc=/1024x768/v1.bjs3Mzc3NDM7ajsxODc4NjsyMDQ4OzI0MzE7MTgyNA", "index": 3, "submittedBy": "RT Staff", "height": 768, "imageId": 737743, "thumbnail": "https://resizing.flixster.com/sXV56Lg82OnrW9cvbaivYkYdoro=/80x80/v1.bjs3Mzc3NDM7ajsxODc4NjsyMDQ4OzI0MzE7MTgyNA", "submittedDate": "2015-06-11", "id": "multiuse-737743", "photoType": "movie", "width": 1024}, {"url": "https://resizing.flixster.com/7WNpA0ARPC1UtjCBUdw4qf5EIOk=/576x1024/v1.bjs3Mzc3NDQ7ajsxODc4NzsyMDQ4OzE1OTE7MjgzMA", "index": 4, "submittedBy": "RT Staff", "height": 1024, "imageId": 737744, "thumbnail": "https://resizing.flixster.com/Ei4giUnOFd8Ykw-76GN73Pwps5Q=/80x80/v1.bjs3Mzc3NDQ7ajsxODc4NzsyMDQ4OzE1OTE7MjgzMA", "submittedDate": "2015-06-11", "id": "multiuse-737744", "photoType": "movie", "width": 576}, {"url": "https://resizing.flixster.com/Ujcqt0OPZnbCo4xNHWBvHf7Q7Qs=/1024x769/v1.bjsyNjU4MDE3O2o7MTg4NDI7MjA0ODsxNjAwOzEyMDE", "index": 5, "submittedBy": "RT Staff", "height": 769, "imageId": 2658017, "thumbnail": "https://resizing.flixster.com/STuYI52atzCfrFlOmqsFrQcI9zU=/80x80/v1.bjsyNjU4MDE3O2o7MTg4NDI7MjA0ODsxNjAwOzEyMDE", "submittedDate": "2020-12-24", "id": "multiuse-2658017", "photoType": "movie", "width": 1024}], "length": 6}, "id": 494110630}