{"url": "/m/20000_days_on_earth/", "isOnOpening": false, "genreSet": [{"displayName": "Documentary", "id": 8}, {"displayName": "Musical & Performing Arts", "id": 12}, {"displayName": "Special Interest", "id": 15}], "officialUrl": "http://www.20000daysonearth.com/", "isInTheaters": false, "synopsis": "Drama and reality combine in a fictitious 24 hours in the life of musician and international cultural icon, Nick Cave. With startlingly frank insights and an intimate portrayal of the artistic process, the film examines what makes us who we are, and celebrates the transformative power of the creative spirit. (c) Drafthouse", "links": {"alternate": "//www.rottentomatoes.com/m/20000_days_on_earth/"}, "runningTime": 97, "year": 2014, "trackingType": "DvdOther", "status": "Live", "isPlaying": false, "isOnDVD": true, "runningTimeStr": "1 hr. 37 min.", "ratingSummary": {"topcount": 41, "consensus": "Revealing yet respectful, 20,000 Days on Earth is essential viewing for any Nick Cave fan.", "topCritics": {"hasScore": true, "numReviews": 41, "meterClass": "certified", "numRotten": 3, "numFresh": 38, "hasReviews": true, "meterValue": 93, "averageRating": 7.663793}, "audience": {"meterScore": 79, "averageScore": 3.8780159950256348, "numTotal": 4552, "ratingType": "viewed"}, "allcount": 87, "rottencount": 4, "dvdcount": 0, "allCritics": {"hasScore": true, "numReviews": 87, "meterClass": "certified", "numRotten": 4, "numFresh": 83, "hasReviews": true, "meterValue": 95, "averageRating": 7.73}, "freshcount": 83}, "mpaaRating": "Unrated", "vanity": "20000_days_on_earth", "studio": "Drafthouse Films", "purchaseOptions": {"vudu": {"url": "https://www.vudu.com/content/movies/details/20000-Days-on-Earth/574223", "type": "buy"}, "iTunes": {"url": "https://itunes.apple.com/movie/20-000-days-on-earth/id915043237?uo=5", "price": "7.99"}}, "reviews": {"total": 87, "links": {"alternate": "//www.rottentomatoes.com/m/20000_days_on_earth/#reviews", "self": "api.flixster.com/movies/20000-days-on-earth/reviews.json?review_type=mob&country=us&page=1", "prev": "api.flixster.com/movies/20000-days-on-earth/reviews.json?review_type=mob&country=us&page=0", "next": "api.flixster.com/movies/20000-days-on-earth/reviews.json?review_type=mob&country=us&page=2"}, "reviews": [{"isRotten": false, "url": "http://www.latimes.com/entertainment/movies/la-et-mn-20000-days-on-earth-review-20140926-column.html?", "publication": {"url": "", "name": "Los Angeles Times"}, "isTop": true, "creationDate": 1420520965000, "isFresh": true, "freshness": "fresh", "critic": {"url": "/critic/kenneth-turan", "name": "Kenneth Turan", "id": 420, "thumbnailImage": "https://resizing.flixster.com/GGcmim4Df8Ts84r2ovfXvoUtweo=/72x72/v1.YzsyNjgzO2c7MTg3OTM7MjA0ODsxNTA7MTUw"}, "quote": "\"Something happens onstage,\" Cave says, \"where you forget who you are and become someone else.\" As much as any documentary can, 20,000 Days on Earth allows us to bear witness to what goes on in that process.", "id": 2240938, "links": {"review": "http://www.latimes.com/entertainment/movies/la-et-mn-20000-days-on-earth-review-20140926-column.html?"}}, {"isRotten": true, "url": "http://www.chicagoreader.com/chicago/20000-days-on-earth/Film?oid=13296500", "publication": {"url": "", "name": "Chicago Reader"}, "isTop": true, "creationDate": 1420520640000, "isFresh": false, "freshness": "rotten", "critic": {"url": "/critic/tal-rosenberg", "name": "Tal Rosenberg", "id": 14388, "thumbnailImage": "https://d2a5cgar23scu2.cloudfront.net/static/images/redesign/user.none.tmb.jpg"}, "quote": "The title refers to the fact that the day chronicled is ostensibly Cave's 20,000th alive, though the movie is so slowly paced that 20,000 days seems more like the running time.", "id": 2240933, "links": {"review": "http://www.chicagoreader.com/chicago/20000-days-on-earth/Film?oid=13296500"}}, {"isRotten": false, "url": "http://www.torontosun.com/2014/09/25/20000-days-on-earth-review-an-intriguing-day-in-the-life-of-nick-cave", "creationDate": 1420520597000, "isFresh": true, "id": 2240932, "quote": "Near the end of the movie, Cave talks about living in the 'shimmering space' where imagination and reality intersect. He's talking about words and music, but he could be talking about 20,000 Days on Earth.", "links": {"review": "http://www.torontosun.com/2014/09/25/20000-days-on-earth-review-an-intriguing-day-in-the-life-of-nick-cave"}, "publication": {"url": "", "name": "Toronto Sun"}, "isTop": true, "freshness": "fresh", "critic": {"url": "/critic/liz-braun", "name": "Liz Braun", "id": 161, "thumbnailImage": "https://d2a5cgar23scu2.cloudfront.net/static/images/redesign/user.none.tmb.jpg"}, "original_score": "4/5"}, {"isRotten": true, "url": "http://www.smh.com.au/entertainment/movies/20000-days-on-earth-review-nick-cave-doco-treads-line-between-drama-and-pretentiousness-20140811-102pyi.html", "creationDate": 1420520453000, "isFresh": false, "id": 2240929, "quote": "Forsyth and Pollard are visual artists-turned-filmmakers and their fine feel for the romantic possibilities of lighting and composition shape every frame. They're less sensitive to the line that separates drama from pretentiousness.", "links": {"review": "http://www.smh.com.au/entertainment/movies/20000-days-on-earth-review-nick-cave-doco-treads-line-between-drama-and-pretentiousness-20140811-102pyi.html"}, "publication": {"url": "", "name": "Sydney Morning Herald"}, "isTop": true, "freshness": "rotten", "critic": {"url": "/critic/sandra-hall", "name": "Sandra Hall", "id": 12853, "thumbnailImage": "https://d2a5cgar23scu2.cloudfront.net/static/images/redesign/user.none.tmb.jpg"}, "original_score": "3/5"}, {"isRotten": false, "url": "http://www.ew.com/ew/article/0,,20483133_20855922,00.html", "creationDate": 1420520316000, "isFresh": true, "id": 2240928, "quote": "An intelligent and revealing look at one of rock's last true iconoclasts.", "links": {"review": "http://www.ew.com/ew/article/0,,20483133_20855922,00.html"}, "publication": {"url": "", "name": "Entertainment Weekly"}, "isTop": true, "freshness": "fresh", "critic": {"url": "/critic/chris-nashawaty", "name": "Chris Nashawaty", "id": 12716, "thumbnailImage": "https://resizing.flixster.com/6c6jlqDmRbGspJqKosx9osVHgdA=/72x72/v1.YzsyODkzO2c7MTg3Nzg7MjA0ODsxNTA7MTUw"}, "original_score": "A-"}, {"isRotten": false, "url": "http://www.detroitnews.com/story/entertainment/movies/2014/10/24/days-earth-film-review-nick-cave/17800417/", "creationDate": 1414163336000, "isFresh": true, "id": 2230136, "quote": "You don't just meet and learn about Nick Cave in \"20,000 Days,\" you feel him.", "links": {"review": "http://www.detroitnews.com/story/entertainment/movies/2014/10/24/days-earth-film-review-nick-cave/17800417/"}, "publication": {"name": "Detroit News"}, "isTop": true, "freshness": "fresh", "critic": {"url": "/critic/tom-long", "name": "Tom Long", "id": 1287, "thumbnailImage": "https://resizing.flixster.com/JZNNn9vgwnO2AiCwUyD7snj2MCM=/72x72/v1.YzsxNTA2O2c7MTg3ODY7MjA0ODszODs0MA"}, "original_score": "B+"}, {"isRotten": false, "url": "https://hyperallergic.com/151200/the-man-and-the-myth-nick-caves-memories/", "publication": {"url": "", "name": "Hyperallergic"}, "isTop": false, "creationDate": 1580517087000, "isFresh": true, "freshness": "fresh", "critic": {"url": "/critic/jeremy-polacek", "name": "Jeremy Polacek", "id": 16657, "thumbnailImage": "https://d2a5cgar23scu2.cloudfront.net/static/images/redesign/user.none.tmb.jpg"}, "quote": "The performances and behind-the-scenes practices are rocking and revealing. Conversations are generous and surprising; Cave's monologuing inspiring, a celebration of a creativity and action.", "id": 2665854, "links": {"review": "https://hyperallergic.com/151200/the-man-and-the-myth-nick-caves-memories/"}}, {"isRotten": false, "url": "https://spectrumculture.com/2014/09/23/20000-days-on-earth/", "creationDate": 1574878871000, "isFresh": true, "id": 2649603, "quote": "20,000 Days on Earth is best in the moments where we see Cave interact with others.", "links": {"review": "https://spectrumculture.com/2014/09/23/20000-days-on-earth/"}, "publication": {"url": "", "name": "Spectrum Culture"}, "isTop": false, "freshness": "fresh", "critic": {"url": "/critic/david-harris", "name": "David Harris", "id": 9576, "thumbnailImage": "https://resizing.flixster.com/-Q3FWy8FNZ4CG9nURdQ9A2sw-Mg=/72x72/v1.YzszNDI5O2o7MTg3NzQ7MjA0ODszMDA7MzAw"}, "original_score": "3.8/5"}, {"isRotten": false, "url": "https://cine-vue.com/2014/09/film-review-20000-days-on-earth.html", "creationDate": 1554323255000, "isFresh": true, "id": 2573541, "quote": "We're carried through in impressionistic fashion, sound and vision beautifully in sync with stirring images of the Brighton landscape where Cave lives and gig footage that betters any recent concert movie. ", "links": {"review": "https://cine-vue.com/2014/09/film-review-20000-days-on-earth.html"}, "publication": {"url": "", "name": "CineVue"}, "isTop": false, "freshness": "fresh", "critic": {"url": "/critic/ed-frankl", "name": "Ed Frankl", "id": 18047, "thumbnailImage": "https://d2a5cgar23scu2.cloudfront.net/static/images/redesign/user.none.tmb.jpg"}, "original_score": "4/5"}, {"isRotten": false, "url": "https://pnabarro.wordpress.com/2014/09/25/20000-days-on-earth/", "creationDate": 1543711074000, "isFresh": true, "id": 2536760, "quote": "The film ultimately uncannily honours the ethos of Cave the musician, as it in a sense - like him - enjoys mythologising storytelling and the creative process. ", "links": {"review": "https://pnabarro.wordpress.com/2014/09/25/20000-days-on-earth/"}, "publication": {"url": "", "name": "Patrick Nabarro"}, "isTop": false, "freshness": "fresh", "critic": {"url": "/critic/pj-nabarro", "name": "PJ Nabarro", "id": 23462, "thumbnailImage": "https://resizing.flixster.com/265FY97ZPzUl48aEXLRB9bdT_fo=/72x72/v1.YzszMTc4O2o7MTg3OTM7MjA0ODszMDA7MzAw"}, "original_score": "3/5"}, {"isRotten": false, "url": "http://cinema-scope.com/currency/20000-days-earth-iain-forsyth-jane-pollard-uk/", "publication": {"url": "", "name": "Cinema Scope"}, "isTop": false, "creationDate": 1510616874000, "isFresh": true, "freshness": "fresh", "critic": {"url": "/critic/angelo-muredda", "name": "Angelo Muredda", "id": 19991, "thumbnailImage": "https://d2a5cgar23scu2.cloudfront.net/static/images/redesign/user.none.tmb.jpg"}, "quote": "There's an ambition to Forsyth and Pollard's work that's hard to deny, as well as a refreshingly quixotic commitment to tweaking the generic conventions of the promotional piece they're making.", "id": 2435372, "links": {"review": "http://cinema-scope.com/currency/20000-days-earth-iain-forsyth-jane-pollard-uk/"}}, {"isRotten": false, "url": "http://www.nzherald.co.nz/francesca-rudkin/news/article.cfm?a_id=276&objectid=11311596", "creationDate": 1504813334000, "isFresh": true, "id": 2416799, "quote": "The structure of Cave's day feels contrived at times, and there are moments when his ramblings cross the line into self-indulgence, but for the most part this is an intimate, warm film that genuinely gets into the head and heart of a dark, brooding soul.", "links": {"review": "http://www.nzherald.co.nz/francesca-rudkin/news/article.cfm?a_id=276&objectid=11311596"}, "publication": {"url": "", "name": "New Zealand Herald"}, "isTop": false, "freshness": "fresh", "critic": {"url": "/critic/francesca-rudkin", "name": "Francesca Rudkin", "id": 18208, "thumbnailImage": "https://d2a5cgar23scu2.cloudfront.net/static/images/redesign/user.none.tmb.jpg"}, "original_score": "4/5"}]}, "casts": {"screenwriters": [{"url": "/celebrity/iain_forsyth/", "name": "Iain Forsyth", "thumbnailImg": "https://d2a5cgar23scu2.cloudfront.net/static/images/redesign/actor.default.tmb.gif"}, {"url": "/celebrity/jane_pollard/", "name": "Jane Pollard", "thumbnailImg": "https://d2a5cgar23scu2.cloudfront.net/static/images/redesign/actor.default.tmb.gif"}, {"url": "/celebrity/nick_cave/", "name": "Nick Cave", "thumbnailImg": "https://resizing.flixster.com/UxZBMy3vzreDukDTw7wp5pSj_Fo=/80x80/v1.cDs2MTI1ODU2O2o7MTg3OTY7MjA0ODsxODA7Mjcx"}], "directors": [{"url": "/celebrity/iain_forsyth/", "name": "Iain Forsyth", "thumbnailImg": "https://d2a5cgar23scu2.cloudfront.net/static/images/redesign/actor.default.tmb.gif"}, {"url": "/celebrity/jane_pollard/", "name": "Jane Pollard", "thumbnailImg": "https://d2a5cgar23scu2.cloudfront.net/static/images/redesign/actor.default.tmb.gif"}], "creators": [], "producers": [{"url": "/celebrity/dan_bowen/", "name": "Dan Bowen", "thumbnailImg": "https://d2a5cgar23scu2.cloudfront.net/static/images/redesign/actor.default.tmb.gif"}, {"url": "/celebrity/james_wilson/", "name": "James Wilson", "thumbnailImg": "https://d2a5cgar23scu2.cloudfront.net/static/images/redesign/actor.default.tmb.gif"}, {"url": "/celebrity/alex_dunnett/", "name": "Alex Dunnett", "thumbnailImg": "https://d2a5cgar23scu2.cloudfront.net/static/images/redesign/actor.default.tmb.gif"}], "castItems": [{"person": {"url": "/celebrity/nick_cave/", "name": "Nick Cave", "thumbnailImg": "https://resizing.flixster.com/UxZBMy3vzreDukDTw7wp5pSj_Fo=/80x80/v1.cDs2MTI1ODU2O2o7MTg3OTY7MjA0ODsxODA7Mjcx"}}, {"person": {"url": "/celebrity/warren_ellis/", "name": "Warren Ellis", "thumbnailImg": "https://d2a5cgar23scu2.cloudfront.net/static/images/redesign/actor.default.tmb.gif"}}, {"person": {"url": "/celebrity/kylie_minogue/", "name": "Kylie Minogue", "thumbnailImg": "https://resizing.flixster.com/kWtkZqCn6DkSzkuXK90e8Gjbct8=/80x80/v1.cjs0NzkyNztqOzE4NzY3OzIwNDg7MTk0ODsxOTQ4"}}, {"person": {"url": "/celebrity/ray_winstone/", "name": "Ray Winstone", "thumbnailImg": "https://resizing.flixster.com/c1hMNdJ8UQ0KePbYuZhxleeiieM=/80x80/v1.cjs0MDQ5MztqOzE4ODAzOzIwNDg7Mjc1OzIzMA"}}, {"person": {"url": "/celebrity/darian_leader_2/", "name": "Darian Leader", "thumbnailImg": "https://d2a5cgar23scu2.cloudfront.net/static/images/redesign/actor.default.tmb.gif"}}, {"person": {"url": "/celebrity/blixa_bargeld/", "name": "Blixa Bargeld", "thumbnailImg": "https://d2a5cgar23scu2.cloudfront.net/static/images/redesign/actor.default.tmb.gif"}}, {"person": {"url": "/celebrity/blixa_barjeld/", "name": "Blixa Barjeld", "thumbnailImg": "https://d2a5cgar23scu2.cloudfront.net/static/images/redesign/actor.default.tmb.gif"}}, {"person": {"url": "/celebrity/janine_barrand/", "name": "Janine Barrand", "thumbnailImg": "https://d2a5cgar23scu2.cloudfront.net/static/images/redesign/actor.default.tmb.gif"}}, {"person": {"url": "/celebrity/thomas_wydler/", "name": "Thomas Wydler", "thumbnailImg": "https://d2a5cgar23scu2.cloudfront.net/static/images/redesign/actor.default.tmb.gif"}}, {"person": {"url": "/celebrity/martyn_casey/", "name": "Martyn Casey", "thumbnailImg": "https://d2a5cgar23scu2.cloudfront.net/static/images/redesign/actor.default.tmb.gif"}}, {"person": {"url": "/celebrity/conway_savage/", "name": "Conway Savage", "thumbnailImg": "https://d2a5cgar23scu2.cloudfront.net/static/images/redesign/actor.default.tmb.gif"}}, {"person": {"url": "/celebrity/jim_sclavunos/", "name": "Jim Sclavunos", "thumbnailImg": "https://d2a5cgar23scu2.cloudfront.net/static/images/redesign/actor.default.tmb.gif"}}, {"person": {"url": "/celebrity/barry_adamson/", "name": "Barry Adamson", "thumbnailImg": "https://d2a5cgar23scu2.cloudfront.net/static/images/redesign/actor.default.tmb.gif"}}, {"person": {"url": "/celebrity/george_vjestica/", "name": "George Vjestica", "thumbnailImg": "https://d2a5cgar23scu2.cloudfront.net/static/images/redesign/actor.default.tmb.gif"}}]}, "title": "20,000 Days on Earth", "adjustedScore": 97.82602577070232, "ratings": {"critics_rating": "Certified Fresh", "audience_score": 79, "dvdReleaseDate": 1416297600000, "critics_score": 95, "theaterReleaseDate": 1410937200000, "audience_rating": "Upright"}, "videoClips": {"mainTrailer": {"hlsUrl": "http://video.internetvideoarchive.net/video.m3u8?cmd=6&publishedid=23731&customerid=300120&e=1619087546343&sub=RTO&fmt=11&h=268015cf2abbfc4f1537cdd8d5e0f694", "seconds": 13, "minutes": 2, "id": 11202119, "title": "20,000 Days On Earth", "thumbUrl": "http://content.internetvideoarchive.com/content/photos/8897/23731_040.jpg", "mp4Url": "http://video.internetvideoarchive.net/video.mp4?cmd=6&publishedid=23731&customerid=300120&e=1619087546343&sub=RTO&fmt=4&videokbrate=750&h=7ee9f65f5a78859d6faf5cb2d0dd0848"}, "size": 1, "videoClips": [{"hlsUrl": "http://video.internetvideoarchive.net/video.m3u8?cmd=6&publishedid=23731&customerid=300120&e=1619087546343&sub=RTO&fmt=11&h=268015cf2abbfc4f1537cdd8d5e0f694", "seconds": 13, "minutes": 2, "id": 11202119, "title": "20,000 Days On Earth", "thumbUrl": "http://content.internetvideoarchive.com/content/photos/8897/23731_040.jpg", "mp4Url": "http://video.internetvideoarchive.net/video.mp4?cmd=6&publishedid=23731&customerid=300120&e=1619087546343&sub=RTO&fmt=4&videokbrate=750&h=7ee9f65f5a78859d6faf5cb2d0dd0848"}]}, "isUpcoming": false, "posters": {"original": "https://resizing.flixster.com/MjjlEV_e9PjNNfG0RNZKFkbsZSQ=/1962x2898/v1.bTsxMTE3OTc5MztqOzE4ODg3OzIwNDg7MTk2MjsyODk4", "detailed": "https://resizing.flixster.com/M3Y83g7Gbbz8kaKbYBXoOt7up-A=/180x266/v1.bTsxMTE3OTc5MztqOzE4ODg3OzIwNDg7MTk2MjsyODk4", "profile": "https://resizing.flixster.com/bX39n_iVXlmFmyLlq6gSWWfvBCA=/120x177/v1.bTsxMTE3OTc5MztqOzE4ODg3OzIwNDg7MTk2MjsyODk4", "thumbnail": "https://resizing.flixster.com/1DTVgP73SEX_g6XRSRTaaIkySQg=/54x80/v1.bTsxMTE3OTc5MztqOzE4ODg3OzIwNDg7MTk2MjsyODk4"}, "isLimited": true, "mainTrailer": {"thumbUrl": "https://content.internetvideoarchive.com/content/photos/8897/23731_040.jpg", "hlsUrl": "http://video.internetvideoarchive.net/video.m3u8?cmd=6&publishedid=23731&customerid=300120&e=1619087546034&sub=RTO&fmt=11&h=09ea569647b093cd0f90d38486b93828", "id": 11202119, "mp4Url": "http://video.internetvideoarchive.net/video.mp4?cmd=6&publishedid=23731&customerid=300120&e=1619087546034&sub=RTO&fmt=4&videokbrate=750&h=f2379c90e3778204a85a7ea427624127"}, "photos": {"photos": [{"url": "https://resizing.flixster.com/__V5GDL_keElLwk3ZRHKM0G1VcE=/406x600/v1.aDsxMjE3NzU7ajsxODc3MTsyMDQ4OzE5NjI7Mjg5OA", "index": 0, "submittedBy": "RT Staff", "height": 600, "imageId": 121775, "thumbnail": "https://resizing.flixster.com/rRNt3SFATQodvDAgq2yfzOtNMCw=/80x80/v1.aDsxMjE3NzU7ajsxODc3MTsyMDQ4OzE5NjI7Mjg5OA", "submittedDate": "2014-07-31", "caption": "", "id": "movie-121775", "photoType": "movie", "width": 406}, {"url": "https://resizing.flixster.com/Ih3DgypFaIcsPb7N39uV_F0Bstg=/600x400/v1.aDsxMTQxNzY7ajsxODc3NzsyMDQ4OzcyNTg7NDgzOA", "index": 1, "submittedBy": "RT Staff", "height": 400, "imageId": 114176, "thumbnail": "https://resizing.flixster.com/0nl4OAg9n7yt9o0z761ZeYsExB0=/80x80/v1.aDsxMTQxNzY7ajsxODc3NzsyMDQ4OzcyNTg7NDgzOA", "submittedDate": "2014-02-12", "caption": "", "id": "movie-114176", "photoType": "movie", "width": 600}], "length": 2}, "id": 771372069}