{"url": "/m/wordplay/", "isOnOpening": false, "boxoffice": "$2.9M", "genreSet": [{"displayName": "Documentary", "id": 8}, {"displayName": "Musical & Performing Arts", "id": 12}, {"displayName": "Special Interest", "id": 15}], "officialUrl": "http://www.wordplaymovie.com/", "isInTheaters": false, "synopsis": "This documentary film provides an in-depth look at \"The New York Times\" crossword puzzle, its editor Will Shortz and the wonderfully unique and loyal fan base Shortz has built and nurtured during his 12-year tenure at the paper.", "links": {"alternate": "//www.rottentomatoes.com/m/wordplay/"}, "runningTime": 94, "year": 2006, "trackingType": "DvdOther", "status": "Live", "isPlaying": false, "isOnDVD": true, "runningTimeStr": "1 hr. 34 min.", "ratingSummary": {"topcount": 41, "consensus": "You see them hunched over with their brows furrowed, folded newspaper in hand as they attempt to complete the crossword puzzle. This may even describe you. This ingeniously edited documentary introduces viewers to some of the more dedicated fans of this solitary pastime, none more well-known the puzzle editor for the New York Times, Will Shortz. This underground world provides a surprising amount of crowd-pleasing entertainment and suspense, especially at the annual crossword tournament. Didn't know there was one, did you?", "topCritics": {"hasScore": true, "numReviews": 41, "meterClass": "certified", "numRotten": 2, "numFresh": 39, "hasReviews": true, "meterValue": 95, "averageRating": 7.286585}, "audience": {"meterScore": 80, "averageScore": 3.262173891067505, "numTotal": 21559, "ratingType": "viewed"}, "allcount": 123, "rottencount": 7, "dvdcount": 7, "allCritics": {"hasScore": true, "numReviews": 123, "meterClass": "certified", "numRotten": 7, "numFresh": 116, "hasReviews": true, "meterValue": 94, "averageRating": 7.44}, "freshcount": 116}, "mpaaRating": "PG", "vanity": "wordplay", "photos": {"photos": [{"url": "https://resizing.flixster.com/pe2GyBhadq1xtkl6Isz1LdJ3BOU=/300x200/v1.bjsyNjc3MTE7ajsxODc3NDsyMDQ4OzMwMDsyMDA", "index": 0, "submittedBy": "RT Staff", "height": 200, "imageId": 267711, "thumbnail": "https://resizing.flixster.com/XAH-CSJq9fZm0UL6QVhqkj6oSHE=/80x80/v1.bjsyNjc3MTE7ajsxODc3NDsyMDQ4OzMwMDsyMDA", "submittedDate": "2014-07-03", "id": "multiuse-267711", "photoType": "movie", "width": 300}, {"url": "https://resizing.flixster.com/gNYcMx7EllQoPAoic2agneDJzjU=/300x200/v1.bjsyNjc3MTI7ajsxODc3NTsyMDQ4OzMwMDsyMDA", "index": 1, "submittedBy": "RT Staff", "height": 200, "imageId": 267712, "thumbnail": "https://resizing.flixster.com/EBmB8O9vLE-z4ea9f2foOtjkOcY=/80x80/v1.bjsyNjc3MTI7ajsxODc3NTsyMDQ4OzMwMDsyMDA", "submittedDate": "2014-07-03", "id": "multiuse-267712", "photoType": "movie", "width": 300}, {"url": "https://resizing.flixster.com/Za0ubFYLHf9MpDE2fnbdloX4Bks=/300x200/v1.bjszNjQ1Mzg7ajsxODgwNzsyMDQ4OzMwMDsyMDA", "index": 2, "submittedBy": "RT Staff", "height": 200, "imageId": 364538, "thumbnail": "https://resizing.flixster.com/29XXyL51CdBczKFdZyTwczPz8Qo=/80x80/v1.bjszNjQ1Mzg7ajsxODgwNzsyMDQ4OzMwMDsyMDA", "submittedDate": "2014-07-05", "id": "multiuse-364538", "photoType": "movie", "width": 300}, {"url": "https://resizing.flixster.com/oiDl_V--DxuYdPgI6_yb7KVChHg=/300x200/v1.bjszNjQ1Mzk7ajsxODgwODsyMDQ4OzMwMDsyMDA", "index": 3, "submittedBy": "RT Staff", "height": 200, "imageId": 364539, "thumbnail": "https://resizing.flixster.com/SR60ArhO5GbtA7bwlej6lsFQG_g=/80x80/v1.bjszNjQ1Mzk7ajsxODgwODsyMDQ4OzMwMDsyMDA", "submittedDate": "2014-07-05", "id": "multiuse-364539", "photoType": "movie", "width": 300}, {"url": "https://resizing.flixster.com/9V1aCJc4uDPko4w-NwXtwQXnTJk=/464x600/v1.aDszMDgwNDtqOzE4Nzg5OzIwNDg7NTQxOzcwMA", "index": 4, "submittedBy": "RT Staff", "height": 600, "imageId": 30804, "thumbnail": "https://resizing.flixster.com/0_nqNpNQ2ztsRRHqld5yyLRpNFw=/80x80/v1.aDszMDgwNDtqOzE4Nzg5OzIwNDg7NTQxOzcwMA", "submittedDate": "2010-03-29", "id": "movie-30804", "photoType": "movie", "width": 464}, {"url": "https://resizing.flixster.com/CbwErJ7FMi9PjAQrBOSbczHB4EU=/600x400/v1.aDsyOTM2NjtqOzE4NzkxOzIwNDg7NzAwOzQ2Nw", "index": 5, "submittedBy": "RT Staff", "height": 400, "imageId": 29366, "thumbnail": "https://resizing.flixster.com/EJGU7xmEXwN_yPMPeIduCpQDSus=/80x80/v1.aDsyOTM2NjtqOzE4NzkxOzIwNDg7NzAwOzQ2Nw", "submittedDate": "2010-03-29", "id": "movie-29366", "photoType": "movie", "width": 600}, {"url": "https://resizing.flixster.com/IOoiUFDuGhWioA9l1tT0C2f-QZk=/600x400/v1.aDsyNzc4MTtqOzE4NzgxOzIwNDg7NzAwOzQ2Nw", "index": 6, "submittedBy": "RT Staff", "height": 400, "imageId": 27781, "thumbnail": "https://resizing.flixster.com/fjEmQcjEkCyNntV5RA6n8dvsOzA=/80x80/v1.aDsyNzc4MTtqOzE4NzgxOzIwNDg7NzAwOzQ2Nw", "submittedDate": "2010-03-29", "id": "movie-27781", "photoType": "movie", "width": 600}, {"url": "https://resizing.flixster.com/Hymk2k7XWaE-rOX7pBAMY1E3unE=/600x400/v1.aDsyNjA1NTtqOzE4NzY1OzIwNDg7NzAwOzQ2Nw", "index": 7, "submittedBy": "RT Staff", "height": 400, "imageId": 26055, "thumbnail": "https://resizing.flixster.com/5GWMWRaHYBxV6upUYYB_0ir0y8g=/80x80/v1.aDsyNjA1NTtqOzE4NzY1OzIwNDg7NzAwOzQ2Nw", "submittedDate": "2010-03-29", "id": "movie-26055", "photoType": "movie", "width": 600}, {"url": "https://resizing.flixster.com/bO_fH29fwEGkolEYLwbIi7DAL20=/600x400/v1.aDsyNDE4NTtqOzE4Nzg1OzIwNDg7NzAwOzQ2Nw", "index": 8, "submittedBy": "RT Staff", "height": 400, "imageId": 24185, "thumbnail": "https://resizing.flixster.com/CZ69ny0WDtXvrLIzBfR3cPVjclo=/80x80/v1.aDsyNDE4NTtqOzE4Nzg1OzIwNDg7NzAwOzQ2Nw", "submittedDate": "2010-03-29", "id": "movie-24185", "photoType": "movie", "width": 600}, {"url": "https://resizing.flixster.com/dfO9Ez6H4-v3KCqYBbtgN04ZH90=/600x400/v1.aDsyMjE1NjtqOzE4NzgxOzIwNDg7NzAwOzQ2Nw", "index": 9, "submittedBy": "RT Staff", "height": 400, "imageId": 22156, "thumbnail": "https://resizing.flixster.com/wgg8BPmpdrVUCJr_WfYbDNvLaE4=/80x80/v1.aDsyMjE1NjtqOzE4NzgxOzIwNDg7NzAwOzQ2Nw", "submittedDate": "2010-03-29", "id": "movie-22156", "photoType": "movie", "width": 600}, {"url": "https://resizing.flixster.com/sjIyZcH5sZ1FL3I8cNyP_OJRerM=/600x400/v1.aDsxOTkzNTtqOzE4NzY1OzIwNDg7NzAwOzQ2Nw", "index": 10, "submittedBy": "RT Staff", "height": 400, "imageId": 19935, "thumbnail": "https://resizing.flixster.com/y724Ek-Rc0tPT1PCMUXbXU3Ywrk=/80x80/v1.aDsxOTkzNTtqOzE4NzY1OzIwNDg7NzAwOzQ2Nw", "submittedDate": "2010-03-29", "id": "movie-19935", "photoType": "movie", "width": 600}, {"url": "https://resizing.flixster.com/ld3Cc510cj1dg0fXfpJJPnrp0t4=/600x400/v1.aDsxNzQ5NjtqOzE4ODAxOzIwNDg7NzAwOzQ2Nw", "index": 11, "submittedBy": "RT Staff", "height": 400, "imageId": 17496, "thumbnail": "https://resizing.flixster.com/bbDFwd9h6p0yTDW7Q_223VZR0H4=/80x80/v1.aDsxNzQ5NjtqOzE4ODAxOzIwNDg7NzAwOzQ2Nw", "submittedDate": "2010-03-29", "id": "movie-17496", "photoType": "movie", "width": 600}, {"url": "https://resizing.flixster.com/SqekCND3goTAXJf1RLOGkqYcVLU=/600x400/v1.aDsxNDc5NTtqOzE4ODAwOzIwNDg7NzAwOzQ2Nw", "index": 12, "submittedBy": "RT Staff", "height": 400, "imageId": 14795, "thumbnail": "https://resizing.flixster.com/e4sMHUHwfY3kXTm4pcpP6JD1jzQ=/80x80/v1.aDsxNDc5NTtqOzE4ODAwOzIwNDg7NzAwOzQ2Nw", "submittedDate": "2010-03-29", "id": "movie-14795", "photoType": "movie", "width": 600}, {"url": "https://resizing.flixster.com/XBdN2jcO0IQ7O0beF2R8YHCsoEA=/400x600/v1.aDsxMTg2MztqOzE4NzkzOzIwNDg7NDY3OzcwMA", "index": 13, "submittedBy": "RT Staff", "height": 600, "imageId": 11863, "thumbnail": "https://resizing.flixster.com/riNekCkJzMMgCcRtKDKUd-FsCg0=/80x80/v1.aDsxMTg2MztqOzE4NzkzOzIwNDg7NDY3OzcwMA", "submittedDate": "2010-03-29", "id": "movie-11863", "photoType": "movie", "width": 400}, {"url": "https://resizing.flixster.com/Mgd5FV34xa6jbHiUFFiymRM_DdQ=/600x400/v1.aDs4NzU4O2o7MTg3OTM7MjA0ODs3MDA7NDY3", "index": 14, "submittedBy": "RT Staff", "height": 400, "imageId": 8758, "thumbnail": "https://resizing.flixster.com/gxxBYoiJJ4jqgaYhkIs63YmLJo4=/80x80/v1.aDs4NzU4O2o7MTg3OTM7MjA0ODs3MDA7NDY3", "submittedDate": "2010-03-29", "id": "movie-8758", "photoType": "movie", "width": 600}, {"url": "https://resizing.flixster.com/Nq1nIRkvysMF4o_6EY5MF1OsFgY=/405x600/v1.aDs1NTIzO2o7MTg3OTg7MjA0ODs0NzM7NzAw", "index": 15, "submittedBy": "RT Staff", "height": 600, "imageId": 5523, "thumbnail": "https://resizing.flixster.com/XUgwB7UpLCGkM85QjpB4onamJto=/80x80/v1.aDs1NTIzO2o7MTg3OTg7MjA0ODs0NzM7NzAw", "submittedDate": "2010-03-29", "id": "movie-5523", "photoType": "movie", "width": 405}, {"url": "https://resizing.flixster.com/FXICNkbB6AsswmFHj-zSihBqZrU=/600x399/v1.aDsyMTUxO2o7MTg4MDE7MjA0ODs3MDA7NDY1", "index": 16, "submittedBy": "RT Staff", "height": 399, "imageId": 2151, "thumbnail": "https://resizing.flixster.com/4rtnKKN8rIviCGeW8VEFZw6IdtQ=/80x80/v1.aDsyMTUxO2o7MTg4MDE7MjA0ODs3MDA7NDY1", "submittedDate": "2010-03-29", "id": "movie-2151", "photoType": "movie", "width": 600}], "length": 17}, "studio": "IFC Films", "purchaseOptions": {"amazon": {"url": "http://www.amazon.com/gp/product/B0019VA7K2/ref=atv_feed_catalog?tag=rottetomao_aiv_mv-20", "isPrime": false, "type": "rent"}, "vudu": {"url": "http://www.vudu.com/movies/#!content/65409/Wordplay", "type": "buy"}, "iTunes": {"url": "https://itunes.apple.com/movie/wordplay/id257201987?uo=5", "price": "9.99"}}, "reviews": {"total": 123, "links": {"alternate": "//www.rottentomatoes.com/m/wordplay/#reviews", "self": "api.flixster.com/movies/wordplay/reviews.json?review_type=mob&country=us&page=1", "prev": "api.flixster.com/movies/wordplay/reviews.json?review_type=mob&country=us&page=0", "next": "api.flixster.com/movies/wordplay/reviews.json?review_type=mob&country=us&page=2"}, "reviews": [{"isRotten": false, "isFresh": true, "publication": {"url": "", "name": "Rolling Stone"}, "isTop": true, "creationDate": 1164367129000, "freshness": "fresh", "critic": {"url": "/critic/peter-travers", "name": "Peter Travers", "id": 2726, "thumbnailImage": "https://resizing.flixster.com/fyJLG3CPuH45ndwuri7bDYRHXak=/72x72/v1.YzszODEwO3A7MTg3OTU7MjA0ODs4NzY7ODM0"}, "quote": "Boy, was I wrong. There's more palm-sweating suspense in one minute of this baby than in all of The Omen.", "id": 1559169, "original_score": "3/4", "links": {}}, {"isRotten": false, "isFresh": true, "publication": {"url": "", "name": "Salon.com"}, "isTop": true, "creationDate": 1160221389000, "freshness": "fresh", "critic": {"url": "/critic/stephanie-zacharek", "name": "Stephanie Zacharek", "id": 228, "thumbnailImage": "https://resizing.flixster.com/NuH97-zoZ9OGLxB3QyK2VnEsVtY=/72x72/v1.YzsyNTg0O2c7MTg3ODQ7MjA0ODsxNTA7MTUw"}, "quote": "Even though these puzzles are mapped out with utmost precision -- and even though logic is an extremely useful tool for solving them -- they're still, somehow, objects of intrigue and mystery.", "id": 1546258, "links": {}}, {"isRotten": false, "isFresh": true, "publication": {"name": "Orlando Sentinel"}, "isTop": true, "creationDate": 1152320158000, "freshness": "fresh", "critic": {"url": "/critic/roger-moore", "name": "Roger Moore", "id": 1238, "thumbnailImage": "https://resizing.flixster.com/pUhagbT0f-d7hdSnNo7LHh88w7o=/72x72/v1.YzsxNjU0O2c7MTg3OTk7MjA0ODszODs0NQ"}, "quote": "A playful, informative and very sweet documentary about the world of words 'across' or 'down.'", "id": 1523672, "original_score": "4/5", "links": {}}, {"isRotten": false, "url": "http://www.austinchronicle.com/gyrobase/Calendar/Film?Film=oid%3a377850", "creationDate": 1151751920000, "isFresh": true, "id": 1522444, "quote": "The fact that Wordplay works as a film at all is a testament to its skill.", "links": {"review": "http://www.austinchronicle.com/gyrobase/Calendar/Film?Film=oid%3a377850"}, "publication": {"url": "", "name": "Austin Chronicle"}, "isTop": true, "freshness": "fresh", "critic": {"url": "/critic/marjorie-baumgarten", "name": "Marjorie Baumgarten", "id": 34, "thumbnailImage": "https://d2a5cgar23scu2.cloudfront.net/static/images/redesign/user.none.tmb.jpg"}, "original_score": "3.5/5"}, {"isRotten": false, "isFresh": true, "publication": {"url": "", "name": "Miami Herald"}, "isTop": true, "creationDate": 1151721694000, "freshness": "fresh", "critic": {"url": "/critic/rene-rodriguez", "name": "Rene Rodriguez", "id": 3423, "thumbnailImage": "https://resizing.flixster.com/VF5s64jQssz7OrKJhCCRrBa7aHI=/72x72/v1.YzsyNjE2O2c7MTg3NzE7MjA0ODsxNTA7MTUw"}, "quote": "It manages to turn an internal, solitary activity into fodder for an engaging, even exciting movie.", "id": 1521808, "original_score": "3/4", "links": {}}, {"isRotten": false, "url": "http://www.detnews.com/apps/pbcs.dll/article?AID=/20060630/ENT02/606300339/1034", "creationDate": 1151721630000, "isFresh": true, "id": 1521807, "quote": "There's a surface satisfaction to Wordplay that's absolutely undeniable. But there are also just enough smarts here to make you wish for something more.", "links": {"review": "http://www.detnews.com/apps/pbcs.dll/article?AID=/20060630/ENT02/606300339/1034"}, "publication": {"name": "Detroit News"}, "isTop": true, "freshness": "fresh", "critic": {"url": "/critic/tom-long", "name": "Tom Long", "id": 1287, "thumbnailImage": "https://resizing.flixster.com/JZNNn9vgwnO2AiCwUyD7snj2MCM=/72x72/v1.YzsxNTA2O2c7MTg3ODY7MjA0ODszODs0MA"}, "original_score": "B"}, {"isRotten": false, "url": "https://theindependentcritic.com/wordplay", "creationDate": 1601202408000, "isFresh": true, "id": 2729574, "quote": "Often brilliant yet ends up falling just a couple letters short of truly being a championship film.", "links": {"review": "https://theindependentcritic.com/wordplay"}, "publication": {"url": "", "name": "TheIndependentCritic.com"}, "isTop": false, "freshness": "fresh", "critic": {"url": "/critic/richard-propes-27470", "name": "Richard Propes", "id": 27470, "thumbnailImage": "https://resizing.flixster.com/9RafzdrYTvTWxFzPswX4QYwPgK8=/72x72/v1.YzszODAzO2o7MTg3ODg7MjA0ODszMDA7MzAw"}, "original_score": "2.5/4.0"}, {"isRotten": true, "url": "https://creativeloafing.com/content-178504-By-the-numbers", "publication": {"name": "Creative Loafing"}, "isTop": false, "creationDate": 1580833724000, "isFresh": false, "freshness": "rotten", "critic": {"url": "/critic/felicia-feaster", "name": "Felicia Feaster", "id": 12404, "thumbnailImage": "https://resizing.flixster.com/nf2a7HE3p0a5kUWvojMXsx_tGQM=/72x72/v1.YzszMTIwO2o7MTg3ODA7MjA0ODszMDA7MzAw"}, "quote": "Diverting though Wordplay may be, when it moves into tournament-mode, the film suffers from the essentially undramatic nature of this solitary \"sport.\"", "id": 2666491, "links": {"review": "https://creativeloafing.com/content-178504-By-the-numbers"}}, {"isRotten": false, "url": "https://www.the-dispatch.com/news/20060824/wordplay-is-the-real-thriller-this-summer", "creationDate": 1559787396000, "isFresh": true, "id": 2594368, "quote": "Mines suspense out of what seems to be the most mundane of entertainments, the crossword puzzle, and makes it more thrilling than any football game ever was.", "links": {"review": "https://www.the-dispatch.com/news/20060824/wordplay-is-the-real-thriller-this-summer"}, "publication": {"url": "", "name": "The Dispatch (Lexington, NC)"}, "isTop": false, "freshness": "fresh", "critic": {"url": "/critic/matthew-lucas", "name": "Matthew Lucas", "id": 25079, "thumbnailImage": "https://resizing.flixster.com/hC9DIwh8TBZinZWNombChPlC53Y=/72x72/v1.YzszMzgzO2o7MTg3NzM7MjA0ODszMDA7MzAw"}, "original_score": "3/4"}, {"isRotten": false, "url": "http://www.emanuellevy.com/review/wordplay-2/", "creationDate": 1311625936000, "isFresh": true, "id": 1999221, "quote": "A poignant inside look into the world of crossover puzzles of the NY Times.", "links": {"review": "http://www.emanuellevy.com/review/wordplay-2/"}, "publication": {"url": "", "name": "EmanuelLevy.Com"}, "isTop": false, "freshness": "fresh", "critic": {"url": "/critic/emanuel-levy", "name": "Emanuel Levy", "id": 1101, "thumbnailImage": "https://resizing.flixster.com/mHwU2AJdZmjIwpbJ4a4Tc2lUEgA=/72x72/v1.YzsxNjM4O2c7MTg3ODM7MjA0ODszODs0MA"}, "original_score": "B+"}, {"isRotten": false, "url": "http://cinemawriter.com/2010/08/18/wordplay/", "creationDate": 1282089750000, "isFresh": true, "id": 1924041, "quote": "As pleasant and good-natured as Wordplay is, it's not exactly potent stuff\"", "links": {"review": "http://cinemawriter.com/2010/08/18/wordplay/"}, "publication": {"name": "Cinema Writer"}, "isTop": false, "freshness": "fresh", "critic": {"url": "/critic/jay-antani", "name": "Jay Antani", "id": 10563, "thumbnailImage": "https://resizing.flixster.com/J3Xr2Mikmur3Hlbu9oEC5ESFJxk=/72x72/v1.YzsxNzcxO2o7MTg3ODE7MjA0ODszODs0OA"}, "original_score": "2.5/4"}, {"isRotten": false, "url": "http://www.reeltalkreviews.com/browse/viewitem.asp?type=review&id=3333", "creationDate": 1270778526000, "isFresh": true, "id": 1879013, "quote": "If the movie emphasizes anything, it affirms that common-interest societies like this ... all survive by sharing the traits of community, devotion, and mutual dedication.", "links": {"review": "http://www.reeltalkreviews.com/browse/viewitem.asp?type=review&id=3333"}, "publication": {"name": "ReelTalk Movie Reviews"}, "isTop": false, "freshness": "fresh", "critic": {"url": "/critic/jeffrey-chen", "name": "Jeffrey Chen", "id": 5942, "thumbnailImage": "https://d2a5cgar23scu2.cloudfront.net/static/images/redesign/user.none.tmb.jpg"}, "original_score": "7/10"}]}, "casts": {"screenwriters": [{"url": "/celebrity/patrick_creadon/", "name": "Patrick Creadon", "thumbnailImg": "https://d2a5cgar23scu2.cloudfront.net/static/images/redesign/actor.default.tmb.gif"}, {"url": "/celebrity/christine_omalley/", "name": "Christine O'Malley", "thumbnailImg": "https://d2a5cgar23scu2.cloudfront.net/static/images/redesign/actor.default.tmb.gif"}], "directors": [{"url": "/celebrity/patrick_creadon/", "name": "Patrick Creadon", "thumbnailImg": "https://d2a5cgar23scu2.cloudfront.net/static/images/redesign/actor.default.tmb.gif"}], "creators": [], "producers": [{"url": "/celebrity/christine_omalley/", "name": "Christine O'Malley", "thumbnailImg": "https://d2a5cgar23scu2.cloudfront.net/static/images/redesign/actor.default.tmb.gif"}], "castItems": [{"person": {"url": "/celebrity/will_shortz/", "name": "Will Shortz", "thumbnailImg": "https://resizing.flixster.com/AVT9SRz3ZJgHJwtRlx_lnZ37EqA=/80x80/v1.cDsxMjI0NTk0NztqOzE4Nzc4OzIwNDg7MjM5OzMwMA"}}, {"person": {"url": "/celebrity/merl_reagle_4/", "name": "Merl Reagle", "thumbnailImg": "https://d2a5cgar23scu2.cloudfront.net/static/images/redesign/actor.default.tmb.gif"}}, {"person": {"url": "/celebrity/jon_stewart_7/", "name": "Jon Stewart", "thumbnailImg": "https://resizing.flixster.com/T_Uii1QGIbi2V54UoJL2Fpa12SI=/80x80/v1.cjsyMDUyMztqOzE4NzY4OzIwNDg7NjAwOzQwMA"}}, {"person": {"url": "/celebrity/ken_burns/", "name": "Ken Burns", "thumbnailImg": "https://resizing.flixster.com/FF4_qcm6c9XmzrRoQsookUiRZKk=/80x80/v1.cDs1OTE1MzMwO2o7MTg4MjM7MjA0ODszMDc7MjAw"}}, {"person": {"url": "/celebrity/indigo_girls/", "name": "Indigo Girls", "thumbnailImg": "https://d2a5cgar23scu2.cloudfront.net/static/images/redesign/actor.default.tmb.gif"}}, {"person": {"url": "/celebrity/mike_mussina_4/", "name": "Mike Mussina", "thumbnailImg": "https://d2a5cgar23scu2.cloudfront.net/static/images/redesign/actor.default.tmb.gif"}}, {"person": {"url": "/celebrity/daniel_okrent_4/", "name": "Daniel Okrent", "thumbnailImg": "https://d2a5cgar23scu2.cloudfront.net/static/images/redesign/actor.default.tmb.gif"}}, {"person": {"url": "/celebrity/bob_dole/", "name": "Bob Dole", "thumbnailImg": "https://resizing.flixster.com/5k3l0j_xIULGqMx1QimE3ZTMIlw=/80x80/v1.cDs5ODY4NzYxO2o7MTg4MjU7MjA0ODs1MzY7NzUw"}}, {"person": {"url": "/celebrity/1061981-bill_clinton/", "name": "Bill Clinton", "thumbnailImg": "https://resizing.flixster.com/0eAtffGOVRbr0nYznHJNKA4t1Mw=/80x80/v1.cjs0NzUyNTtqOzE4NzcwOzIwNDg7NzI5OzcyOQ"}}, {"person": {"url": "/celebrity/ellen_ripstein/", "name": "Ellen Ripstein", "thumbnailImg": "https://d2a5cgar23scu2.cloudfront.net/static/images/redesign/actor.default.tmb.gif"}}, {"person": {"url": "/celebrity/trip_payne/", "name": "Trip Payne", "thumbnailImg": "https://d2a5cgar23scu2.cloudfront.net/static/images/redesign/actor.default.tmb.gif"}}, {"person": {"url": "/celebrity/tyler_hinman/", "name": "Tyler Hinman", "thumbnailImg": "https://d2a5cgar23scu2.cloudfront.net/static/images/redesign/actor.default.tmb.gif"}}, {"person": {"url": "/celebrity/jon_delfin/", "name": "Jon Delfin", "thumbnailImg": "https://d2a5cgar23scu2.cloudfront.net/static/images/redesign/actor.default.tmb.gif"}}, {"person": {"url": "/celebrity/al_sanders/", "name": "Al Sanders", "thumbnailImg": "https://d2a5cgar23scu2.cloudfront.net/static/images/redesign/actor.default.tmb.gif"}}]}, "title": "Wordplay", "adjustedScore": 97.80735407921581, "ratings": {"critics_rating": "Certified Fresh", "audience_score": 80, "dvdReleaseDate": 1162886400000, "critics_score": 94, "theaterReleaseDate": 1150441200000, "audience_rating": "Upright"}, "videoClips": {"mainTrailer": {"hlsUrl": "http://video.internetvideoarchive.net/video.m3u8?cmd=6&publishedid=81599&customerid=300120&e=1619087552939&sub=RTO&fmt=11&h=6833715e0ec1df1ee4f330e79c468089", "seconds": 9, "minutes": 2, "id": 10891123, "title": "Wordplay", "thumbUrl": "http://content.internetvideoarchive.com/content/photos/911/81599_001.jpg", "mp4Url": "http://video.internetvideoarchive.net/video.mp4?cmd=6&publishedid=81599&customerid=300120&e=1619087552940&sub=RTO&fmt=4&videokbrate=750&h=1bcc398412e2ecbee8fd1950d248de74"}, "size": 1, "videoClips": [{"hlsUrl": "http://video.internetvideoarchive.net/video.m3u8?cmd=6&publishedid=81599&customerid=300120&e=1619087552939&sub=RTO&fmt=11&h=6833715e0ec1df1ee4f330e79c468089", "seconds": 9, "minutes": 2, "id": 10891123, "title": "Wordplay", "thumbUrl": "http://content.internetvideoarchive.com/content/photos/911/81599_001.jpg", "mp4Url": "http://video.internetvideoarchive.net/video.mp4?cmd=6&publishedid=81599&customerid=300120&e=1619087552939&sub=RTO&fmt=4&videokbrate=750&h=392cc4f9ae2e72f55f7bc872e8fdfaca"}]}, "isUpcoming": false, "posters": {"original": "https://resizing.flixster.com/ndrGYRvwFu6RUOfnl0_PoVBu7MU=/1215x1620/v1.bTsxMTI5NTIxNTtqOzE4ODg1OzIwNDg7MTIxNTsxNjIw", "detailed": "https://resizing.flixster.com/fUxXlfdPSH8T8KtDvbjj1tgs18c=/180x240/v1.bTsxMTI5NTIxNTtqOzE4ODg1OzIwNDg7MTIxNTsxNjIw", "profile": "https://resizing.flixster.com/_J1tTYhF1ZkgAKmvUldE6oxcs4Y=/120x160/v1.bTsxMTI5NTIxNTtqOzE4ODg1OzIwNDg7MTIxNTsxNjIw", "thumbnail": "https://resizing.flixster.com/JxZaLj_BRyJT1obZF_ym75LBiU4=/54x72/v1.bTsxMTI5NTIxNTtqOzE4ODg1OzIwNDg7MTIxNTsxNjIw"}, "isLimited": true, "mainTrailer": {"thumbUrl": "https://content.internetvideoarchive.com/content/photos/911/81599_001.jpg", "hlsUrl": "http://video.internetvideoarchive.net/video.m3u8?cmd=6&publishedid=81599&customerid=300120&e=1619087552702&sub=RTO&fmt=11&h=43d65a2b42e2ff055500e71cc282c643", "id": 10891123, "mp4Url": "http://video.internetvideoarchive.net/video.mp4?cmd=6&publishedid=81599&customerid=300120&e=1619087552702&sub=RTO&fmt=4&videokbrate=750&h=2ef7295c568766e7ded278ee27d2472b"}, "advisory": "for some language and mild thematic elements", "id": 155655174}