{"url": "/m/festival_express/", "isOnOpening": false, "boxoffice": "$0.9M", "genreSet": [{"displayName": "Documentary", "id": 8}, {"displayName": "Musical & Performing Arts", "id": 12}], "officialUrl": "http://usa.festivalexpress.com/", "isInTheaters": false, "synopsis": "In 1970 a train journeyed across Canada carrying some of the greatest rock bands of all time. Janis Joplin, The Band, The Grateful Dead, Ian & Sylvia, Buddy Guy, Delaney & Bonnie, and others lived (and partied) for five days, giving concerts where and when they stopped. The train was called the Festival Express. Nicknamed the million dollar bash by Rolling Stone Magazine Festival Express was designated to capitalize on then-burgeoning craze for multi-day, talent heavy music festivals. Festival Express was planned as a festival with a difference--it would be portable. This proved to be stamp of genius, indelibly stamping the event with an aura of magic, as a large number of the performers signed on despite being offer fees substantially below their going rate. The musicians thought the train ride sounded like the party to end parties.", "links": {"alternate": "//www.rottentomatoes.com/m/festival_express/"}, "runningTime": 85, "year": 2003, "trackingType": "DvdOther", "status": "Live", "isPlaying": false, "isOnDVD": true, "runningTimeStr": "1 hr. 25 min.", "ratingSummary": {"topcount": 34, "consensus": "Festival Express is a spellbinding documentary that nostalgically chronicles five days in the summer of 1970, when a train full of now- legendary rock perfomers jammed its way across Canada.", "topCritics": {"hasScore": true, "numReviews": 34, "meterClass": "certified", "numRotten": 1, "numFresh": 33, "hasReviews": true, "meterValue": 97, "averageRating": 7.455882}, "audience": {"meterScore": 84, "averageScore": 3.809077739715576, "numTotal": 4159, "ratingType": "viewed"}, "allcount": 80, "rottencount": 3, "dvdcount": 10, "allCritics": {"hasScore": true, "numReviews": 80, "meterClass": "certified", "numRotten": 3, "numFresh": 77, "hasReviews": true, "meterValue": 96, "averageRating": 7.65}, "freshcount": 77}, "mpaaRating": "R", "vanity": "festival_express", "photos": {"photos": [{"url": "https://resizing.flixster.com/FeR6v866e2eZDfout0-8Su6Kfpo=/300x200/v1.bjszMjA5MjU7ajsxODc5ODsyMDQ4OzMwMDsyMDA", "index": 0, "submittedBy": "RT Staff", "height": 200, "imageId": 320925, "thumbnail": "https://resizing.flixster.com/1z-1kEsDr9TebQqyXxpMEDefZOQ=/80x80/v1.bjszMjA5MjU7ajsxODc5ODsyMDQ4OzMwMDsyMDA", "submittedDate": "2014-07-04", "id": "multiuse-320925", "photoType": "movie", "width": 300}, {"url": "https://resizing.flixster.com/pri5zmKvLxQSxobGBxIJlqla3hA=/300x200/v1.bjszODUzNzA7ajsxODgwNDsyMDQ4OzMwMDsyMDA", "index": 1, "submittedBy": "RT Staff", "height": 200, "imageId": 385370, "thumbnail": "https://resizing.flixster.com/9r5Tcql33pfY1zMOeVQZ1jCFiyo=/80x80/v1.bjszODUzNzA7ajsxODgwNDsyMDQ4OzMwMDsyMDA", "submittedDate": "2014-07-05", "id": "multiuse-385370", "photoType": "movie", "width": 300}, {"url": "https://resizing.flixster.com/bq1Y_kQoWevWxRc8f8mVvz2dvvc=/300x200/v1.bjszODUzNzE7ajsxODgwNTsyMDQ4OzMwMDsyMDA", "index": 2, "submittedBy": "RT Staff", "height": 200, "imageId": 385371, "thumbnail": "https://resizing.flixster.com/Y7uBYGsidNSUgiZ-AP2H4pK76v0=/80x80/v1.bjszODUzNzE7ajsxODgwNTsyMDQ4OzMwMDsyMDA", "submittedDate": "2014-07-05", "id": "multiuse-385371", "photoType": "movie", "width": 300}], "length": 3}, "studio": "ThinkFilm Inc.", "purchaseOptions": {"amazon": {"url": "http://www.amazon.com/gp/product/B00G2JVY9O/ref=atv_feed_catalog?tag=rottetomao_aiv_mv-20", "isPrime": false, "type": "buy"}, "vudu": {"url": "https://www.vudu.com/content/movies/details/Festival-Express/513842", "type": "buy"}, "iTunes": {"url": "https://itunes.apple.com/movie/festival-express/id814861054?uo=5", "price": "5.99"}}, "reviews": {"total": 80, "links": {"alternate": "//www.rottentomatoes.com/m/festival_express/#reviews", "self": "api.flixster.com/movies/festival-express/reviews.json?review_type=mob&country=us&page=1", "prev": "api.flixster.com/movies/festival-express/reviews.json?review_type=mob&country=us&page=0", "next": "api.flixster.com/movies/festival-express/reviews.json?review_type=mob&country=us&page=2"}, "reviews": [{"isRotten": false, "url": "http://www.austinchronicle.com/gyrobase/Calendar/Film?Film=oid%3a230832", "creationDate": 1098249819000, "isFresh": true, "id": 1328386, "quote": "It captures a pure moment in time when musical hearts and minds beat as one, when musicians of all stripes came together to work and play hard and leave behind one damn fine-looking corpse.", "links": {"review": "http://www.austinchronicle.com/gyrobase/Calendar/Film?Film=oid%3a230832"}, "publication": {"url": "", "name": "Austin Chronicle"}, "isTop": true, "freshness": "fresh", "critic": {"url": "/critic/marjorie-baumgarten", "name": "Marjorie Baumgarten", "id": 34, "thumbnailImage": "https://d2a5cgar23scu2.cloudfront.net/static/images/redesign/user.none.tmb.jpg"}, "original_score": "4/5"}, {"isRotten": false, "isFresh": true, "publication": {"url": "", "name": "Empire Magazine"}, "isTop": true, "creationDate": 1094361507000, "freshness": "fresh", "critic": {"url": "/critic/anna-smith", "name": "Anna Smith", "id": 8131, "thumbnailImage": "https://resizing.flixster.com/GYElWpoYyYKIFLeJFMW2jcvmvmg=/72x72/v1.YzsyOTE4O2o7MTg4MDM7MjA0ODsyMDE7MjAx"}, "quote": "The road doc format's nothing new, but it preserves such a brief, precious moment in rock history that it'll have fans captivated.", "id": 1316925, "original_score": "3/5", "links": {}}, {"isRotten": false, "url": "http://www.washingtonpost.com/wp-dyn/articles/A56123-2004Sep2.html", "publication": {"url": "", "name": "Washington Post"}, "isTop": true, "creationDate": 1094249282000, "isFresh": true, "freshness": "fresh", "critic": {"url": "/critic/richard-harrington", "name": "Richard Harrington", "id": 59, "thumbnailImage": "https://d2a5cgar23scu2.cloudfront.net/static/images/redesign/user.none.tmb.jpg"}, "quote": "There are sterling concert performances by several bands in peak form.", "id": 1316808, "links": {"review": "http://www.washingtonpost.com/wp-dyn/articles/A56123-2004Sep2.html"}}, {"isRotten": false, "url": "http://www.washingtonpost.com/wp-dyn/content/article/2004/09/03/AR2005033113075.html", "publication": {"url": "", "name": "Washington Post"}, "isTop": true, "creationDate": 1094249207000, "isFresh": true, "freshness": "fresh", "critic": {"url": "/critic/ann-hornaday", "name": "Ann Hornaday", "id": 2952, "thumbnailImage": "https://resizing.flixster.com/-4fTVGGtAvltsKN5nXAa8PFDwOY=/72x72/v1.YzsyNTg1O2c7MTg3ODU7MjA0ODsxNTA7MTUw"}, "quote": "A delirious piece of pop ephemera, a time capsule set on the cusp between the Summer of Love and the Day the Music Died.", "id": 1316806, "links": {"review": "http://www.washingtonpost.com/wp-dyn/content/article/2004/09/03/AR2005033113075.html"}}, {"isRotten": false, "isFresh": true, "publication": {"url": "", "name": "Houston Chronicle"}, "isTop": true, "creationDate": 1094249147000, "freshness": "fresh", "critic": {"url": "/critic/bruce-westbrook", "name": "Bruce Westbrook", "id": 1041, "thumbnailImage": "https://resizing.flixster.com/o_bLVgtXtBKzffxeBX-91wxD_6c=/72x72/v1.YzsxNjM0O2c7MTg3Nzk7MjA0ODszODs0OQ"}, "quote": "What's most revealing and human about Festival Express are its candid looks at artists bonding aboard the choo-choo.", "id": 1316805, "original_score": "3/4", "links": {}}, {"isRotten": false, "url": "http://www.boston.com/ae/movies/articles/2004/09/03/jerry_janis_and_friends_make_express_a_real_trip", "creationDate": 1094249045000, "isFresh": true, "id": 1316803, "quote": "It's the overnight jam sessions that steal the show.", "links": {"review": "http://www.boston.com/ae/movies/articles/2004/09/03/jerry_janis_and_friends_make_express_a_real_trip"}, "publication": {"name": "Boston Globe"}, "isTop": true, "freshness": "fresh", "critic": {"url": "/critic/steve-morse", "name": "Steve Morse", "id": 10896, "thumbnailImage": "https://d2a5cgar23scu2.cloudfront.net/static/images/redesign/user.none.tmb.jpg"}, "original_score": "3/4"}, {"isRotten": false, "url": "http://www.filmfest.ca/2003/six.html", "creationDate": 1182454759000, "isFresh": true, "id": 1641065, "quote": "Man, what were they smoking? Oh, yeah, right. That.", "links": {"review": "http://www.filmfest.ca/2003/six.html"}, "publication": {"name": "Film Scouts"}, "isTop": false, "freshness": "fresh", "critic": {"url": "/critic/jason-gorber", "name": "Jason Gorber", "id": 122, "thumbnailImage": "https://resizing.flixster.com/XxOOzo2eBU97P6HIOEXfUeDTLoQ=/72x72/v1.YzsyNzExO2c7MTg3NzY7MjA0ODsxNTA7MTUw"}, "original_score": "A"}, {"isRotten": false, "url": "http://www.lariat.org/atthemovies/dvd/festxpress.html", "creationDate": 1107295150000, "isFresh": true, "id": 1357635, "quote": "A good snapshot of an earlier, simpler, more innocent time that seems now even longer ago than it was.", "links": {"review": "http://www.lariat.org/atthemovies/dvd/festxpress.html"}, "publication": {"name": "Laramie Movie Scope"}, "isTop": false, "freshness": "fresh", "critic": {"url": "/critic/robert-roten", "name": "Robert Roten", "id": 143, "thumbnailImage": "https://resizing.flixster.com/7dtiltLcBjoBxqXN706_9qiwI3I=/72x72/v1.YzsyMDI2O2o7MTg3NjY7MjA0ODs3Mjs3Mg"}, "original_score": "B"}, {"isRotten": false, "url": "http://www.macleans.ca/culture/films/article.jsp?content=20040802_85713_85713", "publication": {"url": "", "name": "Maclean's Magazine"}, "isTop": false, "creationDate": 1101017810000, "isFresh": true, "freshness": "fresh", "critic": {"url": "/critic/brian-d-johnson", "name": "Brian D. Johnson", "id": 709, "thumbnailImage": "https://d2a5cgar23scu2.cloudfront.net/static/images/redesign/user.none.tmb.jpg"}, "quote": "It's touching to see rock stars in such a raw, uncommercial state. And the film, shot on rich-grained 16 mm, has none of the hyper, fast-cutting style of contemporary concert videos.", "id": 1339955, "links": {"review": "http://www.macleans.ca/culture/films/article.jsp?content=20040802_85713_85713"}}, {"isRotten": false, "url": "https://dennisschwartzreviews.com/festivalexpress/", "creationDate": 1100714030000, "isFresh": true, "id": 1338776, "quote": "The music was fabulous--a reason enough to cherish this first-rate documentary.", "links": {"review": "https://dennisschwartzreviews.com/festivalexpress/"}, "publication": {"url": "", "name": "Dennis Schwartz Movie Reviews"}, "isTop": false, "freshness": "fresh", "critic": {"url": "/critic/dennis-schwartz", "name": "Dennis Schwartz", "id": 1315, "thumbnailImage": "https://resizing.flixster.com/kyiLmOjDXUivr6Ya_6H1tLzM7Mc=/72x72/v1.YzszNzc0O2o7MTg4MDQ7MjA0ODsxNjE5OzE2MTk"}, "original_score": "A"}, {"isRotten": true, "isFresh": false, "publication": {"url": "", "name": "Filmcritic.com"}, "isTop": false, "creationDate": 1099880842000, "freshness": "rotten", "critic": {"url": "/critic/christopher-null", "name": "Christopher Null", "id": 1062, "thumbnailImage": "https://resizing.flixster.com/epHOineFG6t8E5dF0epGYmi1jjk=/72x72/v1.YzsxNjM1O2c7MTg3ODA7MjA0ODszODs0Mg"}, "quote": "ultimately feels a little like warm leftovers", "id": 1335998, "original_score": "3/5", "links": {}}, {"isRotten": false, "isFresh": true, "publication": {"name": "Long Island Press"}, "isTop": false, "creationDate": 1099588045000, "freshness": "fresh", "critic": {"url": "/critic/prairie-miller", "name": "Prairie Miller", "id": 3414, "thumbnailImage": "https://resizing.flixster.com/Ln4fjf90HxEr1Nc9UeWi0gxB0bs=/72x72/v1.YzsyMTA5O2o7MTg4MDQ7MjA0ODs3Mjs3Mg"}, "quote": "Both drive-thru snapshot travelogue of nomad alternative culture, and one-of-a-kind caught moments of intimate jam sessions. ", "id": 1334916, "links": {}}]}, "casts": {"screenwriters": [], "directors": [{"url": "/celebrity/bob_smeaton/", "name": "Bob Smeaton", "thumbnailImg": "https://d2a5cgar23scu2.cloudfront.net/static/images/redesign/actor.default.tmb.gif"}], "creators": [], "producers": [{"url": "/celebrity/nick_ohaga/", "name": "Nick O'Haga", "thumbnailImg": "https://d2a5cgar23scu2.cloudfront.net/static/images/redesign/actor.default.tmb.gif"}, {"url": "/celebrity/gavin_poolman/", "name": "Gavin Poolman", "thumbnailImg": "https://d2a5cgar23scu2.cloudfront.net/static/images/redesign/actor.default.tmb.gif"}, {"url": "/celebrity/john-trapman/", "name": "John Trapman", "thumbnailImg": "https://d2a5cgar23scu2.cloudfront.net/static/images/redesign/actor.default.tmb.gif"}, {"url": "/celebrity/nick-ohagan/", "name": "Nick O'Hagan", "thumbnailImg": "https://d2a5cgar23scu2.cloudfront.net/static/images/redesign/actor.default.tmb.gif"}], "castItems": [{"person": {"url": "/celebrity/the_grateful_dead/", "name": "The Grateful Dead", "thumbnailImg": "https://d2a5cgar23scu2.cloudfront.net/static/images/redesign/actor.default.tmb.gif"}}, {"person": {"url": "/celebrity/delaney_and_bonnie_and_friends/", "name": "Delaney & Bonnie & Friends", "thumbnailImg": "https://d2a5cgar23scu2.cloudfront.net/static/images/redesign/actor.default.tmb.gif"}}, {"person": {"url": "/celebrity/the_band_6/", "name": "The Band", "thumbnailImg": "https://d2a5cgar23scu2.cloudfront.net/static/images/redesign/actor.default.tmb.gif"}}, {"person": {"url": "/celebrity/mashmakan/", "name": "Mashmakan", "thumbnailImg": "https://d2a5cgar23scu2.cloudfront.net/static/images/redesign/actor.default.tmb.gif"}}, {"person": {"url": "/celebrity/ian_and_sylvia_and_great_speckled_bird/", "name": "Ian and Sylvia and Great Speckled Bird", "thumbnailImg": "https://d2a5cgar23scu2.cloudfront.net/static/images/redesign/actor.default.tmb.gif"}}, {"person": {"url": "/celebrity/janis_joplin_4/", "name": "Janis Joplin", "thumbnailImg": "https://resizing.flixster.com/2Cr1my6h7mohsjc6E3_l1XXzY64=/80x80/v1.cDsxMDMwOTczOTtqOzE4ODUzOzIwNDg7NDAwOzI3MQ"}}, {"person": {"url": "/celebrity/mashmakhan/", "name": "Mashmakhan", "thumbnailImg": "https://d2a5cgar23scu2.cloudfront.net/static/images/redesign/actor.default.tmb.gif"}}, {"person": {"url": "/celebrity/jerry_garcia/", "name": "Jerry Garcia", "thumbnailImg": "https://resizing.flixster.com/J10TcXHTTISQtkA2_ptf_llCwFE=/80x80/v1.cDsxMTA5NDA3NjtqOzE4ODQ5OzIwNDg7MzU2OzM2MA"}}, {"person": {"url": "/celebrity/bob_weir/", "name": "Bob Weir", "thumbnailImg": "https://resizing.flixster.com/WUJXwnDCt2lWzwhGB0AHbVDrwRY=/80x80/v1.cDsxMTA5NDA4MTtqOzE4ODU0OzIwNDg7MTk4OzI1OQ"}}, {"person": {"url": "/celebrity/eric_andersen_4/", "name": "Eric Andersen", "thumbnailImg": "https://d2a5cgar23scu2.cloudfront.net/static/images/redesign/actor.default.tmb.gif"}}, {"person": {"url": "/celebrity/phil_lesh/", "name": "Phil Lesh", "thumbnailImg": "https://resizing.flixster.com/eP_HY4KdEpfrEweX6U5DBT8XwzE=/80x80/v1.cDsxMTA5NDA4MztqOzE4ODU2OzIwNDg7NDAwOzUwNQ"}}, {"person": {"url": "/celebrity/mickey_hart/", "name": "Mickey Hart", "thumbnailImg": "https://d2a5cgar23scu2.cloudfront.net/static/images/redesign/actor.default.tmb.gif"}}, {"person": {"url": "/celebrity/rick_danko/", "name": "Rick Danko", "thumbnailImg": "https://resizing.flixster.com/7yLKH0JoY-6xdTMaIXztKnT9rLQ=/80x80/v1.cDsxMTI2NTgxNTtqOzE4ODcwOzIwNDg7NjA0OzQ0MQ"}}, {"person": {"url": "/celebrity/ken_pearson/", "name": "Ken Pearson", "thumbnailImg": "https://d2a5cgar23scu2.cloudfront.net/static/images/redesign/actor.default.tmb.gif"}}, {"person": {"url": "/celebrity/richard_bell/", "name": "Richard Bell", "thumbnailImg": "https://d2a5cgar23scu2.cloudfront.net/static/images/redesign/actor.default.tmb.gif"}}, {"person": {"url": "/celebrity/john_till/", "name": "John Till", "thumbnailImg": "https://d2a5cgar23scu2.cloudfront.net/static/images/redesign/actor.default.tmb.gif"}}, {"person": {"url": "/celebrity/sylvia_tyson/", "name": "Sylvia Tyson", "thumbnailImg": "https://d2a5cgar23scu2.cloudfront.net/static/images/redesign/actor.default.tmb.gif"}}, {"person": {"url": "/celebrity/jerry_mercer/", "name": "Jerry Mercer", "thumbnailImg": "https://d2a5cgar23scu2.cloudfront.net/static/images/redesign/actor.default.tmb.gif"}}, {"person": {"url": "/celebrity/kenny_gradney/", "name": "Kenny Gradney", "thumbnailImg": "https://d2a5cgar23scu2.cloudfront.net/static/images/redesign/actor.default.tmb.gif"}}, {"person": {"url": "/celebrity/david_dalton/", "name": "David Dalton", "thumbnailImg": "https://d2a5cgar23scu2.cloudfront.net/static/images/redesign/actor.default.tmb.gif"}}, {"person": {"url": "/celebrity/james_cullingham/", "name": "James Cullingham", "thumbnailImg": "https://d2a5cgar23scu2.cloudfront.net/static/images/redesign/actor.default.tmb.gif"}}, {"person": {"url": "/celebrity/rob_bowman/", "name": "Rob Bowman", "thumbnailImg": "https://resizing.flixster.com/dCZFfdJ4Y7DqEm9MPJs5MQAPknw=/80x80/v1.cDsxMDcxODk3OTtqOzE4ODY4OzIwNDg7NDY5OzI0Mw"}}, {"person": {"url": "/celebrity/ken_walker/", "name": "Ken Walker", "thumbnailImg": "https://d2a5cgar23scu2.cloudfront.net/static/images/redesign/actor.default.tmb.gif"}}]}, "title": "Festival Express", "adjustedScore": 97.68946435955449, "ratings": {"critics_rating": "Certified Fresh", "audience_score": 84, "dvdReleaseDate": 1099382400000, "critics_score": 96, "theaterReleaseDate": 1063090800000, "audience_rating": "Upright"}, "videoClips": {"mainTrailer": {"hlsUrl": "http://video.internetvideoarchive.net/video.m3u8?cmd=6&publishedid=458081&customerid=300120&e=1619087574056&sub=RTO&fmt=11&h=d44cd19c0d9c85fe62ba377dd595ed98", "seconds": 0, "minutes": 2, "id": 10894389, "title": "Festival Express", "thumbUrl": "http://content.internetvideoarchive.com/content/photos/732/458081_019.jpg", "mp4Url": "http://video.internetvideoarchive.net/video.mp4?cmd=6&publishedid=458081&customerid=300120&e=1619087574056&sub=RTO&fmt=4&videokbrate=750&h=5e5201518ab0261c3aeeff7243240bbe"}, "size": 1, "videoClips": [{"hlsUrl": "http://video.internetvideoarchive.net/video.m3u8?cmd=6&publishedid=458081&customerid=300120&e=1619087574056&sub=RTO&fmt=11&h=d44cd19c0d9c85fe62ba377dd595ed98", "seconds": 0, "minutes": 2, "id": 10894389, "title": "Festival Express", "thumbUrl": "http://content.internetvideoarchive.com/content/photos/732/458081_019.jpg", "mp4Url": "http://video.internetvideoarchive.net/video.mp4?cmd=6&publishedid=458081&customerid=300120&e=1619087574056&sub=RTO&fmt=4&videokbrate=750&h=5e5201518ab0261c3aeeff7243240bbe"}]}, "isUpcoming": false, "posters": {"original": "https://resizing.flixster.com/6dj7T5aNuEecN3Bqurhx3yKnX24=/1395x1860/v1.bTsxMTIwODQ3ODtqOzE4ODYyOzIwNDg7MTM5NTsxODYw", "detailed": "https://resizing.flixster.com/cNC8HYM4thVtylo2WRmGeOhXSv4=/180x240/v1.bTsxMTIwODQ3ODtqOzE4ODYyOzIwNDg7MTM5NTsxODYw", "profile": "https://resizing.flixster.com/15ER0OJbJTzA1kQOL3q45oycqPM=/120x160/v1.bTsxMTIwODQ3ODtqOzE4ODYyOzIwNDg7MTM5NTsxODYw", "thumbnail": "https://resizing.flixster.com/OEZVD1GrOlfyd-24exx0uSbkMeQ=/54x72/v1.bTsxMTIwODQ3ODtqOzE4ODYyOzIwNDg7MTM5NTsxODYw"}, "isLimited": false, "mainTrailer": {"thumbUrl": "https://content.internetvideoarchive.com/content/photos/732/458081_019.jpg", "hlsUrl": "http://video.internetvideoarchive.net/video.m3u8?cmd=6&publishedid=458081&customerid=300120&e=1619087573253&sub=RTO&fmt=11&h=34decb2e84ed025bd69cfa8ef80e1c79", "id": 10894389, "mp4Url": "http://video.internetvideoarchive.net/video.mp4?cmd=6&publishedid=458081&customerid=300120&e=1619087573253&sub=RTO&fmt=4&videokbrate=750&h=71f1acecafdf5cf78a919ca8f2ab6bf2"}, "advisory": "for some language", "id": 12859}