{"url": "/m/born_into_brothels/", "isOnOpening": false, "boxoffice": "$3.4M", "genreSet": [{"displayName": "Documentary", "id": 8}, {"displayName": "Musical & Performing Arts", "id": 12}, {"displayName": "Special Interest", "id": 15}], "officialUrl": "http://kids-with-cameras.org/bornintobrothels/film.php", "isInTheaters": false, "synopsis": "This film is a portrait of a group of unforgettable children in Calcutta's red light district. Feisty, resilient and wickedly funny, they are the children of prostitutes. Trying to evade a doomed future, they embark on a transformational journey with New York-based photographer Zana Briski, who teaches them how to take pictures with cameras she provides. This humorous and heartfelt story portrays the power of art and the courage of those willing to change their own lives.", "links": {"alternate": "//www.rottentomatoes.com/m/born_into_brothels/"}, "runningTime": 85, "year": 2004, "trackingType": "DvdOther", "status": "Live", "isPlaying": false, "isOnDVD": true, "runningTimeStr": "1 hr. 25 min.", "ratingSummary": {"topcount": 36, "consensus": "A powerful and uplifting documentary.", "topCritics": {"hasScore": true, "numReviews": 36, "meterClass": "certified", "numRotten": 4, "numFresh": 32, "hasReviews": true, "meterValue": 89, "averageRating": 7.735714}, "audience": {"meterScore": 91, "averageScore": 4.133652687072754, "numTotal": 13955, "ratingType": "viewed"}, "allcount": 108, "rottencount": 5, "dvdcount": 8, "allCritics": {"hasScore": true, "numReviews": 108, "meterClass": "certified", "numRotten": 5, "numFresh": 103, "hasReviews": true, "meterValue": 95, "averageRating": 7.83}, "freshcount": 103}, "mpaaRating": "R", "vanity": "born_into_brothels", "photos": {"photos": [{"url": "https://resizing.flixster.com/S58W3IYQuWVbco47rijzXqb3BIM=/300x200/v1.bjszODI5NDI7ajsxODgwNjsyMDQ4OzMwMDsyMDA", "index": 0, "submittedBy": "RT Staff", "height": 200, "imageId": 382942, "thumbnail": "https://resizing.flixster.com/0dAh-rRJsCkrB8PlKs8C0a3DeDg=/80x80/v1.bjszODI5NDI7ajsxODgwNjsyMDQ4OzMwMDsyMDA", "submittedDate": "2014-07-05", "id": "multiuse-382942", "photoType": "movie", "width": 300}], "length": 1}, "studio": "Think Film", "purchaseOptions": {"amazon": {"url": "http://www.amazon.com/gp/product/B07VNYRBVM/ref=atv_feed_catalog?tag=rottetomao_aiv_mv-20", "isPrime": false, "type": "buy"}, "iTunes": {"url": "https://itunes.apple.com/movie/born-into-brothels/id1474745918?uo=5", "price": "7.99"}}, "reviews": {"total": 108, "links": {"alternate": "//www.rottentomatoes.com/m/born_into_brothels/#reviews", "self": "api.flixster.com/movies/born-into-brothels/reviews.json?review_type=mob&country=us&page=1", "prev": "api.flixster.com/movies/born-into-brothels/reviews.json?review_type=mob&country=us&page=0", "next": "api.flixster.com/movies/born-into-brothels/reviews.json?review_type=mob&country=us&page=2"}, "reviews": [{"isRotten": true, "url": "https://www.chicagoreader.com/chicago/born-into-brothels/Film?oid=1065277", "publication": {"url": "", "name": "Chicago Reader"}, "isTop": true, "creationDate": 1506717516000, "isFresh": false, "freshness": "rotten", "critic": {"url": "/critic/richard-porton", "name": "Richard Porton", "id": 5316, "thumbnailImage": "https://d2a5cgar23scu2.cloudfront.net/static/images/redesign/user.none.tmb.jpg"}, "quote": "Zana Briski and Ross Kauffman's Born Into Brothels is both sustained and ultimately sunk by its lofty intentions.", "id": 2423665, "links": {"review": "https://www.chicagoreader.com/chicago/born-into-brothels/Film?oid=1065277"}}, {"isRotten": false, "url": "http://www.decentfilms.com/sections/reviews/1766", "creationDate": 1112634876000, "isFresh": true, "id": 1375529, "quote": "Briski doesn't merely document the children's milieu. Instead, she does something revolutionary: She empowers them to document it for themselves.", "links": {"review": "http://www.decentfilms.com/sections/reviews/1766"}, "publication": {"name": "Decent Films Guide"}, "isTop": true, "freshness": "fresh", "critic": {"url": "/critic/steven-d-greydanus", "name": "Steven D. Greydanus", "id": 5612, "thumbnailImage": "https://resizing.flixster.com/TpXNeP2Bw4Ci0Knwz0ug2Ok6rWw=/72x72/v1.YzsyODA4O2c7MTg3ODM7MjA0ODsxNTA7MTUw"}, "original_score": "A-"}, {"isRotten": false, "url": "http://www.austinchronicle.com/gyrobase/Calendar/Film?Film=oid%3a262660", "creationDate": 1111990550000, "isFresh": true, "id": 1372860, "quote": "A devastating portrait of impoverished Calcutta children who are born into the sex trades, yet the film is also an inspiring document about human possibilities and the need to strive despite impossible odds.", "links": {"review": "http://www.austinchronicle.com/gyrobase/Calendar/Film?Film=oid%3a262660"}, "publication": {"url": "", "name": "Austin Chronicle"}, "isTop": true, "freshness": "fresh", "critic": {"url": "/critic/marjorie-baumgarten", "name": "Marjorie Baumgarten", "id": 34, "thumbnailImage": "https://d2a5cgar23scu2.cloudfront.net/static/images/redesign/user.none.tmb.jpg"}, "original_score": "4/5"}, {"isRotten": true, "isFresh": false, "publication": {"url": "", "name": "Arizona Republic"}, "isTop": true, "creationDate": 1110608122000, "freshness": "rotten", "critic": {"url": "/critic/richard-nilsen", "name": "Richard Nilsen", "id": 4098, "thumbnailImage": "https://d2a5cgar23scu2.cloudfront.net/static/images/redesign/user.none.tmb.jpg"}, "quote": "One feels manipulated rather than enlightened.", "id": 1369091, "original_score": "3/5", "links": {}}, {"isRotten": false, "isFresh": true, "publication": {"name": "Orlando Sentinel"}, "isTop": true, "creationDate": 1110583682000, "freshness": "fresh", "critic": {"url": "/critic/roger-moore", "name": "Roger Moore", "id": 1238, "thumbnailImage": "https://resizing.flixster.com/pUhagbT0f-d7hdSnNo7LHh88w7o=/72x72/v1.YzsxNjU0O2c7MTg3OTk7MjA0ODszODs0NQ"}, "quote": "A beautifully made essay on a filmmaker's efforts to teach the children of Calcutta's prostitutes the fine art of photography.", "id": 1368971, "original_score": "4/5", "links": {}}, {"isRotten": false, "isFresh": true, "publication": {"url": "", "name": "Miami Herald"}, "isTop": true, "creationDate": 1110583594000, "freshness": "fresh", "critic": {"url": "/critic/rene-rodriguez", "name": "Rene Rodriguez", "id": 3423, "thumbnailImage": "https://resizing.flixster.com/VF5s64jQssz7OrKJhCCRrBa7aHI=/72x72/v1.YzsyNjE2O2c7MTg3NzE7MjA0ODsxNTA7MTUw"}, "quote": "The film says all it needs to say through the photos of the kids and their excited, wide-eyed reactions when they realize the outside world is paying attention to them.", "id": 1368969, "original_score": "3/4", "links": {}}, {"isRotten": false, "url": "https://theindependentcritic.com/born_into_brothels", "creationDate": 1599177453000, "isFresh": true, "id": 2720167, "quote": "A reminder of the power of the documentary to educate, inspire and share openly and honestly the world that surrounds us.", "links": {"review": "https://theindependentcritic.com/born_into_brothels"}, "publication": {"url": "", "name": "TheIndependentCritic.com"}, "isTop": false, "freshness": "fresh", "critic": {"url": "/critic/richard-propes-27470", "name": "Richard Propes", "id": 27470, "thumbnailImage": "https://resizing.flixster.com/9RafzdrYTvTWxFzPswX4QYwPgK8=/72x72/v1.YzszODAzO2o7MTg3ODg7MjA0ODszMDA7MzAw"}, "original_score": "3.5/4.0"}, {"isRotten": false, "url": "http://cinemawriter.com/2012/01/20/born-into-brothels/", "creationDate": 1327093180000, "isFresh": true, "id": 2053787, "quote": "an absorbing journey over gritty social terrain, driven by a fierce sense of purpose", "links": {"review": "http://cinemawriter.com/2012/01/20/born-into-brothels/"}, "publication": {"name": "Cinema Writer"}, "isTop": false, "freshness": "fresh", "critic": {"url": "/critic/jay-antani", "name": "Jay Antani", "id": 10563, "thumbnailImage": "https://resizing.flixster.com/J3Xr2Mikmur3Hlbu9oEC5ESFJxk=/72x72/v1.YzsxNzcxO2o7MTg3ODE7MjA0ODszODs0OA"}, "original_score": "3.5/4"}, {"isRotten": false, "url": "http://blogs.kpbs.org/index.php/movies/comments/born_into_brothels/", "publication": {"url": "", "name": "KPBS.org"}, "isTop": false, "creationDate": 1212922535000, "isFresh": true, "freshness": "fresh", "critic": {"url": "/critic/beth-accomando", "name": "Beth Accomando", "id": 7589, "thumbnailImage": "https://resizing.flixster.com/Hy6gYoxAL9sfxqwqhvoZ4jkcqJw=/72x72/v1.YzsxNzQ5O2c7MTg4MDQ7MjA0ODszODs0Mg"}, "quote": "This bond of trust between the filmmakers and their subjects exemplifies the kind of personal involvement that many documentary makers are striving for these days.", "id": 1733456, "links": {"review": "http://blogs.kpbs.org/index.php/movies/comments/born_into_brothels/"}}, {"isRotten": false, "url": "http://www.lookingcloser.org/2005/08/born-into-brothels-2005/", "creationDate": 1190330773000, "isFresh": true, "id": 1672560, "quote": "As bright as a box of new crayons, and just as full of creative potential, these children give us vibrant pictures of hope in the midst of oppression.", "links": {"review": "http://www.lookingcloser.org/2005/08/born-into-brothels-2005/"}, "publication": {"url": "", "name": "Looking Closer"}, "isTop": false, "freshness": "fresh", "critic": {"url": "/critic/jeffrey-overstreet", "name": "Jeffrey Overstreet", "id": 3956, "thumbnailImage": "https://resizing.flixster.com/Dahx2DzZp60e0sNjlQh-qDBbnOk=/72x72/v1.YzsxNzExO2o7MTg3NjY7MjA0ODszODszOQ"}, "original_score": "A+"}, {"isRotten": false, "url": "http://www.towntopics.com/mar2305/cinema.html", "creationDate": 1182397399000, "isFresh": true, "id": 1640809, "quote": "In the end, you can't help but wonder exactly what it was you've just seen. A hard-hitting expos\u00e9? Voyeuristic slumming? A true tale of triumph, against all odds? A self-aggrandizing, vanity biopic? Some new type of reality film?Perhaps all of the above.", "links": {"review": "http://www.towntopics.com/mar2305/cinema.html"}, "publication": {"name": "Princeton Town Topics"}, "isTop": false, "freshness": "fresh", "critic": {"url": "/critic/kam-williams", "name": "Kam Williams", "id": 12230, "thumbnailImage": "https://resizing.flixster.com/BtjsCX1Spp7NW8wYuoUbDQznn3M=/72x72/v1.YzsxNzk2O2c7MTg4MDY7MjA0ODszODs0Mg"}, "original_score": "4/4"}, {"isRotten": false, "isFresh": true, "publication": {"url": "", "name": "Cinema em Cena"}, "isTop": false, "creationDate": 1136958262000, "freshness": "fresh", "critic": {"url": "/critic/pablo-villaca-5765", "name": "Pablo Villa\u00e7a", "id": 5765, "thumbnailImage": "https://resizing.flixster.com/_v0ESljcf2vohnjwqYbGQP6--sc=/72x72/v1.YzsxNzI2O2o7MTg3ODE7MjA0ODszODs1Ng"}, "quote": "Profundamente comovente e tr\u00e1gico, apesar de suas \u00f3bvias falhas estruturais e %u2013 o mais grave %u2013 de pisar em um terreno inst\u00e1vel em seu aspecto \u00e9tico.", "id": 1470504, "original_score": "4/5", "links": {}}]}, "casts": {"screenwriters": [{"url": "/celebrity/zana-briski/", "name": "Zana Briski", "thumbnailImg": "https://resizing.flixster.com/2HSRKv_vIg1lhcStMzX90kt5jpk=/80x80/v1.cDs0NzgyNDYwO2o7MTg4MTU7MjA0ODsyNzE7NDAw"}, {"url": "/celebrity/ross-kauffman/", "name": "Ross Kauffman", "thumbnailImg": "https://d2a5cgar23scu2.cloudfront.net/static/images/redesign/actor.default.tmb.gif"}], "directors": [{"url": "/celebrity/zana-briski/", "name": "Zana Briski", "thumbnailImg": "https://resizing.flixster.com/2HSRKv_vIg1lhcStMzX90kt5jpk=/80x80/v1.cDs0NzgyNDYwO2o7MTg4MTU7MjA0ODsyNzE7NDAw"}, {"url": "/celebrity/ross-kauffman/", "name": "Ross Kauffman", "thumbnailImg": "https://d2a5cgar23scu2.cloudfront.net/static/images/redesign/actor.default.tmb.gif"}], "creators": [], "producers": [{"url": "/celebrity/pamela_tanner_boll/", "name": "Pamela Tanner Boll", "thumbnailImg": "https://d2a5cgar23scu2.cloudfront.net/static/images/redesign/actor.default.tmb.gif"}, {"url": "/celebrity/zana-briski/", "name": "Zana Briski", "thumbnailImg": "https://resizing.flixster.com/2HSRKv_vIg1lhcStMzX90kt5jpk=/80x80/v1.cDs0NzgyNDYwO2o7MTg4MTU7MjA0ODsyNzE7NDAw"}, {"url": "/celebrity/lisa_cohen/", "name": "Lisa Cohen", "thumbnailImg": "https://d2a5cgar23scu2.cloudfront.net/static/images/redesign/actor.default.tmb.gif"}, {"url": "/celebrity/geralyn_white_dreyfous_2/", "name": "Geralyn White Dreyfous", "thumbnailImg": "https://d2a5cgar23scu2.cloudfront.net/static/images/redesign/actor.default.tmb.gif"}, {"url": "/celebrity/jannat_gargi/", "name": "Jannat Gargi", "thumbnailImg": "https://d2a5cgar23scu2.cloudfront.net/static/images/redesign/actor.default.tmb.gif"}, {"url": "/celebrity/ross-kauffman/", "name": "Ross Kauffman", "thumbnailImg": "https://d2a5cgar23scu2.cloudfront.net/static/images/redesign/actor.default.tmb.gif"}, {"url": "/celebrity/zana_briski_4/", "name": "Zana Briski", "thumbnailImg": "https://d2a5cgar23scu2.cloudfront.net/static/images/redesign/actor.default.tmb.gif"}], "castItems": [{"person": {"url": "/celebrity/avijit_halder/", "name": "Avijit Halder", "thumbnailImg": "https://d2a5cgar23scu2.cloudfront.net/static/images/redesign/actor.default.tmb.gif"}}, {"person": {"url": "/celebrity/shanti_das/", "name": "Shanti Das", "thumbnailImg": "https://d2a5cgar23scu2.cloudfront.net/static/images/redesign/actor.default.tmb.gif"}}, {"person": {"url": "/celebrity/puja_mukerjee/", "name": "Puja Mukerjee", "thumbnailImg": "https://d2a5cgar23scu2.cloudfront.net/static/images/redesign/actor.default.tmb.gif"}}]}, "title": "Born Into Brothels", "adjustedScore": 97.57876598846842, "ratings": {"critics_rating": "Certified Fresh", "audience_score": 91, "dvdReleaseDate": 1127199600000, "critics_score": 95, "theaterReleaseDate": 1102492800000, "audience_rating": "Upright"}, "videoClips": {"mainTrailer": {"hlsUrl": "http://video.internetvideoarchive.net/video.m3u8?cmd=6&publishedid=920659&customerid=300120&e=1619087579997&sub=RTO&fmt=11&h=2d61d68255561315c825ec39c0e38a81", "seconds": 2, "minutes": 2, "id": 10893900, "title": "Born Into Brothels", "thumbUrl": "http://content.internetvideoarchive.com/content/photos/756/031787_45.jpg", "mp4Url": "http://video.internetvideoarchive.net/video.mp4?cmd=6&publishedid=920659&customerid=300120&e=1619087579997&sub=RTO&fmt=4&videokbrate=750&h=c63edce7f8ad02163c3cbe083f999436"}, "size": 1, "videoClips": [{"hlsUrl": "http://video.internetvideoarchive.net/video.m3u8?cmd=6&publishedid=920659&customerid=300120&e=1619087579997&sub=RTO&fmt=11&h=2d61d68255561315c825ec39c0e38a81", "seconds": 2, "minutes": 2, "id": 10893900, "title": "Born Into Brothels", "thumbUrl": "http://content.internetvideoarchive.com/content/photos/756/031787_45.jpg", "mp4Url": "http://video.internetvideoarchive.net/video.mp4?cmd=6&publishedid=920659&customerid=300120&e=1619087579997&sub=RTO&fmt=4&videokbrate=750&h=c63edce7f8ad02163c3cbe083f999436"}]}, "isUpcoming": false, "posters": {"original": "https://resizing.flixster.com/k7S_W53sW_WzKhuOzyfwPUpiII0=/353x500/v1.bTsxMjIwMTM4ODtqOzE4ODE0OzIwNDg7MzUzOzUwMA", "detailed": "https://resizing.flixster.com/yAkGbgBeSz7XJkurc1arwR18c9M=/180x255/v1.bTsxMjIwMTM4ODtqOzE4ODE0OzIwNDg7MzUzOzUwMA", "profile": "https://resizing.flixster.com/h6UVUmim9TKRecrL8g60iORj-OA=/120x170/v1.bTsxMjIwMTM4ODtqOzE4ODE0OzIwNDg7MzUzOzUwMA", "thumbnail": "https://resizing.flixster.com/aQRyqquADmDv0Rjz2B51j9rS9yc=/54x76/v1.bTsxMjIwMTM4ODtqOzE4ODE0OzIwNDg7MzUzOzUwMA"}, "isLimited": false, "mainTrailer": {"thumbUrl": "https://content.internetvideoarchive.com/content/photos/756/031787_45.jpg", "hlsUrl": "http://video.internetvideoarchive.net/video.m3u8?cmd=6&publishedid=920659&customerid=300120&e=1619087579749&sub=RTO&fmt=11&h=4d419637529ff97802acb6698a263461", "id": 10893900, "mp4Url": "http://video.internetvideoarchive.net/video.mp4?cmd=6&publishedid=920659&customerid=300120&e=1619087579749&sub=RTO&fmt=4&videokbrate=750&h=2804e2618f7cde642f41b42e24f9d6a8"}, "advisory": "for some sequences of strong language", "id": 12896}