{"url": "/m/funny_girl/", "isOnOpening": false, "genreSet": [{"displayName": "Drama", "id": 9}, {"displayName": "Musical & Performing Arts", "id": 12}, {"displayName": "Classics", "id": 5}, {"displayName": "Comedy", "id": 6}], "officialUrl": "", "isInTheaters": false, "synopsis": "\"Hello, gorgeous!\" was Barbra Streisand's first comment to the Oscar statuette which she won for her performance in this biopic of entertainer Fanny Brice. This is also her first line in the film itself, the catalyst for a movie-long flashback. Repeating her Broadway role, Streisand stars as legendary comedienne Brice (1891-1951), whose life until the mid-1920s is romanticized herein. A gawky New Yawker, Brice fast-talks her way into show business, certain that she's destined to be \"The Greatest Star.\" Hired as a \"dramatic\" singer by impresario Flo Ziegfeld (Walter Pidgeon), Brice defies orders to play it straight, turning a \"Beautiful Bride\" tableau into a laugh riot by dressing herself up as an extremely pregnant newlywed. The stratagem turns Brice into an overnight star and the toast of Broadway. But all is not roses for Brice, especially in her turbulent private life as the wife of big-time gambler Nicky Arnstein (Omar Sharif). Nicky at first finds it amusing to be referred to as \"Mr. Brice,\" but he begins to resent his wife's fame and fortune and starts taking foolish risks with other people's money. The film was nominated for 8 Oscars, including Best Picture and Kay Medford for her portrayal of Brice's mother, Rose. Funny Girl was produced by Ray Stark, Brice's real-life son-in-law, who had enough material left over for a sequel, 1975's Funny Lady. ~ Hal Erickson, Rovi", "links": {"alternate": "//www.rottentomatoes.com/m/funny_girl/"}, "runningTime": 155, "year": 1968, "trackingType": "DvdOther", "status": "Live", "isPlaying": false, "isOnDVD": true, "runningTimeStr": "2 hr. 35 min.", "ratingSummary": {"topcount": 17, "consensus": "Barbara Streisand elevates this otherwise rote melodramatic musical with her ultra-memorable star turn as Fanny Brice.", "topCritics": {"hasScore": true, "numReviews": 17, "meterClass": "certified", "numRotten": 2, "numFresh": 15, "hasReviews": true, "meterValue": 88, "averageRating": 7.1}, "audience": {"meterScore": 85, "averageScore": 3.7207133769989014, "numTotal": 19848, "ratingType": "viewed"}, "allcount": 45, "rottencount": 3, "dvdcount": 9, "allCritics": {"hasScore": true, "numReviews": 45, "meterClass": "certified", "numRotten": 3, "numFresh": 42, "hasReviews": true, "meterValue": 93, "averageRating": 7.59}, "freshcount": 42}, "mpaaRating": "G", "vanity": "funny_girl", "studio": "Columbia Pictures", "purchaseOptions": {"amazon": {"url": "http://www.amazon.com/gp/product/B001NIAQ9I/ref=atv_feed_catalog?tag=rottetomao_aiv_mv-20", "isPrime": false, "type": "buy"}, "vudu": {"url": "https://www.vudu.com/content/movies/details/Funny-Girl/23676", "type": "buy"}, "flixster": {"url": "funny-girl", "movieId": "ID: 2000019393; SKU:459921; Type: B (SD Buy)", "type": "buy"}, "iTunes": {"url": "https://itunes.apple.com/movie/funny-girl/id300665994?uo=5", "price": "12.99"}}, "reviews": {"total": 45, "links": {"alternate": "//www.rottentomatoes.com/m/funny_girl/#reviews", "self": "api.flixster.com/movies/funny-girl/reviews.json?review_type=mob&country=us&page=1", "prev": "api.flixster.com/movies/funny-girl/reviews.json?review_type=mob&country=us&page=0", "next": "api.flixster.com/movies/funny-girl/reviews.json?review_type=mob&country=us&page=2"}, "reviews": [{"isRotten": false, "url": "http://www.telegraph.co.uk/on-demand/2016/05/18/funny-girl-comes-to-netflix-today-read-our-1969-review/", "publication": {"url": "", "name": "Daily Telegraph (UK)"}, "isTop": true, "creationDate": 1516743610000, "isFresh": true, "freshness": "fresh", "critic": {"url": "/critic/margaret-hinxman", "name": "Margaret Hinxman", "id": 20790, "thumbnailImage": "https://d2a5cgar23scu2.cloudfront.net/static/images/redesign/user.none.tmb.jpg"}, "quote": "It's hard to think of Funny Girl, in fact, apart from Barbra Streisand. She is the life force. Director William Wyler simply drapes the opulent show around her. ", "id": 2452120, "links": {"review": "http://www.telegraph.co.uk/on-demand/2016/05/18/funny-girl-comes-to-netflix-today-read-our-1969-review/"}}, {"isRotten": false, "url": "http://www.nytimes.com/books/97/04/27/reviews/streisand-bow.html", "publication": {"url": "", "name": "New York Times"}, "isTop": true, "creationDate": 1515520969000, "isFresh": true, "freshness": "fresh", "critic": {"url": "/critic/renata-adler", "name": "Renata Adler", "id": 26, "thumbnailImage": "https://resizing.flixster.com/UXIl0l4PuIYsVUz_3QQLWqMDtDo=/72x72/v1.YzszNDU1O2o7MTg4MDA7MjA0ODszMDA7MzAw"}, "quote": "When she is singing--in a marvelous scene on roller skates--when she throws a line away, or shrugs, or looks funny or sad, she has a power, gentleness and intensity that rather knocks all the props and sets and camera angles on their ear.", "id": 2448632, "links": {"review": "http://www.nytimes.com/books/97/04/27/reviews/streisand-bow.html"}}, {"isRotten": true, "url": "http://onfilm.chicagoreader.com/movies/capsules/3865_FUNNY_GIRL", "publication": {"url": "", "name": "Chicago Reader"}, "isTop": true, "creationDate": 1218573061000, "isFresh": false, "freshness": "rotten", "critic": {"url": "/critic/dave-kehr", "name": "Dave Kehr", "id": 15, "thumbnailImage": "https://resizing.flixster.com/9JKqg6sYG8Ma4MxlrqIMwc3jppc=/72x72/v1.YzszNjQ3O2o7MTg3Njc7MjA0ODszMDA7MzAw"}, "quote": "Streisand is stunning, but the film is a trial, particularly when the music disappears somewhere around the 90-minute mark and all that's left is leaden melodrama.", "id": 1748741, "links": {"review": "http://onfilm.chicagoreader.com/movies/capsules/3865_FUNNY_GIRL"}}, {"isRotten": true, "url": "http://www.time.com/time/magazine/article/0,9171,838839,00.html", "publication": {"url": "", "name": "TIME Magazine"}, "isTop": true, "creationDate": 1218572889000, "isFresh": false, "freshness": "rotten", "quote": "This extended Streisand Special has done absolutely nothing to correct the flaws in the Broadway original.", "id": 1748737, "links": {"review": "http://www.time.com/time/magazine/article/0,9171,838839,00.html"}}, {"isRotten": false, "url": "http://www.variety.com/review/VE1117791165.html?categoryid=31&cs=1", "publication": {"url": "", "name": "Variety"}, "isTop": true, "creationDate": 1218572655000, "isFresh": true, "freshness": "fresh", "critic": {"url": "/critic/variety-staff", "name": "Variety Staff", "id": 12507, "thumbnailImage": "https://resizing.flixster.com/8Z-e2stpP9WriX4ZUvtumMg0pB0=/72x72/v1.YzsyNDg3O2c7MTg3Nzc7MjA0ODsxNTI7MTY4"}, "quote": "Barbra Streisand in her Hollywood debut makes a marked impact.", "id": 1748735, "links": {"review": "http://www.variety.com/review/VE1117791165.html?categoryid=31&cs=1"}}, {"isRotten": false, "url": "http://www.empireonline.com/reviews/ReviewComplete.asp?FID=7616", "creationDate": 1167478327000, "isFresh": true, "id": 1564993, "quote": "You will have made your mind up about Babs one way or the other, but for the rare uninitiated, this is a fine introduction to her talents.", "links": {"review": "http://www.empireonline.com/reviews/ReviewComplete.asp?FID=7616"}, "publication": {"url": "", "name": "Empire Magazine"}, "isTop": true, "freshness": "fresh", "critic": {"url": "/critic/david-parkinson", "name": "David Parkinson", "id": 3959, "thumbnailImage": "https://d2a5cgar23scu2.cloudfront.net/static/images/redesign/user.none.tmb.jpg"}, "original_score": "4/5"}, {"isRotten": false, "url": "http://archive.spectator.co.uk/article/24th-january-1969/20/funny-girl-odeon-leicester-square-u", "publication": {"url": "", "name": "The Spectator"}, "isTop": false, "creationDate": 1531775674000, "isFresh": true, "freshness": "fresh", "critic": {"url": "/critic/penelope-houston", "name": "Penelope Houston", "id": 16555, "thumbnailImage": "https://resizing.flixster.com/nr1Vi4iLOAqZW7_YSEyr_4QZDoM=/72x72/v1.YzszNjA5O2o7MTg3NzQ7MjA0ODs1MDs1MA"}, "quote": "In Barbra Streisand Funny Girl thumps down an ace.", "id": 2491076, "links": {"review": "http://archive.spectator.co.uk/article/24th-january-1969/20/funny-girl-odeon-leicester-square-u"}}, {"isRotten": false, "url": "https://www.huffingtonpost.com/entry/so-whats-a-jew-ask-a-film-checking-out-the-27th_us_5a53d236e4b0ee59d41c0d1e", "creationDate": 1515462852000, "isFresh": true, "id": 2448529, "quote": "William Wyler's adaption of the stage musical is transformative for many millennials. Whether wearing a hijab, sporting a yarmulke, or bareheaded, my students embrace Streisand's Brice and the star/character's professional chutzpah & insecurities.", "links": {"review": "https://www.huffingtonpost.com/entry/so-whats-a-jew-ask-a-film-checking-out-the-27th_us_5a53d236e4b0ee59d41c0d1e"}, "publication": {"url": "", "name": "Huffington Post"}, "isTop": false, "freshness": "fresh", "critic": {"url": "/critic/brandon-judell", "name": "Brandon Judell", "id": 1033, "thumbnailImage": "https://resizing.flixster.com/eN0RbsfI4Kqa04aur8-Rx6GBuCs=/72x72/v1.YzsyMzY1O2o7MTg3OTA7MjA0ODszODs0Mg"}, "original_score": "9/10"}, {"isRotten": false, "url": "http://www.thecinemaphileblog.com/2017/01/funny-girl-1968.html", "creationDate": 1486187284000, "isFresh": true, "id": 2377036, "quote": "In lesser hands this would fall flat because nothing is written to comfort the supporting players. They are extras with names and blurred faces.", "links": {"review": "http://www.thecinemaphileblog.com/2017/01/funny-girl-1968.html"}, "publication": {"name": "Cinemaphile.org"}, "isTop": false, "freshness": "fresh", "critic": {"url": "/critic/david-keyes", "name": "David Keyes", "id": 83, "thumbnailImage": "https://d2a5cgar23scu2.cloudfront.net/static/images/redesign/user.none.tmb.jpg"}, "original_score": "3/4"}, {"isRotten": false, "url": "http://www.commonsensemedia.org/movie-reviews/funny-girl", "creationDate": 1329339704000, "isFresh": true, "id": 2058934, "quote": "Dazzling musical romance is long but entertaining.", "links": {"review": "http://www.commonsensemedia.org/movie-reviews/funny-girl"}, "publication": {"url": "", "name": "Common Sense Media"}, "isTop": false, "freshness": "fresh", "critic": {"url": "/critic/renee-schonfeld", "name": "Renee Schonfeld", "id": 12726, "thumbnailImage": "https://resizing.flixster.com/ldSBgo02sY9xQLcO6-7o_V8JA5k=/72x72/v1.YzsxNTU0O2c7MTg3ODk7MjA0ODszODs0Mg"}, "original_score": "4/5"}, {"isRotten": false, "url": "https://www.flickfilosopher.com/2001/09/funny-girl-review.html", "publication": {"url": "", "name": "Flick Filosopher"}, "isTop": false, "creationDate": 1227093333000, "isFresh": true, "freshness": "fresh", "critic": {"url": "/critic/maryann-johanson", "name": "MaryAnn Johanson", "id": 14, "thumbnailImage": "https://resizing.flixster.com/CYpvfGsH7TDxsR2K02Qd0HjIzt4=/72x72/v1.YzszNzk2O2o7MTg3ODE7MjA0ODs1MDA7NTAw"}, "quote": "Legendary diva Streisand won an Oscar for her performance as legendary Ziegfeld girl Fanny Brice... who else but Babs could have portrayed her so well?... Great film it isn't, but it sure is a helluva lot of fun.", "id": 1781245, "links": {"review": "https://www.flickfilosopher.com/2001/09/funny-girl-review.html"}}, {"isRotten": false, "url": "http://www.channel4.com/film/reviews/film.jsp?id=103673", "creationDate": 1218572955000, "isFresh": true, "id": 1748739, "quote": "A fine movie musical and a nice reminder of the time when Streisand was a talent rather than a 'phenomenon'.", "links": {"review": "http://www.channel4.com/film/reviews/film.jsp?id=103673"}, "publication": {"url": "", "name": "Film4"}, "isTop": false, "freshness": "fresh", "critic": {"url": "/critic/richard-luck", "name": "Richard Luck", "id": 5604, "thumbnailImage": "https://d2a5cgar23scu2.cloudfront.net/static/images/redesign/user.none.tmb.jpg"}, "original_score": "3.5/5"}]}, "casts": {"screenwriters": [{"url": "/celebrity/isobel_lennart/", "name": "Isobel Lennart", "thumbnailImg": "https://d2a5cgar23scu2.cloudfront.net/static/images/redesign/actor.default.tmb.gif"}, {"url": "/celebrity/bob_merrill/", "name": "Bob Merrill", "thumbnailImg": "https://d2a5cgar23scu2.cloudfront.net/static/images/redesign/actor.default.tmb.gif"}, {"url": "/celebrity/jule_styne/", "name": "Jule Styne", "thumbnailImg": "https://d2a5cgar23scu2.cloudfront.net/static/images/redesign/actor.default.tmb.gif"}], "directors": [{"url": "/celebrity/william_wyler/", "name": "William Wyler", "thumbnailImg": "https://resizing.flixster.com/_XhcNBoUWG0kpsqV9Ruz2FZqPxc=/80x80/v1.cDs5ODIyODgzO2o7MTg4MDE7MjA0ODs0NjI7NDYy"}], "creators": [], "producers": [{"url": "/celebrity/ray_stark/", "name": "Ray Stark", "thumbnailImg": "https://d2a5cgar23scu2.cloudfront.net/static/images/redesign/actor.default.tmb.gif"}, {"url": "/celebrity/raymond_stark/", "name": "Raymond Stark", "thumbnailImg": "https://d2a5cgar23scu2.cloudfront.net/static/images/redesign/actor.default.tmb.gif"}, {"url": "/celebrity/william_wyler/", "name": "William Wyler", "thumbnailImg": "https://resizing.flixster.com/_XhcNBoUWG0kpsqV9Ruz2FZqPxc=/80x80/v1.cDs5ODIyODgzO2o7MTg4MDE7MjA0ODs0NjI7NDYy"}], "castItems": [{"person": {"url": "/celebrity/barbra_streisand/", "name": "Barbra Streisand", "thumbnailImg": "https://resizing.flixster.com/CnPBpHgKitsmXM8Y75Ui8XdPDWI=/80x80/v1.cjs0MjI0ODtqOzE4ODAzOzIwNDg7NDYyOzM5OA"}, "characters": [{"name": "Fanny Brice"}]}, {"person": {"url": "/celebrity/omar_sharif/", "name": "Omar Sharif", "thumbnailImg": "https://resizing.flixster.com/KC2oITITfMHeU1zwwQggNFbIZgQ=/80x80/v1.cDs5ODQxODEyO2o7MTg4MzA7MjA0ODs0NjI7NDYy"}, "characters": [{"name": "Nicky Arnstein"}]}, {"person": {"url": "/celebrity/kay_medford/", "name": "Kay Medford", "thumbnailImg": "https://resizing.flixster.com/PHvFDief2DV3NAKw9YZ1qWB1_TM=/80x80/v1.cDsxMjExMjExODtqOzE4Nzc4OzIwNDg7MTAxOzEyOQ"}, "characters": [{"name": "Rose Brice"}]}, {"person": {"url": "/celebrity/walter_pidgeon/", "name": "Walter Pidgeon", "thumbnailImg": "https://resizing.flixster.com/oil2EnywEPEEhnTvwW1SoAIcKHE=/80x80/v1.cDszNDcxODY1O2o7MTg4NzU7MjA0ODszMjA7MjMw"}, "characters": [{"name": "Florenz Ziegfeld"}]}, {"person": {"url": "/celebrity/anne_francis/", "name": "Anne Francis", "thumbnailImg": "https://resizing.flixster.com/pSaXSKEXDO5fw9D4EWOFedGt2bg=/80x80/v1.cDs5NDY0NzIxO2o7MTg3OTA7MjA0ODs0MTI7NDYy"}, "characters": [{"name": "Georgia James"}]}, {"person": {"url": "/celebrity/lee_allen/", "name": "Lee Allen", "thumbnailImg": "https://d2a5cgar23scu2.cloudfront.net/static/images/redesign/actor.default.tmb.gif"}, "characters": [{"name": "Eddie Ryan"}]}, {"person": {"url": "/celebrity/mae_questel/", "name": "Mae Questel", "thumbnailImg": "https://resizing.flixster.com/IEokhqLs9Y68XEYmc_MnDUXHIIw=/80x80/v1.cDsxMjk2MTkwNztqOzE4Nzk3OzIwNDg7MzMzOzQyOQ"}, "characters": [{"name": "Mrs. Strakosh"}]}, {"person": {"url": "/celebrity/gerald_mohr/", "name": "Gerald Mohr", "thumbnailImg": "https://resizing.flixster.com/yensCF4qWoVFo5WJALkgY5m4SAI=/80x80/v1.cDs3MjY3MjkzO2o7MTg4Njc7MjA0ODs0Njc7NTA0"}, "characters": [{"name": "Branca"}]}, {"person": {"url": "/celebrity/frank_faylen/", "name": "Frank Faylen", "thumbnailImg": "https://resizing.flixster.com/NH62XcxnH7sFfZRsdyMefOJPSf8=/80x80/v1.cjs0ODYwNztqOzE4NzcyOzIwNDg7MzA0OzI1MA"}, "characters": [{"name": "Keeney"}]}, {"person": {"url": "/celebrity/mittie_lawrence/", "name": "Mittie Lawrence", "thumbnailImg": "https://d2a5cgar23scu2.cloudfront.net/static/images/redesign/actor.default.tmb.gif"}, "characters": [{"name": "Emma"}]}, {"person": {"url": "/celebrity/gertrude_flynn/", "name": "Gertrude Flynn", "thumbnailImg": "https://d2a5cgar23scu2.cloudfront.net/static/images/redesign/actor.default.tmb.gif"}, "characters": [{"name": "Mrs. O'Malley"}]}, {"person": {"url": "/celebrity/penny-santon/", "name": "Penny Santon", "thumbnailImg": "https://d2a5cgar23scu2.cloudfront.net/static/images/redesign/actor.default.tmb.gif"}, "characters": [{"name": "Mrs. Meeker"}]}, {"person": {"url": "/celebrity/john_harmon/", "name": "John Harmon", "thumbnailImg": "https://d2a5cgar23scu2.cloudfront.net/static/images/redesign/actor.default.tmb.gif"}, "characters": [{"name": "Company Manager"}]}, {"person": {"url": "/celebrity/thordis-brandt/", "name": "Thordis Brandt", "thumbnailImg": "https://d2a5cgar23scu2.cloudfront.net/static/images/redesign/actor.default.tmb.gif"}, "characters": [{"name": "Ziegfeld Girl"}]}, {"person": {"url": "/celebrity/bettina_brenna/", "name": "Bettina Brenna", "thumbnailImg": "https://d2a5cgar23scu2.cloudfront.net/static/images/redesign/actor.default.tmb.gif"}, "characters": [{"name": "Ziegfeld Girl"}]}, {"person": {"url": "/celebrity/virginia_ann_ford/", "name": "Virginia Ann Ford", "thumbnailImg": "https://d2a5cgar23scu2.cloudfront.net/static/images/redesign/actor.default.tmb.gif"}, "characters": [{"name": "Ziegfeld Girl"}]}, {"person": {"url": "/celebrity/alena_johnston/", "name": "Alena Johnston", "thumbnailImg": "https://resizing.flixster.com/ubc8xUDhQrzQqz3srmPPcrZGj34=/80x80/v1.cDsxMzg3Njk4NTtqOzE4ODEwOzIwNDg7MTQ0OzIwMA"}, "characters": [{"name": "Ziegfeld Girl"}]}, {"person": {"url": "/celebrity/raymond_guth/", "name": "Raymond Guth", "thumbnailImg": "https://d2a5cgar23scu2.cloudfront.net/static/images/redesign/actor.default.tmb.gif"}, "characters": [{"name": "Buffalo wrangler"}]}, {"person": {"url": "/celebrity/karen_lee/", "name": "Karen Lee", "thumbnailImg": "https://d2a5cgar23scu2.cloudfront.net/static/images/redesign/actor.default.tmb.gif"}, "characters": [{"name": "Ziegfeld Girl"}]}, {"person": {"url": "/celebrity/tommy_rall/", "name": "Tommy Rall", "thumbnailImg": "https://d2a5cgar23scu2.cloudfront.net/static/images/redesign/actor.default.tmb.gif"}}, {"person": {"url": "/celebrity/mary_jane_mangler/", "name": "Mary Jane Mangler", "thumbnailImg": "https://d2a5cgar23scu2.cloudfront.net/static/images/redesign/actor.default.tmb.gif"}, "characters": [{"name": "Ziegfeld Girl"}]}, {"person": {"url": "/celebrity/inga_neilsen/", "name": "Inga Neilsen", "thumbnailImg": "https://d2a5cgar23scu2.cloudfront.net/static/images/redesign/actor.default.tmb.gif"}, "characters": [{"name": "Ziegfeld Girl"}]}, {"person": {"url": "/celebrity/sharon_vaughn/", "name": "Sharon Vaughn", "thumbnailImg": "https://d2a5cgar23scu2.cloudfront.net/static/images/redesign/actor.default.tmb.gif"}, "characters": [{"name": "Ziegfeld Girl"}]}]}, "title": "Funny Girl", "adjustedScore": 97.32009221493172, "ratings": {"critics_rating": "Certified Fresh", "audience_score": 85, "dvdReleaseDate": 1006329600000, "critics_score": 93, "theaterReleaseDate": -40496400000, "audience_rating": "Upright"}, "videoClips": {"mainTrailer": {"hlsUrl": "http://video.internetvideoarchive.net/video.m3u8?cmd=6&publishedid=5844&customerid=300120&e=1619087586301&sub=RTO&fmt=11&h=04ffd696f731111c62eea76e16326479", "seconds": 58, "minutes": 1, "id": 10904947, "title": "Funny Girl", "thumbUrl": "http://content.internetvideoarchive.com/content/photos/139/5844_005.jpg", "mp4Url": "http://video.internetvideoarchive.net/video.mp4?cmd=6&publishedid=5844&customerid=300120&e=1619087586301&sub=RTO&fmt=4&videokbrate=750&h=1c9cf355842bb3af46351ca0f96a541b"}, "size": 2, "videoClips": [{"hlsUrl": "http://video.internetvideoarchive.net/video.m3u8?cmd=6&publishedid=5844&customerid=300120&e=1619087586301&sub=RTO&fmt=11&h=04ffd696f731111c62eea76e16326479", "seconds": 58, "minutes": 1, "id": 10904947, "title": "Funny Girl", "thumbUrl": "http://content.internetvideoarchive.com/content/photos/139/5844_005.jpg", "mp4Url": "http://video.internetvideoarchive.net/video.mp4?cmd=6&publishedid=5844&customerid=300120&e=1619087586301&sub=RTO&fmt=4&videokbrate=750&h=1c9cf355842bb3af46351ca0f96a541b"}, {"hlsUrl": "http://video.internetvideoarchive.net/video.m3u8?cmd=6&publishedid=http://link.theplatform.com/s/NGweTC/media/2GwYQiJ2Oa4e&customerid=300120&e=1619087586301&sub=RTO&fmt=11&h=1317e9ec656a8356732400e7af248695", "seconds": 58, "minutes": 1, "id": 11308896, "title": "Funny Girl: Trailer 1", "thumbUrl": "http://resizing.flixster.com/ka95JLNtHUe_0vnzCocei7XS8o0=/171x128/v1.bjsyMDQ3NjA1O2o7MTg3ODg7MjA0ODsxMDgwOzE5MjA", "mp4Url": "http://video.internetvideoarchive.net/video.mp4?cmd=6&publishedid=http://link.theplatform.com/s/NGweTC/media/2GwYQiJ2Oa4e&customerid=300120&e=1619087586301&sub=RTO&fmt=4&videokbrate=750&h=e751ed84c41d7c4015a13b2a31de25a5"}]}, "isUpcoming": false, "posters": {"original": "https://resizing.flixster.com/0DpXhCB8CyDZwLYF3wI7BRR-e8w=/800x1200/v1.bTsxMTE3MTYwMTtqOzE4ODg1OzIwNDg7ODAwOzEyMDA", "detailed": "https://resizing.flixster.com/xHkXcBs8_jAWrdX7y1NGWzxXNmo=/180x270/v1.bTsxMTE3MTYwMTtqOzE4ODg1OzIwNDg7ODAwOzEyMDA", "profile": "https://resizing.flixster.com/0tmuRrno39kntng_jjuXWYo2kNI=/120x180/v1.bTsxMTE3MTYwMTtqOzE4ODg1OzIwNDg7ODAwOzEyMDA", "thumbnail": "https://resizing.flixster.com/vZZlbcbmpyP7GTeJHhuThYGEmfE=/54x81/v1.bTsxMTE3MTYwMTtqOzE4ODg1OzIwNDg7ODAwOzEyMDA"}, "isLimited": false, "mainTrailer": {"thumbUrl": "https://content.internetvideoarchive.com/content/photos/139/5844_005.jpg", "hlsUrl": "http://video.internetvideoarchive.net/video.m3u8?cmd=6&publishedid=5844&customerid=300120&e=1619087585839&sub=RTO&fmt=11&h=5bf694ab9bec0e9978e92ec5ad587cd7", "id": 10904947, "mp4Url": "http://video.internetvideoarchive.net/video.mp4?cmd=6&publishedid=5844&customerid=300120&e=1619087585839&sub=RTO&fmt=4&videokbrate=750&h=24aac5a494e3787af2a9a7fec44060ae"}, "photos": {"photos": [{"url": "https://resizing.flixster.com/43K1lEcBEZtJXphWDoJY9IF3z54=/689x1024/v1.bjsyMjkxNzQ7ajsxODgwMTsyMDQ4OzI3MDA7NDAxMw", "index": 0, "submittedBy": "RT Staff", "height": 1024, "imageId": 229174, "thumbnail": "https://resizing.flixster.com/0T68fUExpsDbZdyW5zz5Bg1Toaw=/80x80/v1.bjsyMjkxNzQ7ajsxODgwMTsyMDQ4OzI3MDA7NDAxMw", "submittedDate": "2014-07-02", "id": "multiuse-229174", "photoType": "movie", "width": 689}, {"url": "https://resizing.flixster.com/hvQNiSCd5TRHy7UANAwckRFjaFc=/1024x987/v1.bjsyMjkxNzU7ajsxODgwMjsyMDQ4OzM2MDA7MzQ3MA", "index": 1, "submittedBy": "RT Staff", "height": 987, "imageId": 229175, "thumbnail": "https://resizing.flixster.com/P4erjucjYCq8G_2NOjFAEKLMhR8=/80x80/v1.bjsyMjkxNzU7ajsxODgwMjsyMDQ4OzM2MDA7MzQ3MA", "submittedDate": "2014-07-02", "id": "multiuse-229175", "photoType": "movie", "width": 1024}, {"url": "https://resizing.flixster.com/3dpHjp86KJcmxcm3IwpQnFgJR8Y=/1024x989/v1.bjsyMjkxNzY7ajsxODgwMzsyMDQ4OzM2MDA7MzQ3Nw", "index": 2, "submittedBy": "RT Staff", "height": 989, "imageId": 229176, "thumbnail": "https://resizing.flixster.com/2hyxoQY4urONU655ecz4fc1Y5rU=/80x80/v1.bjsyMjkxNzY7ajsxODgwMzsyMDQ4OzM2MDA7MzQ3Nw", "submittedDate": "2014-07-02", "id": "multiuse-229176", "photoType": "movie", "width": 1024}, {"url": "https://resizing.flixster.com/y8l1OuR1Z22uN1QaHruXhZEzCmA=/1024x512/v1.bjsyMjkxNzc7ajsxODgwNDsyMDQ4OzIwNDg7MTAyNA", "index": 3, "submittedBy": "RT Staff", "height": 512, "imageId": 229177, "thumbnail": "https://resizing.flixster.com/zvnUc_wB7gYSjhqzrUzoZZx4zGg=/80x80/v1.bjsyMjkxNzc7ajsxODgwNDsyMDQ4OzIwNDg7MTAyNA", "submittedDate": "2014-07-02", "id": "multiuse-229177", "photoType": "movie", "width": 1024}, {"url": "https://resizing.flixster.com/8DYtpDsFvhd1LNWMpC9w-1kfBPY=/768x1024/v1.bjsyMjkxNzg7ajsxODgwNTsyMDQ4OzE1MzY7MjA0OA", "index": 4, "submittedBy": "RT Staff", "height": 1024, "imageId": 229178, "thumbnail": "https://resizing.flixster.com/pCu_ygC7iKJqF15QmtcA4Lx-OhQ=/80x80/v1.bjsyMjkxNzg7ajsxODgwNTsyMDQ4OzE1MzY7MjA0OA", "submittedDate": "2014-07-02", "id": "multiuse-229178", "photoType": "movie", "width": 768}, {"url": "https://resizing.flixster.com/cZ32iGsCGrDF6xAM0BHvqxL2jSc=/765x1024/v1.bjsxMDkwNTM0O2o7MTg3ODE7MjA0ODsyMjQyOzMwMDA", "index": 5, "submittedBy": "RT Staff", "height": 1024, "imageId": 1090534, "thumbnail": "https://resizing.flixster.com/uHxAIQViFf4qTDDxE77pSQR_yYI=/80x80/v1.bjsxMDkwNTM0O2o7MTg3ODE7MjA0ODsyMjQyOzMwMDA", "submittedDate": "2016-04-24", "id": "multiuse-1090534", "photoType": "movie", "width": 765}], "length": 6}, "id": 9469}