{"url": "/m/crumb/", "isOnOpening": false, "genreSet": [{"displayName": "Comedy", "id": 6}, {"displayName": "Cult Movies", "id": 7}, {"displayName": "Documentary", "id": 8}, {"displayName": "Drama", "id": 9}, {"displayName": "Musical & Performing Arts", "id": 12}, {"displayName": "Special Interest", "id": 15}], "officialUrl": "", "isInTheaters": false, "synopsis": "A fascinating, funny and finally troubling documentary about the prolific, iconoclastic underground cartoonist Robert Crumb.", "links": {"alternate": "//www.rottentomatoes.com/m/crumb/"}, "runningTime": 119, "year": 1995, "trackingType": "DvdOther", "status": "Live", "isPlaying": false, "isOnDVD": true, "runningTimeStr": "1 hr. 59 min.", "ratingSummary": {"topcount": 8, "consensus": "Crumb is a frank and surreal chronicle of artistic expression and family trauma, offering an unblinking gaze into the mind and work of cartoonist Robert Crumb that will endear as much as it unsettles.", "topCritics": {"hasScore": true, "numReviews": 8, "meterClass": "certified", "numRotten": 0, "numFresh": 8, "hasReviews": true, "meterValue": 100, "averageRating": 9.714286}, "audience": {"meterScore": 89, "averageScore": 4.010829925537109, "numTotal": 9576, "ratingType": "viewed"}, "allcount": 42, "rottencount": 2, "dvdcount": 6, "allCritics": {"hasScore": true, "numReviews": 42, "meterClass": "certified", "numRotten": 2, "numFresh": 40, "hasReviews": true, "meterValue": 95, "averageRating": 8.38}, "freshcount": 40}, "mpaaRating": "R", "vanity": "crumb", "photos": {"photos": [{"url": "https://resizing.flixster.com/P8bXUZvF6gn_1CW-H3uiqRT4hAg=/1024x576/v1.bjs2Nzk3NDM7ajsxODc5MDsyMDQ4OzEyODA7NzIw", "index": 0, "submittedBy": "RT Staff", "height": 576, "imageId": 679743, "thumbnail": "https://resizing.flixster.com/1mCl0rMX-3FMFjrnXyv4-xRSKVo=/80x80/v1.bjs2Nzk3NDM7ajsxODc5MDsyMDQ4OzEyODA7NzIw", "submittedDate": "2015-05-09", "id": "multiuse-679743", "photoType": "movie", "width": 1024}, {"url": "https://resizing.flixster.com/RWYLV2IxoULPxQw3EmVsG-74VQI=/1024x576/v1.bjs2Nzk3NDQ7ajsxODc5MTsyMDQ4OzEyODA7NzIw", "index": 1, "submittedBy": "RT Staff", "height": 576, "imageId": 679744, "thumbnail": "https://resizing.flixster.com/fcDsK7JM_NZfBJy2oEz-WhHAJnw=/80x80/v1.bjs2Nzk3NDQ7ajsxODc5MTsyMDQ4OzEyODA7NzIw", "submittedDate": "2015-05-09", "id": "multiuse-679744", "photoType": "movie", "width": 1024}, {"url": "https://resizing.flixster.com/QJ3L7PYsAbhKUiutry9N2ZD0wXA=/1024x576/v1.bjs2Nzk3NDU7ajsxODc5MjsyMDQ4OzE5MjA7MTA4MA", "index": 2, "submittedBy": "RT Staff", "height": 576, "imageId": 679745, "thumbnail": "https://resizing.flixster.com/qkDE95YM8Ng8h2fzSqlJ0gUWiFk=/80x80/v1.bjs2Nzk3NDU7ajsxODc5MjsyMDQ4OzE5MjA7MTA4MA", "submittedDate": "2015-05-09", "id": "multiuse-679745", "photoType": "movie", "width": 1024}, {"url": "https://resizing.flixster.com/a4t9mVd85EVb-FDFl_8vYcSicPM=/1024x576/v1.bjs2Nzk3NDY7ajsxODc5MzsyMDQ4OzEyODA7NzIw", "index": 3, "submittedBy": "RT Staff", "height": 576, "imageId": 679746, "thumbnail": "https://resizing.flixster.com/L565rn-fJ94O5Kij-9s0At1NRNk=/80x80/v1.bjs2Nzk3NDY7ajsxODc5MzsyMDQ4OzEyODA7NzIw", "submittedDate": "2015-05-09", "id": "multiuse-679746", "photoType": "movie", "width": 1024}, {"url": "https://resizing.flixster.com/RRgwlFhumn9NIogWJsjyRmtP7Cg=/1024x576/v1.bjs2Nzk3NDc7ajsxODc5NDsyMDQ4OzEyODA7NzIw", "index": 4, "submittedBy": "RT Staff", "height": 576, "imageId": 679747, "thumbnail": "https://resizing.flixster.com/ygfmi5bzE5Myo51aDBhbSl5o7yU=/80x80/v1.bjs2Nzk3NDc7ajsxODc5NDsyMDQ4OzEyODA7NzIw", "submittedDate": "2015-05-09", "id": "multiuse-679747", "photoType": "movie", "width": 1024}, {"url": "https://resizing.flixster.com/826OiOjzmHYOzn9VdeUlXq9haJ0=/1024x576/v1.bjs2Nzk3NDg7ajsxODc5NTsyMDQ4OzEyODA7NzIw", "index": 5, "submittedBy": "RT Staff", "height": 576, "imageId": 679748, "thumbnail": "https://resizing.flixster.com/A11HxvwGsq_KZpDhJTGI8DbtkTM=/80x80/v1.bjs2Nzk3NDg7ajsxODc5NTsyMDQ4OzEyODA7NzIw", "submittedDate": "2015-05-09", "id": "multiuse-679748", "photoType": "movie", "width": 1024}], "length": 6}, "studio": "Sony Pictures Home Entertainment", "purchaseOptions": {"amazon": {"url": "http://www.amazon.com/gp/product/B002L5CMZS/ref=atv_feed_catalog?tag=rottetomao_aiv_mv-20", "isPrime": false, "type": "buy"}, "vudu": {"url": "https://www.vudu.com/content/movies/details/Crumb/13753", "type": "buy"}, "iTunes": {"url": "https://itunes.apple.com/movie/crumb/id310815038?uo=5", "price": "12.99"}}, "reviews": {"total": 42, "links": {"alternate": "//www.rottentomatoes.com/m/crumb/#reviews", "self": "api.flixster.com/movies/crumb/reviews.json?review_type=mob&country=us&page=1", "prev": "api.flixster.com/movies/crumb/reviews.json?review_type=mob&country=us&page=0", "next": "api.flixster.com/movies/crumb/reviews.json?review_type=mob&country=us&page=2"}, "reviews": [{"isRotten": false, "url": "https://www.newyorker.com/goings-on-about-town/movies/crumb", "publication": {"url": "", "name": "New Yorker"}, "isTop": true, "creationDate": 1547468292000, "isFresh": true, "freshness": "fresh", "critic": {"url": "/critic/michael-sragow", "name": "Michael Sragow", "id": 107, "thumbnailImage": "https://resizing.flixster.com/Av265y5M9WMXvUWrkg1aOknV_KI=/72x72/v1.YzsxNTkyO2c7MTg3ODI7MjA0ODszODs0Mg"}, "quote": "The movie isn't a testimonial or a valentine. It's unpredictable and galvanizing: an empathetic portrait of the artist that also unveils a trenchant view of an American family's dashed illusions.", "id": 2547993, "links": {"review": "https://www.newyorker.com/goings-on-about-town/movies/crumb"}}, {"isRotten": false, "url": "http://www.rogerebert.com/reviews/crumb-1995", "creationDate": 946713600000, "isFresh": true, "id": 45120, "quote": "One of the most remarkable and haunting documentaries ever made.", "links": {"review": "http://www.rogerebert.com/reviews/crumb-1995"}, "publication": {"url": "", "name": "Chicago Sun-Times"}, "isTop": true, "freshness": "fresh", "critic": {"url": "/critic/roger-ebert", "name": "Roger Ebert", "id": 16, "thumbnailImage": "https://resizing.flixster.com/Z1azjSA-72PEwykgNULa0bwtX1A=/72x72/v1.YzsyNTY5O2c7MTg3Njk7MjA0ODsxNTA7MTUw"}, "original_score": "4/4"}, {"isRotten": false, "isFresh": true, "publication": {"url": "", "name": "USA Today"}, "isTop": true, "creationDate": 946713600000, "freshness": "fresh", "critic": {"url": "/critic/mike-clark", "name": "Mike Clark", "id": 1206, "thumbnailImage": "https://resizing.flixster.com/uPV4c1yuZkjELDKjJv0gB73myxc=/72x72/v1.YzsxNjUxO2c7MTg3OTY7MjA0ODszODszNw"}, "quote": "Crumb's sense of humor is his saving personal grace and the movie's insurance policy against total immersion into the morbid. But just so you know, Crumb fully earns its most revealing screen credit: 'David Lynch Presents.'", "id": 45147, "original_score": "4/4", "links": {}}, {"isRotten": false, "isFresh": true, "publication": {"url": "", "name": "Entertainment Weekly"}, "isTop": true, "creationDate": 1315421067000, "freshness": "fresh", "critic": {"url": "/critic/owen-gleiberman", "name": "Owen Gleiberman", "id": 763, "thumbnailImage": "https://resizing.flixster.com/BdR6uSdr6A_wR_LG6yDw8yDUAIk=/72x72/v1.YzsyNzE4O2c7MTg3ODM7MjA0ODsxNTA7MTUw"}, "id": 2008130, "original_score": "A", "links": {}}, {"isRotten": false, "isFresh": true, "publication": {"url": "", "name": "Movie Mom"}, "isTop": true, "creationDate": 1050658178000, "freshness": "fresh", "critic": {"url": "/critic/nell-minow", "name": "Nell Minow", "id": 13, "thumbnailImage": "https://resizing.flixster.com/0Yu3ChYD_PlERNzLAMX6a0J1DOo=/72x72/v1.YzsxNTc5O2c7MTg3Njk7MjA0ODszODs0OA"}, "id": 1128045, "original_score": "5/5", "links": {}}, {"isRotten": false, "url": "http://www.reelviews.net/php_review_template.php?identifier=341", "publication": {"url": "", "name": "ReelViews"}, "isTop": true, "creationDate": 946713600000, "isFresh": true, "freshness": "fresh", "critic": {"url": "/critic/james-berardinelli", "name": "James Berardinelli", "id": 117, "thumbnailImage": "https://resizing.flixster.com/JsmeY6tEIWX9qWB0kv31lgrjBxs=/72x72/v1.YzsyNzIzO2c7MTg3ODg7MjA0ODsxNTA7MTUw"}, "id": 45118, "original_score": "4/4", "links": {"review": "http://www.reelviews.net/php_review_template.php?identifier=341"}}, {"isRotten": false, "url": "http://www.independent.co.uk/arts-entertainment/zwigoff-proves-crumb-does-pay-1589504.html", "publication": {"url": "", "name": "Independent on Sunday"}, "isTop": false, "creationDate": 1513198297000, "isFresh": true, "freshness": "fresh", "critic": {"url": "/critic/quentin-curtis", "name": "Quentin Curtis", "id": 15220, "thumbnailImage": "https://d2a5cgar23scu2.cloudfront.net/static/images/redesign/user.none.tmb.jpg"}, "quote": "Zwigoff's film rarely feels exploitative, and the fascination of Crumb and his family should not disguise the director's skill and sensitivity in marshalling his material.", "id": 2442859, "links": {"review": "http://www.independent.co.uk/arts-entertainment/zwigoff-proves-crumb-does-pay-1589504.html"}}, {"isRotten": false, "url": "http://bluray.ign.com/articles/111/1111071p1.html", "creationDate": 1287109257000, "isFresh": true, "id": 1936735, "quote": "Crumb may be rough around the edges, even occasionally tedious, but what Zwigoff manages to uncover is honest, captivating and strangely visceral. ", "links": {"review": "http://bluray.ign.com/articles/111/1111071p1.html"}, "publication": {"name": "IGN DVD"}, "isTop": false, "freshness": "fresh", "critic": {"url": "/critic/rl-shaffer-11121", "name": "R.L. Shaffer", "id": 11121, "thumbnailImage": "https://resizing.flixster.com/L4DMVQEP9tEH7yO1PgMexvX8CVY=/72x72/v1.YzsyMjUxO2o7MTg3NjY7MjA0ODsyNTA7MjI1"}, "original_score": "9/10"}, {"isRotten": false, "url": "http://movies.msn.com/movies/movie-on-dvd/crumb/", "publication": {"name": "MSN.com"}, "isTop": false, "creationDate": 1281575723000, "isFresh": true, "freshness": "fresh", "critic": {"url": "/critic/sean-axmaker", "name": "Sean Axmaker", "id": 229, "thumbnailImage": "https://resizing.flixster.com/OM9B-lRGDZvI9N_pbymYi4o5aGo=/72x72/v1.YzsxNjAxO2c7MTg3OTE7MjA0ODszODs0OA"}, "quote": "(An) offbeat and often uncomfortably revealing portrait of the legendary underground comic book artist Robert Crumb and his brothers, Maxon and Charles...", "id": 1922915, "links": {"review": "http://movies.msn.com/movies/movie-on-dvd/crumb/"}}, {"isRotten": false, "url": "http://www.qnetwork.com/index.php?page=review&id=2427", "creationDate": 1281458222000, "isFresh": true, "id": 1922680, "quote": "an absolutely disarming documentary and one of the very best of its kind", "links": {"review": "http://www.qnetwork.com/index.php?page=review&id=2427"}, "publication": {"name": "Q Network Film Desk"}, "isTop": false, "freshness": "fresh", "critic": {"url": "/critic/james-kendrick", "name": "James Kendrick", "id": 75, "thumbnailImage": "https://resizing.flixster.com/nb7DJh4QOs3YbDatOdJmz24oi6g=/72x72/v1.YzsyNTgxO2c7MTg3ODE7MjA0ODsxNTA7MTUw"}, "original_score": "4/4"}, {"isRotten": false, "url": "http://www.dvdtown.com/review/crumb-the-criterion-collection/blu-ray/8320", "creationDate": 1281249035000, "isFresh": true, "id": 1922460, "quote": "Filled with haunting images, only a few of which are created by the hand of R. Crumb.", "links": {"review": "http://www.dvdtown.com/review/crumb-the-criterion-collection/blu-ray/8320"}, "publication": {"url": "", "name": "Movie Metropolis"}, "isTop": false, "freshness": "fresh", "critic": {"url": "/critic/christopher-long", "name": "Christopher Long", "id": 11136, "thumbnailImage": "https://d2a5cgar23scu2.cloudfront.net/static/images/redesign/user.none.tmb.jpg"}, "original_score": "8/10"}, {"isRotten": false, "url": "http://www.oregonlive.com/movies/index.ssf/2010/07/beyond_the_multiplex_july_2-8.html", "publication": {"name": "Oregonian"}, "isTop": false, "creationDate": 1278025589000, "isFresh": true, "freshness": "fresh", "critic": {"url": "/critic/stan-hall", "name": "Stan Hall", "id": 12566, "thumbnailImage": "https://d2a5cgar23scu2.cloudfront.net/static/images/redesign/user.none.tmb.jpg"}, "quote": "Among the all-time great American documentaries.", "id": 1891680, "links": {"review": "http://www.oregonlive.com/movies/index.ssf/2010/07/beyond_the_multiplex_july_2-8.html"}}]}, "casts": {"screenwriters": [], "directors": [{"url": "/celebrity/terry_zwigoff/", "name": "Terry Zwigoff", "thumbnailImg": "https://resizing.flixster.com/I-h2WclQ4lehP2EedV2AeU42eAk=/80x80/v1.cDszMjA3MjkxO2o7MTg4NTM7MjA0ODsxMDI0Ozc2OA"}], "creators": [], "producers": [{"url": "/celebrity/neal_halfon/", "name": "Neal Halfon", "thumbnailImg": "https://d2a5cgar23scu2.cloudfront.net/static/images/redesign/actor.default.tmb.gif"}, {"url": "/celebrity/lynn_odonnell/", "name": "Lynn O'Donnell", "thumbnailImg": "https://d2a5cgar23scu2.cloudfront.net/static/images/redesign/actor.default.tmb.gif"}, {"url": "/celebrity/terry_zwigoff/", "name": "Terry Zwigoff", "thumbnailImg": "https://resizing.flixster.com/I-h2WclQ4lehP2EedV2AeU42eAk=/80x80/v1.cDszMjA3MjkxO2o7MTg4NTM7MjA0ODsxMDI0Ozc2OA"}, {"url": "/celebrity/david_lynch/", "name": "David Lynch", "thumbnailImg": "https://resizing.flixster.com/Ua7-zGz_6A6ltrOhfQkFAZBFvPU=/80x80/v1.cjs0MjY0NTtqOzE4Nzk1OzIwNDg7NDcwOzM0MQ"}], "castItems": [{"person": {"url": "/celebrity/aline_kominsky/", "name": "Aline Kominsky", "thumbnailImg": "https://resizing.flixster.com/qNjNw7LYfHU08zEuDFx5fv45Z6g=/80x80/v1.cDsxMzA4Nzg5OTtqOzE4NzkwOzIwNDg7MjgxOzQyNg"}}, {"person": {"url": "/celebrity/charles_crumb/", "name": "Charles Crumb", "thumbnailImg": "https://d2a5cgar23scu2.cloudfront.net/static/images/redesign/actor.default.tmb.gif"}}, {"person": {"url": "/celebrity/maxon_crumb/", "name": "Maxon Crumb", "thumbnailImg": "https://d2a5cgar23scu2.cloudfront.net/static/images/redesign/actor.default.tmb.gif"}}, {"person": {"url": "/celebrity/max_crumb/", "name": "Max Crumb", "thumbnailImg": "https://d2a5cgar23scu2.cloudfront.net/static/images/redesign/actor.default.tmb.gif"}}, {"person": {"url": "/celebrity/1037745-robert_hughes/", "name": "Robert Hughes", "thumbnailImg": "https://d2a5cgar23scu2.cloudfront.net/static/images/redesign/actor.default.tmb.gif"}, "characters": [{"name": "Art Critic"}]}, {"person": {"url": "/celebrity/martin-muller/", "name": "Martin Muller", "thumbnailImg": "https://d2a5cgar23scu2.cloudfront.net/static/images/redesign/actor.default.tmb.gif"}}, {"person": {"url": "/celebrity/don_donahue/", "name": "Don Donahue", "thumbnailImg": "https://d2a5cgar23scu2.cloudfront.net/static/images/redesign/actor.default.tmb.gif"}}, {"person": {"url": "/celebrity/dana_crumb/", "name": "Dana Crumb", "thumbnailImg": "https://d2a5cgar23scu2.cloudfront.net/static/images/redesign/actor.default.tmb.gif"}}, {"person": {"url": "/celebrity/trina_robbins/", "name": "Trina Robbins", "thumbnailImg": "https://d2a5cgar23scu2.cloudfront.net/static/images/redesign/actor.default.tmb.gif"}}, {"person": {"url": "/celebrity/spain_rodriguez/", "name": "Spain Rodriguez", "thumbnailImg": "https://d2a5cgar23scu2.cloudfront.net/static/images/redesign/actor.default.tmb.gif"}}, {"person": {"url": "/celebrity/bill_griffith/", "name": "Bill Griffith", "thumbnailImg": "https://resizing.flixster.com/S8Zf8_qI87-nX8Byed-8Q0LOuAk=/80x80/v1.cDsxMzg0Mzk3MDtqOzE4ODI1OzIwNDg7Nzk3OzY1NQ"}}, {"person": {"url": "/celebrity/deirdre_english/", "name": "Deirdre English", "thumbnailImg": "https://d2a5cgar23scu2.cloudfront.net/static/images/redesign/actor.default.tmb.gif"}}, {"person": {"url": "/celebrity/peggy_orenstein/", "name": "Peggy Orenstein", "thumbnailImg": "https://d2a5cgar23scu2.cloudfront.net/static/images/redesign/actor.default.tmb.gif"}}, {"person": {"url": "/celebrity/beatrice_crumb/", "name": "Beatrice Crumb", "thumbnailImg": "https://d2a5cgar23scu2.cloudfront.net/static/images/redesign/actor.default.tmb.gif"}}, {"person": {"url": "/celebrity/kathy_goodell/", "name": "Kathy Goodell", "thumbnailImg": "https://d2a5cgar23scu2.cloudfront.net/static/images/redesign/actor.default.tmb.gif"}}, {"person": {"url": "/celebrity/dian_hanson/", "name": "Dian Hanson", "thumbnailImg": "https://d2a5cgar23scu2.cloudfront.net/static/images/redesign/actor.default.tmb.gif"}}, {"person": {"url": "/celebrity/sophie_crumb/", "name": "Sophie Crumb", "thumbnailImg": "https://d2a5cgar23scu2.cloudfront.net/static/images/redesign/actor.default.tmb.gif"}}, {"person": {"url": "/celebrity/jesse_crumb/", "name": "Jesse Crumb", "thumbnailImg": "https://d2a5cgar23scu2.cloudfront.net/static/images/redesign/actor.default.tmb.gif"}}, {"person": {"url": "/celebrity/robert-crumb/", "name": "Robert Crumb", "thumbnailImg": "https://d2a5cgar23scu2.cloudfront.net/static/images/photo.none.tmb.jpg"}, "characters": [{"name": "Himself"}]}]}, "title": "Crumb", "adjustedScore": 97.18275854229658, "ratings": {"critics_rating": "Certified Fresh", "audience_score": 89, "dvdReleaseDate": 920966400000, "critics_score": 95, "theaterReleaseDate": 800866800000, "audience_rating": "Upright"}, "videoClips": {"mainTrailer": {"hlsUrl": "http://video.internetvideoarchive.net/video.m3u8?cmd=6&publishedid=5945&customerid=300120&e=1619087592821&sub=RTO&fmt=11&h=186234f7f2f0adf81749aeeee90536c0", "seconds": 52, "minutes": 2, "id": 10905277, "title": "Crumb", "thumbUrl": "http://content.internetvideoarchive.com/content/photos/141/00594409_.jpg", "mp4Url": "http://video.internetvideoarchive.net/video.mp4?cmd=6&publishedid=5945&customerid=300120&e=1619087592821&sub=RTO&fmt=4&videokbrate=750&h=f2ed34a5b8ba36663a2bbc6e83774235"}, "size": 1, "videoClips": [{"hlsUrl": "http://video.internetvideoarchive.net/video.m3u8?cmd=6&publishedid=5945&customerid=300120&e=1619087592821&sub=RTO&fmt=11&h=186234f7f2f0adf81749aeeee90536c0", "seconds": 52, "minutes": 2, "id": 10905277, "title": "Crumb", "thumbUrl": "http://content.internetvideoarchive.com/content/photos/141/00594409_.jpg", "mp4Url": "http://video.internetvideoarchive.net/video.mp4?cmd=6&publishedid=5945&customerid=300120&e=1619087592821&sub=RTO&fmt=4&videokbrate=750&h=f2ed34a5b8ba36663a2bbc6e83774235"}]}, "isUpcoming": false, "posters": {"original": "https://resizing.flixster.com/g5NuG3Ue7ULiGZxgPoJKS_bZxKU=/1533x2044/v1.bTsxMTI5MTQ0MjtqOzE4ODkyOzIwNDg7MTUzMzsyMDQ0", "detailed": "https://resizing.flixster.com/GGIAQAv1S_reirFX36Yma7wEVfQ=/180x240/v1.bTsxMTI5MTQ0MjtqOzE4ODkyOzIwNDg7MTUzMzsyMDQ0", "profile": "https://resizing.flixster.com/GYVqS_nVdnV57yvGs7a_lKy8OFk=/120x160/v1.bTsxMTI5MTQ0MjtqOzE4ODkyOzIwNDg7MTUzMzsyMDQ0", "thumbnail": "https://resizing.flixster.com/0X_n1IA37OI1eLt7J6XzFvTT_4U=/54x72/v1.bTsxMTI5MTQ0MjtqOzE4ODkyOzIwNDg7MTUzMzsyMDQ0"}, "isLimited": false, "mainTrailer": {"thumbUrl": "https://content.internetvideoarchive.com/content/photos/141/00594409_.jpg", "hlsUrl": "http://video.internetvideoarchive.net/video.m3u8?cmd=6&publishedid=5945&customerid=300120&e=1619087592424&sub=RTO&fmt=11&h=4087c9eeadfb678546d101985d593d61", "id": 10905277, "mp4Url": "http://video.internetvideoarchive.net/video.mp4?cmd=6&publishedid=5945&customerid=300120&e=1619087592425&sub=RTO&fmt=4&videokbrate=750&h=a83dc11ca50143852cf776469f6d8224"}, "advisory": "graphic sex-related cartoons and for language", "id": 14345}