{"url": "/m/black_is_king/", "isOnOpening": false, "genreSet": [{"displayName": "Musical & Performing Arts", "id": 12}], "runningTime": 85, "isInTheaters": false, "synopsis": "The voyages of Black families, throughout time, are honored in a tale about a young king's transcendent journey through betrayal, love and self-identity. His ancestors help guide him toward his destiny, and with his father's teachings and guidance from his childhood love, he earns the virtues needed to reclaim his home and throne.", "links": {"alternate": "//www.rottentomatoes.com/m/black_is_king/"}, "year": 2020, "trackingType": "DvdOther", "status": "Live", "isPlaying": false, "isOnDVD": true, "runningTimeStr": "1 hr. 25 min.", "ratingSummary": {"topcount": 27, "consensus": "Beyonc\u00e9 is King.", "topCritics": {"hasScore": true, "numReviews": 27, "meterClass": "certified", "numRotten": 0, "numFresh": 27, "hasReviews": true, "meterValue": 100, "averageRating": 8.354167}, "audience": {"averageScore": 0, "numTotal": 2, "ratingType": "none"}, "allcount": 61, "rottencount": 3, "dvdcount": 0, "allCritics": {"hasScore": true, "numReviews": 61, "meterClass": "certified", "numRotten": 3, "numFresh": 58, "hasReviews": true, "meterValue": 95, "averageRating": 8.07}, "freshcount": 58}, "mpaaRating": "Unrated", "vanity": "black_is_king", "studio": "Disney+", "purchaseOptions": {}, "reviews": {"total": 61, "links": {"alternate": "//www.rottentomatoes.com/m/black_is_king/#reviews", "self": "api.flixster.com/movies/black-is-king/reviews.json?review_type=mob&country=us&page=1", "prev": "api.flixster.com/movies/black-is-king/reviews.json?review_type=mob&country=us&page=0", "next": "api.flixster.com/movies/black-is-king/reviews.json?review_type=mob&country=us&page=2"}, "reviews": [{"isRotten": false, "url": "https://www.bitchmedia.org/article/beyonces-black-is-king-reckons-with-black-identities", "publication": {"url": "", "name": "Bitch Media"}, "isTop": true, "creationDate": 1615931062000, "isFresh": true, "freshness": "fresh", "critic": {"url": "/critic/kovie-biakolo", "name": "Kovie Biakolo", "id": 28475, "thumbnailImage": "https://d2a5cgar23scu2.cloudfront.net/static/images/redesign/user.none.tmb.jpg"}, "quote": "Black is King works because it is honest: a film of hope and belonging, represented by those whose cultures and diaspora continue to survive and thrive beyond a displacement that is similar, but not the same.", "id": 2776842, "links": {"review": "https://www.bitchmedia.org/article/beyonces-black-is-king-reckons-with-black-identities"}}, {"isRotten": false, "url": "https://www.telegraph.co.uk/tv/0/beyonce-black-king-disney-plus-review-lavish-giddily-absurd/", "creationDate": 1606062877000, "isFresh": true, "id": 2744681, "quote": "\"I am a whole mood,\" says Beyonce in one lyric. Black is King is a whole other level.", "links": {"review": "https://www.telegraph.co.uk/tv/0/beyonce-black-king-disney-plus-review-lavish-giddily-absurd/"}, "publication": {"url": "", "name": "Daily Telegraph (UK)"}, "isTop": true, "freshness": "fresh", "critic": {"url": "/critic/kat-brown", "name": "Kat Brown", "id": 12306, "thumbnailImage": "https://d2a5cgar23scu2.cloudfront.net/static/images/redesign/user.none.tmb.jpg"}, "original_score": "5/5"}, {"isRotten": false, "url": "https://www.scpr.org/programs/filmweek/2020/08/07/65894/filmweek-song-without-a-name-la-llorona-a-thousand/", "publication": {"url": "", "name": "FilmWeek (KPCC - NPR Los Angeles)"}, "isTop": true, "creationDate": 1597717824000, "isFresh": true, "freshness": "fresh", "critic": {"url": "/critic/claudia-puig", "name": "Claudia Puig", "id": 4331, "thumbnailImage": "https://resizing.flixster.com/aPRk8-zWN22XpeUBXduozQiXTmY=/72x72/v1.YzsxNTIyO2c7MTg4MDI7MjA0ODszODs0Mg"}, "quote": "I was mesmerized. It's a visually sumptuous feast.", "id": 2714409, "links": {"review": "https://www.scpr.org/programs/filmweek/2020/08/07/65894/filmweek-song-without-a-name-la-llorona-a-thousand/"}}, {"isRotten": false, "url": "https://www.bostonglobe.com/2020/07/31/arts/recognizing-royalty-black-is-king-beyonc-is-its-queen/", "creationDate": 1597036293000, "isFresh": true, "id": 2712168, "quote": "Kneel before the queen, it says - and then rise up into your future.", "links": {"review": "https://www.bostonglobe.com/2020/07/31/arts/recognizing-royalty-black-is-king-beyonc-is-its-queen/"}, "publication": {"name": "Boston Globe"}, "isTop": true, "freshness": "fresh", "critic": {"url": "/critic/ty-burr", "name": "Ty Burr", "id": 1294, "thumbnailImage": "https://resizing.flixster.com/Jspvf9TMpa3o_bWJhJspOqlOJrU=/72x72/v1.YzsxNTA3O2c7MTg3ODc7MjA0ODszODs1MQ"}, "original_score": "3/4"}, {"isRotten": false, "url": "https://www.npr.org/2020/08/04/898881279/beyonce-black-is-king-review-searches?utm_medium=RSS&utm_campaign=movies", "publication": {"url": "", "name": "NPR"}, "isTop": true, "creationDate": 1596561568000, "isFresh": true, "freshness": "fresh", "critic": {"url": "/critic/cate-young", "name": "Cate Young", "id": 21036, "thumbnailImage": "https://resizing.flixster.com/ByvUIlXb5rnOg89J3hJzkTqg96s=/72x72/v1.YzszOTE3O2o7MTg3Njc7MjA0ODszNDE3OzM0MTc"}, "quote": "Drawing on the themes of The Lion King - inheritance, self-identity and determination - Knowles repurposes the story as a clarion call to Black people.", "id": 2710757, "links": {"review": "https://www.npr.org/2020/08/04/898881279/beyonce-black-is-king-review-searches?utm_medium=RSS&utm_campaign=movies"}}, {"isRotten": false, "url": "https://www.screendaily.com/reviews/black-is-king-review/5151917.article", "publication": {"url": "", "name": "Screen International"}, "isTop": true, "creationDate": 1596560531000, "isFresh": true, "freshness": "fresh", "critic": {"url": "/critic/tim-grierson", "name": "Tim Grierson", "id": 11749, "thumbnailImage": "https://resizing.flixster.com/rBl6rdFMNnRTIR2Q8fK1UsmCqW8=/72x72/v1.YzsyNzM2O2c7MTg4MDE7MjA0ODsxNTA7MTUw"}, "quote": "Black Is King doesn't have the depth or anguish that made Lemonade so epochal, but its more inspirational tenor and consistently high artistry make this a feast for eyes and ears.", "id": 2710744, "links": {"review": "https://www.screendaily.com/reviews/black-is-king-review/5151917.article"}}, {"isRotten": false, "url": "http://www.criticallyacclaimed.net/2020/08/critically-acclaimed-136-wilford.html", "publication": {"url": "http://www.criticallyacclaimed.net/search/label/Podcasts", "name": "Critically Acclaimed Podcast"}, "isTop": false, "creationDate": 1617127973000, "isFresh": true, "freshness": "fresh", "critic": {"url": "/critic/witney-seibold", "name": "Witney Seibold", "id": 14532, "thumbnailImage": "https://resizing.flixster.com/ymDxcGqKIdR8TgRT3L-Asm48rXw=/72x72/v1.YzszODAwO2o7MTg3ODU7MjA0ODsyMDA7MjAw"}, "quote": "Let the music lead. The images and Beyonce's performances are intense and moving, to the point where you wonder why the project needed to be connected to that awful 'Lion King' remake at all.", "id": 2780870, "links": {"publication": "http://www.criticallyacclaimed.net/search/label/Podcasts", "review": "http://www.criticallyacclaimed.net/2020/08/critically-acclaimed-136-wilford.html"}}, {"isRotten": false, "url": "https://womensvoicesforchange.org/beyonces-love-letter-to-her-son-and-her-people.htm", "creationDate": 1603212301000, "isFresh": true, "id": 2735644, "quote": "A hero's journey. A celebration of African redemption. A spectacular ninety-minute music video. A glorious affirmation served up in a time of violence, hate, and social unrest. 'Black is King' is all this, and more.", "links": {"review": "https://womensvoicesforchange.org/beyonces-love-letter-to-her-son-and-her-people.htm"}, "publication": {"url": "", "name": "Women's Voices for Change"}, "isTop": false, "freshness": "fresh", "critic": {"url": "/critic/alexandra-macaaron", "name": "Alexandra MacAaron", "id": 20509, "thumbnailImage": "https://resizing.flixster.com/_Euujv-y1_GDaqGekGy-A4ndoFg=/72x72/v1.YzsyODEwO2c7MTg3ODU7MjA0ODsxNTA7MTUw"}, "original_score": "8/10"}, {"isRotten": true, "url": "https://fictionmachine.com/2020/09/14/review-black-is-king-2020/", "creationDate": 1600065664000, "isFresh": false, "id": 2724230, "quote": "It is literally a visual companion to the spin-off album of a computer-generated remake of a 1994 cartoon.", "links": {"review": "https://fictionmachine.com/2020/09/14/review-black-is-king-2020/"}, "publication": {"url": "", "name": "Fiction Machine"}, "isTop": false, "freshness": "rotten", "critic": {"url": "/critic/grant-watson", "name": "Grant Watson", "id": 1579, "thumbnailImage": "https://resizing.flixster.com/AvGm4_gEwaTil3VeTBhw9DCLTqE=/72x72/v1.YzszMzY1O2o7MTg4MDA7MjA0ODszMDA7MzAw"}, "original_score": "5/10"}, {"isRotten": true, "url": "https://hyperallergic.com/581754/beyonce-black-is-king-disney/", "publication": {"url": "", "name": "Fishnet Cinema"}, "isTop": false, "creationDate": 1599784498000, "isFresh": false, "freshness": "rotten", "critic": {"url": "/critic/jourdain-searles", "name": "Jourdain Searles", "id": 22703, "thumbnailImage": "https://resizing.flixster.com/N1P9y-MLd3NngUFJxJr1SEKnBig=/72x72/v1.YzszMDA1O2o7MTg4MDA7MjA0ODsyMDAwOzIwMDA"}, "quote": "Though produced in collaboration with creatives from around the globe, there's an unmistakable feeling that the film is meant more for Black Americans than the wider African diaspora.", "id": 2722922, "links": {"review": "https://hyperallergic.com/581754/beyonce-black-is-king-disney/"}}, {"isRotten": false, "url": "https://www.youtube.com/watch?v=Kk-IWKWCsek", "publication": {"url": "http://https://doubletoasted.com/", "name": "Double Toasted"}, "isTop": false, "creationDate": 1597447263000, "isFresh": true, "freshness": "fresh", "critic": {"url": "/critic/korey-coleman", "name": "Korey Coleman", "id": 22658, "thumbnailImage": "https://resizing.flixster.com/z2YMzvHjRbnp4oZZBmZS5fQjDm8=/72x72/v1.YzsyOTkyO2o7MTg3ODc7MjA0ODs0OTEyOzYzMjg"}, "quote": "Beautiful, a lot of symbolism and imagery set to very good music...", "id": 2713742, "links": {"publication": "http://https://doubletoasted.com/", "review": "https://www.youtube.com/watch?v=Kk-IWKWCsek"}}, {"isRotten": false, "url": "https://www.iol.co.za/entertainment/tv/streaming/black-is-king-is-a-masterpiece-and-thats-on-period-82f6b794-aa7c-4d47-884b-d3ac5a209951", "publication": {"url": "", "name": "Independent Online (South Africa)"}, "isTop": false, "creationDate": 1597355127000, "isFresh": true, "freshness": "fresh", "critic": {"url": "/critic/jamal-dean-grootboom", "name": "Jamal-Dean Grootboom", "id": 19122, "thumbnailImage": "https://d2a5cgar23scu2.cloudfront.net/static/images/redesign/user.none.tmb.jpg"}, "quote": "Black Is King is a feast for the eyes with beautiful cinematography and styling choices. The way Beyonc\u00e9 was able to weave several cultural references from across the continent is something to behold.", "id": 2713201, "links": {"review": "https://www.iol.co.za/entertainment/tv/streaming/black-is-king-is-a-masterpiece-and-thats-on-period-82f6b794-aa7c-4d47-884b-d3ac5a209951"}}]}, "casts": {"screenwriters": [{"url": "/celebrity/beyonce_knowles/", "name": "Beyonc\u00e9 Knowles", "thumbnailImg": "https://resizing.flixster.com/uDScyB6V56Flm5h6FicFo0aJqd8=/80x80/v1.cjs0OTk5MztqOzE4ODA4OzIwNDg7MTk1MDszMDAw"}], "directors": [{"url": "/celebrity/beyonce_knowles/", "name": "Beyonc\u00e9 Knowles", "thumbnailImg": "https://resizing.flixster.com/uDScyB6V56Flm5h6FicFo0aJqd8=/80x80/v1.cjs0OTk5MztqOzE4ODA4OzIwNDg7MTk1MDszMDAw"}], "creators": [], "producers": [], "castItems": [{"person": {"url": "/celebrity/beyonce_knowles/", "name": "Beyonc\u00e9 Knowles", "thumbnailImg": "https://resizing.flixster.com/uDScyB6V56Flm5h6FicFo0aJqd8=/80x80/v1.cjs0OTk5MztqOzE4ODA4OzIwNDg7MTk1MDszMDAw"}}, {"person": {"url": "/celebrity/folajomi_akinmurele/", "name": "Folajomi Akinmurele", "thumbnailImg": "https://d2a5cgar23scu2.cloudfront.net/static/images/redesign/actor.default.tmb.gif"}}, {"person": {"url": "/celebrity/connie_chiume/", "name": "Connie Chiume", "thumbnailImg": "https://d2a5cgar23scu2.cloudfront.net/static/images/redesign/actor.default.tmb.gif"}}, {"person": {"url": "/celebrity/nyaniso_ntsikelelo_dzedze/", "name": "Nyaniso Ntsikelelo Dzedze", "thumbnailImg": "https://d2a5cgar23scu2.cloudfront.net/static/images/redesign/actor.default.tmb.gif"}}, {"person": {"url": "/celebrity/nandi_madida/", "name": "Nandi Madida", "thumbnailImg": "https://d2a5cgar23scu2.cloudfront.net/static/images/redesign/actor.default.tmb.gif"}}, {"person": {"url": "/celebrity/warren_masemola/", "name": "Warren Masemola", "thumbnailImg": "https://d2a5cgar23scu2.cloudfront.net/static/images/redesign/actor.default.tmb.gif"}}, {"person": {"url": "/celebrity/sibusiso_mbeje/", "name": "Sibusiso Mbeje", "thumbnailImg": "https://d2a5cgar23scu2.cloudfront.net/static/images/redesign/actor.default.tmb.gif"}}, {"person": {"url": "/celebrity/fumi_odede/", "name": "Fumi Odede", "thumbnailImg": "https://d2a5cgar23scu2.cloudfront.net/static/images/redesign/actor.default.tmb.gif"}}, {"person": {"url": "/celebrity/stephen_ojo/", "name": "Stephen Ojo", "thumbnailImg": "https://d2a5cgar23scu2.cloudfront.net/static/images/redesign/actor.default.tmb.gif"}}, {"person": {"url": "/celebrity/mary_twala/", "name": "Mary Twala", "thumbnailImg": "https://d2a5cgar23scu2.cloudfront.net/static/images/redesign/actor.default.tmb.gif"}}, {"person": {"url": "/celebrity/tina_knowles/", "name": "Tina Knowles", "thumbnailImg": "https://d2a5cgar23scu2.cloudfront.net/static/images/redesign/actor.default.tmb.gif"}}, {"person": {"url": "/celebrity/jayz/", "name": "Jay Z", "thumbnailImg": "https://resizing.flixster.com/DcQCp1iiFsYIkGXvVCrirwF3EIk=/80x80/v1.cjs1MDA0NjtqOzE4NzcxOzIwNDg7MjA3NjszMDAw"}}, {"person": {"url": "/celebrity/blue_ivy_carter/", "name": "Blue Ivy Carter", "thumbnailImg": "https://d2a5cgar23scu2.cloudfront.net/static/images/redesign/actor.default.tmb.gif"}}, {"person": {"url": "/celebrity/rumi_carter/", "name": "Rumi Carter", "thumbnailImg": "https://d2a5cgar23scu2.cloudfront.net/static/images/redesign/actor.default.tmb.gif"}}, {"person": {"url": "/celebrity/sir_carter/", "name": "Sir Carter", "thumbnailImg": "https://d2a5cgar23scu2.cloudfront.net/static/images/redesign/actor.default.tmb.gif"}}, {"person": {"url": "/celebrity/kelly_rowland/", "name": "Kelly Rowland", "thumbnailImg": "https://resizing.flixster.com/X0MlNE1SfUaJ5CruQMXO7yef5Xg=/80x80/v1.cjs0MTQzODtqOzE4ODAzOzIwNDg7NDEwOzYwMA"}}]}, "title": "Black Is King", "adjustedScore": 96.88075560802834, "ratings": {"critics_rating": "Certified Fresh", "audience_score": 0, "dvdReleaseDate": 1596178800000, "critics_score": 95}, "videoClips": {"mainTrailer": {"hlsUrl": "http://video.internetvideoarchive.net/video.m3u8?cmd=6&publishedid=http://link.theplatform.com/s/NGweTC/media/lWdgMlvVtQxa&customerid=300120&e=1619087618405&sub=RTO&fmt=11&h=3ac0321430b9661bc270c65512472292", "seconds": 10, "minutes": 1, "id": 11328130, "title": "Black Is King: Trailer 1", "thumbUrl": "http://resizing.flixster.com/KfzVWAQ4p_Suv2LCa833hHfnDG4=/171x128/v1.bjsyNTQ5OTI3O2o7MTg4Mzk7MjA0ODsxMDgwOzE5MjA", "mp4Url": "http://video.internetvideoarchive.net/video.mp4?cmd=6&publishedid=http://link.theplatform.com/s/NGweTC/media/lWdgMlvVtQxa&customerid=300120&e=1619087618405&sub=RTO&fmt=4&videokbrate=750&h=b332e6a13f25c97fefc2551542142e5e"}, "size": 2, "videoClips": [{"hlsUrl": "http://video.internetvideoarchive.net/video.m3u8?cmd=6&publishedid=http://link.theplatform.com/s/NGweTC/media/lWdgMlvVtQxa&customerid=300120&e=1619087618405&sub=RTO&fmt=11&h=3ac0321430b9661bc270c65512472292", "seconds": 10, "minutes": 1, "id": 11328130, "title": "Black Is King: Trailer 1", "thumbUrl": "http://resizing.flixster.com/KfzVWAQ4p_Suv2LCa833hHfnDG4=/171x128/v1.bjsyNTQ5OTI3O2o7MTg4Mzk7MjA0ODsxMDgwOzE5MjA", "mp4Url": "http://video.internetvideoarchive.net/video.mp4?cmd=6&publishedid=http://link.theplatform.com/s/NGweTC/media/lWdgMlvVtQxa&customerid=300120&e=1619087618405&sub=RTO&fmt=4&videokbrate=750&h=b332e6a13f25c97fefc2551542142e5e"}, {"hlsUrl": "http://video.internetvideoarchive.net/video.m3u8?cmd=6&publishedid=http://link.theplatform.com/s/NGweTC/media/Z9KEMdl5wMTH&customerid=300120&e=1619087618405&sub=RTO&fmt=11&h=bfb4442f68128403b3570c30c600c69e", "seconds": 22, "minutes": 1, "id": 11328133, "title": "Black Is King: Trailer 2", "thumbUrl": "http://resizing.flixster.com/djXhW0ulHftaRa-Zq8Svc4VHYFU=/171x128/v1.bjsyNTQ5OTMwO2o7MTg4Mzk7MjA0ODsxMDgwOzE5MjA", "mp4Url": "http://video.internetvideoarchive.net/video.mp4?cmd=6&publishedid=http://link.theplatform.com/s/NGweTC/media/Z9KEMdl5wMTH&customerid=300120&e=1619087618405&sub=RTO&fmt=4&videokbrate=750&h=45b4b34cd3e857bff8f1ec90f0bf409e"}]}, "isUpcoming": false, "posters": {"original": "https://resizing.flixster.com/rjIUk4OP5xHfhyrNIQ7Ywie4Gdw=/276x408/v1.bTsxMzQ5NzMyMjtqOzE4ODA4OzIwNDg7Mjc2OzQwOA", "detailed": "https://resizing.flixster.com/LDUUflCGOu-z1HbeKZnv7qlPVOU=/180x266/v1.bTsxMzQ5NzMyMjtqOzE4ODA4OzIwNDg7Mjc2OzQwOA", "profile": "https://resizing.flixster.com/JD9WhSKFKRDPLmTA00D9jT5s2lM=/120x177/v1.bTsxMzQ5NzMyMjtqOzE4ODA4OzIwNDg7Mjc2OzQwOA", "thumbnail": "https://resizing.flixster.com/qApukES1NccBJFjDFe86Y0DZMZ0=/54x80/v1.bTsxMzQ5NzMyMjtqOzE4ODA4OzIwNDg7Mjc2OzQwOA"}, "isLimited": true, "mainTrailer": {"thumbUrl": "https://resizing.flixster.com/KfzVWAQ4p_Suv2LCa833hHfnDG4=/171x128/v1.bjsyNTQ5OTI3O2o7MTg4Mzk7MjA0ODsxMDgwOzE5MjA", "hlsUrl": "http://video.internetvideoarchive.net/video.m3u8?cmd=6&publishedid=http://link.theplatform.com/s/NGweTC/media/lWdgMlvVtQxa&customerid=300120&e=1619087618140&sub=RTO&fmt=11&h=67ccfac0f48b0389b2fbe6f1f8b9ab99", "id": 11328130, "mp4Url": "http://video.internetvideoarchive.net/video.mp4?cmd=6&publishedid=http://link.theplatform.com/s/NGweTC/media/lWdgMlvVtQxa&customerid=300120&e=1619087618140&sub=RTO&fmt=4&videokbrate=750&h=3318b9b42bf6889d55e7955795bf2680"}, "photos": {"photos": [{"url": "https://resizing.flixster.com/uw66nQlZ0kXB7YFODAXUfFQ3VA8=/1024x750/v1.bjsyNTQzODc4O2o7MTg4Njc7MjA0ODsyMDQ4OzE1MDA", "index": 0, "submittedBy": "RT Staff", "height": 750, "imageId": 2543878, "thumbnail": "https://resizing.flixster.com/ZALipp0C2GiXXR0gaWP89oZpE38=/80x80/v1.bjsyNTQzODc4O2o7MTg4Njc7MjA0ODsyMDQ4OzE1MDA", "submittedDate": "2020-06-28", "id": "multiuse-2543878", "photoType": "movie", "width": 1024}, {"url": "https://resizing.flixster.com/pCqtm1Z5mq31gLBv9PXw7vE_61I=/1024x1024/v1.bjsyNTkwNTUwO2o7MTg4NzQ7MjA0ODsyMjQ3OzIyNDc", "index": 1, "submittedBy": "RT Staff", "height": 1024, "imageId": 2590550, "thumbnail": "https://resizing.flixster.com/09HDtIbq2eK1cmL46rpi6deGKlM=/80x80/v1.bjsyNTkwNTUwO2o7MTg4NzQ7MjA0ODsyMjQ3OzIyNDc", "submittedDate": "2020-09-11", "id": "multiuse-2590550", "photoType": "movie", "width": 1024}], "length": 2}, "id": 771522433}