{"url": "/m/crazy_heart/", "isOnOpening": false, "boxoffice": "$38.3M", "genreSet": [{"displayName": "Drama", "id": 9}, {"displayName": "Romance", "id": 18}, {"displayName": "Musical & Performing Arts", "id": 12}], "officialUrl": "http://www.crazyheartmovie.com", "isInTheaters": false, "synopsis": "Bad Blake is a broken-down, hard-living country music singer who's had way too many marriages, far too many years on the road and one too many drinks way too many times. And yet, Bad can't help but reach for salvation with the help of Jean, a journalist who discovers the real man behind the musician. As he struggles down the road of redemption, Bad learns the hard way just how tough life can be on one man's crazy heart.", "links": {"alternate": "//www.rottentomatoes.com/m/crazy_heart/"}, "runningTime": 112, "year": 2009, "trackingType": "DvdOther", "status": "Live", "isPlaying": false, "isOnDVD": true, "runningTimeStr": "1 hr. 52 min.", "ratingSummary": {"topcount": 61, "consensus": "Thanks to a captivating performance from Jeff Bridges, Crazy Heart transcends its overly familiar origins and finds new meaning in an old story.", "topCritics": {"hasScore": true, "numReviews": 61, "meterClass": "certified", "numRotten": 4, "numFresh": 57, "hasReviews": true, "meterValue": 93, "averageRating": 7.557018}, "audience": {"meterScore": 76, "averageScore": 3.6485681533813477, "numTotal": 124819, "ratingType": "viewed"}, "allcount": 211, "rottencount": 21, "dvdcount": 7, "allCritics": {"hasScore": true, "numReviews": 211, "meterClass": "certified", "numRotten": 21, "numFresh": 190, "hasReviews": true, "meterValue": 90, "averageRating": 7.42}, "freshcount": 190}, "mpaaRating": "R", "vanity": "crazy_heart", "photos": {"photos": [{"url": "https://resizing.flixster.com/r80QcpaXluwApnW5qmgVcdc0J_k=/300x200/v1.bjs4MDA3ODtqOzE4Nzg4OzIwNDg7MzAwOzIwMA", "index": 0, "submittedBy": "RT Staff", "height": 200, "imageId": 80078, "thumbnail": "https://resizing.flixster.com/jYYyC_llGr9uVBwbLhTo2EoIXq4=/80x80/v1.bjs4MDA3ODtqOzE4Nzg4OzIwNDg7MzAwOzIwMA", "submittedDate": "2014-06-30", "id": "multiuse-80078", "photoType": "movie", "width": 300}, {"url": "https://resizing.flixster.com/Akpd1CqSeAidbOcBd_IoGjPVGxE=/300x200/v1.bjs4MDA3OTtqOzE4Nzg5OzIwNDg7MzAwOzIwMA", "index": 1, "submittedBy": "RT Staff", "height": 200, "imageId": 80079, "thumbnail": "https://resizing.flixster.com/C459-E8CNUWzorpulM76l6RNrvk=/80x80/v1.bjs4MDA3OTtqOzE4Nzg5OzIwNDg7MzAwOzIwMA", "submittedDate": "2014-06-30", "id": "multiuse-80079", "photoType": "movie", "width": 300}, {"url": "https://resizing.flixster.com/oBtqEqP42wTsMEtIMP2psaTep8c=/300x200/v1.bjs4MDA4MDtqOzE4NzkwOzIwNDg7MzAwOzIwMA", "index": 2, "submittedBy": "RT Staff", "height": 200, "imageId": 80080, "thumbnail": "https://resizing.flixster.com/MyhUECjoEtwCtbzK2phQ3SAoIhI=/80x80/v1.bjs4MDA4MDtqOzE4NzkwOzIwNDg7MzAwOzIwMA", "submittedDate": "2014-06-30", "id": "multiuse-80080", "photoType": "movie", "width": 300}, {"url": "https://resizing.flixster.com/DrH-QDt_FW4T8MGww6i3FJZuRkk=/300x200/v1.bjs4MDA4MTtqOzE4NzkxOzIwNDg7MzAwOzIwMA", "index": 3, "submittedBy": "RT Staff", "height": 200, "imageId": 80081, "thumbnail": "https://resizing.flixster.com/uk31PH_M7Wq5eOWp1kb77wGwoCc=/80x80/v1.bjs4MDA4MTtqOzE4NzkxOzIwNDg7MzAwOzIwMA", "submittedDate": "2014-06-30", "id": "multiuse-80081", "photoType": "movie", "width": 300}, {"url": "https://resizing.flixster.com/8tDFckIFvdQ8GuCUTJ4imBP5ie4=/1024x768/v1.bjs4MDA4MztqOzE4NzkzOzIwNDg7MTM2NTsxMDI0", "index": 4, "submittedBy": "RT Staff", "height": 768, "imageId": 80083, "thumbnail": "https://resizing.flixster.com/VtfdcDZZKB6hVQwzRrh6P7FGsBA=/80x80/v1.bjs4MDA4MztqOzE4NzkzOzIwNDg7MTM2NTsxMDI0", "submittedDate": "2014-06-30", "id": "multiuse-80083", "photoType": "movie", "width": 1024}, {"url": "https://resizing.flixster.com/N4zMAvsBHZoNrCki7QA1N0-Z-9w=/1024x768/v1.bjs4MDA4NDtqOzE4Nzk0OzIwNDg7MTMwNjs5Nzk", "index": 5, "submittedBy": "RT Staff", "height": 768, "imageId": 80084, "thumbnail": "https://resizing.flixster.com/QPhvMgutPK9__UbQ6Sk0LmkQsDk=/80x80/v1.bjs4MDA4NDtqOzE4Nzk0OzIwNDg7MTMwNjs5Nzk", "submittedDate": "2014-06-30", "id": "multiuse-80084", "photoType": "movie", "width": 1024}, {"url": "https://resizing.flixster.com/-l-LdPdc8YetSUz74wuY-rom_os=/1024x512/v1.bjs4MDA5MTtqOzE4ODAxOzIwNDg7MTUzNjs3Njg", "index": 6, "submittedBy": "RT Staff", "height": 512, "imageId": 80091, "thumbnail": "https://resizing.flixster.com/UPhAyT5PyiEV0Ufj6jHzrFmv4us=/80x80/v1.bjs4MDA5MTtqOzE4ODAxOzIwNDg7MTUzNjs3Njg", "submittedDate": "2014-06-30", "id": "multiuse-80091", "photoType": "movie", "width": 1024}, {"url": "https://resizing.flixster.com/_gHXVDBzkWMmk5eJc0L_mtolaJY=/1024x769/v1.bjsyMzIxMDM0O2o7MTg4MTU7MjA0ODsxOTk4OzE1MDA", "index": 7, "submittedBy": "RT Staff", "height": 769, "imageId": 2321034, "thumbnail": "https://resizing.flixster.com/UYx-tMzOMcCI-qybkfWtj_HSi10=/80x80/v1.bjsyMzIxMDM0O2o7MTg4MTU7MjA0ODsxOTk4OzE1MDA", "submittedDate": "2019-08-10", "id": "multiuse-2321034", "photoType": "movie", "width": 1024}, {"url": "https://resizing.flixster.com/EUNY5Gm7kCE7eV6bv3I-VTmknIQ=/682x1024/v1.bjsyMzIxMDM1O2o7MTg4MTY7MjA0ODsxMzMyOzIwMDA", "index": 8, "submittedBy": "RT Staff", "height": 1024, "imageId": 2321035, "thumbnail": "https://resizing.flixster.com/9PHKrXoLfmsMuNxtYkkGtISWsxM=/80x80/v1.bjsyMzIxMDM1O2o7MTg4MTY7MjA0ODsxMzMyOzIwMDA", "submittedDate": "2019-08-10", "id": "multiuse-2321035", "photoType": "movie", "width": 682}, {"url": "https://resizing.flixster.com/L4oZqSBhP6txgNk984xWNHaMR60=/1024x576/v1.bjsyMzIxMDM2O2o7MTg4MTc7MjA0ODsyMDAwOzExMjU", "index": 9, "submittedBy": "RT Staff", "height": 576, "imageId": 2321036, "thumbnail": "https://resizing.flixster.com/l0ANF4V-HSLk2U5CfCHTH76oWwY=/80x80/v1.bjsyMzIxMDM2O2o7MTg4MTc7MjA0ODsyMDAwOzExMjU", "submittedDate": "2019-08-10", "id": "multiuse-2321036", "photoType": "movie", "width": 1024}, {"url": "https://resizing.flixster.com/z40R65hud0W0NOr5xr-PcoJB_yU=/1024x512/v1.bjsyNjMwNDIxO2o7MTg4NzY7MjA0ODsyNjQyOzEzMjE", "index": 10, "submittedBy": "RT Staff", "height": 512, "imageId": 2630421, "thumbnail": "https://resizing.flixster.com/Ay42jXY6JHd-RYavjNan9esyI8A=/80x80/v1.bjsyNjMwNDIxO2o7MTg4NzY7MjA0ODsyNjQyOzEzMjE", "submittedDate": "2020-11-04", "id": "multiuse-2630421", "photoType": "movie", "width": 1024}, {"url": "https://resizing.flixster.com/x8auJeTThfpmaeJ36-gcET1ZDko=/401x600/v1.aDs3MDMxO2o7MTg3NzY7MjA0ODs0MzY7NjUy", "index": 11, "submittedBy": "RT Staff", "height": 600, "imageId": 7031, "thumbnail": "https://resizing.flixster.com/JRbjsAth_5xb8shoZq8yO96txiE=/80x80/v1.aDs3MDMxO2o7MTg3NzY7MjA0ODs0MzY7NjUy", "submittedDate": "2010-03-29", "id": "movie-7031", "photoType": "movie", "width": 401}, {"url": "https://resizing.flixster.com/WtFEuNA98nItbVZeQml3k0LcZ8o=/600x391/v1.aDszNzk2O2o7MTg3ODE7MjA0ODs2NTI7NDI1", "index": 12, "submittedBy": "RT Staff", "height": 391, "imageId": 3796, "thumbnail": "https://resizing.flixster.com/sKnWXsPO89Q_cYYjLY7qgNgkKYU=/80x80/v1.aDszNzk2O2o7MTg3ODE7MjA0ODs2NTI7NDI1", "submittedDate": "2010-03-29", "id": "movie-3796", "photoType": "movie", "width": 600}, {"url": "https://resizing.flixster.com/45N-EdxZxnIH65n9My3MQuGTy2k=/600x398/v1.aDs0MjY7ajsxODc4NjsyMDQ4OzY1Mjs0MzI", "index": 13, "submittedBy": "RT Staff", "height": 398, "imageId": 426, "thumbnail": "https://resizing.flixster.com/vlqkTx5hMC3deU8su-v-cS2AtPw=/80x80/v1.aDs0MjY7ajsxODc4NjsyMDQ4OzY1Mjs0MzI", "submittedDate": "2010-03-29", "id": "movie-426", "photoType": "movie", "width": 600}], "length": 14}, "studio": "Fox Searchlight Pictures", "purchaseOptions": {"amazon": {"url": "http://www.amazon.com/gp/product/B003MLJYAQ/ref=atv_feed_catalog?tag=rottetomao_aiv_mv-20", "isPrime": false, "type": "rent"}, "vudu": {"url": "https://www.vudu.com/content/movies/details/Crazy-Heart/173142", "type": "buy"}, "iTunes": {"url": "https://itunes.apple.com/movie/crazy-heart/id349046103?uo=5", "price": "14.99"}}, "reviews": {"total": 211, "links": {"alternate": "//www.rottentomatoes.com/m/crazy_heart/#reviews", "self": "api.flixster.com/movies/crazy-heart/reviews.json?review_type=mob&country=us&page=1", "prev": "api.flixster.com/movies/crazy-heart/reviews.json?review_type=mob&country=us&page=0", "next": "api.flixster.com/movies/crazy-heart/reviews.json?review_type=mob&country=us&page=2"}, "reviews": [{"isRotten": true, "url": "https://www.spectator.co.uk/2010/02/same-old-story/", "publication": {"url": "", "name": "The Spectator"}, "isTop": true, "creationDate": 1535590481000, "isFresh": false, "freshness": "rotten", "critic": {"url": "/critic/deborah-ross", "name": "Deborah Ross", "id": 15991, "thumbnailImage": "https://resizing.flixster.com/CoJ71oBmaR4vPSZhMnI0oww2XOg=/72x72/v1.YzszNjE4O2o7MTg3ODM7MjA0ODszMDA7MzAw"}, "quote": "This is a story that's been told a thousand times, sometimes with Kris Kristofferson in it, and sometimes not, and it just doesn't bring anything new to the party.", "id": 2504971, "links": {"review": "https://www.spectator.co.uk/2010/02/same-old-story/"}}, {"isRotten": false, "url": "https://www.theatlantic.com/entertainment/archive/2010/01/empty-bottle-crazy-heart/32907/", "publication": {"url": "", "name": "The Atlantic"}, "isTop": true, "creationDate": 1516143582000, "isFresh": true, "freshness": "fresh", "critic": {"url": "/critic/ed-koch", "name": "Ed Koch", "id": 20737, "thumbnailImage": "https://resizing.flixster.com/M7LjOlFtlADMennd6P8LGnZ6Fb4=/72x72/v1.YzszNjIyO2o7MTg3ODc7MjA0ODszMDA7MzAw"}, "quote": "Crazy Heart is a wonderful picture that will immediately affect you and hold your interest to the very end. ", "id": 2450242, "links": {"review": "https://www.theatlantic.com/entertainment/archive/2010/01/empty-bottle-crazy-heart/32907/"}}, {"isRotten": false, "isFresh": true, "publication": {"url": "", "name": "Empire Magazine"}, "isTop": true, "creationDate": 1266596879000, "freshness": "fresh", "critic": {"url": "/critic/nev-pierce", "name": "Nev Pierce", "id": 3614, "thumbnailImage": "https://d2a5cgar23scu2.cloudfront.net/static/images/redesign/user.none.tmb.jpg"}, "quote": "A phenomenal, heart-breaking performance from Jeff Bridges powers this simple but affecting redemption story.", "id": 1871772, "original_score": "4/5", "links": {}}, {"isRotten": false, "url": "http://www.timeout.com/film/reviews/88200/crazy-heart.html", "creationDate": 1266596106000, "isFresh": true, "id": 1871766, "quote": "Crazy Heart feels familiar, even comforting, offering few surprises but a wealth of lovingly crafted, immaculately judged, wholly authentic emotion.", "links": {"review": "http://www.timeout.com/film/reviews/88200/crazy-heart.html"}, "publication": {"url": "", "name": "Time Out"}, "isTop": true, "freshness": "fresh", "critic": {"url": "/critic/tom-huddlestone", "name": "Tom Huddlestone", "id": 13127, "thumbnailImage": "https://d2a5cgar23scu2.cloudfront.net/static/images/redesign/user.none.tmb.jpg"}, "original_score": "4/5"}, {"isRotten": false, "url": "http://entertainment.timesonline.co.uk/tol/arts_and_entertainment/film/film_reviews/article7029222.ece", "creationDate": 1266595278000, "isFresh": true, "id": 1871756, "quote": "This turn from the perennially settled and contented Bridges is pure acting. It is the best performance of the past 12 months, and indeed possibly the next.", "links": {"review": "http://entertainment.timesonline.co.uk/tol/arts_and_entertainment/film/film_reviews/article7029222.ece"}, "publication": {"url": "", "name": "Times (UK)"}, "isTop": true, "freshness": "fresh", "critic": {"url": "/critic/kevin-maher", "name": "Kevin Maher", "id": 5388, "thumbnailImage": "https://resizing.flixster.com/0b_fTrnKoP0RgnG634d1CHf3GCU=/72x72/v1.YzszNDc1O3A7MTg3NzU7MjA0ODszNDA7MzQw"}, "original_score": "4/5"}, {"isRotten": false, "url": "http://www.guardian.co.uk/film/2010/feb/18/crazy-heart-film-review", "creationDate": 1266594797000, "isFresh": true, "id": 1871749, "quote": "A wonderfully easy, confident and muscular performance from Jeff Bridges - so easy, confident and muscular that it doesn't look like acting at all - saves this movie from being pure sentimental mush.", "links": {"review": "http://www.guardian.co.uk/film/2010/feb/18/crazy-heart-film-review"}, "publication": {"url": "", "name": "Guardian"}, "isTop": true, "freshness": "fresh", "critic": {"url": "/critic/peter-bradshaw", "name": "Peter Bradshaw", "id": 408, "thumbnailImage": "https://d2a5cgar23scu2.cloudfront.net/static/images/redesign/user.none.tmb.jpg"}, "original_score": "3/5"}, {"isRotten": false, "url": "https://www.whatsontv.co.uk/movie-talk/crazy-heart-review-325559/", "publication": {"url": "", "name": "Movie Talk"}, "isTop": false, "creationDate": 1606658130000, "isFresh": true, "freshness": "fresh", "critic": {"url": "/critic/jason-best", "name": "Jason Best", "id": 5917, "thumbnailImage": "https://resizing.flixster.com/NbnZwwvEBF5BgCAryP2t5srwEHQ=/72x72/v1.YzsyMjU3O2o7MTg3NzI7MjA0ODszODs0Mg"}, "quote": "Crazy Heart is too sentimental and predictable to be a classic, but the songs are impressively authentic and Bridges delivers a superb performance.", "id": 2746401, "links": {"review": "https://www.whatsontv.co.uk/movie-talk/crazy-heart-review-325559/"}}, {"isRotten": false, "url": "https://theindependentcritic.com/crazy_heart", "creationDate": 1599309823000, "isFresh": true, "id": 2720874, "quote": "One of the best films of 2009.", "links": {"review": "https://theindependentcritic.com/crazy_heart"}, "publication": {"url": "", "name": "TheIndependentCritic.com"}, "isTop": false, "freshness": "fresh", "critic": {"url": "/critic/richard-propes-27470", "name": "Richard Propes", "id": 27470, "thumbnailImage": "https://resizing.flixster.com/9RafzdrYTvTWxFzPswX4QYwPgK8=/72x72/v1.YzszODAzO2o7MTg3ODg7MjA0ODszMDA7MzAw"}, "original_score": "3.5/4.0"}, {"isRotten": false, "url": "https://www.heraldsun.com.au/entertainment/movies/leigh-paatsch/your-night-in-every-movie-on-melbourne-tv-rated-or-slated/news-story/781cb1eb6fc51c227b8284419aa1f123", "creationDate": 1588635322000, "isFresh": true, "id": 2687710, "quote": "What keeps this indie drama just the right side of average is a brilliantly measured, Oscar-winning performance by the great Jeff Bridges. ", "links": {"review": "https://www.heraldsun.com.au/entertainment/movies/leigh-paatsch/your-night-in-every-movie-on-melbourne-tv-rated-or-slated/news-story/781cb1eb6fc51c227b8284419aa1f123"}, "publication": {"url": "", "name": "Herald Sun (Australia)"}, "isTop": false, "freshness": "fresh", "critic": {"url": "/critic/leigh-paatsch", "name": "Leigh Paatsch", "id": 13081, "thumbnailImage": "https://d2a5cgar23scu2.cloudfront.net/static/images/redesign/user.none.tmb.jpg"}, "original_score": "3/5"}, {"isRotten": false, "url": "https://www.charlestoncitypaper.com/charleston/crazy-heart-marks-the-dawn-of-gericool/Content?oid=1736711", "publication": {"url": "http://www.charlestoncitypaper.com", "name": "Charleston City Paper"}, "isTop": false, "creationDate": 1579813579000, "isFresh": true, "freshness": "fresh", "critic": {"url": "/critic/felicia-feaster", "name": "Felicia Feaster", "id": 12404, "thumbnailImage": "https://resizing.flixster.com/nf2a7HE3p0a5kUWvojMXsx_tGQM=/72x72/v1.YzszMTIwO2o7MTg3ODA7MjA0ODszMDA7MzAw"}, "quote": "Crazy Heart has the mellow, believable gait of real life, and sometimes the truth is better than any reassuring fiction.", "id": 2662756, "links": {"publication": "http://www.charlestoncitypaper.com", "review": "https://www.charlestoncitypaper.com/charleston/crazy-heart-marks-the-dawn-of-gericool/Content?oid=1736711"}}, {"isRotten": false, "url": "http://behindthelensonline.net/site/reviews/crazy-heart/", "publication": {"url": "", "name": "Behind The Lens"}, "isTop": false, "creationDate": 1573080723000, "isFresh": true, "freshness": "fresh", "critic": {"url": "/critic/debbie-lynn-elias-23430", "name": "Debbie Lynn Elias", "id": 23430, "thumbnailImage": "https://resizing.flixster.com/lM9_r6adB49JEGLefzN80gmhSPI=/72x72/v1.YzszMTgyO2o7MTg3OTc7MjA0ODszMDA7MzAw"}, "quote": "Do yourself a favor. Just go crazy this weekend. Go crazy for CRAZY HEART.", "id": 2643061, "links": {"review": "http://behindthelensonline.net/site/reviews/crazy-heart/"}}, {"isRotten": false, "url": "http://www.laduenews.com/diversions/arts-entertainment/movie-review-crazy-heart/article_6c735ea3-b830-541e-8a70-de5e30fc03ec.html", "creationDate": 1542071210000, "isFresh": true, "id": 2531797, "quote": "Truly, the entire cast is tremendous-with the glaring exception of Farrell, who is woefully miscast. But Bridges carries the film on his capable shoulders, appearing in every scene, many times alone.", "links": {"publication": "http://laduenews.com", "review": "http://www.laduenews.com/diversions/arts-entertainment/movie-review-crazy-heart/article_6c735ea3-b830-541e-8a70-de5e30fc03ec.html"}, "publication": {"url": "http://laduenews.com", "name": "Ladue News"}, "isTop": false, "freshness": "fresh", "critic": {"url": "/critic/debbie-baldwin", "name": "Debbie Baldwin", "id": 10927, "thumbnailImage": "https://d2a5cgar23scu2.cloudfront.net/static/images/redesign/user.none.tmb.jpg"}, "original_score": "7/10"}]}, "casts": {"screenwriters": [{"url": "/celebrity/scott_cooper/", "name": "Scott Cooper", "thumbnailImg": "https://resizing.flixster.com/_anaA32T9lU4gQdj7YBBdyl-4ko=/80x80/v1.cjs1MDg4OTtqOzE4ODA0OzIwNDg7MjI2NzszMDAw"}], "directors": [{"url": "/celebrity/scott_cooper/", "name": "Scott Cooper", "thumbnailImg": "https://resizing.flixster.com/_anaA32T9lU4gQdj7YBBdyl-4ko=/80x80/v1.cjs1MDg4OTtqOzE4ODA0OzIwNDg7MjI2NzszMDAw"}], "creators": [], "producers": [{"url": "/celebrity/tbone-burnett/", "name": "T-Bone Burnett", "thumbnailImg": "https://d2a5cgar23scu2.cloudfront.net/static/images/redesign/actor.default.tmb.gif"}, {"url": "/celebrity/robert_duvall/", "name": "Robert Duvall", "thumbnailImg": "https://resizing.flixster.com/w-1lSroOOSDp4PlH9UdEaF21zdA=/80x80/v1.cjs0OTIwMztqOzE4NzgzOzIwNDg7MjI4ODsyMjMy"}, {"url": "/celebrity/rob_carliner/", "name": "Rob Carliner", "thumbnailImg": "https://d2a5cgar23scu2.cloudfront.net/static/images/redesign/actor.default.tmb.gif"}, {"url": "/celebrity/judy-cairo/", "name": "Judy Cairo", "thumbnailImg": "https://d2a5cgar23scu2.cloudfront.net/static/images/redesign/actor.default.tmb.gif"}, {"url": "/celebrity/scott_cooper/", "name": "Scott Cooper", "thumbnailImg": "https://resizing.flixster.com/_anaA32T9lU4gQdj7YBBdyl-4ko=/80x80/v1.cjs1MDg4OTtqOzE4ODA0OzIwNDg7MjI2NzszMDAw"}], "castItems": [{"person": {"url": "/celebrity/jeff_bridges/", "name": "Jeff Bridges", "thumbnailImg": "https://resizing.flixster.com/lHwpAzXMZ2pgWqnKwoZtzPtXb7I=/80x80/v1.cjs0MDMyODtqOzE4NzczOzIwNDg7Mjc1OzIzMA"}, "characters": [{"name": "Bad Blake"}]}, {"person": {"url": "/celebrity/maggie_gyllenhaal/", "name": "Maggie Gyllenhaal", "thumbnailImg": "https://resizing.flixster.com/WDz_B982EHTx-BslQ1ES5q11znQ=/80x80/v1.cjs0OTMyOTtqOzE4Nzc0OzIwNDg7MjEyNjsyMTQy"}, "characters": [{"name": "Jean Craddock"}]}, {"person": {"url": "/celebrity/beth_grant/", "name": "Beth Grant", "thumbnailImg": "https://resizing.flixster.com/CQ6WFXXP_6UZ7Rfd-FBJ1ffFzRc=/80x80/v1.cDs3NjY3MTg1O2o7MTg4OTM7MjA0ODsyNjU7NDAw"}, "characters": [{"name": "Jo Ann"}]}, {"person": {"url": "/celebrity/robert_duvall/", "name": "Robert Duvall", "thumbnailImg": "https://resizing.flixster.com/w-1lSroOOSDp4PlH9UdEaF21zdA=/80x80/v1.cjs0OTIwMztqOzE4NzgzOzIwNDg7MjI4ODsyMjMy"}, "characters": [{"name": "Wayne"}]}, {"person": {"url": "/celebrity/colin_farrell/", "name": "Colin Farrell", "thumbnailImg": "https://resizing.flixster.com/XkzdTCcUhyzXH0D6EEWiM6h4JLY=/80x80/v1.cjs0OTkzMjtqOzE4NzkyOzIwNDg7MjEwMDszMDAw"}, "characters": [{"name": "Tommy Sweet"}]}, {"person": {"url": "/celebrity/ryan_bingham/", "name": "Ryan Bingham", "thumbnailImg": "https://resizing.flixster.com/6fvxZxz1fzq5waZ9dqt_Q5utyf0=/80x80/v1.cDsxMzczNTM3MztqOzE4ODExOzIwNDg7NTAwOzMwMA"}, "characters": [{"name": "Tony"}]}, {"person": {"url": "/celebrity/william_marquez/", "name": "William Marquez", "thumbnailImg": "https://resizing.flixster.com/Va577UvgEcA7l8pLF4iBp8bUq24=/80x80/v1.cDsxMzczNTM2OTtqOzE4ODA3OzIwNDg7MTIwOzE1Ng"}, "characters": [{"name": "Doctor"}]}, {"person": {"url": "/celebrity/rick_dial/", "name": "Rick Dial", "thumbnailImg": "https://d2a5cgar23scu2.cloudfront.net/static/images/redesign/actor.default.tmb.gif"}, "characters": [{"name": "Wesley Barnes"}]}, {"person": {"url": "/celebrity/tom_bower/", "name": "Tom Bower", "thumbnailImg": "https://resizing.flixster.com/7O2UMAtaahG5LzuPjK2BKlUaUYk=/80x80/v1.cDs3NDIwNDI5O2o7MTg4Njk7MjA0ODsxMDA7MTQw"}, "characters": [{"name": "Bill Wilson"}]}, {"person": {"url": "/celebrity/james_keane/", "name": "James Keane", "thumbnailImg": "https://resizing.flixster.com/tE5Ai5fZ1uMgxF_qDVJjV0Gy8y0=/80x80/v1.cDsxMjk4OTM1OTtqOzE4Nzk5OzIwNDg7MjkwOzIyMw"}, "characters": [{"name": "Manager"}]}, {"person": {"url": "/celebrity/paul_herman/", "name": "Paul Herman", "thumbnailImg": "https://resizing.flixster.com/RASJQDsGtdBV-5uomJMwKch3NY4=/80x80/v1.cDsxNDA4OTc5NjtqOzE4ODY0OzIwNDg7MzkwOzUxOA"}, "characters": [{"name": "Jack Greene"}]}, {"person": {"url": "/celebrity/debrianna_mansini/", "name": "Debrianna Mansini", "thumbnailImg": "https://d2a5cgar23scu2.cloudfront.net/static/images/redesign/actor.default.tmb.gif"}, "characters": [{"name": "Ann"}]}, {"person": {"url": "/celebrity/jack_nation/", "name": "Jack Nation", "thumbnailImg": "https://d2a5cgar23scu2.cloudfront.net/static/images/redesign/actor.default.tmb.gif"}, "characters": [{"name": "Buddy"}]}, {"person": {"url": "/celebrity/ryil-adamson/", "name": "Ryil Adamson", "thumbnailImg": "https://d2a5cgar23scu2.cloudfront.net/static/images/redesign/actor.default.tmb.gif"}, "characters": [{"name": "Ralphie"}]}, {"person": {"url": "/celebrity/j_michael_yak_oliva/", "name": "J. Michael \"Yak\" Oliva", "thumbnailImg": "https://d2a5cgar23scu2.cloudfront.net/static/images/redesign/actor.default.tmb.gif"}, "characters": [{"name": "Bear"}]}, {"person": {"url": "/celebrity/richard_w_gallegos/", "name": "Richard W. Gallegos", "thumbnailImg": "https://d2a5cgar23scu2.cloudfront.net/static/images/redesign/actor.default.tmb.gif"}, "characters": [{"name": "Jesus/Juan"}]}, {"person": {"url": "/celebrity/brian_gleason/", "name": "Brian Gleason", "thumbnailImg": "https://d2a5cgar23scu2.cloudfront.net/static/images/redesign/actor.default.tmb.gif"}, "characters": [{"name": "Steven Reynolds"}]}, {"person": {"url": "/celebrity/william_sterchi/", "name": "William Sterchi", "thumbnailImg": "https://d2a5cgar23scu2.cloudfront.net/static/images/redesign/actor.default.tmb.gif"}, "characters": [{"name": "Pat"}]}, {"person": {"url": "/celebrity/anna_felix/", "name": "Anna Felix", "thumbnailImg": "https://d2a5cgar23scu2.cloudfront.net/static/images/redesign/actor.default.tmb.gif"}, "characters": [{"name": "Barmaid"}]}, {"person": {"url": "/celebrity/jerry_hardy/", "name": "Jerry Hardy", "thumbnailImg": "https://d2a5cgar23scu2.cloudfront.net/static/images/redesign/actor.default.tmb.gif"}, "characters": [{"name": "Cowboy"}]}, {"person": {"url": "/celebrity/david_manzanares/", "name": "David Manzanares", "thumbnailImg": "https://d2a5cgar23scu2.cloudfront.net/static/images/redesign/actor.default.tmb.gif"}, "characters": [{"name": "Nick"}]}, {"person": {"url": "/celebrity/chad_brummett/", "name": "Chad Brummett", "thumbnailImg": "https://resizing.flixster.com/Da18NFGbEGNtSRZMFsjVMYaJG54=/80x80/v1.cDsxMjYxNzE1MjtqOzE4NzgzOzIwNDg7NjY7MTIx"}, "characters": [{"name": "Young Guy"}]}, {"person": {"url": "/celebrity/jose_marquez/", "name": "Jos\u00e9 M\u00e1rquez", "thumbnailImg": "https://d2a5cgar23scu2.cloudfront.net/static/images/redesign/actor.default.tmb.gif"}, "characters": [{"name": "Older Hispanic Man"}]}, {"person": {"url": "/celebrity/le_anne_lynch/", "name": "Le Anne Lynch", "thumbnailImg": "https://d2a5cgar23scu2.cloudfront.net/static/images/redesign/actor.default.tmb.gif"}, "characters": [{"name": "Nurse"}]}, {"person": {"url": "/celebrity/harry_zinn/", "name": "Harry Zinn", "thumbnailImg": "https://d2a5cgar23scu2.cloudfront.net/static/images/redesign/actor.default.tmb.gif"}, "characters": [{"name": "Bartender"}]}, {"person": {"url": "/celebrity/josh-berry/", "name": "Josh Berry", "thumbnailImg": "https://resizing.flixster.com/SpU8_X5wF5AKfatEZJBvV9xB5Gw=/80x80/v1.cDsxMTkzNzYwMTtqOzE4NzY5OzIwNDg7ODM7MTI0"}, "characters": [{"name": "Security Guard"}]}]}, "title": "Crazy Heart", "adjustedScore": 96.78368009443707, "ratings": {"critics_rating": "Certified Fresh", "audience_score": 76, "dvdReleaseDate": 1271746800000, "critics_score": 90, "theaterReleaseDate": 1260950400000, "audience_rating": "Upright"}, "videoClips": {"mainTrailer": {"hlsUrl": "http://video.internetvideoarchive.net/video.m3u8?cmd=6&publishedid=156902&customerid=300120&e=1619087624568&sub=RTO&fmt=11&h=99e595d31ff637091a09805928a6d2a9", "seconds": 1, "minutes": 2, "id": 11070818, "title": "Crazy Heart", "thumbUrl": "http://content.internetvideoarchive.com/content/photos/6322/156902_011.jpg", "mp4Url": "http://video.internetvideoarchive.net/video.mp4?cmd=6&publishedid=156902&customerid=300120&e=1619087624568&sub=RTO&fmt=4&videokbrate=750&h=9792191e279f1c39b7f1b04eaeaf7902"}, "size": 1, "videoClips": [{"hlsUrl": "http://video.internetvideoarchive.net/video.m3u8?cmd=6&publishedid=156902&customerid=300120&e=1619087624568&sub=RTO&fmt=11&h=99e595d31ff637091a09805928a6d2a9", "seconds": 1, "minutes": 2, "id": 11070818, "title": "Crazy Heart", "thumbUrl": "http://content.internetvideoarchive.com/content/photos/6322/156902_011.jpg", "mp4Url": "http://video.internetvideoarchive.net/video.mp4?cmd=6&publishedid=156902&customerid=300120&e=1619087624568&sub=RTO&fmt=4&videokbrate=750&h=9792191e279f1c39b7f1b04eaeaf7902"}]}, "isUpcoming": false, "posters": {"original": "https://resizing.flixster.com/yujLt370OEz47LZoyKCIsPKi5GM=/1374x1832/v1.bTsxMTIyODQ2OTtqOzE4ODczOzIwNDg7MTM3NDsxODMy", "detailed": "https://resizing.flixster.com/HdMKBeIoCMTh2fcqPs9faU4eHvY=/180x240/v1.bTsxMTIyODQ2OTtqOzE4ODczOzIwNDg7MTM3NDsxODMy", "profile": "https://resizing.flixster.com/tYoHh88-Z8rcnYnYa_OnA2dB-vo=/120x160/v1.bTsxMTIyODQ2OTtqOzE4ODczOzIwNDg7MTM3NDsxODMy", "thumbnail": "https://resizing.flixster.com/6PSDuGT_RBC4CGvCd2pM3bo30-k=/54x72/v1.bTsxMTIyODQ2OTtqOzE4ODczOzIwNDg7MTM3NDsxODMy"}, "isLimited": false, "mainTrailer": {"thumbUrl": "https://content.internetvideoarchive.com/content/photos/6322/156902_011.jpg", "hlsUrl": "http://video.internetvideoarchive.net/video.m3u8?cmd=6&publishedid=156902&customerid=300120&e=1619087624119&sub=RTO&fmt=11&h=4d78b1de5d4e18bfec77584defdfff1e", "id": 11070818, "mp4Url": "http://video.internetvideoarchive.net/video.mp4?cmd=6&publishedid=156902&customerid=300120&e=1619087624119&sub=RTO&fmt=4&videokbrate=750&h=2a9d67f074f60bc19977737ea8dbfd20"}, "advisory": "for language and brief sexuality", "id": 770801608}