{"url": "/m/lost_in_la_mancha/", "isOnOpening": false, "genreSet": [{"displayName": "Documentary", "id": 8}, {"displayName": "Television", "id": 16}, {"displayName": "Musical & Performing Arts", "id": 12}], "officialUrl": "http://www.smart.co.uk/lostinlamancha/", "isInTheaters": false, "synopsis": "A documentary that details and depicts the pre-production and the first six days of production of acclaimed director Terry Gilliam's ill-fated attempt to film \"The Man Who Killed Don Quixote\" in late 2000. Piece by piece, the entire production ended up falling apart. A series of events conspire to shut down the project altogether: a severe storm washing away equipment; jet fighters interrupting the filming of the pivotal and somber Inquisition scene; and the star suffering a damaging back injury. Gilliam's decades-long dream to make a film based on Don Quixote came to a grinding halt--but it was all captured on film. Thus, what was expected to be, simply, a special documentary featurette--shown as part of the film's eventual DVD package--is now the basis of the film, itself.", "links": {"alternate": "//www.rottentomatoes.com/m/lost_in_la_mancha/"}, "runningTime": 93, "year": 2003, "trackingType": "DvdOther", "status": "Live", "isPlaying": false, "isOnDVD": true, "runningTimeStr": "1 hr. 33 min.", "ratingSummary": {"topcount": 32, "consensus": "A remarkable behind-the-scenes look at a movie that wasn't, Lost in La Mancha is an incisive, entertaining document of the difficulties inherent in the moviemaking process.", "topCritics": {"hasScore": true, "numReviews": 32, "meterClass": "certified", "numRotten": 3, "numFresh": 29, "hasReviews": true, "meterValue": 91, "averageRating": 7.33871}, "audience": {"meterScore": 77, "averageScore": 3.6082496643066406, "numTotal": 16186, "ratingType": "viewed"}, "allcount": 101, "rottencount": 6, "dvdcount": 5, "allCritics": {"hasScore": true, "numReviews": 101, "meterClass": "certified", "numRotten": 6, "numFresh": 95, "hasReviews": true, "meterValue": 94, "averageRating": 7.53}, "freshcount": 95}, "mpaaRating": "R", "vanity": "lost_in_la_mancha", "photos": {"photos": [{"url": "https://resizing.flixster.com/_lla8kL0JqFYetqOBK0mKj904aw=/682x1023/v1.bjsyNTczMTUyO2o7MTg4NDY7MjA0ODsxNjAwOzI0MDA", "index": 0, "submittedBy": "RT Staff", "height": 1023, "imageId": 2573152, "thumbnail": "https://resizing.flixster.com/Syu0hYZYZziH6pY1CjbmBddMygI=/80x80/v1.bjsyNTczMTUyO2o7MTg4NDY7MjA0ODsxNjAwOzI0MDA", "submittedDate": "2020-08-03", "id": "multiuse-2573152", "photoType": "movie", "width": 682}, {"url": "https://resizing.flixster.com/LIl0FN2Z9nTQtlOu_TrPOW19jSU=/1024x1024/v1.bjsyNTczMTU0O2o7MTg4NDg7MjA0ODsyMDQ4OzIwNDg", "index": 1, "submittedBy": "RT Staff", "height": 1024, "imageId": 2573154, "thumbnail": "https://resizing.flixster.com/OtMZ3p7GLkuPVCDKk77_qA5yrkQ=/80x80/v1.bjsyNTczMTU0O2o7MTg4NDg7MjA0ODsyMDQ4OzIwNDg", "submittedDate": "2020-08-03", "id": "multiuse-2573154", "photoType": "movie", "width": 1024}, {"url": "https://resizing.flixster.com/GlCsbCh6tDrR-iovMW9S5h2NtXY=/1024x576/v1.bjsyNTczMTU3O2o7MTg4NTE7MjA0ODsyMDQ4OzExNTI", "index": 2, "submittedBy": "RT Staff", "height": 576, "imageId": 2573157, "thumbnail": "https://resizing.flixster.com/-p7z2gm1sbNvx_UhJdiUs47XRQs=/80x80/v1.bjsyNTczMTU3O2o7MTg4NTE7MjA0ODsyMDQ4OzExNTI", "submittedDate": "2020-08-03", "id": "multiuse-2573157", "photoType": "movie", "width": 1024}, {"url": "https://resizing.flixster.com/EMqz0nNhFN2LPyY5AAFq_NGyI00=/1024x512/v1.bjsyNTczMTY0O2o7MTg4NTg7MjA0ODsyMDQ4OzEwMjQ", "index": 3, "submittedBy": "RT Staff", "height": 512, "imageId": 2573164, "thumbnail": "https://resizing.flixster.com/uPpyesdQAP0dSGT2eIjRd887N_c=/80x80/v1.bjsyNTczMTY0O2o7MTg4NTg7MjA0ODsyMDQ4OzEwMjQ", "submittedDate": "2020-08-03", "id": "multiuse-2573164", "photoType": "movie", "width": 1024}, {"url": "https://resizing.flixster.com/TsAzWqP49Bw26YYEG3LqONCYp5Q=/1024x576/v1.bjsyNjU0ODc4O2o7MTg4NTM7MjA0ODsxOTIwOzEwODA", "index": 4, "submittedBy": "RT Staff", "height": 576, "imageId": 2654878, "thumbnail": "https://resizing.flixster.com/PfTSlxFUGWJWDwb8GaVaLp-G6l4=/80x80/v1.bjsyNjU0ODc4O2o7MTg4NTM7MjA0ODsxOTIwOzEwODA", "submittedDate": "2020-12-21", "id": "multiuse-2654878", "photoType": "movie", "width": 1024}], "length": 5}, "studio": "IFC Films", "purchaseOptions": {"amazon": {"url": "http://www.amazon.com/gp/product/B001EO9XEU/ref=atv_feed_catalog?tag=rottetomao_aiv_mv-20", "isPrime": false, "type": "buy"}, "netflix": {"streamingId": "60026119"}, "iTunes": {"url": "https://itunes.apple.com/movie/lost-in-la-mancha/id257169110?uo=5", "price": "9.99"}}, "reviews": {"total": 101, "links": {"alternate": "//www.rottentomatoes.com/m/lost_in_la_mancha/#reviews", "self": "api.flixster.com/movies/lost-in-la-mancha/reviews.json?review_type=mob&country=us&page=1", "prev": "api.flixster.com/movies/lost-in-la-mancha/reviews.json?review_type=mob&country=us&page=0", "next": "api.flixster.com/movies/lost-in-la-mancha/reviews.json?review_type=mob&country=us&page=2"}, "reviews": [{"isRotten": false, "url": "http://www.newsweek.com/bring-windmills-140021", "publication": {"url": "", "name": "Newsweek"}, "isTop": true, "creationDate": 1520559304000, "isFresh": true, "freshness": "fresh", "critic": {"url": "/critic/david-ansen", "name": "David Ansen", "id": 774, "thumbnailImage": "https://resizing.flixster.com/88-P1uy1qLIB_a7vPT43dl0XsQA=/72x72/v1.YzsxNjIxO2c7MTg3NjY7MjA0ODszODszMw"}, "quote": "Anyone who thinks making movies is easy needs to see this hilariously painful cautionary tale. It's a tribute to Gilliam that he never once took off his mike or asked the filmmakers to stop rolling.", "id": 2463372, "links": {"review": "http://www.newsweek.com/bring-windmills-140021"}}, {"isRotten": false, "isFresh": true, "publication": {"name": "Orlando Sentinel"}, "isTop": true, "creationDate": 1053735202000, "freshness": "fresh", "critic": {"url": "/critic/roger-moore", "name": "Roger Moore", "id": 1238, "thumbnailImage": "https://resizing.flixster.com/pUhagbT0f-d7hdSnNo7LHh88w7o=/72x72/v1.YzsxNjU0O2c7MTg3OTk7MjA0ODszODs0NQ"}, "quote": "Wondrous document of a film gone wrong and an artist who inspires fans, cast and crew, even as he terrifies financiers, insurers and anyone more firmly footed in filmmaking reality.", "id": 1146048, "original_score": "5/5", "links": {}}, {"isRotten": false, "isFresh": true, "publication": {"url": "", "name": "Miami Herald"}, "isTop": true, "creationDate": 1051916408000, "freshness": "fresh", "critic": {"url": "/critic/rene-rodriguez", "name": "Rene Rodriguez", "id": 3423, "thumbnailImage": "https://resizing.flixster.com/VF5s64jQssz7OrKJhCCRrBa7aHI=/72x72/v1.YzsyNjE2O2c7MTg3NzE7MjA0ODsxNTA7MTUw"}, "quote": "A fascinating record of how the movie fell apart, piece by piece, with everything short of a natural disaster conspiring against the filmmaker.", "id": 1134039, "original_score": "3/4", "links": {}}, {"isRotten": false, "isFresh": true, "publication": {"url": "", "name": "Arizona Republic"}, "isTop": true, "creationDate": 1051832700000, "freshness": "fresh", "critic": {"url": "/critic/bill-muller", "name": "Bill Muller", "id": 1023, "thumbnailImage": "https://resizing.flixster.com/vjheTdUZqzsih7Po_nbCPyMUR4w=/72x72/v1.YzsxNjMyO2c7MTg3Nzc7MjA0ODszODs1MQ"}, "quote": "A fascinating study in the cinematic arts, as we watch a talented director and a committed crew and cast thwarted by nature, human failings and just plain bad luck.", "id": 1132938, "original_score": "4/5", "links": {}}, {"isRotten": false, "url": "http://www.globeandmail.com/servlet/ArticleNews/movie/MOVIEREVIEWS/20030321/RVLOST", "creationDate": 1048286742000, "isFresh": true, "id": 1120298, "quote": "Gilliam himself is a joy to behold. His wit stays sharp even as his fortunes dull, and the conditions that conspire against him only prove the mettle in our man of La Mancha.", "links": {"review": "http://www.globeandmail.com/servlet/ArticleNews/movie/MOVIEREVIEWS/20030321/RVLOST"}, "publication": {"url": "", "name": "Globe and Mail"}, "isTop": true, "freshness": "fresh", "critic": {"url": "/critic/rick-groen", "name": "Rick Groen", "id": 4130, "thumbnailImage": "https://d2a5cgar23scu2.cloudfront.net/static/images/redesign/user.none.tmb.jpg"}, "original_score": "2.5/4"}, {"isRotten": false, "url": "http://www.guidelive.com/profile/344771/?cslink=cs_movies_2_4", "creationDate": 1047000905000, "isFresh": true, "id": 848991, "quote": "Should be required viewing for all film-school students, aspiring filmmakers and studio suits.", "links": {"review": "http://www.guidelive.com/profile/344771/?cslink=cs_movies_2_4"}, "publication": {"url": "", "name": "Dallas Morning News"}, "isTop": true, "freshness": "fresh", "critic": {"url": "/critic/jane-sumner", "name": "Jane Sumner", "id": 3201, "thumbnailImage": "https://d2a5cgar23scu2.cloudfront.net/static/images/redesign/user.none.tmb.jpg"}, "original_score": "B+"}, {"isRotten": false, "url": "https://macguff.in/macguffin-content/lost-in-la-mancha-a-review/", "publication": {"url": "", "name": "The MacGuffin"}, "isTop": false, "creationDate": 1597430187000, "isFresh": true, "freshness": "fresh", "critic": {"url": "/critic/allen-almachar", "name": "Allen Almachar", "id": 27251, "thumbnailImage": "https://resizing.flixster.com/685wa0E3pM9hb-0fDGyxkU_RFPI=/72x72/v1.YzszNzIzO2o7MTg3OTg7MjA0ODszMDA7MzAw"}, "quote": "A gem ... for all those that love the movies, even the ones that don't get made.", "id": 2713606, "links": {"review": "https://macguff.in/macguffin-content/lost-in-la-mancha-a-review/"}}, {"isRotten": false, "url": "http://www.filmfest.ca/2002/two.html", "creationDate": 1182451244000, "isFresh": true, "id": 1640981, "quote": "In the end, I'm left with an immeasurable appreciation for how bloody hard 1st A.D.'s work on set, and the crap they've got to deal with.", "links": {"review": "http://www.filmfest.ca/2002/two.html"}, "publication": {"name": "Film Scouts"}, "isTop": false, "freshness": "fresh", "critic": {"url": "/critic/jason-gorber", "name": "Jason Gorber", "id": 122, "thumbnailImage": "https://resizing.flixster.com/XxOOzo2eBU97P6HIOEXfUeDTLoQ=/72x72/v1.YzsyNzExO2c7MTg3NzY7MjA0ODsxNTA7MTUw"}, "original_score": "A"}, {"isRotten": false, "isFresh": true, "publication": {"url": "", "name": "Looking Closer"}, "isTop": false, "creationDate": 1105858002000, "freshness": "fresh", "critic": {"url": "/critic/jeffrey-overstreet", "name": "Jeffrey Overstreet", "id": 3956, "thumbnailImage": "https://resizing.flixster.com/Dahx2DzZp60e0sNjlQh-qDBbnOk=/72x72/v1.YzsxNzExO2o7MTg3NjY7MjA0ODszODszOQ"}, "quote": "It's worth watching to catch glimpses of the Gilliam works, and to be strangely reassured that disasters and misfortune happen even to the best artists.", "id": 1353621, "original_score": "B+", "links": {}}, {"isRotten": false, "isFresh": true, "publication": {"url": "http://www.laalternativepress.com", "name": "Los Angeles Alternative"}, "isTop": false, "creationDate": 1096609331000, "freshness": "fresh", "critic": {"url": "/critic/jay-antani", "name": "Jay Antani", "id": 10563, "thumbnailImage": "https://resizing.flixster.com/J3Xr2Mikmur3Hlbu9oEC5ESFJxk=/72x72/v1.YzsxNzcxO2o7MTg3ODE7MjA0ODszODs0OA"}, "quote": "entertaining without always being compelling", "id": 1324098, "original_score": "3/5", "links": {"publication": "http://www.laalternativepress.com"}}, {"isRotten": true, "isFresh": false, "publication": {"url": "", "name": "Low IQ Canadian"}, "isTop": false, "creationDate": 1089251204000, "freshness": "rotten", "critic": {"url": "/critic/martin-scribbs", "name": "Martin Scribbs", "id": 9961, "thumbnailImage": "https://d2a5cgar23scu2.cloudfront.net/static/images/redesign/user.none.tmb.jpg"}, "quote": "I'd pay to watch Terry Gilliam take out his trash, but there's nothing in Lost in La Mancha much more exciting than that.", "id": 1295501, "links": {}}, {"isRotten": false, "url": "http://www.lariat.org/AtTheMovies/old/lostlamancha.html", "creationDate": 1074453354000, "isFresh": true, "id": 1239982, "quote": "A fascinating documentary for film fans. Those who are not real film fans or film students probably won't find it as interesting.", "links": {"review": "http://www.lariat.org/AtTheMovies/old/lostlamancha.html"}, "publication": {"name": "Laramie Movie Scope"}, "isTop": false, "freshness": "fresh", "critic": {"url": "/critic/robert-roten", "name": "Robert Roten", "id": 143, "thumbnailImage": "https://resizing.flixster.com/7dtiltLcBjoBxqXN706_9qiwI3I=/72x72/v1.YzsyMDI2O2o7MTg3NjY7MjA0ODs3Mjs3Mg"}, "original_score": "B"}]}, "casts": {"screenwriters": [{"url": "/celebrity/keith-fulton/", "name": "Keith Fulton", "thumbnailImg": "https://d2a5cgar23scu2.cloudfront.net/static/images/redesign/actor.default.tmb.gif"}, {"url": "/celebrity/lou_pepe/", "name": "Louis Pepe", "thumbnailImg": "https://d2a5cgar23scu2.cloudfront.net/static/images/redesign/actor.default.tmb.gif"}], "directors": [{"url": "/celebrity/keith-fulton/", "name": "Keith Fulton", "thumbnailImg": "https://d2a5cgar23scu2.cloudfront.net/static/images/redesign/actor.default.tmb.gif"}, {"url": "/celebrity/lou_pepe/", "name": "Louis Pepe", "thumbnailImg": "https://d2a5cgar23scu2.cloudfront.net/static/images/redesign/actor.default.tmb.gif"}], "creators": [], "producers": [{"url": "/celebrity/lucy-darwin/", "name": "Lucy Darwin", "thumbnailImg": "https://d2a5cgar23scu2.cloudfront.net/static/images/redesign/actor.default.tmb.gif"}], "castItems": [{"person": {"url": "/celebrity/rene_cleitman/", "name": "Rene Cleitman", "thumbnailImg": "https://d2a5cgar23scu2.cloudfront.net/static/images/redesign/actor.default.tmb.gif"}}, {"person": {"url": "/celebrity/terry_gilliam/", "name": "Terry Gilliam", "thumbnailImg": "https://resizing.flixster.com/r6VqmMN2XY_G1RHLUySxxs0wtQ8=/80x80/v1.cDsxMjI2NTQ2NjtqOzE4ODEyOzIwNDg7NDk1OzMyNw"}}, {"person": {"url": "/celebrity/tony_grisoni/", "name": "Tony Grisoni", "thumbnailImg": "https://d2a5cgar23scu2.cloudfront.net/static/images/redesign/actor.default.tmb.gif"}}, {"person": {"url": "/celebrity/phil_patterson/", "name": "Phil Patterson", "thumbnailImg": "https://d2a5cgar23scu2.cloudfront.net/static/images/redesign/actor.default.tmb.gif"}}, {"person": {"url": "/celebrity/nicola_pecorini/", "name": "Nicola Pecorini", "thumbnailImg": "https://d2a5cgar23scu2.cloudfront.net/static/images/redesign/actor.default.tmb.gif"}}, {"person": {"url": "/celebrity/johnny_depp/", "name": "Johnny Depp", "thumbnailImg": "https://resizing.flixster.com/vRB2yfGUuBQ_-GdpzMSNvzFN5x8=/80x80/v1.cjs0OTI1NDtqOzE4Nzg5OzIwNDg7MjA4MTsyMjIz"}}, {"person": {"url": "/celebrity/jean_rochefort/", "name": "Jean Rochefort", "thumbnailImg": "https://resizing.flixster.com/JHOEAtzYElV0iSu9DJIyUs2MQ_M=/80x80/v1.cDs5NDk4MTEzO2o7MTg3OTI7MjA0ODs0NjI7NDAw"}}, {"person": {"url": "/celebrity/jeff_bridges/", "name": "Jeff Bridges", "thumbnailImg": "https://resizing.flixster.com/lHwpAzXMZ2pgWqnKwoZtzPtXb7I=/80x80/v1.cjs0MDMyODtqOzE4NzczOzIwNDg7Mjc1OzIzMA"}, "characters": [{"name": "Narrator"}]}, {"person": {"url": "/celebrity/vanessa_paradis/", "name": "Vanessa Paradis", "thumbnailImg": "https://resizing.flixster.com/gsRaxOfFma-gssUhlnBB4jI1czw=/80x80/v1.cDsxMjU0MTg2MTtqOzE4Nzc2OzIwNDg7Mjg1OzM5Mg"}}, {"person": {"url": "/celebrity/bernard_bouix/", "name": "Bernard Bouix", "thumbnailImg": "https://d2a5cgar23scu2.cloudfront.net/static/images/redesign/actor.default.tmb.gif"}}, {"person": {"url": "/celebrity/benjamin_fernandez/", "name": "Benjamin Fernandez", "thumbnailImg": "https://d2a5cgar23scu2.cloudfront.net/static/images/redesign/actor.default.tmb.gif"}}, {"person": {"url": "/celebrity/gabriella_pescucci/", "name": "Gabriella Pescucci", "thumbnailImg": "https://d2a5cgar23scu2.cloudfront.net/static/images/redesign/actor.default.tmb.gif"}}]}, "title": "Lost in La Mancha", "adjustedScore": 96.39544875393754, "ratings": {"critics_rating": "Certified Fresh", "audience_score": 77, "dvdReleaseDate": 1056438000000, "critics_score": 94, "theaterReleaseDate": 1044000000000, "audience_rating": "Upright"}, "videoClips": {"mainTrailer": {"hlsUrl": "http://video.internetvideoarchive.net/video.m3u8?cmd=6&publishedid=428982&customerid=300120&e=1619087636286&sub=RTO&fmt=11&h=562a360611fb4e53844006f33add596b", "seconds": 31, "minutes": 1, "id": 10895433, "title": "Lost In La Mancha", "thumbUrl": "http://content.internetvideoarchive.com/content/photos/672/428982_042.jpg", "mp4Url": "http://video.internetvideoarchive.net/video.mp4?cmd=6&publishedid=428982&customerid=300120&e=1619087636286&sub=RTO&fmt=4&videokbrate=750&h=575bdcbbcb084a7fa4ce3c34b661e93f"}, "size": 1, "videoClips": [{"hlsUrl": "http://video.internetvideoarchive.net/video.m3u8?cmd=6&publishedid=428982&customerid=300120&e=1619087636286&sub=RTO&fmt=11&h=562a360611fb4e53844006f33add596b", "seconds": 31, "minutes": 1, "id": 10895433, "title": "Lost In La Mancha", "thumbUrl": "http://content.internetvideoarchive.com/content/photos/672/428982_042.jpg", "mp4Url": "http://video.internetvideoarchive.net/video.mp4?cmd=6&publishedid=428982&customerid=300120&e=1619087636286&sub=RTO&fmt=4&videokbrate=750&h=575bdcbbcb084a7fa4ce3c34b661e93f"}]}, "isUpcoming": false, "posters": {"original": "https://resizing.flixster.com/TlY92WJDjLZ-rWO-w2-O12YWa8I=/1401x1868/v1.bTsxMTI5MTM2NTtqOzE4ODYwOzIwNDg7MTQwMTsxODY4", "detailed": "https://resizing.flixster.com/dHty9zxETow95kdmwBB90sGFR7Y=/180x240/v1.bTsxMTI5MTM2NTtqOzE4ODYwOzIwNDg7MTQwMTsxODY4", "profile": "https://resizing.flixster.com/G-ScVV2L2eDvoSz8aBWkTyn174g=/120x160/v1.bTsxMTI5MTM2NTtqOzE4ODYwOzIwNDg7MTQwMTsxODY4", "thumbnail": "https://resizing.flixster.com/vj2DPTRkhX24MXxCPUgmpE72KLQ=/54x72/v1.bTsxMTI5MTM2NTtqOzE4ODYwOzIwNDg7MTQwMTsxODY4"}, "isLimited": true, "mainTrailer": {"thumbUrl": "https://content.internetvideoarchive.com/content/photos/672/428982_042.jpg", "hlsUrl": "http://video.internetvideoarchive.net/video.m3u8?cmd=6&publishedid=428982&customerid=300120&e=1619087635976&sub=RTO&fmt=11&h=038831dd09452370ac37334a7a54ff82", "id": 10895433, "mp4Url": "http://video.internetvideoarchive.net/video.mp4?cmd=6&publishedid=428982&customerid=300120&e=1619087635976&sub=RTO&fmt=4&videokbrate=750&h=8748d0dfdeffbd709afeea6a29e4dc1b"}, "advisory": "for language", "id": 13829}