{"url": "/m/the_sapphires_2012/", "isOnOpening": false, "boxoffice": "$2.4M", "genreSet": [{"displayName": "Drama", "id": 9}, {"displayName": "Musical & Performing Arts", "id": 12}, {"displayName": "Comedy", "id": 6}], "officialUrl": "http://thesapphiresmovie.com/", "isInTheaters": false, "synopsis": "Inspired by a true story, THE SAPPHIRES follows four vivacious, young and talented Australian Aboriginal girls from a remote mission as they learn about love, friendship and war when their all girl group The Sapphires entertains the U.S. troops in Vietnam in 1968. Cynthia (Tapsell), Gail (Mailman), Julie (Mauboy) and Kay (Sebbens) are discovered by Dave (O'Dowd), a good-humored talent scout with a kind heart, very little rhythm but a great knowledge of soul music. As their manager, Dave books the sisters their first true gig giving them their first taste of stardom, and travels them to Vietnam to sing for the American troops. (c) Weinstein", "links": {"alternate": "//www.rottentomatoes.com/m/the_sapphires_2012/"}, "runningTime": 98, "year": 2013, "trackingType": "DvdOther", "status": "Live", "isPlaying": false, "isOnDVD": true, "runningTimeStr": "1 hr. 38 min.", "ratingSummary": {"topcount": 47, "consensus": "While it's plenty predictable and sentimental, The Sapphires also has an irresistible feel-good vibe, winning music and charming performances to spare.", "topCritics": {"hasScore": true, "numReviews": 47, "meterClass": "certified", "numRotten": 5, "numFresh": 42, "hasReviews": true, "meterValue": 89, "averageRating": 6.559211}, "audience": {"meterScore": 76, "averageScore": 3.7883636951446533, "numTotal": 13270, "ratingType": "viewed"}, "allcount": 138, "rottencount": 12, "dvdcount": 0, "allCritics": {"hasScore": true, "numReviews": 138, "meterClass": "certified", "numRotten": 12, "numFresh": 126, "hasReviews": true, "meterValue": 91, "averageRating": 6.86}, "freshcount": 126}, "mpaaRating": "PG-13", "vanity": "the_sapphires_2012", "photos": {"photos": [{"url": "https://resizing.flixster.com/axnG00s0ozI2kXWgnUPCUX3Rq_w=/1023x682/v1.bjszNDIxNTtqOzE4NzgwOzIwNDg7Mzg2MTsyNTc0", "index": 0, "submittedBy": "RT Staff", "height": 682, "imageId": 34215, "thumbnail": "https://resizing.flixster.com/spp6IatLigSKRp5_CBLIO6iDY6k=/80x80/v1.bjszNDIxNTtqOzE4NzgwOzIwNDg7Mzg2MTsyNTc0", "submittedDate": "2014-06-30", "id": "multiuse-34215", "photoType": "movie", "width": 1023}, {"url": "https://resizing.flixster.com/PNihzco2YfuvY6s1Nh5vKxT-tZk=/1024x768/v1.bjszNDIxOTtqOzE4Nzg0OzIwNDg7MzAwMDsyMjUw", "index": 1, "submittedBy": "RT Staff", "height": 768, "imageId": 34219, "thumbnail": "https://resizing.flixster.com/Zsm-tRBiU0ralqf-_BPtz2glzBY=/80x80/v1.bjszNDIxOTtqOzE4Nzg0OzIwNDg7MzAwMDsyMjUw", "submittedDate": "2014-06-30", "id": "multiuse-34219", "photoType": "movie", "width": 1024}, {"url": "https://resizing.flixster.com/rVc31zWUfXOocknv-J93hVqvovA=/1024x512/v1.bjszNDIyMDtqOzE4Nzg1OzIwNDg7MzAwMDsxNTAw", "index": 2, "submittedBy": "RT Staff", "height": 512, "imageId": 34220, "thumbnail": "https://resizing.flixster.com/ImaeOAwn4Jmz9KRFB2GSA213_cE=/80x80/v1.bjszNDIyMDtqOzE4Nzg1OzIwNDg7MzAwMDsxNTAw", "submittedDate": "2014-06-30", "id": "multiuse-34220", "photoType": "movie", "width": 1024}, {"url": "https://resizing.flixster.com/c8omU_kU32kI0y0tjob5g1hsGqY=/1024x768/v1.bjszNDIyMTtqOzE4Nzg2OzIwNDg7MzAwMDsyMjUw", "index": 3, "submittedBy": "RT Staff", "height": 768, "imageId": 34221, "thumbnail": "https://resizing.flixster.com/dhEi_rDzm_ssK30BLsdl0z7f98Q=/80x80/v1.bjszNDIyMTtqOzE4Nzg2OzIwNDg7MzAwMDsyMjUw", "submittedDate": "2014-06-30", "id": "multiuse-34221", "photoType": "movie", "width": 1024}, {"url": "https://resizing.flixster.com/cYIgaz_wK-Lhk6NrW9ta2LVJcMY=/1024x768/v1.bjszNDIyMjtqOzE4Nzg3OzIwNDg7MzAwMDsyMjUw", "index": 4, "submittedBy": "RT Staff", "height": 768, "imageId": 34222, "thumbnail": "https://resizing.flixster.com/t-UBxz5wnTW5LPr3XfOkVZQNFFs=/80x80/v1.bjszNDIyMjtqOzE4Nzg3OzIwNDg7MzAwMDsyMjUw", "submittedDate": "2014-06-30", "id": "multiuse-34222", "photoType": "movie", "width": 1024}, {"url": "https://resizing.flixster.com/e-FSu8TXshozxuf7N6yTcN_SPE8=/600x400/v1.aDs5NjgzOTtqOzE4ODEwOzIwNDg7Mzg2MTsyNTc0", "index": 5, "submittedBy": "RT Staff", "height": 400, "imageId": 96839, "thumbnail": "https://resizing.flixster.com/mg5DiyYaDFrcHbSHrdNCDkclmGc=/80x80/v1.aDs5NjgzOTtqOzE4ODEwOzIwNDg7Mzg2MTsyNTc0", "submittedDate": "2012-12-03", "caption": "", "id": "movie-96839", "photoType": "movie", "width": 600}, {"url": "https://resizing.flixster.com/1GWFzWL-dOoWLuKlECIRO-EnCYE=/600x461/v1.aDs5Njg0MDtqOzE4NzY2OzIwNDg7Mzg2MTsyOTY0", "index": 6, "submittedBy": "RT Staff", "height": 461, "imageId": 96840, "thumbnail": "https://resizing.flixster.com/bFlN9JgeVdM4ksT11VVqwQi3FQY=/80x80/v1.aDs5Njg0MDtqOzE4NzY2OzIwNDg7Mzg2MTsyOTY0", "submittedDate": "2012-12-03", "caption": "", "id": "movie-96840", "photoType": "movie", "width": 600}, {"url": "https://resizing.flixster.com/TDiucw-9Zxbn4RSB6ufuZ3-x-BE=/600x400/v1.aDs5Njg0MTtqOzE4NzY3OzIwNDg7Mzg2MTsyNTc0", "index": 7, "submittedBy": "RT Staff", "height": 400, "imageId": 96841, "thumbnail": "https://resizing.flixster.com/tzvR4dxBwUsJIURXGvl3i8PrHWM=/80x80/v1.aDs5Njg0MTtqOzE4NzY3OzIwNDg7Mzg2MTsyNTc0", "submittedDate": "2012-12-03", "caption": "", "id": "movie-96841", "photoType": "movie", "width": 600}, {"url": "https://resizing.flixster.com/ncCLSG1OIaTsscuXaZEX0yyU7BY=/600x400/v1.aDs5Njg0MjtqOzE4NzY4OzIwNDg7Mzg2MTsyNTc0", "index": 8, "submittedBy": "RT Staff", "height": 400, "imageId": 96842, "thumbnail": "https://resizing.flixster.com/_CdrJD4mPh82ssyQjLH4fA4c4N0=/80x80/v1.aDs5Njg0MjtqOzE4NzY4OzIwNDg7Mzg2MTsyNTc0", "submittedDate": "2012-12-03", "caption": "", "id": "movie-96842", "photoType": "movie", "width": 600}, {"url": "https://resizing.flixster.com/vDrGJSv_g90PVHtsELmzVSZQYu4=/600x400/v1.aDs5Njg0MztqOzE4NzY5OzIwNDg7Mzg2MTsyNTc0", "index": 9, "submittedBy": "RT Staff", "height": 400, "imageId": 96843, "thumbnail": "https://resizing.flixster.com/Zcmr8RCFRI19673gjwX2D_oNNT0=/80x80/v1.aDs5Njg0MztqOzE4NzY5OzIwNDg7Mzg2MTsyNTc0", "submittedDate": "2012-12-03", "caption": "", "id": "movie-96843", "photoType": "movie", "width": 600}], "length": 10}, "studio": "The Weinstein Company", "purchaseOptions": {"amazon": {"url": "http://www.amazon.com/gp/product/B00DMTRMHU/ref=atv_feed_catalog?tag=rottetomao_aiv_mv-20", "isPrime": false, "type": "buy"}, "netflix": {"streamingId": "70242568"}, "vudu": {"url": "https://www.vudu.com/content/movies/details/The-Sapphires/451261", "type": "buy"}, "flixster": {"url": "the-sapphires-2012", "movieId": "ID: 2000071374; SKU:570808; Type: B (SD Buy)", "type": "buy"}, "iTunes": {"url": "https://itunes.apple.com/movie/the-sapphires/id660574675?uo=5", "price": "7.99"}}, "reviews": {"total": 138, "links": {"alternate": "//www.rottentomatoes.com/m/the_sapphires_2012/#reviews", "self": "api.flixster.com/movies/the-sapphires-2012/reviews.json?review_type=mob&country=us&page=1", "prev": "api.flixster.com/movies/the-sapphires-2012/reviews.json?review_type=mob&country=us&page=0", "next": "api.flixster.com/movies/the-sapphires-2012/reviews.json?review_type=mob&country=us&page=2"}, "reviews": [{"isRotten": false, "url": "http://www.independent.co.uk/arts-entertainment/films/reviews/the-sapphires-bfi-london-film-festival-8216738.html", "publication": {"url": "", "name": "Independent (UK)"}, "isTop": true, "creationDate": 1502494550000, "isFresh": true, "freshness": "fresh", "critic": {"url": "/critic/francesca-steele", "name": "Francesca Steele", "id": 14108, "thumbnailImage": "https://d2a5cgar23scu2.cloudfront.net/static/images/redesign/user.none.tmb.jpg"}, "quote": "This feelgood flick will almost certainly be an international hit and it is undeniably uplifting, the joyousness of soul music smoothing out the odd shifts in tone that arise as a result of the strange genre conflict. ", "id": 2410022, "links": {"review": "http://www.independent.co.uk/arts-entertainment/films/reviews/the-sapphires-bfi-london-film-festival-8216738.html"}}, {"isRotten": false, "url": "http://www.nydailynews.com/entertainment/tv-movies/movie-review-sapphires-article-1.1295258", "creationDate": 1388619820000, "isFresh": true, "id": 2181558, "quote": "This charming Australian import has a groove much like other low-key, let's-put-on-a-show indies such as Hear My Song and The Commitments, and never uses its social conscience as simply backbeat.", "links": {"review": "http://www.nydailynews.com/entertainment/tv-movies/movie-review-sapphires-article-1.1295258"}, "publication": {"url": "", "name": "New York Daily News"}, "isTop": true, "freshness": "fresh", "critic": {"url": "/critic/joe-neumaier", "name": "Joe Neumaier", "id": 12969, "thumbnailImage": "https://resizing.flixster.com/0Mk5qz_OwPT1cq-CUvDi18lb-uA=/72x72/v1.YzsyMjc0O2o7MTg3ODk7MjA0ODsxNDQ7MTQ0"}, "original_score": "3/5"}, {"isRotten": false, "url": "http://www.austinchronicle.com/calendar/film/2013-04-12/the-sapphires/", "creationDate": 1365768910000, "isFresh": true, "id": 2137361, "quote": "Exuberant but fairly formulaic.", "links": {"review": "http://www.austinchronicle.com/calendar/film/2013-04-12/the-sapphires/"}, "publication": {"url": "", "name": "Austin Chronicle"}, "isTop": true, "freshness": "fresh", "critic": {"url": "/critic/marjorie-baumgarten", "name": "Marjorie Baumgarten", "id": 34, "thumbnailImage": "https://d2a5cgar23scu2.cloudfront.net/static/images/redesign/user.none.tmb.jpg"}, "original_score": "3/5"}, {"isRotten": false, "isFresh": true, "publication": {"url": "", "name": "Denver Post"}, "isTop": true, "creationDate": 1365193195000, "freshness": "fresh", "critic": {"url": "/critic/lisa-kennedy", "name": "Lisa Kennedy", "id": 6103, "thumbnailImage": "https://resizing.flixster.com/5fAMmiUWK4EXPbpsnnnKl8BQ01w=/72x72/v1.YzsyMjY3O3A7MTg3ODI7MjA0ODs3Mjs3Mg"}, "quote": "The harmonies they strike in this reality-inspired charmer are sweetly sublime.", "id": 2136632, "original_score": "3/4", "links": {}}, {"isRotten": false, "url": "http://www.theglobeandmail.com/arts/film/film-reviews/the-sapphires-a-lively-feel-good-movie-about-a-dark-australian-time/article10734527/", "creationDate": 1365165191000, "isFresh": true, "id": 2136505, "quote": "You could drive an Abrams tank through the film's plot holes, but you'll likely be too busy enjoying yourself to bother.", "links": {"review": "http://www.theglobeandmail.com/arts/film/film-reviews/the-sapphires-a-lively-feel-good-movie-about-a-dark-australian-time/article10734527/"}, "publication": {"url": "", "name": "Globe and Mail"}, "isTop": true, "freshness": "fresh", "critic": {"url": "/critic/michael-posner", "name": "Michael Posner", "id": 11798, "thumbnailImage": "https://d2a5cgar23scu2.cloudfront.net/static/images/redesign/user.none.tmb.jpg"}, "original_score": "3/4"}, {"isRotten": false, "url": "http://seattletimes.com/html/movies/2020712681_moviesapphiresxml.html?syndication=rss", "creationDate": 1365113920000, "isFresh": true, "id": 2136389, "quote": "\"The Sapphires\" feels like a movie you've already seen, but it's nonetheless thoroughly enjoyable, like a pop song that's no less infectious when you know every word.", "links": {"review": "http://seattletimes.com/html/movies/2020712681_moviesapphiresxml.html?syndication=rss"}, "publication": {"url": "", "name": "Seattle Times"}, "isTop": true, "freshness": "fresh", "critic": {"url": "/critic/jeff-shannon", "name": "Jeff Shannon", "id": 4152, "thumbnailImage": "https://d2a5cgar23scu2.cloudfront.net/static/images/redesign/user.none.tmb.jpg"}, "original_score": "3/4"}, {"isRotten": false, "url": "https://www.stuff.co.nz/entertainment/film/film-reviews/300174223/the-sapphires-the-toetapping-pitchperfect-aussie-crowdpleaser-hits-netflix", "creationDate": 1607365325000, "isFresh": true, "id": 2749297, "quote": "A mix of drama and dance, triumph and tragedy, it will take a hard-of-heart audience member not to be swept up by the story.", "links": {"review": "https://www.stuff.co.nz/entertainment/film/film-reviews/300174223/the-sapphires-the-toetapping-pitchperfect-aussie-crowdpleaser-hits-netflix"}, "publication": {"url": "", "name": "Stuff.co.nz"}, "isTop": false, "freshness": "fresh", "critic": {"url": "/critic/james-croot", "name": "James Croot", "id": 13721, "thumbnailImage": "https://resizing.flixster.com/5j5GXAobovHcsSMnBTn8zqEL_5g=/72x72/v1.YzsyODQ5O2c7MTg3Nzk7MjA0ODsxNTA7MTUw"}, "original_score": "4/5"}, {"isRotten": false, "url": "https://www.wsws.org/en/articles/2013/04/12/nosa-a12.html", "publication": {"url": "", "name": "World Socialist Web Site"}, "isTop": false, "creationDate": 1597359934000, "isFresh": true, "freshness": "fresh", "critic": {"url": "/critic/joanne-laurier", "name": "Joanne Laurier", "id": 12748, "thumbnailImage": "https://d2a5cgar23scu2.cloudfront.net/static/images/redesign/user.none.tmb.jpg"}, "quote": "...it is rare to come across a movie with such sweetness, a movie in which one roots wholeheartedly for the characters and wishes them only the best.", "id": 2713275, "links": {"review": "https://www.wsws.org/en/articles/2013/04/12/nosa-a12.html"}}, {"isRotten": false, "url": "https://www.flickfeast.co.uk/reviews/dvd-reviews/sapphires-2012-2/", "creationDate": 1574714894000, "isFresh": true, "id": 2648838, "quote": "Slightly lacklustre in drama but sassy and lighthearted, The Sapphires is an enjoyable film and is a pretty good platform to show the power of Motown.", "links": {"review": "https://www.flickfeast.co.uk/reviews/dvd-reviews/sapphires-2012-2/"}, "publication": {"url": "", "name": "Flick Feast"}, "isTop": false, "freshness": "fresh", "critic": {"url": "/critic/katie-smith-wong", "name": "Katie Smith-Wong", "id": 25631, "thumbnailImage": "https://resizing.flixster.com/RJi-m9TFZo3-GtFCNhVxSgC3-tc=/72x72/v1.YzszNDcyO2o7MTg3NzI7MjA0ODszMDA7MzAw"}, "original_score": "3/5"}, {"isRotten": false, "url": "http://www.dogandwolf.com/2012/11/film-review-the-sapphires-2012/", "creationDate": 1535398646000, "isFresh": true, "id": 2503139, "quote": "The Sapphires is a genuinely feel-good film that has grit as well as laughter, and some great music which packs enough emotional power to make the tears flow - in a good way.", "links": {"publication": "http://www.dogandwolf.com/", "review": "http://www.dogandwolf.com/2012/11/film-review-the-sapphires-2012/"}, "publication": {"url": "http://www.dogandwolf.com/", "name": "Dog and Wolf"}, "isTop": false, "freshness": "fresh", "critic": {"url": "/critic/alexa-dalby", "name": "Alexa Dalby", "id": 22696, "thumbnailImage": "https://resizing.flixster.com/J1kfQi4rPXaTp36b8Jxah0XPOEI=/72x72/v1.YzszMDU4O2c7MTg4MDg7MjA0ODsxNTA7MTUw"}, "original_score": "4/5"}, {"isRotten": false, "url": "https://cine-vue.com/2012/11/film-review-the-sapphires.html", "creationDate": 1535057917000, "isFresh": true, "id": 2501116, "quote": "The Sapphires possesses all the necessary razzle-dazzle, shimmering sequin dresses and O'Dowd comic riffs to prove popular with audiences.", "links": {"review": "https://cine-vue.com/2012/11/film-review-the-sapphires.html"}, "publication": {"url": "", "name": "CineVue"}, "isTop": false, "freshness": "fresh", "critic": {"url": "/critic/joseph-walsh-14333", "name": "Joseph Walsh", "id": 14333, "thumbnailImage": "https://resizing.flixster.com/RgSVQgdWF9gKVqLA3LTWIG95mIg=/72x72/v1.YzsyNjg5O2c7MTg3OTk7MjA0ODsxNTA7MTUw"}, "original_score": "3/5"}, {"isRotten": false, "url": "http://rescu.com.au/best-australian-films/", "publication": {"url": "", "name": "Rescu (Australia)"}, "isTop": false, "creationDate": 1505516659000, "isFresh": true, "freshness": "fresh", "critic": {"url": "/critic/keeva-stratton", "name": "Keeva Stratton", "id": 19955, "thumbnailImage": "https://d2a5cgar23scu2.cloudfront.net/static/images/redesign/user.none.tmb.jpg"}, "quote": "Jessica Mauboy and Deborah Mailman showcase womanhood, with all its glory and its challenges, in this uplifting drama.", "id": 2419792, "links": {"review": "http://rescu.com.au/best-australian-films/"}}]}, "casts": {"screenwriters": [{"url": "/celebrity/keith_thompson/", "name": "Keith Thompson", "thumbnailImg": "https://d2a5cgar23scu2.cloudfront.net/static/images/redesign/actor.default.tmb.gif"}, {"url": "/celebrity/tony_briggs/", "name": "Tony Briggs", "thumbnailImg": "https://d2a5cgar23scu2.cloudfront.net/static/images/redesign/actor.default.tmb.gif"}], "directors": [{"url": "/celebrity/wayne_blair/", "name": "Wayne Blair", "thumbnailImg": "https://d2a5cgar23scu2.cloudfront.net/static/images/redesign/actor.default.tmb.gif"}], "creators": [], "producers": [{"url": "/celebrity/rosemary_blight/", "name": "Rosemary Blight", "thumbnailImg": "https://d2a5cgar23scu2.cloudfront.net/static/images/redesign/actor.default.tmb.gif"}, {"url": "/celebrity/kylie_du_fresne/", "name": "Kylie du Fresne", "thumbnailImg": "https://d2a5cgar23scu2.cloudfront.net/static/images/redesign/actor.default.tmb.gif"}], "castItems": [{"person": {"url": "/celebrity/christopher_odowd/", "name": "Chris O'Dowd", "thumbnailImg": "https://resizing.flixster.com/fvm0xB4112czB4uGqfmjKZ-rRt0=/80x80/v1.cjs0MzQ3ODtqOzE4NzczOzIwNDg7MjIwOzE5Ng"}, "characters": [{"name": "Dave Lovelace"}]}, {"person": {"url": "/celebrity/deborah_mailman/", "name": "Deborah Mailman", "thumbnailImg": "https://resizing.flixster.com/WcO_QEaXUvxbBureqj_d1Yfmbu0=/80x80/v1.cDsxMDcwNDM0MTtqOzE4ODU0OzIwNDg7MjA1OzI1MA"}, "characters": [{"name": "Gail"}]}, {"person": {"url": "/celebrity/jessica_mauboy/", "name": "Jessica Mauboy", "thumbnailImg": "https://resizing.flixster.com/mdZhj8267ldpCpzLnpSSEz7o1T4=/80x80/v1.cDsxMjczODc5ODtqOzE4Nzk1OzIwNDg7NTAwOzY5OQ"}, "characters": [{"name": "Julie"}]}, {"person": {"url": "/celebrity/shari_sebbens/", "name": "Shari Sebbens", "thumbnailImg": "https://d2a5cgar23scu2.cloudfront.net/static/images/redesign/actor.default.tmb.gif"}, "characters": [{"name": "Kay"}]}, {"person": {"url": "/celebrity/miranda_tapsell/", "name": "Miranda Tapsell", "thumbnailImg": "https://d2a5cgar23scu2.cloudfront.net/static/images/redesign/actor.default.tmb.gif"}, "characters": [{"name": "Cynthia"}]}, {"person": {"url": "/celebrity/tory-kittles/", "name": "Tory Kittles", "thumbnailImg": "https://resizing.flixster.com/t29odIQ1c1ZidEgLJNxN9jijWmI=/80x80/v1.cjs0ODAwODtqOzE4ODAzOzIwNDg7MTg4NjsxODg2"}, "characters": [{"name": "Robbie"}]}, {"person": {"url": "/celebrity/eka_darville/", "name": "Eka Darville", "thumbnailImg": "https://resizing.flixster.com/3P-5jmY-tPBD8GHOI_Vnxhp8UG8=/80x80/v1.cDsxMzczODU2ODtqOzE4ODEyOzIwNDg7NjQwOzM2OA"}, "characters": [{"name": "Hendo"}]}, {"person": {"url": "/celebrity/kylie-belling/", "name": "Kylie Belling", "thumbnailImg": "https://d2a5cgar23scu2.cloudfront.net/static/images/redesign/actor.default.tmb.gif"}, "characters": [{"name": "Geraldine"}]}, {"person": {"url": "/celebrity/lynette_narkle/", "name": "Lynette Narkle", "thumbnailImg": "https://d2a5cgar23scu2.cloudfront.net/static/images/redesign/actor.default.tmb.gif"}, "characters": [{"name": "Nanny Theresa"}]}, {"person": {"url": "/celebrity/gregory_j_fryer/", "name": "Gregory J. Fryer", "thumbnailImg": "https://d2a5cgar23scu2.cloudfront.net/static/images/redesign/actor.default.tmb.gif"}, "characters": [{"name": "Selwyn"}]}, {"person": {"url": "/celebrity/donald_battee/", "name": "Donald Battee", "thumbnailImg": "https://d2a5cgar23scu2.cloudfront.net/static/images/redesign/actor.default.tmb.gif"}, "characters": [{"name": "Myron Ritchie"}]}, {"person": {"url": "/celebrity/tj_power/", "name": "TJ Power", "thumbnailImg": "https://d2a5cgar23scu2.cloudfront.net/static/images/redesign/actor.default.tmb.gif"}, "characters": [{"name": "Lt. Jensen"}]}, {"person": {"url": "/celebrity/tanika_lonesborough/", "name": "Tanika Lonesborough", "thumbnailImg": "https://d2a5cgar23scu2.cloudfront.net/static/images/redesign/actor.default.tmb.gif"}, "characters": [{"name": "Young Gail"}]}, {"person": {"url": "/celebrity/miah_madden/", "name": "Miah Madden", "thumbnailImg": "https://d2a5cgar23scu2.cloudfront.net/static/images/redesign/actor.default.tmb.gif"}, "characters": [{"name": "Young Julie"}]}, {"person": {"url": "/celebrity/nioka_brennan/", "name": "Nioka Brennan", "thumbnailImg": "https://d2a5cgar23scu2.cloudfront.net/static/images/redesign/actor.default.tmb.gif"}, "characters": [{"name": "Young Kay"}]}, {"person": {"url": "/celebrity/tammy_anderson/", "name": "Tammy Anderson", "thumbnailImg": "https://d2a5cgar23scu2.cloudfront.net/static/images/redesign/actor.default.tmb.gif"}, "characters": [{"name": "Evelyn"}]}, {"person": {"url": "/celebrity/ava_jean_miller_porter/", "name": "Ava Jean Miller-Porter", "thumbnailImg": "https://d2a5cgar23scu2.cloudfront.net/static/images/redesign/actor.default.tmb.gif"}, "characters": [{"name": "Young Cynthia"}]}, {"person": {"url": "/celebrity/koby_murray/", "name": "Koby Murray", "thumbnailImg": "https://d2a5cgar23scu2.cloudfront.net/static/images/redesign/actor.default.tmb.gif"}, "characters": [{"name": "Baby Hartley"}]}, {"person": {"url": "/celebrity/hunter_paige_lochard/", "name": "Hunter Paige-Lochard", "thumbnailImg": "https://d2a5cgar23scu2.cloudfront.net/static/images/redesign/actor.default.tmb.gif"}, "characters": [{"name": "Stevie Kayne"}]}, {"person": {"url": "/celebrity/hunter_page_lochard/", "name": "Hunter Page-Lochard", "thumbnailImg": "https://d2a5cgar23scu2.cloudfront.net/static/images/redesign/actor.default.tmb.gif"}, "characters": [{"name": "Stevie Kayne"}]}, {"person": {"url": "/celebrity/meyne_wyatt/", "name": "Meyne Wyatt", "thumbnailImg": "https://d2a5cgar23scu2.cloudfront.net/static/images/redesign/actor.default.tmb.gif"}, "characters": [{"name": "Jimmy Middleton"}]}, {"person": {"url": "/celebrity/judith_lucy/", "name": "Judith Lucy", "thumbnailImg": "https://resizing.flixster.com/7tq7E2-EsqFNf4xCZGPfQfLc9kk=/80x80/v1.cDszNzE5MzMwO2o7MTg4ODg7MjA0ODsyMDI7MzAy"}, "characters": [{"name": "Merle"}]}, {"person": {"url": "/celebrity/tom_whitechurch/", "name": "Tom Whitechurch", "thumbnailImg": "https://d2a5cgar23scu2.cloudfront.net/static/images/redesign/actor.default.tmb.gif"}, "characters": [{"name": "Young Tommy"}]}, {"person": {"url": "/celebrity/annette_hodgson/", "name": "Annette Hodgson", "thumbnailImg": "https://d2a5cgar23scu2.cloudfront.net/static/images/redesign/actor.default.tmb.gif"}, "characters": [{"name": "Noelene"}]}, {"person": {"url": "/celebrity/georgina_haig/", "name": "Georgina Haig", "thumbnailImg": "https://resizing.flixster.com/W3TC6Kt_ULMiWlKjG-AWsRIwGBk=/80x80/v1.cDsxNDAwNjk5OTtqOzE4ODIxOzIwNDg7OTY7OTY"}, "characters": [{"name": "Glynis"}]}, {"person": {"url": "/celebrity/barry_southgate/", "name": "Barry Southgate", "thumbnailImg": "https://d2a5cgar23scu2.cloudfront.net/static/images/redesign/actor.default.tmb.gif"}, "characters": [{"name": "Singing Sailor"}]}, {"person": {"url": "/celebrity/rhys_muldoon/", "name": "Rhys Muldoon", "thumbnailImg": "https://resizing.flixster.com/pp6dEn86TKB0UKo_qHGLzEv70XQ=/80x80/v1.cDsxMDY4MjkxNTtqOzE4ODQ4OzIwNDg7Mzk1OzU5NA"}, "characters": [{"name": "Uncle Ed"}]}, {"person": {"url": "/celebrity/a_spencer_davis/", "name": "A. Spencer Davis", "thumbnailImg": "https://d2a5cgar23scu2.cloudfront.net/static/images/redesign/actor.default.tmb.gif"}, "characters": [{"name": "Singing Sailor"}]}, {"person": {"url": "/celebrity/rodney_todd/", "name": "Rodney Todd", "thumbnailImg": "https://d2a5cgar23scu2.cloudfront.net/static/images/redesign/actor.default.tmb.gif"}, "characters": [{"name": "Ed's Bass Player"}]}, {"person": {"url": "/celebrity/eric_rasmussen/", "name": "Eric Rasmussen", "thumbnailImg": "https://d2a5cgar23scu2.cloudfront.net/static/images/redesign/actor.default.tmb.gif"}, "characters": [{"name": "Ed's Guitarist"}]}, {"person": {"url": "/celebrity/julian_bel_bachir/", "name": "Julian Bel Bachir", "thumbnailImg": "https://d2a5cgar23scu2.cloudfront.net/static/images/redesign/actor.default.tmb.gif"}, "characters": [{"name": "Ed's Drummer"}]}, {"person": {"url": "/celebrity/amy_miller_porer/", "name": "Amy Miller Porer", "thumbnailImg": "https://d2a5cgar23scu2.cloudfront.net/static/images/redesign/actor.default.tmb.gif"}, "characters": [{"name": "Vera"}]}, {"person": {"url": "/celebrity/clarence_thane/", "name": "Clarence Thane", "thumbnailImg": "https://d2a5cgar23scu2.cloudfront.net/static/images/redesign/actor.default.tmb.gif"}, "characters": [{"name": "Bruce the Handyman"}]}, {"person": {"url": "/celebrity/merelyn_anderson/", "name": "Merelyn Anderson", "thumbnailImg": "https://d2a5cgar23scu2.cloudfront.net/static/images/redesign/actor.default.tmb.gif"}, "characters": [{"name": "Major Wicks"}]}, {"person": {"url": "/celebrity/kim_quyen/", "name": "Kim Quyen", "thumbnailImg": "https://d2a5cgar23scu2.cloudfront.net/static/images/redesign/actor.default.tmb.gif"}, "characters": [{"name": "Myron's Girl"}]}, {"person": {"url": "/celebrity/hai_thao/", "name": "Hai Thao", "thumbnailImg": "https://d2a5cgar23scu2.cloudfront.net/static/images/redesign/actor.default.tmb.gif"}, "characters": [{"name": "Seamstress"}]}, {"person": {"url": "/celebrity/hoang_hiep/", "name": "Hoang Hiep", "thumbnailImg": "https://d2a5cgar23scu2.cloudfront.net/static/images/redesign/actor.default.tmb.gif"}, "characters": [{"name": "Seamstress's Son"}]}, {"person": {"url": "/celebrity/cleave_williams/", "name": "Cleave Williams", "thumbnailImg": "https://d2a5cgar23scu2.cloudfront.net/static/images/redesign/actor.default.tmb.gif"}, "characters": [{"name": "Duggie"}]}, {"person": {"url": "/celebrity/martin_farrugia/", "name": "Martin Farrugia", "thumbnailImg": "https://d2a5cgar23scu2.cloudfront.net/static/images/redesign/actor.default.tmb.gif"}, "characters": [{"name": "Max"}]}, {"person": {"url": "/celebrity/ben_rodgers/", "name": "Ben Rodgers", "thumbnailImg": "https://d2a5cgar23scu2.cloudfront.net/static/images/redesign/actor.default.tmb.gif"}, "characters": [{"name": "Fish"}]}, {"person": {"url": "/celebrity/jasper_sarkodee/", "name": "Jasper Sarkodee", "thumbnailImg": "https://d2a5cgar23scu2.cloudfront.net/static/images/redesign/actor.default.tmb.gif"}, "characters": [{"name": "Pinky"}]}, {"person": {"url": "/celebrity/stuart_christie/", "name": "Stuart Christie", "thumbnailImg": "https://d2a5cgar23scu2.cloudfront.net/static/images/redesign/actor.default.tmb.gif"}, "characters": [{"name": "Government Official"}]}, {"person": {"url": "/celebrity/quan_tran/", "name": "Quan Tran", "thumbnailImg": "https://d2a5cgar23scu2.cloudfront.net/static/images/redesign/actor.default.tmb.gif"}, "characters": [{"name": "Vietcong Commander"}]}, {"person": {"url": "/celebrity/wayne_mcdaniel/", "name": "Wayne McDaniel", "thumbnailImg": "https://d2a5cgar23scu2.cloudfront.net/static/images/redesign/actor.default.tmb.gif"}, "characters": [{"name": "Lou McGarrick"}]}, {"person": {"url": "/celebrity/beau_brady/", "name": "Beau Brady", "thumbnailImg": "https://d2a5cgar23scu2.cloudfront.net/static/images/redesign/actor.default.tmb.gif"}, "characters": [{"name": "Marine Sergeant"}]}, {"person": {"url": "/celebrity/sam_north/", "name": "Sam North", "thumbnailImg": "https://d2a5cgar23scu2.cloudfront.net/static/images/redesign/actor.default.tmb.gif"}, "characters": [{"name": "Young Marine"}]}]}, "title": "The Sapphires", "adjustedScore": 95.95530928769323, "ratings": {"critics_rating": "Certified Fresh", "audience_score": 76, "dvdReleaseDate": 1375772400000, "critics_score": 91, "theaterReleaseDate": 1363935600000, "audience_rating": "Upright"}, "videoClips": {"mainTrailer": {"hlsUrl": "http://video.internetvideoarchive.net/video.m3u8?cmd=6&publishedid=59914&customerid=300120&e=1619087668099&sub=RTO&fmt=11&h=e47fa2970918483aa256f495cc45fe19", "seconds": 35, "minutes": 2, "id": 11166213, "title": "The Sapphires", "thumbUrl": "http://content.internetvideoarchive.com/content/photos/7766/59914_033.jpg", "mp4Url": "http://video.internetvideoarchive.net/video.mp4?cmd=6&publishedid=59914&customerid=300120&e=1619087668099&sub=RTO&fmt=4&videokbrate=750&h=990aecd3fff50469948b10c2571765e6"}, "size": 1, "videoClips": [{"hlsUrl": "http://video.internetvideoarchive.net/video.m3u8?cmd=6&publishedid=59914&customerid=300120&e=1619087668099&sub=RTO&fmt=11&h=e47fa2970918483aa256f495cc45fe19", "seconds": 35, "minutes": 2, "id": 11166213, "title": "The Sapphires", "thumbUrl": "http://content.internetvideoarchive.com/content/photos/7766/59914_033.jpg", "mp4Url": "http://video.internetvideoarchive.net/video.mp4?cmd=6&publishedid=59914&customerid=300120&e=1619087668099&sub=RTO&fmt=4&videokbrate=750&h=990aecd3fff50469948b10c2571765e6"}]}, "isUpcoming": false, "posters": {"original": "https://resizing.flixster.com/c_wjGdPyb5I81tH9jezSVwzmSsg=/810x1170/v1.bTsxMTE3MjcwOTtqOzE4ODY4OzIwNDg7ODEwOzExNzA", "detailed": "https://resizing.flixster.com/OU5YtEz96chES3hXYPwi0e3jrAc=/180x260/v1.bTsxMTE3MjcwOTtqOzE4ODY4OzIwNDg7ODEwOzExNzA", "profile": "https://resizing.flixster.com/dBFjDvYJho9xri1D9u1dw5ZTnsk=/120x173/v1.bTsxMTE3MjcwOTtqOzE4ODY4OzIwNDg7ODEwOzExNzA", "thumbnail": "https://resizing.flixster.com/GbrRb2WsPqW2Mvw111x_BFEcorA=/54x78/v1.bTsxMTE3MjcwOTtqOzE4ODY4OzIwNDg7ODEwOzExNzA"}, "isLimited": true, "mainTrailer": {"thumbUrl": "https://content.internetvideoarchive.com/content/photos/7766/59914_033.jpg", "hlsUrl": "http://video.internetvideoarchive.net/video.m3u8?cmd=6&publishedid=59914&customerid=300120&e=1619087667442&sub=RTO&fmt=11&h=9a0924ebf08392dd12f4e009d1f51afb", "id": 11166213, "mp4Url": "http://video.internetvideoarchive.net/video.mp4?cmd=6&publishedid=59914&customerid=300120&e=1619087667442&sub=RTO&fmt=4&videokbrate=750&h=54413c90ff80a2503c1f593c6f6a7768"}, "advisory": "for sexuality, a scene of war violence, some language, thematic elements and smoking", "id": 771307345}