{"url": "/m/judy_2019/", "isOnOpening": false, "genreSet": [{"displayName": "Musical & Performing Arts", "id": 12}, {"displayName": "Drama", "id": 9}], "officialUrl": "https://www.judythefilm.com/", "isInTheaters": false, "synopsis": "Winter 1968 and showbiz legend Judy Garland arrives in Swinging London to perform a five-week sold-out run at The Talk of the Town. It is 30 years since she shot to global stardom in The Wizard of Oz, but if her voice has weakened, its dramatic intensity has only grown. As she prepares for the show, battles with management, charms musicians and reminisces with friends and adoring fans, her wit and warmth shine through. Even her dreams of love seem undimmed as she embarks on a whirlwind romance with Mickey Deans, her soon-to-be fifth husband. Featuring some of her best-known songs, the film celebrates the voice, the capacity for love, and the sheer pizzazz of \"the world's greatest entertainer.\"", "links": {"alternate": "//www.rottentomatoes.com/m/judy_2019/"}, "runningTime": 118, "year": 2019, "trackingType": "DvdOther", "status": "Live", "isPlaying": false, "isOnDVD": true, "runningTimeStr": "1 hr. 58 min.", "ratingSummary": {"topcount": 70, "consensus": "Led by a deeply committed performance from Ren\u00e9e Zellweger, Judy captures the waning days of a beloved performer with clear-eyed compassion.", "topCritics": {"hasScore": true, "numReviews": 70, "meterClass": "certified", "numRotten": 11, "numFresh": 59, "hasReviews": true, "meterValue": 84, "averageRating": 6.978723}, "audience": {"meterScore": 86, "averageScore": 3.857142925262451, "numTotal": 45, "ratingType": "viewed"}, "allcount": 334, "rottencount": 62, "dvdcount": 1, "allCritics": {"hasScore": true, "numReviews": 334, "meterClass": "certified", "numRotten": 62, "numFresh": 272, "hasReviews": true, "meterValue": 81, "averageRating": 6.95}, "freshcount": 272}, "mpaaRating": "PG-13", "vanity": "judy_2019", "photos": {"photos": [{"url": "https://resizing.flixster.com/ObOPHJVkVGtlguNXkLi8fMbmVYw=/683x1024/v1.bjsyMjQ5ODY0O2o7MTg4MzU7MjA0ODsxMjQ5OzE4NzI", "index": 0, "submittedBy": "RT Staff", "height": 1024, "imageId": 2249864, "thumbnail": "https://resizing.flixster.com/EzeuKKY2wcEKdaQfE_O3ApbTVo0=/80x80/v1.bjsyMjQ5ODY0O2o7MTg4MzU7MjA0ODsxMjQ5OzE4NzI", "submittedDate": "2019-05-10", "id": "multiuse-2249864", "photoType": "movie", "width": 683}, {"url": "https://resizing.flixster.com/mq5MnllFIdOcUtvmJvat2D4qZck=/1023x682/v1.bjsyMjQ5ODY1O2o7MTg3OTE7MjA0ODs2MDAwOzQwMDA", "index": 1, "submittedBy": "RT Staff", "height": 682, "imageId": 2249865, "thumbnail": "https://resizing.flixster.com/u7g853mbYKRXHx4E3PUwYL3JrSc=/80x80/v1.bjsyMjQ5ODY1O2o7MTg3OTE7MjA0ODs2MDAwOzQwMDA", "submittedDate": "2019-05-10", "id": "multiuse-2249865", "photoType": "movie", "width": 1023}, {"url": "https://resizing.flixster.com/mBj-TPiIqoghcrHfV55wZM7u48s=/1023x682/v1.bjsyMjQ5ODY3O2o7MTg3OTM7MjA0ODs2MDAwOzQwMDA", "index": 2, "submittedBy": "RT Staff", "height": 682, "imageId": 2249867, "thumbnail": "https://resizing.flixster.com/Vljh0wDCpuK32iWZKRogXMfm4VE=/80x80/v1.bjsyMjQ5ODY3O2o7MTg3OTM7MjA0ODs2MDAwOzQwMDA", "submittedDate": "2019-05-10", "id": "multiuse-2249867", "photoType": "movie", "width": 1023}, {"url": "https://resizing.flixster.com/z1-qwEFdvURF7wcziOxvGr1qJIM=/1023x682/v1.bjsyMzI5NjYwO2o7MTg4MDE7MjA0ODs2MDAwOzQwMDA", "index": 3, "submittedBy": "RT Staff", "height": 682, "imageId": 2329660, "thumbnail": "https://resizing.flixster.com/bKGSW9Z3M01YxWJRXgXxJlZqBIg=/80x80/v1.bjsyMzI5NjYwO2o7MTg4MDE7MjA0ODs2MDAwOzQwMDA", "submittedDate": "2019-08-20", "id": "multiuse-2329660", "photoType": "movie", "width": 1023}, {"url": "https://resizing.flixster.com/6j1b1wUTg4xxlWBysC4rhpIJ24w=/1024x710/v1.bjsyMzI5NjYxO2o7MTg4MDI7MjA0ODs3MDg2OzQ5MTI", "index": 4, "submittedBy": "RT Staff", "height": 710, "imageId": 2329661, "thumbnail": "https://resizing.flixster.com/c-ORgYA2UsZP_C8WbJiNfeV7_CE=/80x80/v1.bjsyMzI5NjYxO2o7MTg4MDI7MjA0ODs3MDg2OzQ5MTI", "submittedDate": "2019-08-20", "id": "multiuse-2329661", "photoType": "movie", "width": 1024}, {"url": "https://resizing.flixster.com/XD9G68jqSWPzsqF6AgA6NJIqNSo=/1023x682/v1.bjsyMzI5NjYyO2o7MTg4MDM7MjA0ODs2MDAwOzQwMDA", "index": 5, "submittedBy": "RT Staff", "height": 682, "imageId": 2329662, "thumbnail": "https://resizing.flixster.com/ODYMULdRNBt-s3jXVKitPlA31Yc=/80x80/v1.bjsyMzI5NjYyO2o7MTg4MDM7MjA0ODs2MDAwOzQwMDA", "submittedDate": "2019-08-20", "id": "multiuse-2329662", "photoType": "movie", "width": 1023}, {"url": "https://resizing.flixster.com/WoezWHVEWq6MgtWRjQvkhRbrtv4=/1023x682/v1.bjsyMzI5NjYzO2o7MTg4MDQ7MjA0ODs2MDAwOzQwMDA", "index": 6, "submittedBy": "RT Staff", "height": 682, "imageId": 2329663, "thumbnail": "https://resizing.flixster.com/0E-t7exxxjCzjaTHRwlo9DeDTus=/80x80/v1.bjsyMzI5NjYzO2o7MTg4MDQ7MjA0ODs2MDAwOzQwMDA", "submittedDate": "2019-08-20", "id": "multiuse-2329663", "photoType": "movie", "width": 1023}, {"url": "https://resizing.flixster.com/0tNQWFRzCH3foAo8kFnUj2XU7u0=/1023x682/v1.bjsyMjY3MTYzO2o7MTg4MDk7MjA0ODszMDAwOzIwMDA", "index": 7, "submittedBy": "RT Staff", "height": 682, "imageId": 2267163, "thumbnail": "https://resizing.flixster.com/DLko4V7e5xKR7OPUrN1WRxK-sgs=/80x80/v1.bjsyMjY3MTYzO2o7MTg4MDk7MjA0ODszMDAwOzIwMDA", "submittedDate": "2019-06-03", "id": "multiuse-2267163", "photoType": "movie", "width": 1023}, {"url": "https://resizing.flixster.com/gRz12GcBqJmnURj3lLopi_vcKDI=/1024x683/v1.bjsyMjY3MTY0O2o7MTg4MTA7MjA0ODszMDAwOzIwMDI", "index": 8, "submittedBy": "RT Staff", "height": 683, "imageId": 2267164, "thumbnail": "https://resizing.flixster.com/0tS-DZJaVf-FoQ-wfiCOU2qn4y4=/80x80/v1.bjsyMjY3MTY0O2o7MTg4MTA7MjA0ODszMDAwOzIwMDI", "submittedDate": "2019-06-03", "id": "multiuse-2267164", "photoType": "movie", "width": 1024}, {"url": "https://resizing.flixster.com/RvA_hXoe_MWa7jlFpf5QuMtNaPo=/1024x885/v1.bjsyNDUyNzY3O2o7MTg4ODA7MjA0ODsyMDAwOzE3Mjk", "index": 9, "submittedBy": "RT Staff", "height": 885, "imageId": 2452767, "thumbnail": "https://resizing.flixster.com/M6JLHOeMTOnzlvYikq4_JWmnBJU=/80x80/v1.bjsyNDUyNzY3O2o7MTg4ODA7MjA0ODsyMDAwOzE3Mjk", "submittedDate": "2020-02-16", "id": "multiuse-2452767", "photoType": "movie", "width": 1024}, {"url": "https://resizing.flixster.com/5tPWQmJrYi-Pgygj5DJTomBqlok=/1024x710/v1.bjsyMzYzNDU5O2o7MTg4MDY7MjA0ODszMDAwOzIwODA", "index": 10, "submittedBy": "RT Staff", "height": 710, "imageId": 2363459, "thumbnail": "https://resizing.flixster.com/XGzGrcU-G4Gwn-0ccH4F55ddUvM=/80x80/v1.bjsyMzYzNDU5O2o7MTg4MDY7MjA0ODszMDAwOzIwODA", "submittedDate": "2019-09-18", "id": "multiuse-2363459", "photoType": "movie", "width": 1024}, {"url": "https://resizing.flixster.com/fwdpgs6lvaTsAGpIWl2hvK_fDZ8=/1023x682/v1.bjsyMzYzNDYwO2o7MTg4MDc7MjA0ODszMDAwOzIwMDA", "index": 11, "submittedBy": "RT Staff", "height": 682, "imageId": 2363460, "thumbnail": "https://resizing.flixster.com/z84TrA5o5Toy1VbHjr779rnb_ro=/80x80/v1.bjsyMzYzNDYwO2o7MTg4MDc7MjA0ODszMDAwOzIwMDA", "submittedDate": "2019-09-18", "id": "multiuse-2363460", "photoType": "movie", "width": 1023}, {"url": "https://resizing.flixster.com/HcJRPYOw6aWaR7GLTsylS3J0JFo=/1023x682/v1.bjsyMzYzNDYxO2o7MTg4MDg7MjA0ODszMDAwOzIwMDA", "index": 12, "submittedBy": "RT Staff", "height": 682, "imageId": 2363461, "thumbnail": "https://resizing.flixster.com/PQ7-FMFkLhL3QBuWNZG-OXMyBBA=/80x80/v1.bjsyMzYzNDYxO2o7MTg4MDg7MjA0ODszMDAwOzIwMDA", "submittedDate": "2019-09-18", "id": "multiuse-2363461", "photoType": "movie", "width": 1023}, {"url": "https://resizing.flixster.com/_FMoAPzxwTFzG6R9DrPdyx0Pofg=/1023x682/v1.bjsyMzYzNDYyO2o7MTg4MDk7MjA0ODszMDAwOzIwMDA", "index": 13, "submittedBy": "RT Staff", "height": 682, "imageId": 2363462, "thumbnail": "https://resizing.flixster.com/vK2Jgwj1vE21BbI234emrwg8hPg=/80x80/v1.bjsyMzYzNDYyO2o7MTg4MDk7MjA0ODszMDAwOzIwMDA", "submittedDate": "2019-09-18", "id": "multiuse-2363462", "photoType": "movie", "width": 1023}, {"url": "https://resizing.flixster.com/x2lkSwftmSh9I4XRvZabs4u_tLk=/1024x683/v1.bjsyMjQ5ODY2O2o7MTg3OTI7MjA0ODs3MzYwOzQ5MTI", "index": 14, "submittedBy": "RT Staff", "height": 683, "imageId": 2249866, "thumbnail": "https://resizing.flixster.com/CwVmO4SmLdIXpzE2z-SPUDJu_ro=/80x80/v1.bjsyMjQ5ODY2O2o7MTg3OTI7MjA0ODs3MzYwOzQ5MTI", "submittedDate": "2019-05-10", "id": "multiuse-2249866", "photoType": "movie", "width": 1024}], "length": 15}, "studio": "Roadside Attractions/LD Entertainment", "purchaseOptions": {"amazon": {"url": "http://www.amazon.com/gp/video/primesignup?t=0m0s&redirectToAsin=B07YHFB9L9&tag=rottetomao_piv_mv-20", "isPrime": true}, "iTunes": {"url": "https://itunes.apple.com/movie/judy/id1481675759?uo=5", "price": "12.99"}}, "reviews": {"total": 334, "links": {"alternate": "//www.rottentomatoes.com/m/judy_2019/#reviews", "self": "api.flixster.com/movies/judy-2019/reviews.json?review_type=mob&country=us&page=1", "prev": "api.flixster.com/movies/judy-2019/reviews.json?review_type=mob&country=us&page=0", "next": "api.flixster.com/movies/judy-2019/reviews.json?review_type=mob&country=us&page=2"}, "reviews": [{"isRotten": false, "url": "https://film.avclub.com/renee-zellweger-zings-in-a-judy-garland-biopic-that-cla-1837970334", "creationDate": 1611860974000, "isFresh": true, "id": 2760151, "quote": "Garland's life is so inherently emotional and Zellweger's performance is so appreciably raw, that Judy manages to wring pathos by the end. ", "links": {"review": "https://film.avclub.com/renee-zellweger-zings-in-a-judy-garland-biopic-that-cla-1837970334"}, "publication": {"url": "", "name": "AV Club"}, "isTop": true, "freshness": "fresh", "critic": {"url": "/critic/caroline-siede", "name": "Caroline Siede", "id": 15550, "thumbnailImage": "https://resizing.flixster.com/_7exF9y1KuZ12F_vZJFBj7yP8Gk=/72x72/v1.YzszMjkwO2o7MTg3NzA7MjA0ODszMDA7MzAw"}, "original_score": "B-"}, {"isRotten": false, "url": "https://www.livemint.com/mint-lounge/features/film-review-judy-shows-how-the-actor-s-life-wasn-t-all-rainbows-11579871500235.html", "publication": {"url": "", "name": "Livemint"}, "isTop": true, "creationDate": 1579909883000, "isFresh": true, "freshness": "fresh", "critic": {"url": "/critic/udita-jhunjhunwala", "name": "Udita Jhunjhunwala", "id": 17454, "thumbnailImage": "https://resizing.flixster.com/ijBKZoVnONvw2xuIvtAvWD2ch4Y=/72x72/v1.YzszMzM3O2o7MTg3NzI7MjA0ODszMDA7MzAw"}, "quote": "Judy, a musical drama, is both a warm and loving tribute to the actor and singer Judy Garland as well as a cautionary tale about the pressures and impact of celebrity.", "id": 2663358, "links": {"review": "https://www.livemint.com/mint-lounge/features/film-review-judy-shows-how-the-actor-s-life-wasn-t-all-rainbows-11579871500235.html"}}, {"isRotten": false, "url": "https://www.filmink.com.au/reviews/judy/", "creationDate": 1617320696000, "isFresh": true, "id": 2781542, "quote": "... an engrossing and timely biopic spearheaded by a transcendent Zellweger performance.", "links": {"review": "https://www.filmink.com.au/reviews/judy/"}, "publication": {"url": "", "name": "FILMINK (Australia)"}, "isTop": false, "freshness": "fresh", "critic": {"url": "/critic/hagan-osborne", "name": "Hagan Osborne", "id": 28541, "thumbnailImage": "https://d2a5cgar23scu2.cloudfront.net/static/images/redesign/user.none.tmb.jpg"}, "original_score": "15/20"}, {"isRotten": false, "url": "https://dallas.culturemap.com/news/entertainment/09-26-19-renee-zellweger-judy-garland-movie-review/#slide=0", "publication": {"url": "", "name": "CultureMap"}, "isTop": false, "creationDate": 1613601080000, "isFresh": true, "freshness": "fresh", "critic": {"url": "/critic/alex-bentley", "name": "Alex Bentley", "id": 28130, "thumbnailImage": "https://resizing.flixster.com/so-HmYG8nPSbeScRYJZdw-H1O68=/72x72/v1.YzszODU5O2o7MTg3OTk7MjA0ODszMDA7MzAw"}, "quote": "Judy does a fantastic job at exploring the person and star Judy Garland was, as well as who she wished she could have been had life turned out different.", "id": 2769023, "links": {"review": "https://dallas.culturemap.com/news/entertainment/09-26-19-renee-zellweger-judy-garland-movie-review/#slide=0"}}, {"isRotten": true, "url": "https://www.wsws.org/en/articles/2019/11/04/judy-n04.html", "publication": {"url": "", "name": "World Socialist Web Site"}, "isTop": false, "creationDate": 1612930469000, "isFresh": false, "freshness": "rotten", "critic": {"url": "/critic/joanne-laurier", "name": "Joanne Laurier", "id": 12748, "thumbnailImage": "https://d2a5cgar23scu2.cloudfront.net/static/images/redesign/user.none.tmb.jpg"}, "quote": "In the end, Judy is, to a large degree, an effort at impersonation to which certain relatively simplistic criticisms of the film industry are attached.", "id": 2766213, "links": {"review": "https://www.wsws.org/en/articles/2019/11/04/judy-n04.html"}}, {"isRotten": true, "url": "https://www.kmuw.org/post/movie-review-judy", "publication": {"url": "", "name": "KMUW - Wichita Public Radio"}, "isTop": false, "creationDate": 1612568998000, "isFresh": false, "freshness": "rotten", "critic": {"url": "/critic/fletcher-powell", "name": "Fletcher Powell", "id": 28132, "thumbnailImage": "https://resizing.flixster.com/Mma1D2Bt7E_HWtZ6iRnYn82Xvb4=/72x72/v1.YzszODY2O2o7MTg4MDY7MjA0ODszMDA7MzAw"}, "quote": "I don't think it was the intention of the makers of Judy for us not to see her as a real, layered person, but this is the result.", "id": 2765155, "links": {"review": "https://www.kmuw.org/post/movie-review-judy"}}, {"isRotten": false, "url": "https://www.ctvnews.ca/entertainment/movie-reviews-abominable-is-action-adventure-for-kids-with-a-light-touch-great-look-1.4606330", "creationDate": 1612106111000, "isFresh": true, "id": 2761788, "quote": "Bringing the story to vivid life is Zellweger in a career best performance. She looks and sounds enough like Garland to be convincing, but this isn't just mimicry. ", "links": {"review": "https://www.ctvnews.ca/entertainment/movie-reviews-abominable-is-action-adventure-for-kids-with-a-light-touch-great-look-1.4606330"}, "publication": {"url": "", "name": "Richard Crouse"}, "isTop": false, "freshness": "fresh", "critic": {"url": "/critic/richard-crouse", "name": "Richard Crouse", "id": 5921, "thumbnailImage": "https://resizing.flixster.com/ccJ27MfJF5DyTthYpeMJqr02opo=/72x72/v1.YzszODgxO2o7MTg3NzY7MjA0ODszMDA7MzAw"}, "original_score": "4/5"}, {"isRotten": false, "url": "http://cinemasight.com/review-judy-2019/", "creationDate": 1608169317000, "isFresh": true, "id": 2751792, "quote": "Renee Zellweger does more than just an impression of Judy Garland, inhabiting her joys and failures with equal passion.", "links": {"review": "http://cinemasight.com/review-judy-2019/"}, "publication": {"url": "", "name": "Cinema Sight"}, "isTop": false, "freshness": "fresh", "critic": {"url": "/critic/wesley-lovell", "name": "Wesley Lovell", "id": 58, "thumbnailImage": "https://resizing.flixster.com/V7qux9S41FEAzbG7mffEgZiaKH4=/72x72/v1.YzsyMDEwO2c7MTg3OTU7MjA0ODs3NTsxMDA"}, "original_score": "3/4"}, {"isRotten": false, "url": "https://www.marieclaire.co.uk/entertainment/tv-and-film/must-see-films-october-711695", "publication": {"url": "", "name": "Marie Claire"}, "isTop": false, "creationDate": 1601035035000, "isFresh": true, "freshness": "fresh", "critic": {"url": "/critic/jason-best", "name": "Jason Best", "id": 5917, "thumbnailImage": "https://resizing.flixster.com/NbnZwwvEBF5BgCAryP2t5srwEHQ=/72x72/v1.YzsyMjU3O2o7MTg3NzI7MjA0ODszODs0Mg"}, "quote": "The movie's spotlight is where it should be: on Zellweger's Judy. Brilliant at conveying both the star's vulnerability and her still radiant charisma, she is simply sensational", "id": 2728865, "links": {"review": "https://www.marieclaire.co.uk/entertainment/tv-and-film/must-see-films-october-711695"}}, {"isRotten": false, "url": "http://cinemasentries.com/review/judy-movie-review-renee-zellweger-elevates-glorified-wikipedia-entry/", "publication": {"url": "", "name": "Cinema Sentries"}, "isTop": false, "creationDate": 1600899202000, "isFresh": true, "freshness": "fresh", "critic": {"url": "/critic/matthew-st-clair", "name": "Matthew St. Clair", "id": 19885, "thumbnailImage": "https://resizing.flixster.com/xbEJ8Atm9819vOjL2gPeMU7QpkM=/72x72/v1.YzszNzk1O2o7MTg3ODA7MjA0ODszMDA7MzAw"}, "quote": "With Judy, Renee Zellweger has found a perfect fusion of actor and character.", "id": 2727998, "links": {"review": "http://cinemasentries.com/review/judy-movie-review-renee-zellweger-elevates-glorified-wikipedia-entry/"}}, {"isRotten": false, "url": "https://thebaffler.com/latest/money-is-an-iron-hamrah", "publication": {"url": "", "name": "The Baffler"}, "isTop": false, "creationDate": 1600305219000, "isFresh": true, "freshness": "fresh", "critic": {"url": "/critic/as-hamrah", "name": "A.S. Hamrah", "id": 13455, "thumbnailImage": "https://d2a5cgar23scu2.cloudfront.net/static/images/redesign/user.none.tmb.jpg"}, "quote": "Zellweger finds the tragedy of Garland's life in odd moments-staring at a pretty slice of cake she is afraid to eat, turning the plate around.", "id": 2725487, "links": {"review": "https://thebaffler.com/latest/money-is-an-iron-hamrah"}}, {"isRotten": false, "url": "https://theindependentcritic.com/judy", "creationDate": 1599955468000, "isFresh": true, "id": 2723827, "quote": "Zellweger's film from beginning to end.", "links": {"review": "https://theindependentcritic.com/judy"}, "publication": {"url": "", "name": "TheIndependentCritic.com"}, "isTop": false, "freshness": "fresh", "critic": {"url": "/critic/richard-propes-27470", "name": "Richard Propes", "id": 27470, "thumbnailImage": "https://resizing.flixster.com/9RafzdrYTvTWxFzPswX4QYwPgK8=/72x72/v1.YzszODAzO2o7MTg3ODg7MjA0ODszMDA7MzAw"}, "original_score": "3.0/4.0"}]}, "casts": {"screenwriters": [{"url": "/celebrity/tom_edge/", "name": "Tom Edge", "thumbnailImg": "https://d2a5cgar23scu2.cloudfront.net/static/images/redesign/actor.default.tmb.gif"}], "directors": [{"url": "/celebrity/rupert_goold/", "name": "Rupert Goold", "thumbnailImg": "https://d2a5cgar23scu2.cloudfront.net/static/images/redesign/actor.default.tmb.gif"}], "creators": [], "producers": [{"url": "/celebrity/david_livingstone/", "name": "David Livingstone", "thumbnailImg": "https://d2a5cgar23scu2.cloudfront.net/static/images/redesign/actor.default.tmb.gif"}], "castItems": [{"person": {"url": "/celebrity/renee_zellweger/", "name": "Ren\u00e9e Zellweger", "thumbnailImg": "https://resizing.flixster.com/a0nNjDOE5YFnoX8meFb1qigttC8=/80x80/v1.cjs1MDIxMDtqOzE4ODAwOzIwNDg7MjcwNDszNTAw"}, "characters": [{"name": "Judy Garland"}]}, {"person": {"url": "/celebrity/jessie_buckley/", "name": "Jessie Buckley", "thumbnailImg": "https://resizing.flixster.com/q8eb_xb4vEV4N__mKnU58c2Jxf4=/80x80/v1.cjs1MDIxMTtqOzE4ODAxOzIwNDg7MjcwNjs0MDU5"}}, {"person": {"url": "/celebrity/finn_wittrock/", "name": "Finn Wittrock", "thumbnailImg": "https://resizing.flixster.com/0y4-rU-gmoRBR1De_gYd6Pg6pdo=/80x80/v1.cjs0OTE0NDtqOzE4NzY5OzIwNDg7MjA2NDsyMDc5"}}, {"person": {"url": "/celebrity/rufus_sewell/", "name": "Rufus Sewell", "thumbnailImg": "https://resizing.flixster.com/RAe-WfX1B8Z-xnV9niTpcKzIVrc=/80x80/v1.cjs0NzczOTtqOzE4ODA0OzIwNDg7MTQ0NzsxNDQ3"}}, {"person": {"url": "/celebrity/michael_gambon/", "name": "Michael Gambon", "thumbnailImg": "https://resizing.flixster.com/dXHw-BuFt0PVDRfmy-dJsDxqB6k=/80x80/v1.cjs0NDU4MDtqOzE4Nzk1OzIwNDg7Mzc3OzMzNg"}}, {"person": {"url": "/celebrity/bella_ramsey/", "name": "Bella Ramsey", "thumbnailImg": "https://resizing.flixster.com/Sk3GSaA0ZdnH0_Rg0wP1j9WA59k=/80x80/v1.cjs1MDQyOTtqOzE4Nzk0OzIwNDg7MTg0MDsyNzYw"}}, {"person": {"url": "/celebrity/lewin_lloyd/", "name": "Lewin Lloyd", "thumbnailImg": "https://d2a5cgar23scu2.cloudfront.net/static/images/redesign/actor.default.tmb.gif"}}]}, "title": "Judy", "adjustedScore": 95.46518250304442, "ratings": {"critics_rating": "Certified Fresh", "audience_score": 86, "dvdReleaseDate": 1575964800000, "critics_score": 81, "theaterReleaseDate": 1569567600000, "audience_rating": "Upright"}, "videoClips": {"mainTrailer": {"hlsUrl": "http://video.internetvideoarchive.net/video.m3u8?cmd=6&publishedid=http://link.theplatform.com/s/NGweTC/media/ZQGFSOnSG2uo&customerid=300120&e=1619087706195&sub=RTO&fmt=11&h=2f9bd1216352315d57f2bf54611af4b4", "seconds": 24, "minutes": 2, "id": 11312423, "title": "Judy: Trailer 2", "thumbUrl": "http://resizing.flixster.com/k_YzLI7TMwiEaL_3AZA87xmsHSM=/171x128/v1.bjsyMjgyMzI0O2o7MTg3OTE7MjA0ODsxMDgwOzE5MjA", "mp4Url": "http://video.internetvideoarchive.net/video.mp4?cmd=6&publishedid=http://link.theplatform.com/s/NGweTC/media/ZQGFSOnSG2uo&customerid=300120&e=1619087706195&sub=RTO&fmt=4&videokbrate=750&h=003450149707aaf4751f34fa8ccbdcc3"}, "size": 4, "videoClips": [{"hlsUrl": "http://video.internetvideoarchive.net/video.m3u8?cmd=6&publishedid=http://link.theplatform.com/s/NGweTC/media/ZQGFSOnSG2uo&customerid=300120&e=1619087706195&sub=RTO&fmt=11&h=2f9bd1216352315d57f2bf54611af4b4", "seconds": 24, "minutes": 2, "id": 11312423, "title": "Judy: Trailer 2", "thumbUrl": "http://resizing.flixster.com/k_YzLI7TMwiEaL_3AZA87xmsHSM=/171x128/v1.bjsyMjgyMzI0O2o7MTg3OTE7MjA0ODsxMDgwOzE5MjA", "mp4Url": "http://video.internetvideoarchive.net/video.mp4?cmd=6&publishedid=http://link.theplatform.com/s/NGweTC/media/ZQGFSOnSG2uo&customerid=300120&e=1619087706195&sub=RTO&fmt=4&videokbrate=750&h=003450149707aaf4751f34fa8ccbdcc3"}, {"hlsUrl": "http://video.internetvideoarchive.net/video.m3u8?cmd=6&publishedid=http://link.theplatform.com/s/NGweTC/media/2EzsmMr_IddE&customerid=300120&e=1619087706195&sub=RTO&fmt=11&h=026c454b64ef77012fadcbda5b6fa4df", "seconds": 6, "minutes": 4, "id": 11316079, "title": "Judy: Becoming Judy", "thumbUrl": "http://resizing.flixster.com/QWenSQdXktphU3MK4kDzxaJKKQs=/171x128/v1.bjsyMzkzMTYxO2o7MTg4Mzc7MjA0ODsxMDgwOzE5MjA", "mp4Url": "http://video.internetvideoarchive.net/video.mp4?cmd=6&publishedid=http://link.theplatform.com/s/NGweTC/media/2EzsmMr_IddE&customerid=300120&e=1619087706195&sub=RTO&fmt=4&videokbrate=750&h=a2c9ec525f9b20b77ae850dd8c4b2f3a"}, {"hlsUrl": "http://video.internetvideoarchive.net/video.m3u8?cmd=6&publishedid=http://link.theplatform.com/s/NGweTC/media/8_5jVaT7rwec&customerid=300120&e=1619087706195&sub=RTO&fmt=11&h=cb5a8ee7b0c1aa608e9edcaff0f38c78", "seconds": 3, "minutes": 1, "id": 11311806, "title": "Judy: Trailer 1", "thumbUrl": "http://resizing.flixster.com/OL5gR87OxkbnrY7wfYL8TIIvYLY=/171x128/v1.bjsyMjQ5OTI1O2o7MTg3OTE7MjA0ODsxMDgwOzE5MjA", "mp4Url": "http://video.internetvideoarchive.net/video.mp4?cmd=6&publishedid=http://link.theplatform.com/s/NGweTC/media/8_5jVaT7rwec&customerid=300120&e=1619087706195&sub=RTO&fmt=4&videokbrate=750&h=6bbb4ed9038bd89beed04be975b8d43f"}, {"hlsUrl": "http://video.internetvideoarchive.net/video.m3u8?cmd=6&publishedid=http://link.theplatform.com/s/NGweTC/media/fo_Q6LbxH5zT&customerid=300120&e=1619087706195&sub=RTO&fmt=11&h=017821141e2527b40d49de0deb97addc", "seconds": 5, "minutes": 3, "id": 11326934, "title": "2020 Oscar Predictions", "thumbUrl": "http://resizing.flixster.com/ED8FzAm68tMMWjXjZ92NBEVyWjU=/171x128/v1.bjsyNTQzMTk2O2o7MTg4Mzk7MjA0ODsxMDgwOzE5MjA", "mp4Url": "http://video.internetvideoarchive.net/video.mp4?cmd=6&publishedid=http://link.theplatform.com/s/NGweTC/media/fo_Q6LbxH5zT&customerid=300120&e=1619087706195&sub=RTO&fmt=4&videokbrate=750&h=5304c8fb6459147c0cc3a6b79a13bda3"}]}, "isUpcoming": false, "posters": {"original": "https://resizing.flixster.com/6UcrWkm9mDD4kaSBN7f5EoGeJjQ=/2000x3000/v1.bTsxMzIxOTQ4NTtqOzE4Nzk4OzIwNDg7MjAwMDszMDAw", "detailed": "https://resizing.flixster.com/2dFCC8ZXP6LpyDq8P8QJ04BziFo=/180x270/v1.bTsxMzIxOTQ4NTtqOzE4Nzk4OzIwNDg7MjAwMDszMDAw", "profile": "https://resizing.flixster.com/jm_09rEhtL-bIefwJv2dRzVQVCw=/120x180/v1.bTsxMzIxOTQ4NTtqOzE4Nzk4OzIwNDg7MjAwMDszMDAw", "thumbnail": "https://resizing.flixster.com/CwcdlsDf_yp7B3m2kajnsBq7MP0=/54x81/v1.bTsxMzIxOTQ4NTtqOzE4Nzk4OzIwNDg7MjAwMDszMDAw"}, "isLimited": true, "mainTrailer": {"thumbUrl": "https://resizing.flixster.com/k_YzLI7TMwiEaL_3AZA87xmsHSM=/171x128/v1.bjsyMjgyMzI0O2o7MTg3OTE7MjA0ODsxMDgwOzE5MjA", "hlsUrl": "http://video.internetvideoarchive.net/video.m3u8?cmd=6&publishedid=http://link.theplatform.com/s/NGweTC/media/ZQGFSOnSG2uo&customerid=300120&e=1619087705930&sub=RTO&fmt=11&h=f0af8474b599fef1b89777b596124c6a", "id": 11312423, "mp4Url": "http://video.internetvideoarchive.net/video.mp4?cmd=6&publishedid=http://link.theplatform.com/s/NGweTC/media/ZQGFSOnSG2uo&customerid=300120&e=1619087705930&sub=RTO&fmt=4&videokbrate=750&h=68bca87c695f4dfc64c379774289748d"}, "advisory": "for substance abuse, thematic content, some strong language, and smoking", "id": 771502293}