{"url": "/m/my_architect/", "isOnOpening": false, "boxoffice": "$2.7M", "genreSet": [{"displayName": "Documentary", "id": 8}, {"displayName": "Drama", "id": 9}, {"displayName": "Musical & Performing Arts", "id": 12}, {"displayName": "Special Interest", "id": 15}], "officialUrl": "http://www.myarchitectfilm.com/", "isInTheaters": false, "synopsis": "Louis Kahn, a giant among twentieth-century architects, left a legacy of brilliantly designed and engineered buildings that have a tough beauty and deep spirit. His work challenges us to discover an astonishing sensibility and poetry through light, space, and texture. Kahn's personal life was even more mysterious, and his death, alone and unidentified in Penn Station in 1974, revealed that he led not a double but a triple life, shuttling between his legitimate family and two women and the children they bore him. One of these, his son Nathaniel, takes us on a personal journey to consider the contradictions of this complicated genius and eccentric parent.", "links": {"alternate": "//www.rottentomatoes.com/m/my_architect/"}, "runningTime": 110, "year": 2004, "trackingType": "DvdOther", "status": "Live", "isPlaying": false, "isOnDVD": true, "runningTimeStr": "1 hr. 50 min.", "ratingSummary": {"topcount": 32, "consensus": "A moving and enlightening documentary about architect Louis Kahn.", "topCritics": {"hasScore": true, "numReviews": 32, "meterClass": "certified", "numRotten": 0, "numFresh": 32, "hasReviews": true, "meterValue": 100, "averageRating": 7.507812}, "audience": {"meterScore": 83, "averageScore": 3.8380281925201416, "numTotal": 3862, "ratingType": "viewed"}, "allcount": 91, "rottencount": 6, "dvdcount": 4, "allCritics": {"hasScore": true, "numReviews": 91, "meterClass": "certified", "numRotten": 6, "numFresh": 85, "hasReviews": true, "meterValue": 93, "averageRating": 7.57}, "freshcount": 85}, "mpaaRating": "Unrated", "vanity": "my_architect", "studio": "New Yorker Films", "purchaseOptions": {"netflix": {"streamingId": "60031257"}}, "reviews": {"total": 91, "links": {"alternate": "//www.rottentomatoes.com/m/my_architect/#reviews", "self": "api.flixster.com/movies/my-architect/reviews.json?review_type=mob&country=us&page=1", "prev": "api.flixster.com/movies/my-architect/reviews.json?review_type=mob&country=us&page=0", "next": "api.flixster.com/movies/my-architect/reviews.json?review_type=mob&country=us&page=2"}, "reviews": [{"isRotten": false, "isFresh": true, "publication": {"url": "", "name": "Arizona Republic"}, "isTop": true, "creationDate": 1080273151000, "freshness": "fresh", "critic": {"url": "/critic/richard-nilsen", "name": "Richard Nilsen", "id": 4098, "thumbnailImage": "https://d2a5cgar23scu2.cloudfront.net/static/images/redesign/user.none.tmb.jpg"}, "quote": "The young Kahn is not a graceful filmmaker. Yet the subject matter is engrossing for anyone interested in architecture and also one of its greatest practitioners.", "id": 1266112, "original_score": "3/5", "links": {}}, {"isRotten": false, "isFresh": true, "publication": {"name": "Orlando Sentinel"}, "isTop": true, "creationDate": 1079747130000, "freshness": "fresh", "critic": {"url": "/critic/jay-boyar", "name": "Jay Boyar", "id": 3209, "thumbnailImage": "https://d2a5cgar23scu2.cloudfront.net/static/images/redesign/user.none.tmb.jpg"}, "quote": "Isn't a bad place to begin if you're curious about architecture and don't know much about Louis Kahn.", "id": 1264641, "original_score": "3/5", "links": {}}, {"isRotten": false, "isFresh": true, "publication": {"name": "Denver Rocky Mountain News"}, "isTop": true, "creationDate": 1079746905000, "freshness": "fresh", "critic": {"url": "/critic/robert-denerstein", "name": "Robert Denerstein", "id": 98, "thumbnailImage": "https://resizing.flixster.com/EmMBWWMzOiB26JMBCbls0c420YM=/72x72/v1.YzsxNTkxO2c7MTg3ODE7MjA0ODszODs0OA"}, "quote": "By the end of My Architect, Kahn has learned that the central contradiction of his father's life can't be resolved -- and that realization becomes the filmmaker's solace and the film's triumph.", "id": 1264640, "original_score": "B+", "links": {}}, {"isRotten": false, "isFresh": true, "publication": {"url": "", "name": "Denver Post"}, "isTop": true, "creationDate": 1079746794000, "freshness": "fresh", "critic": {"url": "/critic/lisa-kennedy", "name": "Lisa Kennedy", "id": 6103, "thumbnailImage": "https://resizing.flixster.com/5fAMmiUWK4EXPbpsnnnKl8BQ01w=/72x72/v1.YzsyMjY3O3A7MTg3ODI7MjA0ODs3Mjs3Mg"}, "quote": "The finest achievement of My Architect is the way the son locates the light of his father's personality.", "id": 1264638, "links": {}}, {"isRotten": false, "url": "http://www.decentfilms.com/sections/reviews/2058", "creationDate": 1079111756000, "isFresh": true, "id": 1258388, "quote": "Does Nathaniel finally find his father? If so, it's neither to excuse nor to condemn him&#133; but to do what he was unable properly to do at his father's wake: say goodbye.", "links": {"review": "http://www.decentfilms.com/sections/reviews/2058"}, "publication": {"name": "Decent Films Guide"}, "isTop": true, "freshness": "fresh", "critic": {"url": "/critic/steven-d-greydanus", "name": "Steven D. Greydanus", "id": 5612, "thumbnailImage": "https://resizing.flixster.com/TpXNeP2Bw4Ci0Knwz0ug2Ok6rWw=/72x72/v1.YzsyODA4O2c7MTg3ODM7MjA0ODsxNTA7MTUw"}, "original_score": "B"}, {"isRotten": false, "url": "http://ae.miami.com/entertainment/ui/miami/movie.html?id=119497&reviewId=14487", "creationDate": 1077918390000, "isFresh": true, "id": 1255229, "quote": "It is a stunning work that captures with elegance -- and touches of lyricism -- the challenge of finding the man through the artist.", "links": {"review": "http://ae.miami.com/entertainment/ui/miami/movie.html?id=119497&reviewId=14487"}, "publication": {"url": "", "name": "Miami Herald"}, "isTop": true, "freshness": "fresh", "critic": {"url": "/critic/marta-barber", "name": "Marta Barber", "id": 4042, "thumbnailImage": "https://d2a5cgar23scu2.cloudfront.net/static/images/redesign/user.none.tmb.jpg"}, "original_score": "3/4"}, {"isRotten": false, "url": "http://www.pastemagazine.com/action/article/441/review/film/my_architect_a_sons_journey", "publication": {"url": "", "name": "Paste Magazine"}, "isTop": false, "creationDate": 1212555764000, "isFresh": true, "freshness": "fresh", "critic": {"url": "/critic/robert-davis", "name": "Robert Davis", "id": 13074, "thumbnailImage": "https://resizing.flixster.com/oNwq9sYPgrz19-Rf6tCULnOXqcE=/72x72/v1.YzsyMjM0O2o7MTg3OTQ7MjA0ODsxMjU7MTI1"}, "quote": "Overall [Nathaniel Kahn's] attempt to find his father in his buildings, scars and all, is credible and well-paced, with neat visual rhymes that circle back to points raised earlier.", "id": 1732192, "links": {"review": "http://www.pastemagazine.com/action/article/441/review/film/my_architect_a_sons_journey"}}, {"isRotten": false, "url": "http://www.towntopics.com/apr2804/cinema.html", "creationDate": 1178164947000, "isFresh": true, "id": 1619806, "quote": "What makes this movie riveting is not its subject, but the huge hole evident in the biographer's soul, a space he desperately tries to fill by speaking with those once close to his father.", "links": {"review": "http://www.towntopics.com/apr2804/cinema.html"}, "publication": {"name": "Princeton Town Topics"}, "isTop": false, "freshness": "fresh", "critic": {"url": "/critic/kam-williams", "name": "Kam Williams", "id": 12230, "thumbnailImage": "https://resizing.flixster.com/BtjsCX1Spp7NW8wYuoUbDQznn3M=/72x72/v1.YzsxNzk2O2c7MTg4MDY7MjA0ODszODs0Mg"}, "original_score": "3/4"}, {"isRotten": false, "url": "http://www.mountainx.com/movies/m/myarchitect.php", "creationDate": 1114632791000, "isFresh": true, "id": 1383194, "quote": "Fascinating -- if somewhat overlong -- documentary.", "links": {"review": "http://www.mountainx.com/movies/m/myarchitect.php"}, "publication": {"name": "Mountain Xpress (Asheville, NC)"}, "isTop": false, "freshness": "fresh", "critic": {"url": "/critic/ken-hanke", "name": "Ken Hanke", "id": 5783, "thumbnailImage": "https://resizing.flixster.com/Ypy63iaULprv6dIkOm9AlkPMZcQ=/72x72/v1.YzsxNzMwO2o7MTg3ODU7MjA0ODszODs0NA"}, "original_score": "4/5"}, {"isRotten": false, "url": "http://www.dmregister.com/apps/pbcs.dll/article?AID=/20040618/ENT03/406180306/1049", "creationDate": 1087567714000, "isFresh": true, "id": 1290242, "quote": "The film becomes a conversation between the living and the dead, trying to reconcile professional genius and personal failure.", "links": {"review": "http://www.dmregister.com/apps/pbcs.dll/article?AID=/20040618/ENT03/406180306/1049"}, "publication": {"name": "Des Moines Register"}, "isTop": false, "freshness": "fresh", "critic": {"url": "/critic/jeffrey-bruner", "name": "Jeffrey Bruner", "id": 5775, "thumbnailImage": "https://resizing.flixster.com/vZeA6ufnnb5nMjhiuCmFBLcgHTM=/72x72/v1.YzsxNzI3O2o7MTg3ODI7MjA0ODszODs0OA"}, "original_score": "4/5"}, {"isRotten": false, "url": "http://www.shadowsonthewall.co.uk/04/art-j.htm#myar", "creationDate": 1086432270000, "isFresh": true, "id": 1286588, "quote": "We are powerfully gripped by Lou's life and work, but we're never as moved by Nathaniel's quest as we clearly should be.", "links": {"review": "http://www.shadowsonthewall.co.uk/04/art-j.htm#myar"}, "publication": {"url": "", "name": "Shadows on the Wall"}, "isTop": false, "freshness": "fresh", "critic": {"url": "/critic/rich-cline", "name": "Rich Cline", "id": 4649, "thumbnailImage": "https://resizing.flixster.com/Clv0pmN9LJsyeAtleJFi0utN5eU=/72x72/v1.YzszODk2O2o7MTg3OTE7MjA0ODs5NTQ7OTQ4"}, "original_score": "3/5"}, {"isRotten": false, "url": "http://www.geocities.com/markleeper/architect.htm", "creationDate": 1083954007000, "isFresh": true, "id": 1278413, "quote": "The film would have been more powerful if it had conveyed a better understanding of what made Kahn's buildings great. If a bit long, the film is always intriguing.", "links": {"review": "http://www.geocities.com/markleeper/architect.htm"}, "publication": {"name": "rec.arts.movies.reviews"}, "isTop": false, "freshness": "fresh", "critic": {"url": "/critic/mark-r-leeper", "name": "Mark R. Leeper", "id": 1309, "thumbnailImage": "https://resizing.flixster.com/-E40wNaKopm-HrZsLXVqlzZ0WjI=/72x72/v1.YzsxNjY3O2c7MTg3Njc7MjA0ODszODs0Mg"}, "original_score": "6/10"}]}, "casts": {"screenwriters": [{"url": "/celebrity/nathaniel_kahn/", "name": "Nathaniel Kahn", "thumbnailImg": "https://d2a5cgar23scu2.cloudfront.net/static/images/redesign/actor.default.tmb.gif"}], "directors": [{"url": "/celebrity/nathaniel_kahn/", "name": "Nathaniel Kahn", "thumbnailImg": "https://d2a5cgar23scu2.cloudfront.net/static/images/redesign/actor.default.tmb.gif"}], "creators": [], "producers": [{"url": "/celebrity/susan_rose_behr/", "name": "Susan Rose Behr", "thumbnailImg": "https://d2a5cgar23scu2.cloudfront.net/static/images/redesign/actor.default.tmb.gif"}, {"url": "/celebrity/nathaniel_kahn/", "name": "Nathaniel Kahn", "thumbnailImg": "https://d2a5cgar23scu2.cloudfront.net/static/images/redesign/actor.default.tmb.gif"}, {"url": "/celebrity/yael_melamede/", "name": "Yael Melamede", "thumbnailImg": "https://d2a5cgar23scu2.cloudfront.net/static/images/redesign/actor.default.tmb.gif"}, {"url": "/celebrity/susan_r_behr/", "name": "Susan R. Behr", "thumbnailImg": "https://d2a5cgar23scu2.cloudfront.net/static/images/redesign/actor.default.tmb.gif"}], "castItems": [{"person": {"url": "/celebrity/nathaniel_kahn/", "name": "Nathaniel Kahn", "thumbnailImg": "https://d2a5cgar23scu2.cloudfront.net/static/images/redesign/actor.default.tmb.gif"}, "characters": [{"name": "Narrator"}]}, {"person": {"url": "/celebrity/louis_i_kahn/", "name": "Louis I. Kahn", "thumbnailImg": "https://d2a5cgar23scu2.cloudfront.net/static/images/redesign/actor.default.tmb.gif"}}, {"person": {"url": "/celebrity/edmund_bacon_4/", "name": "Edmund Bacon", "thumbnailImg": "https://d2a5cgar23scu2.cloudfront.net/static/images/redesign/actor.default.tmb.gif"}}, {"person": {"url": "/celebrity/philip-johnson/", "name": "Philip Johnson", "thumbnailImg": "https://d2a5cgar23scu2.cloudfront.net/static/images/redesign/actor.default.tmb.gif"}}, {"person": {"url": "/celebrity/esther_kahn/", "name": "Esther Kahn", "thumbnailImg": "https://d2a5cgar23scu2.cloudfront.net/static/images/redesign/actor.default.tmb.gif"}}, {"person": {"url": "/celebrity/harriet_pattison_4/", "name": "Harriet Pattison", "thumbnailImg": "https://d2a5cgar23scu2.cloudfront.net/static/images/redesign/actor.default.tmb.gif"}}, {"person": {"url": "/celebrity/im_pei_6/", "name": "I.M. Pei", "thumbnailImg": "https://d2a5cgar23scu2.cloudfront.net/static/images/redesign/actor.default.tmb.gif"}}, {"person": {"url": "/celebrity/alexandra_tyng_4/", "name": "Alexandra Tyng", "thumbnailImg": "https://d2a5cgar23scu2.cloudfront.net/static/images/redesign/actor.default.tmb.gif"}}, {"person": {"url": "/celebrity/anne_tyng/", "name": "Anne Tyng", "thumbnailImg": "https://d2a5cgar23scu2.cloudfront.net/static/images/redesign/actor.default.tmb.gif"}}, {"person": {"url": "/celebrity/sue_ann_kahn/", "name": "Sue Ann Kahn", "thumbnailImg": "https://d2a5cgar23scu2.cloudfront.net/static/images/redesign/actor.default.tmb.gif"}}, {"person": {"url": "/celebrity/richard_katz/", "name": "Richard Katz", "thumbnailImg": "https://d2a5cgar23scu2.cloudfront.net/static/images/redesign/actor.default.tmb.gif"}}, {"person": {"url": "/celebrity/richard_saul_wurman/", "name": "Richard Saul Wurman", "thumbnailImg": "https://d2a5cgar23scu2.cloudfront.net/static/images/redesign/actor.default.tmb.gif"}}, {"person": {"url": "/celebrity/oscar-kramer/", "name": "Oscar Kramer", "thumbnailImg": "https://d2a5cgar23scu2.cloudfront.net/static/images/redesign/actor.default.tmb.gif"}}, {"person": {"url": "/celebrity/ivan_caine/", "name": "Ivan Caine", "thumbnailImg": "https://d2a5cgar23scu2.cloudfront.net/static/images/redesign/actor.default.tmb.gif"}}, {"person": {"url": "/celebrity/jack_maccallister/", "name": "Jack MacCallister", "thumbnailImg": "https://d2a5cgar23scu2.cloudfront.net/static/images/redesign/actor.default.tmb.gif"}}, {"person": {"url": "/celebrity/bill_mack/", "name": "Bill Mack", "thumbnailImg": "https://d2a5cgar23scu2.cloudfront.net/static/images/redesign/actor.default.tmb.gif"}}, {"person": {"url": "/celebrity/preston_geren/", "name": "Preston Geren", "thumbnailImg": "https://d2a5cgar23scu2.cloudfront.net/static/images/redesign/actor.default.tmb.gif"}}, {"person": {"url": "/celebrity/tom_seymour/", "name": "Tom Seymour", "thumbnailImg": "https://d2a5cgar23scu2.cloudfront.net/static/images/redesign/actor.default.tmb.gif"}}, {"person": {"url": "/celebrity/frank_sherwood/", "name": "Frank Sherwood", "thumbnailImg": "https://d2a5cgar23scu2.cloudfront.net/static/images/redesign/actor.default.tmb.gif"}}, {"person": {"url": "/celebrity/robert_am_stern/", "name": "Robert A.M. Stern", "thumbnailImg": "https://d2a5cgar23scu2.cloudfront.net/static/images/redesign/actor.default.tmb.gif"}}, {"person": {"url": "/celebrity/teddy_kollek/", "name": "Teddy Kollek", "thumbnailImg": "https://d2a5cgar23scu2.cloudfront.net/static/images/redesign/actor.default.tmb.gif"}}, {"person": {"url": "/celebrity/ruth_chesin/", "name": "Ruth Chesin", "thumbnailImg": "https://d2a5cgar23scu2.cloudfront.net/static/images/redesign/actor.default.tmb.gif"}}, {"person": {"url": "/celebrity/moshe_safdie/", "name": "Moshe Safdie", "thumbnailImg": "https://d2a5cgar23scu2.cloudfront.net/static/images/redesign/actor.default.tmb.gif"}}, {"person": {"url": "/celebrity/duncan_buell/", "name": "Duncan Buell", "thumbnailImg": "https://d2a5cgar23scu2.cloudfront.net/static/images/redesign/actor.default.tmb.gif"}}, {"person": {"url": "/celebrity/kathy_conde/", "name": "Kathy Conde", "thumbnailImg": "https://d2a5cgar23scu2.cloudfront.net/static/images/redesign/actor.default.tmb.gif"}}, {"person": {"url": "/celebrity/bv_doshi/", "name": "B.V. Doshi", "thumbnailImg": "https://d2a5cgar23scu2.cloudfront.net/static/images/redesign/actor.default.tmb.gif"}}, {"person": {"url": "/celebrity/shamsul_wares/", "name": "Shamsul Wares", "thumbnailImg": "https://d2a5cgar23scu2.cloudfront.net/static/images/redesign/actor.default.tmb.gif"}}, {"person": {"url": "/celebrity/susannah_hart_jones/", "name": "Susannah Hart Jones", "thumbnailImg": "https://d2a5cgar23scu2.cloudfront.net/static/images/redesign/actor.default.tmb.gif"}}, {"person": {"url": "/celebrity/charles_jones/", "name": "Charles Jones", "thumbnailImg": "https://d2a5cgar23scu2.cloudfront.net/static/images/redesign/actor.default.tmb.gif"}}, {"person": {"url": "/celebrity/edwina_pattison_daniels/", "name": "Edwina Pattison Daniels", "thumbnailImg": "https://d2a5cgar23scu2.cloudfront.net/static/images/redesign/actor.default.tmb.gif"}}, {"person": {"url": "/celebrity/linda-wallace/", "name": "Linda Wallace", "thumbnailImg": "https://d2a5cgar23scu2.cloudfront.net/static/images/redesign/actor.default.tmb.gif"}}, {"person": {"url": "/celebrity/priscilla_pattison/", "name": "Priscilla Pattison", "thumbnailImg": "https://d2a5cgar23scu2.cloudfront.net/static/images/redesign/actor.default.tmb.gif"}}, {"person": {"url": "/celebrity/jesse_armstrong/", "name": "Jesse Armstrong", "thumbnailImg": "https://resizing.flixster.com/kmxDN8fnWuqdDsb8qj1ipVDc79g=/80x80/v1.cjs0NDI2MDtqOzE4NzkwOzIwNDg7MTcyOzE1Mw"}}, {"person": {"url": "/celebrity/allan_fisher/", "name": "Allan Fisher", "thumbnailImg": "https://d2a5cgar23scu2.cloudfront.net/static/images/redesign/actor.default.tmb.gif"}}, {"person": {"url": "/celebrity/albert_schwartz/", "name": "Albert Schwartz", "thumbnailImg": "https://d2a5cgar23scu2.cloudfront.net/static/images/redesign/actor.default.tmb.gif"}}]}, "title": "My Architect", "adjustedScore": 95.0154417125058, "ratings": {"critics_rating": "Certified Fresh", "audience_score": 83, "dvdReleaseDate": 1108454400000, "critics_score": 93, "theaterReleaseDate": 1077264000000, "audience_rating": "Upright"}, "videoClips": {"size": 0, "videoClips": []}, "isUpcoming": false, "posters": {"original": "https://resizing.flixster.com/lj417e62FQmL3x1gOLP_2LClzDE=/1200x1600/v1.bTsxMTIwNTQzNjtqOzE4ODgwOzIwNDg7MTIwMDsxNjAw", "detailed": "https://resizing.flixster.com/NYIrrsOD0efhWJT2DI0m-e4CnbY=/180x240/v1.bTsxMTIwNTQzNjtqOzE4ODgwOzIwNDg7MTIwMDsxNjAw", "profile": "https://resizing.flixster.com/89FV2hz8UqndCc_yOYwmDjNi1Ls=/120x160/v1.bTsxMTIwNTQzNjtqOzE4ODgwOzIwNDg7MTIwMDsxNjAw", "thumbnail": "https://resizing.flixster.com/I67T4BDRHj47SJ1QLNzHbBoXKHU=/54x72/v1.bTsxMTIwNTQzNjtqOzE4ODgwOzIwNDg7MTIwMDsxNjAw"}, "isLimited": true, "mainTrailer": {}, "photos": {"photos": [], "length": 0}, "id": 18164}