{"url": "/m/black_orpheus/", "isOnOpening": false, "genreSet": [{"displayName": "Romance", "id": 18}, {"displayName": "Art House & International", "id": 4}, {"displayName": "Classics", "id": 5}, {"displayName": "Comedy", "id": 6}, {"displayName": "Drama", "id": 9}, {"displayName": "Musical & Performing Arts", "id": 12}, {"displayName": "Science Fiction & Fantasy", "id": 14}], "runningTime": 120, "isInTheaters": false, "synopsis": "Black Orpheus (Orfeu Negro) is literally what its title suggests: a retelling of the \"Orpheus and Eurydice\" legend enacted by black performers. This time the setting is the annual Carnival in Rio de Janeiro. Orpheus (Breno Mello) is a streetcar conductor; Eurydice (Marpessa Dawn) has just jilted her lover and is attempting to escape his wrath. Orpheus himself falls in love with Eurydice, whereupon her ex-lover, disguised as the Angel of Death shows up and kills Eurydice. To reclaim his lost love, Orpheus enters \"Hell\" (the Rio morgue) and uses supernatural methods to revive the dead girl. A multi-award winner on the international film scene, Black Orpheus features a samba musical score by Luiz Bonfa and Antonio Carlos Jobim.", "links": {"alternate": "//www.rottentomatoes.com/m/black_orpheus/"}, "year": 1959, "trackingType": "DvdOther", "status": "Live", "isPlaying": false, "isOnDVD": true, "runningTimeStr": "2 hr.", "ratingSummary": {"topcount": 16, "consensus": "Colorful, atmospheric, and infections, Black Orpheus takes an ancient tale and makes it fresh anew, thanks in part to its bewitching bossa nova soundtrack.", "topCritics": {"hasScore": true, "numReviews": 16, "meterClass": "certified", "numRotten": 1, "numFresh": 15, "hasReviews": true, "meterValue": 94, "averageRating": 7.392857}, "audience": {"meterScore": 87, "averageScore": 3.987020969390869, "numTotal": 6250, "ratingType": "viewed"}, "allcount": 41, "rottencount": 4, "dvdcount": 4, "allCritics": {"hasScore": true, "numReviews": 41, "meterClass": "certified", "numRotten": 4, "numFresh": 37, "hasReviews": true, "meterValue": 90, "averageRating": 7.76}, "freshcount": 37}, "mpaaRating": "PG", "vanity": "black_orpheus", "studio": "GAGA Communications", "purchaseOptions": {"amazon": {"url": "http://www.amazon.com/gp/product/B004DENVRS/ref=atv_feed_catalog?tag=rottetomao_aiv_mv-20", "isPrime": false, "type": "buy"}, "vudu": {"url": "https://www.vudu.com/content/movies/details/Black-Orpheus/14190", "type": "buy"}, "iTunes": {"url": "https://itunes.apple.com/movie/black-orpheus/id474396330?uo=5", "price": "14.99"}}, "reviews": {"total": 41, "links": {"alternate": "//www.rottentomatoes.com/m/black_orpheus/#reviews", "self": "api.flixster.com/movies/black-orpheus/reviews.json?review_type=mob&country=us&page=1", "prev": "api.flixster.com/movies/black-orpheus/reviews.json?review_type=mob&country=us&page=0", "next": "api.flixster.com/movies/black-orpheus/reviews.json?review_type=mob&country=us&page=2"}, "reviews": [{"isRotten": false, "url": "https://www.austinchronicle.com/screens/2002-08-16/black-orpheus-1959/", "publication": {"url": "", "name": "Austin Chronicle"}, "isTop": true, "creationDate": 1591978969000, "isFresh": true, "freshness": "fresh", "critic": {"url": "/critic/eli-kooris", "name": "Eli Kooris", "id": 17945, "thumbnailImage": "https://d2a5cgar23scu2.cloudfront.net/static/images/redesign/user.none.tmb.jpg"}, "quote": "The colorful pi\u00e8ce de r\u00e9sistance in French filmmaker Marcel Camus' underrated career.", "id": 2696008, "links": {"review": "https://www.austinchronicle.com/screens/2002-08-16/black-orpheus-1959/"}}, {"isRotten": false, "url": "http://www.thetimes.co.uk/edition/times2/black-orpheus-1959-xc09rjqt3", "creationDate": 1482518794000, "isFresh": true, "id": 2369341, "quote": "In terms of sheer sun-kissed pulchritude, Black Orpheus was like nothing seen before when it exploded with its bossa nova soundtrack in 1959, winning the Palme d'Or at Cannes and the Oscar for foreign film.", "links": {"review": "http://www.thetimes.co.uk/edition/times2/black-orpheus-1959-xc09rjqt3"}, "publication": {"url": "", "name": "Times (UK)"}, "isTop": true, "freshness": "fresh", "critic": {"url": "/critic/kate-muir", "name": "Kate Muir", "id": 13654, "thumbnailImage": "https://resizing.flixster.com/LPoS7uX6IqV31i8rYwk3HQ0ZA68=/72x72/v1.YzsyNjI5O2c7MTg3ODQ7MjA0ODsxNTA7MTUw"}, "original_score": "4/5"}, {"isRotten": false, "isFresh": true, "publication": {"url": "", "name": "Village Voice"}, "isTop": true, "creationDate": 1384569309000, "freshness": "fresh", "critic": {"url": "/critic/michael-atkinson", "name": "Michael Atkinson", "id": 222, "thumbnailImage": "https://resizing.flixster.com/IOgXsCFj8Kw7tTFXITYrm3fJOdk=/72x72/v1.YzsyNjgyO2c7MTg3OTI7MjA0ODsxNTA7MTUw"}, "quote": "An almost irrationally infectious retelling of the Orpheus-Eurydice chestnut set during carnival and feverish with hip-swiveling hustle, exploding local color, and sleeve-worn heart.", "id": 2175037, "links": {}}, {"isRotten": false, "url": "http://www.theguardian.com/culture/2005/nov/04/5", "creationDate": 1384569217000, "isFresh": true, "id": 2175036, "quote": "An inspired reinvention of the underworld.", "links": {"review": "http://www.theguardian.com/culture/2005/nov/04/5"}, "publication": {"url": "", "name": "Guardian"}, "isTop": true, "freshness": "fresh", "critic": {"url": "/critic/peter-bradshaw", "name": "Peter Bradshaw", "id": 408, "thumbnailImage": "https://d2a5cgar23scu2.cloudfront.net/static/images/redesign/user.none.tmb.jpg"}, "original_score": "3/5"}, {"isRotten": false, "url": "http://www.independent.co.uk/arts-entertainment/films/reviews/elizabethtown-12abr-the-brothers-grimm-12abr-murderball-15br-black-orpheus-pg-513757.html", "publication": {"url": "", "name": "Independent (UK)"}, "isTop": true, "creationDate": 1384569022000, "isFresh": true, "freshness": "fresh", "critic": {"url": "/critic/anthony-quinn", "name": "Anthony Quinn", "id": 12377, "thumbnailImage": "https://d2a5cgar23scu2.cloudfront.net/static/images/redesign/user.none.tmb.jpg"}, "quote": "It's the music, ecstatic, delirious, overwhelming, that is the star of the show: the bossa nova has never had a setting like this.", "id": 2175035, "links": {"review": "http://www.independent.co.uk/arts-entertainment/films/reviews/elizabethtown-12abr-the-brothers-grimm-12abr-murderball-15br-black-orpheus-pg-513757.html"}}, {"isRotten": false, "url": "http://content.time.com/time/magazine/article/0,9171,811486,00.html", "publication": {"url": "", "name": "TIME Magazine"}, "isTop": true, "creationDate": 1384568606000, "isFresh": true, "freshness": "fresh", "quote": "It is an amazing creation.", "id": 2175031, "links": {"review": "http://content.time.com/time/magazine/article/0,9171,811486,00.html"}}, {"isRotten": false, "url": "https://www.boulderweekly.com/entertainment/screen/home-viewing-palme-dor-winners/", "creationDate": 1595426269000, "isFresh": true, "id": 2706964, "quote": "An elative fever dream.", "links": {"publication": "http://www.boulderweekly.com", "review": "https://www.boulderweekly.com/entertainment/screen/home-viewing-palme-dor-winners/"}, "publication": {"url": "http://www.boulderweekly.com", "name": "Boulder Weekly"}, "isTop": false, "freshness": "fresh", "critic": {"url": "/critic/michael-j-casey", "name": "Michael J. Casey", "id": 24459, "thumbnailImage": "https://resizing.flixster.com/lGt6skvudDvl5mKKAvG7nKqs578=/72x72/v1.YzszMzEyO2o7MTg3OTI7MjA0ODszMDA7MzAw"}, "original_score": "4/5"}, {"isRotten": false, "url": "https://thedcline.org/2019/10/10/capital-projections-no-pain-no-gain-edition/", "publication": {"url": "", "name": "The DC Line"}, "isTop": false, "creationDate": 1570739333000, "isFresh": true, "freshness": "fresh", "critic": {"url": "/critic/pat-padua-17819", "name": "Pat Padua", "id": 17819, "thumbnailImage": "https://resizing.flixster.com/MKjxJj_SIoAIf-L51LqDQf3g24E=/72x72/v1.YzszMDA4O2o7MTg4MDM7MjA0ODsxMTQ5OzExNDk"}, "quote": "The fantasy is grounded on a boisterous soundtrack that propels its characters as well as its audience. So when the music stops as Orfeo begins to navigate the underworld, the effect is startling.", "id": 2634537, "links": {"review": "https://thedcline.org/2019/10/10/capital-projections-no-pain-no-gain-edition/"}}, {"isRotten": false, "url": "http://archive.spectator.co.uk/article/3rd-june-1960/17/general-knowledge", "publication": {"url": "", "name": "The Spectator"}, "isTop": false, "creationDate": 1531863481000, "isFresh": true, "freshness": "fresh", "critic": {"url": "/critic/isabel-quigly", "name": "Isabel Quigly", "id": 16830, "thumbnailImage": "https://d2a5cgar23scu2.cloudfront.net/static/images/redesign/user.none.tmb.jpg"}, "quote": "This is an attractive boy-meets-girl story and no more, with everything full of charm, but slow, deathly slow and repetitive till the charm itself grows monotonous.", "id": 2491283, "links": {"review": "http://archive.spectator.co.uk/article/3rd-june-1960/17/general-knowledge"}}, {"isRotten": false, "isFresh": true, "publication": {"url": "", "name": "CineVue"}, "isTop": false, "creationDate": 1484568200000, "freshness": "fresh", "critic": {"url": "/critic/christopher-machell", "name": "Christopher Machell", "id": 18249, "thumbnailImage": "https://resizing.flixster.com/dQ3wYwj1WgoDydP9GkfJALX4I0o=/72x72/v1.YzszMjExO2o7MTg3ODE7MjA0ODszMDA7MzAw"}, "quote": "Black Orpheus is a film to be drunk and luxuriated in, a sensational and rewarding feast for the ears and eyes. ", "id": 2373111, "original_score": "4/5", "links": {}}, {"isRotten": false, "url": "http://www.popmatters.com/review/130530-black-orpheus-orfeu-negro/", "creationDate": 1384568854000, "isFresh": true, "id": 2175034, "quote": "There's no question that the tale is timeless no matter where or when the story is set, and you cannot deny that the spectacular cinematography makes Black Orpheus a thrill to see, but it's the score that really makes the movie resonate.", "links": {"review": "http://www.popmatters.com/review/130530-black-orpheus-orfeu-negro/"}, "publication": {"url": "", "name": "PopMatters"}, "isTop": false, "freshness": "fresh", "critic": {"url": "/critic/christel-loar", "name": "Christel Loar", "id": 15508, "thumbnailImage": "https://d2a5cgar23scu2.cloudfront.net/static/images/redesign/user.none.tmb.jpg"}, "original_score": "9/10"}, {"isRotten": false, "url": "http://movies.tvguide.com/black-orpheus/review/109504", "publication": {"url": "", "name": "TV Guide"}, "isTop": false, "creationDate": 1384568699000, "isFresh": true, "freshness": "fresh", "quote": "From the opening shot, in which two Brazilian musicians literally burst through the frame, one can sense the explosiveness of Black Orpheus.", "id": 2175032, "original_score": "3.5/4", "links": {"review": "http://movies.tvguide.com/black-orpheus/review/109504"}}]}, "casts": {"screenwriters": [{"url": "/celebrity/1156194-vinicius_de_moraes/", "name": "Vinicius de Moraes", "thumbnailImg": "https://d2a5cgar23scu2.cloudfront.net/static/images/redesign/actor.default.tmb.gif"}, {"url": "/celebrity/marcel_camus/", "name": "Marcel Camus", "thumbnailImg": "https://d2a5cgar23scu2.cloudfront.net/static/images/redesign/actor.default.tmb.gif"}, {"url": "/celebrity/jacques_viot/", "name": "Jacques Viot", "thumbnailImg": "https://d2a5cgar23scu2.cloudfront.net/static/images/redesign/actor.default.tmb.gif"}], "directors": [{"url": "/celebrity/marcel_camus/", "name": "Marcel Camus", "thumbnailImg": "https://d2a5cgar23scu2.cloudfront.net/static/images/redesign/actor.default.tmb.gif"}], "creators": [], "producers": [{"url": "/celebrity/sacha_gordine/", "name": "Sacha Gordine", "thumbnailImg": "https://d2a5cgar23scu2.cloudfront.net/static/images/redesign/actor.default.tmb.gif"}], "castItems": [{"person": {"url": "/celebrity/adhemar_feirrera_da_silva/", "name": "Adhemar Feirrera Da Silva", "thumbnailImg": "https://d2a5cgar23scu2.cloudfront.net/static/images/redesign/actor.default.tmb.gif"}, "characters": [{"name": "Death"}]}, {"person": {"url": "/celebrity/alexandro_constantino/", "name": "Alexandro Constantino", "thumbnailImg": "https://d2a5cgar23scu2.cloudfront.net/static/images/redesign/actor.default.tmb.gif"}, "characters": [{"name": "Hermes"}]}, {"person": {"url": "/celebrity/waldetar_de_souza/", "name": "Waldetar De Souza", "thumbnailImg": "https://d2a5cgar23scu2.cloudfront.net/static/images/redesign/actor.default.tmb.gif"}, "characters": [{"name": "Chico"}]}, {"person": {"url": "/celebrity/jorge_dos_santos/", "name": "Jorge Dos Santos", "thumbnailImg": "https://d2a5cgar23scu2.cloudfront.net/static/images/redesign/actor.default.tmb.gif"}, "characters": [{"name": "Benedito"}]}, {"person": {"url": "/celebrity/aurino_cassiano/", "name": "Aurino Cassiano", "thumbnailImg": "https://d2a5cgar23scu2.cloudfront.net/static/images/redesign/actor.default.tmb.gif"}, "characters": [{"name": "Zeca"}]}, {"person": {"url": "/celebrity/marcel_camus/", "name": "Marcel Camus", "thumbnailImg": "https://d2a5cgar23scu2.cloudfront.net/static/images/redesign/actor.default.tmb.gif"}}, {"person": {"url": "/celebrity/breno_mello/", "name": "Breno Mello", "thumbnailImg": "https://d2a5cgar23scu2.cloudfront.net/static/images/redesign/actor.default.tmb.gif"}, "characters": [{"name": "Orfeo"}]}, {"person": {"url": "/celebrity/adhemar_de_silva/", "name": "Adhemar de Silva", "thumbnailImg": "https://d2a5cgar23scu2.cloudfront.net/static/images/redesign/actor.default.tmb.gif"}, "characters": [{"name": "Death"}]}, {"person": {"url": "/celebrity/marpessa-dawn/", "name": "Marpessa Dawn", "thumbnailImg": "https://resizing.flixster.com/1o4tdAdWpIFdgm9k_LaMkHrll_A=/80x80/v1.cDsxMTQwODM4MztqOzE4ODgwOzIwNDg7NTkyOzYyNQ"}, "characters": [{"name": "Eurydice"}]}, {"person": {"url": "/celebrity/lea-garcia/", "name": "L\u00e9a Garcia", "thumbnailImg": "https://d2a5cgar23scu2.cloudfront.net/static/images/redesign/actor.default.tmb.gif"}, "characters": [{"name": "Serafina"}]}, {"person": {"url": "/celebrity/lourdes_de_oliveira/", "name": "Lourdes de Oliveira", "thumbnailImg": "https://d2a5cgar23scu2.cloudfront.net/static/images/redesign/actor.default.tmb.gif"}, "characters": [{"name": "Mira"}]}, {"person": {"url": "/celebrity/fausto_guerzoni/", "name": "Fausto Guerzoni", "thumbnailImg": "https://d2a5cgar23scu2.cloudfront.net/static/images/redesign/actor.default.tmb.gif"}}, {"person": {"url": "/celebrity/aurino_cassanio/", "name": "Aurino Cassanio", "thumbnailImg": "https://d2a5cgar23scu2.cloudfront.net/static/images/redesign/actor.default.tmb.gif"}, "characters": [{"name": "Zeca"}]}]}, "title": "Black Orpheus (Orfeu Negro)", "adjustedScore": 94.50239555513804, "ratings": {"critics_rating": "Certified Fresh", "audience_score": 87, "dvdReleaseDate": 928825200000, "critics_score": 90, "theaterReleaseDate": -316540800000, "audience_rating": "Upright"}, "videoClips": {"mainTrailer": {"hlsUrl": "http://video.internetvideoarchive.net/video.m3u8?cmd=6&publishedid=4585&customerid=300120&e=1619087744399&sub=RTO&fmt=11&h=0c81057c99a6c03c4eb2dbe50f988306", "seconds": 46, "minutes": 2, "id": 10905978, "title": "Black Orpheus", "thumbUrl": "http://content.internetvideoarchive.com/content/photos/109/4585_068.jpg", "mp4Url": "http://video.internetvideoarchive.net/video.mp4?cmd=6&publishedid=4585&customerid=300120&e=1619087744399&sub=RTO&fmt=4&videokbrate=750&h=fd01a670381f65fa710a83cd7caad935"}, "size": 1, "videoClips": [{"hlsUrl": "http://video.internetvideoarchive.net/video.m3u8?cmd=6&publishedid=4585&customerid=300120&e=1619087744399&sub=RTO&fmt=11&h=0c81057c99a6c03c4eb2dbe50f988306", "seconds": 46, "minutes": 2, "id": 10905978, "title": "Black Orpheus", "thumbUrl": "http://content.internetvideoarchive.com/content/photos/109/4585_068.jpg", "mp4Url": "http://video.internetvideoarchive.net/video.mp4?cmd=6&publishedid=4585&customerid=300120&e=1619087744399&sub=RTO&fmt=4&videokbrate=750&h=fd01a670381f65fa710a83cd7caad935"}]}, "isUpcoming": false, "posters": {"original": "https://resizing.flixster.com/9n8bJaClGOe_az9_uO_dSCBTgAE=/1536x2048/v1.bTsxMTIwNDM0NTtqOzE4ODY5OzIwNDg7MTUzNjsyMDQ4", "detailed": "https://resizing.flixster.com/UUwwMgJRC7K6HAQIsjxmJlYkMI8=/180x240/v1.bTsxMTIwNDM0NTtqOzE4ODY5OzIwNDg7MTUzNjsyMDQ4", "profile": "https://resizing.flixster.com/DHzcMgKgOT97wzZe3Zn0ADmRvRo=/120x160/v1.bTsxMTIwNDM0NTtqOzE4ODY5OzIwNDg7MTUzNjsyMDQ4", "thumbnail": "https://resizing.flixster.com/Uw4W0NsIW6SUeQxnOfS-4MwOkl4=/54x72/v1.bTsxMTIwNDM0NTtqOzE4ODY5OzIwNDg7MTUzNjsyMDQ4"}, "isLimited": true, "mainTrailer": {"thumbUrl": "https://content.internetvideoarchive.com/content/photos/109/4585_068.jpg", "hlsUrl": "http://video.internetvideoarchive.net/video.m3u8?cmd=6&publishedid=4585&customerid=300120&e=1619087744128&sub=RTO&fmt=11&h=27488c91753a21c3f61f9b7895146f4b", "id": 10905978, "mp4Url": "http://video.internetvideoarchive.net/video.mp4?cmd=6&publishedid=4585&customerid=300120&e=1619087744128&sub=RTO&fmt=4&videokbrate=750&h=3619fe6f873545f898a719933b931cb3"}, "photos": {"photos": [{"url": "https://resizing.flixster.com/r8FPKB4BvXYsYydSVCRSv0wU4M8=/1024x1024/v1.bjsxMTMzNDI4O2o7MTg3OTE7MjA0ODsxNTE2OzE1MTY", "index": 0, "submittedBy": "RT Staff", "height": 1024, "imageId": 1133428, "thumbnail": "https://resizing.flixster.com/SnqYipUMQUhgFPypmH_IYCnr1C4=/80x80/v1.bjsxMTMzNDI4O2o7MTg3OTE7MjA0ODsxNTE2OzE1MTY", "submittedDate": "2016-06-17", "id": "multiuse-1133428", "photoType": "movie", "width": 1024}], "length": 1}, "id": 10782}