{"url": "/m/five_easy_pieces/", "isOnOpening": false, "genreSet": [{"displayName": "Drama", "id": 9}, {"displayName": "Musical & Performing Arts", "id": 12}, {"displayName": "Classics", "id": 5}], "officialUrl": "", "isInTheaters": false, "synopsis": "A disaffected man seeks a sense of identity in one of the key films of Hollywood's 1970s New Wave. Once a promising pianist from a family of classical musicians, Bobby Eroica Dupea (Jack Nicholson, in his first major starring role) leads a blue-collar life as an oil rigger, living with needy waitress girlfriend Rayette (Karen Black) and bowling with their friends Elton (Billy \"Green\" Bush) and Stoney (Fannie Flagg). Feeling suffocated by responsibilities, Bobby seeks out his sister, Tita (Lois Smith), and, discovering that his father is gravely ill, he reluctantly heads back to the patrician family compound in Puget Sound with a pregnant Rayette in tow. After a road trip featuring a harangue from hitchhiker Palm (Helena Kallianiotes) about filth, and Bobby's ill-fated attempt to make a menu substitution in a diner, he tucks Rayette away in a motel before heading to the house. There Bobby seduces his uptight brother Carl's cultured fianc\u00e9e, Catherine (Susan Anspach), but Rayette shows up unexpectedly. As Rayette's crassness collides with the snobbery of the Dupea circle, Bobby loses patience with both sides. After trying to reconcile with his mute father, Bobby departs, unwilling to give in to either destiny. Director Bob Rafelson and screenwriter Adrien Joyce (aka Carole Eastman) used the creative control afforded by the low budget to craft a European-influenced character study, catching a cultural mood of anomie and resentment as it was embodied in Bobby. Neither older generation nor hippie, Bobby fits in nowhere, and his desire for independence conflicts with his emotional emptiness. Nicholson's nuanced performance of simmering frustration resonated with 1970 audiences caught between Nixon's \"silent majority\" and the troubled counterculture; a substantial hit, Five Easy Pieces was nominated for several Oscars, including Best Picture and Best Actor, and established Nicholson as a star. Offering no \"easy\" answers to Bobby's existential crisis, Five Easy Pieces is one of the pre-eminent films in the early-'70s cycle of alienated American art movies, as even the fantasy of rebellion is reduced to merely running away. ~ Lucia Bozzola, Rovi", "links": {"alternate": "//www.rottentomatoes.com/m/five_easy_pieces/"}, "runningTime": 98, "year": 1970, "trackingType": "DvdOther", "status": "Live", "isPlaying": false, "isOnDVD": true, "runningTimeStr": "1 hr. 38 min.", "ratingSummary": {"topcount": 17, "consensus": "An important touchstone of the New Hollywood era, Five Easy Pieces is a haunting portrait of alienation that features one of Jack Nicholson's greatest performances.", "topCritics": {"hasScore": true, "numReviews": 17, "meterClass": "certified", "numRotten": 3, "numFresh": 14, "hasReviews": true, "meterValue": 82, "averageRating": 8.727273}, "audience": {"meterScore": 84, "averageScore": 3.910329818725586, "numTotal": 13115, "ratingType": "viewed"}, "allcount": 52, "rottencount": 6, "dvdcount": 3, "allCritics": {"hasScore": true, "numReviews": 52, "meterClass": "certified", "numRotten": 6, "numFresh": 46, "hasReviews": true, "meterValue": 88, "averageRating": 8.59}, "freshcount": 46}, "mpaaRating": "R", "vanity": "five_easy_pieces", "photos": {"photos": [{"url": "https://resizing.flixster.com/l9uRsfBQnxgJy02LbiNAsJZn9RU=/1024x768/v1.bjsyMzExMzE7ajsxODc3ODsyMDQ4OzE1NzQ7MTE4MQ", "index": 0, "submittedBy": "RT Staff", "height": 768, "imageId": 231131, "thumbnail": "https://resizing.flixster.com/nRe2DwMgi6tS0OuXqMUhITU0Pis=/80x80/v1.bjsyMzExMzE7ajsxODc3ODsyMDQ4OzE1NzQ7MTE4MQ", "submittedDate": "2014-07-02", "id": "multiuse-231131", "photoType": "movie", "width": 1024}, {"url": "https://resizing.flixster.com/xJggZpjNM7GeesPc5RKSO_WDxVY=/1024x768/v1.bjsyMzExMzI7ajsxODc3OTsyMDQ4OzE1NzU7MTE4MQ", "index": 1, "submittedBy": "RT Staff", "height": 768, "imageId": 231132, "thumbnail": "https://resizing.flixster.com/1EsJA9MkwhPZId31voedAyX2OVE=/80x80/v1.bjsyMzExMzI7ajsxODc3OTsyMDQ4OzE1NzU7MTE4MQ", "submittedDate": "2014-07-02", "id": "multiuse-231132", "photoType": "movie", "width": 1024}, {"url": "https://resizing.flixster.com/FEUrPq_ZLjNEyoyn8DFYfeSqs5Y=/1024x768/v1.bjsyMzExMzM7ajsxODc4MDsyMDQ4OzE1NzU7MTE4MQ", "index": 2, "submittedBy": "RT Staff", "height": 768, "imageId": 231133, "thumbnail": "https://resizing.flixster.com/zgKtj4w4OE1YqzSn5olhLVO4FZg=/80x80/v1.bjsyMzExMzM7ajsxODc4MDsyMDQ4OzE1NzU7MTE4MQ", "submittedDate": "2014-07-02", "id": "multiuse-231133", "photoType": "movie", "width": 1024}, {"url": "https://resizing.flixster.com/iK13dFNUJVHjmRZeCQyXQbVM2BE=/1024x512/v1.bjsyMzExMzk7ajsxODc4NjsyMDQ4OzIwNDg7MTAyNA", "index": 3, "submittedBy": "RT Staff", "height": 512, "imageId": 231139, "thumbnail": "https://resizing.flixster.com/rSuVkIUOlewTFYvnMlhwKDuTO1A=/80x80/v1.bjsyMzExMzk7ajsxODc4NjsyMDQ4OzIwNDg7MTAyNA", "submittedDate": "2014-07-02", "id": "multiuse-231139", "photoType": "movie", "width": 1024}], "length": 4}, "studio": "Columbia Pictures", "purchaseOptions": {"amazon": {"url": "http://www.amazon.com/gp/product/B003LPM85G/ref=atv_feed_catalog?tag=rottetomao_aiv_mv-20", "isPrime": false, "type": "buy"}, "vudu": {"url": "https://www.vudu.com/content/movies/details/Five-Easy-Pieces/14633", "type": "buy"}, "flixster": {"url": "five-easy-pieces", "movieId": "ID: 2000067064; SKU:509427; Type: B (SD Buy)", "type": "buy"}, "iTunes": {"url": "https://itunes.apple.com/movie/five-easy-pieces/id323009290?uo=5", "price": "12.99"}}, "reviews": {"total": 52, "links": {"alternate": "//www.rottentomatoes.com/m/five_easy_pieces/#reviews", "self": "api.flixster.com/movies/five-easy-pieces/reviews.json?review_type=mob&country=us&page=1", "prev": "api.flixster.com/movies/five-easy-pieces/reviews.json?review_type=mob&country=us&page=0", "next": "api.flixster.com/movies/five-easy-pieces/reviews.json?review_type=mob&country=us&page=2"}, "reviews": [{"isRotten": false, "url": "https://www.sfgate.com/entertainment/article/Easy-Reasons-to-See-70s-Classic-Pieces-2956814.php", "creationDate": 1551735755000, "isFresh": true, "id": 2563783, "quote": "If the function of art is to help an audience feel less alone, then Five Easy Pieces succeeds beautifully.", "links": {"review": "https://www.sfgate.com/entertainment/article/Easy-Reasons-to-See-70s-Classic-Pieces-2956814.php"}, "publication": {"url": "", "name": "San Francisco Chronicle"}, "isTop": true, "freshness": "fresh", "critic": {"url": "/critic/edward-guthmann", "name": "Edward Guthmann", "id": 1098, "thumbnailImage": "https://d2a5cgar23scu2.cloudfront.net/static/images/redesign/user.none.tmb.jpg"}, "original_score": "4/4"}, {"isRotten": false, "url": "https://www.villagevoice.com/2010/10/19/five-easy-pieces-highlights-the-1970-new-york-film-fest/", "publication": {"url": "", "name": "Village Voice"}, "isTop": true, "creationDate": 1510963047000, "isFresh": true, "freshness": "fresh", "critic": {"url": "/critic/andrew-sarris", "name": "Andrew Sarris", "id": 349, "thumbnailImage": "https://resizing.flixster.com/aV6I6SXWgGPytUIhwuO30xOmseY=/72x72/v1.YzszNDM4O2o7MTg3ODM7MjA0ODszMDA7MzAw"}, "quote": "A very modern film. Elliptical, absurdist, harshly humorous, convulsively lyrical.", "id": 2436905, "links": {"review": "https://www.villagevoice.com/2010/10/19/five-easy-pieces-highlights-the-1970-new-york-film-fest/"}}, {"isRotten": false, "url": "http://thedissolve.com/reviews/1690-five-easy-pieces/", "creationDate": 1435787391000, "isFresh": true, "id": 2270102, "quote": "Director Bob Rafelson attempts something unusual here, making a film that's subtle about its meaning without ever ranging into the pretentiously oblique or merely ambiguous.", "links": {"review": "http://thedissolve.com/reviews/1690-five-easy-pieces/"}, "publication": {"url": "", "name": "The Dissolve"}, "isTop": true, "freshness": "fresh", "critic": {"url": "/critic/noel-murray", "name": "Noel Murray", "id": 4030, "thumbnailImage": "https://d2a5cgar23scu2.cloudfront.net/static/images/redesign/user.none.tmb.jpg"}, "original_score": "5/5"}, {"isRotten": false, "isFresh": true, "publication": {"url": "", "name": "New Yorker"}, "isTop": true, "creationDate": 1405719109000, "freshness": "fresh", "critic": {"url": "/critic/michael-sragow", "name": "Michael Sragow", "id": 107, "thumbnailImage": "https://resizing.flixster.com/Av265y5M9WMXvUWrkg1aOknV_KI=/72x72/v1.YzsxNTkyO2c7MTg3ODI7MjA0ODszODs0Mg"}, "quote": "The flaws of this acutely self-conscious 1970 road picture grow more obvious with every passing year, but so does its passion and eloquence.", "id": 2213618, "links": {}}, {"isRotten": true, "isFresh": false, "publication": {"url": "", "name": "New Yorker"}, "isTop": true, "creationDate": 1402946829000, "freshness": "rotten", "critic": {"url": "/critic/david-denby", "name": "David Denby", "id": 148, "thumbnailImage": "https://resizing.flixster.com/08k4mazI2vlC7P9UOxdrd0hgz6k=/72x72/v1.YzsxNTk3O2c7MTg3ODc7MjA0ODszODs0Mw"}, "quote": "The movie has more anger than it knows what to do with; that's its fascination and its weakness, too.", "id": 2208617, "links": {}}, {"isRotten": false, "url": "http://www.theguardian.com/film/2010/aug/12/five-easy-pieces-review", "creationDate": 1402946730000, "isFresh": true, "id": 2208616, "quote": "This superbly composed film comes as close to perfection as it gets.", "links": {"review": "http://www.theguardian.com/film/2010/aug/12/five-easy-pieces-review"}, "publication": {"url": "", "name": "Guardian"}, "isTop": true, "freshness": "fresh", "critic": {"url": "/critic/peter-bradshaw", "name": "Peter Bradshaw", "id": 408, "thumbnailImage": "https://d2a5cgar23scu2.cloudfront.net/static/images/redesign/user.none.tmb.jpg"}, "original_score": "5/5"}, {"isRotten": false, "url": "https://archive.org/details/pts_tempocouncilchur_3439_v1tov3/page/n259/mode/2up", "publication": {"url": "", "name": "Tempo (National Council of Churches)"}, "isTop": false, "creationDate": 1610050613000, "isFresh": true, "freshness": "fresh", "critic": {"url": "/critic/harvey-g-cox", "name": "Harvey G. Cox", "id": 27834, "thumbnailImage": "https://d2a5cgar23scu2.cloudfront.net/static/images/redesign/user.none.tmb.jpg"}, "quote": "In Easy Rider Nicholson's brilliant cameo was just too short. It left us whet- ted and fascinated like a tantalizing apertif. Now in Five Easy Pieces Nicholson is given scope.", "id": 2755927, "links": {"review": "https://archive.org/details/pts_tempocouncilchur_3439_v1tov3/page/n259/mode/2up"}}, {"isRotten": false, "url": "https://www.backseatmafia.com/blu-ray-review-five-easy-pieces/", "publication": {"url": "", "name": "Backseat Mafia"}, "isTop": false, "creationDate": 1605286142000, "isFresh": true, "freshness": "fresh", "critic": {"url": "/critic/rob-aldam", "name": "Rob Aldam", "id": 23428, "thumbnailImage": "https://resizing.flixster.com/UwyQm-6tG8lqbaMczupgmD3_6rc=/72x72/v1.YzszMTQ3O2o7MTg4MDc7MjA0ODszMDA7MzAw"}, "quote": "A courageous character study and an acting masterclass.", "id": 2741942, "links": {"review": "https://www.backseatmafia.com/blu-ray-review-five-easy-pieces/"}}, {"isRotten": false, "url": "https://www.wbur.org/artery/2019/04/17/somerville-theatre-jack-nicholson", "publication": {"url": "", "name": "The ARTery"}, "isTop": false, "creationDate": 1555634903000, "isFresh": true, "freshness": "fresh", "critic": {"url": "/critic/sean-burns", "name": "Sean Burns", "id": 3462, "thumbnailImage": "https://resizing.flixster.com/ZIG3jEA5WaFnedNM4Dw9RdL6uS4=/72x72/v1.YzsyNTYzO2c7MTg4MDg7MjA0ODsxNTI7MTY4"}, "quote": "Nicholson gives a galvanizing performance as a drifter who knows no tribe of his own, an updated anti-hero seething with self-loathing and discontent. ", "id": 2578788, "links": {"review": "https://www.wbur.org/artery/2019/04/17/somerville-theatre-jack-nicholson"}}, {"isRotten": false, "url": "https://www.commonsensemedia.org/movie-reviews/five-easy-pieces", "creationDate": 1475610227000, "isFresh": true, "id": 2354499, "quote": "Gritty '70s drama about alienation has sex, cursing. ", "links": {"review": "https://www.commonsensemedia.org/movie-reviews/five-easy-pieces"}, "publication": {"url": "", "name": "Common Sense Media"}, "isTop": false, "freshness": "fresh", "critic": {"url": "/critic/barbara-shulgasser", "name": "Barbara Shulgasser", "id": 1017, "thumbnailImage": "https://d2a5cgar23scu2.cloudfront.net/static/images/redesign/user.none.tmb.jpg"}, "original_score": "3/5"}, {"isRotten": false, "url": "http://clclt.com/charlotte/absolute-beginners-the-fisher-king-the-thing-with-two-heads-among-new-home-entertainment-titles/Content?oid=3619770", "creationDate": 1436062737000, "isFresh": true, "id": 2270654, "quote": "A new kind of picture even for its era ... Jack Nicholson's performance still stands as one of his greatest.", "links": {"review": "http://clclt.com/charlotte/absolute-beginners-the-fisher-king-the-thing-with-two-heads-among-new-home-entertainment-titles/Content?oid=3619770"}, "publication": {"name": "Creative Loafing"}, "isTop": false, "freshness": "fresh", "critic": {"url": "/critic/matt-brunson", "name": "Matt Brunson", "id": 5777, "thumbnailImage": "https://resizing.flixster.com/sC65Fi_OccWCWRwVukoyOybQHtA=/72x72/v1.YzsxNzI4O2o7MTg3ODM7MjA0ODszODs0Mg"}, "original_score": "3.5/4"}, {"isRotten": false, "url": "http://www.radiotimes.com/film/nbt9s/five-easy-pieces", "creationDate": 1402946598000, "isFresh": true, "id": 2208614, "quote": "The film, superbly directed by Rafelson, shifts the late 1960s hippy drop-out genre into the Ingmar Bergman class: it's cerebral, yes, but also moving and witty.", "links": {"review": "http://www.radiotimes.com/film/nbt9s/five-easy-pieces"}, "publication": {"url": "", "name": "Radio Times"}, "isTop": false, "freshness": "fresh", "critic": {"url": "/critic/adrian-turner", "name": "Adrian Turner", "id": 13606, "thumbnailImage": "https://d2a5cgar23scu2.cloudfront.net/static/images/redesign/user.none.tmb.jpg"}, "original_score": "5/5"}]}, "casts": {"screenwriters": [{"url": "/celebrity/adrien_joyce/", "name": "Adrien Joyce", "thumbnailImg": "https://d2a5cgar23scu2.cloudfront.net/static/images/redesign/actor.default.tmb.gif"}, {"url": "/celebrity/carole_eastman/", "name": "Carole Eastman", "thumbnailImg": "https://d2a5cgar23scu2.cloudfront.net/static/images/redesign/actor.default.tmb.gif"}, {"url": "/celebrity/bob_rafelson/", "name": "Bob Rafelson", "thumbnailImg": "https://d2a5cgar23scu2.cloudfront.net/static/images/redesign/actor.default.tmb.gif"}], "directors": [{"url": "/celebrity/bob_rafelson/", "name": "Bob Rafelson", "thumbnailImg": "https://d2a5cgar23scu2.cloudfront.net/static/images/redesign/actor.default.tmb.gif"}, {"url": "/celebrity/dennis_hopper/", "name": "Dennis Hopper", "thumbnailImg": "https://resizing.flixster.com/yeZ7fP7ScS0FjhFrIg6sAZuJ1sc=/80x80/v1.cjs0MDM4NTtqOzE4Nzg1OzIwNDg7Mjc1OzIzMA"}], "creators": [], "producers": [{"url": "/celebrity/bob_rafelson/", "name": "Bob Rafelson", "thumbnailImg": "https://d2a5cgar23scu2.cloudfront.net/static/images/redesign/actor.default.tmb.gif"}, {"url": "/celebrity/richard_wechsler/", "name": "Richard Wechsler", "thumbnailImg": "https://d2a5cgar23scu2.cloudfront.net/static/images/redesign/actor.default.tmb.gif"}, {"url": "/celebrity/bert_schneider/", "name": "Bert Schneider", "thumbnailImg": "https://d2a5cgar23scu2.cloudfront.net/static/images/redesign/actor.default.tmb.gif"}, {"url": "/celebrity/harold_schneider/", "name": "Harold Schneider", "thumbnailImg": "https://d2a5cgar23scu2.cloudfront.net/static/images/redesign/actor.default.tmb.gif"}], "castItems": [{"person": {"url": "/celebrity/jack_nicholson/", "name": "Jack Nicholson", "thumbnailImg": "https://resizing.flixster.com/Y2e_-9VbeWXS5BqMk2vhD6ZFJ8E=/80x80/v1.cjs0MDQyNTtqOzE4NzgwOzIwNDg7Mjc1OzIzMA"}, "characters": [{"name": "Robert Dupea"}]}, {"person": {"url": "/celebrity/karen_black/", "name": "Karen Black", "thumbnailImg": "https://resizing.flixster.com/kngXPItC02jsS_7wg45gZKNiaPc=/80x80/v1.cDs3MjczMzgyO2o7MTg4ODE7MjA0ODszMDQ7Mzgw"}, "characters": [{"name": "Rayette Dipesto"}]}, {"person": {"url": "/celebrity/peter_fonda/", "name": "Peter Fonda", "thumbnailImg": "https://resizing.flixster.com/MJ_tRZ4jMRDFKTJjNW-nO4mn9Ak=/80x80/v1.cjszNjczODtqOzE4NzgzOzIwNDg7NDIyOzYwMA"}}, {"person": {"url": "/celebrity/susan_anspach/", "name": "Susan Anspach", "thumbnailImg": "https://resizing.flixster.com/c4E4smKdP2WOZ01emG7y7FXvR18=/80x80/v1.cDsxMjIyNzg1MjtqOzE4NzczOzIwNDg7MjAwOzI1Ng"}, "characters": [{"name": "Catherine Van Ost"}]}, {"person": {"url": "/celebrity/dennis_hopper/", "name": "Dennis Hopper", "thumbnailImg": "https://resizing.flixster.com/yeZ7fP7ScS0FjhFrIg6sAZuJ1sc=/80x80/v1.cjs0MDM4NTtqOzE4Nzg1OzIwNDg7Mjc1OzIzMA"}}, {"person": {"url": "/celebrity/ralph_waite/", "name": "Ralph Waite", "thumbnailImg": "https://resizing.flixster.com/y7jPopzqNDt_BajBpZW3enUVHRM=/80x80/v1.cDs0ODY1NTU0O2o7MTg3OTU7MjA0ODsyMDA7MzE4"}, "characters": [{"name": "Carl Dupea"}]}, {"person": {"url": "/celebrity/billy_green_bush/", "name": "Billy Green Bush", "thumbnailImg": "https://resizing.flixster.com/t6URNITI64BSMZ_N3dhRyIdbQZA=/80x80/v1.cDsxMDk1NTgxMjtqOzE4ODY4OzIwNDg7MTAwOzEwMA"}, "characters": [{"name": "Elton"}]}, {"person": {"url": "/celebrity/fannie_flagg/", "name": "Fannie Flagg", "thumbnailImg": "https://resizing.flixster.com/NHcsBcxnouglCKWD6LgxtGRi_8U=/80x80/v1.cDsxMjI4MzUzMDtqOzE4Nzg3OzIwNDg7OTAwOzEwNjk"}, "characters": [{"name": "Stoney"}]}, {"person": {"url": "/celebrity/sally_struthers/", "name": "Sally Struthers", "thumbnailImg": "https://resizing.flixster.com/0D1RCrni-AE5TCLRX6hM5bs2jlE=/80x80/v1.cDsxMzg2ODE0ODtqOzE4NzkzOzIwNDg7MzIxOzQwMA"}, "characters": [{"name": "Betty"}]}, {"person": {"url": "/celebrity/marlena_macguire/", "name": "Marlena MacGuire", "thumbnailImg": "https://d2a5cgar23scu2.cloudfront.net/static/images/redesign/actor.default.tmb.gif"}, "characters": [{"name": "Twinkie"}]}, {"person": {"url": "/celebrity/william_challee/", "name": "William Challee", "thumbnailImg": "https://d2a5cgar23scu2.cloudfront.net/static/images/redesign/actor.default.tmb.gif"}, "characters": [{"name": "Nicholas"}]}, {"person": {"url": "/celebrity/lois_smith/", "name": "Lois Smith", "thumbnailImg": "https://resizing.flixster.com/UtFbR-prh--Rt2U84min8QimM8A=/80x80/v1.cjs0OTM2NjtqOzE4NzY2OzIwNDg7MjEwMDsyMTg3"}, "characters": [{"name": "Partita Dupea"}]}, {"person": {"url": "/celebrity/toni_basil/", "name": "Toni Basil", "thumbnailImg": "https://resizing.flixster.com/zy2gRRlDEXSVlb9XYiqkIK8VZV0=/80x80/v1.cDsxMTM3NTgyODtqOzE4ODU5OzIwNDg7MjgwOzI4MQ"}, "characters": [{"name": "Terry Grouse"}]}, {"person": {"url": "/celebrity/lorna_thayer/", "name": "Lorna Thayer", "thumbnailImg": "https://d2a5cgar23scu2.cloudfront.net/static/images/redesign/actor.default.tmb.gif"}, "characters": [{"name": "Waitress"}]}, {"person": {"url": "/celebrity/richard-stahl/", "name": "Richard Stahl", "thumbnailImg": "https://d2a5cgar23scu2.cloudfront.net/static/images/redesign/actor.default.tmb.gif"}, "characters": [{"name": "Recording Engineer"}]}, {"person": {"url": "/celebrity/1064713-helena_kallianiotes/", "name": "Helena Kallianiotes", "thumbnailImg": "https://resizing.flixster.com/bX1dLsf3M-bP6KTYyr-YN6EwBZY=/80x80/v1.cDsxMTUyMDc0MDtqOzE4ODczOzIwNDg7MzU1OzE5Mg"}, "characters": [{"name": "Palm Apodaca"}]}, {"person": {"url": "/celebrity/irene_dailey/", "name": "Irene Dailey", "thumbnailImg": "https://resizing.flixster.com/d1EWJS9ndKJ1ruS7bml1_Rdg9Ik=/80x80/v1.cDsxNDA1NTQyNztqOzE4ODc0OzIwNDg7NTgwOzQ2Mg"}, "characters": [{"name": "Samia"}]}, {"person": {"url": "/celebrity/john_p_ryan/", "name": "John P. Ryan", "thumbnailImg": "https://resizing.flixster.com/JJtQS3GFGnX4sEuRbqCdu_m9Tio=/80x80/v1.cDsxMjk0NDYzNztqOzE4ODA2OzIwNDg7NzQ3OzQxMw"}, "characters": [{"name": "Spicer"}]}, {"person": {"url": "/celebrity/irene_daly/", "name": "Irene Daly", "thumbnailImg": "https://d2a5cgar23scu2.cloudfront.net/static/images/redesign/actor.default.tmb.gif"}, "characters": [{"name": "Samia Glavia"}]}, {"person": {"url": "/celebrity/mariena_macguire/", "name": "Mariena MacGuire", "thumbnailImg": "https://d2a5cgar23scu2.cloudfront.net/static/images/redesign/actor.default.tmb.gif"}, "characters": [{"name": "Twinky"}]}]}, "title": "Five Easy Pieces", "adjustedScore": 94.38017854355014, "ratings": {"critics_rating": "Certified Fresh", "audience_score": 84, "dvdReleaseDate": 998982000000, "critics_score": 88, "theaterReleaseDate": 21970800000, "audience_rating": "Upright"}, "videoClips": {"mainTrailer": {"hlsUrl": "http://video.internetvideoarchive.net/video.m3u8?cmd=6&publishedid=779649&customerid=300120&e=1619087760180&sub=RTO&fmt=11&h=c73b8551d418888744239762b5ca11ce", "seconds": 34, "minutes": 1, "id": 10899186, "title": "Five Easy Pieces", "thumbUrl": "http://content.internetvideoarchive.com/content/photos/9669/779649_017.jpg", "mp4Url": "http://video.internetvideoarchive.net/video.mp4?cmd=6&publishedid=779649&customerid=300120&e=1619087760180&sub=RTO&fmt=4&videokbrate=750&h=533ddc32e1de12c9ebb743dd3e7b54f3"}, "size": 9, "videoClips": [{"hlsUrl": "http://video.internetvideoarchive.net/video.m3u8?cmd=6&publishedid=779649&customerid=300120&e=1619087760180&sub=RTO&fmt=11&h=c73b8551d418888744239762b5ca11ce", "seconds": 34, "minutes": 1, "id": 10899186, "title": "Five Easy Pieces", "thumbUrl": "http://content.internetvideoarchive.com/content/photos/9669/779649_017.jpg", "mp4Url": "http://video.internetvideoarchive.net/video.mp4?cmd=6&publishedid=779649&customerid=300120&e=1619087760180&sub=RTO&fmt=4&videokbrate=750&h=533ddc32e1de12c9ebb743dd3e7b54f3"}, {"hlsUrl": "http://video.internetvideoarchive.net/video.m3u8?cmd=6&publishedid=http://link.theplatform.com/s/NGweTC/media/2Nm2_K6v47E6&customerid=300120&e=1619087760180&sub=RTO&fmt=11&h=67bee5be0e75347df683aec81882b5e6", "seconds": 10, "minutes": 2, "id": 11315548, "title": "Five Easy Pieces: Official Clip - Freeway Performance", "thumbUrl": "http://resizing.flixster.com/WZU0L6m96eBpD7vK50Hz_E7vkaI=/171x128/v1.bjsyMzkyNjM1O3A7MTg4Mzc7MjA0ODs3MjA7MTI4MA", "mp4Url": "http://video.internetvideoarchive.net/video.mp4?cmd=6&publishedid=http://link.theplatform.com/s/NGweTC/media/2Nm2_K6v47E6&customerid=300120&e=1619087760180&sub=RTO&fmt=4&videokbrate=750&h=0e2c706edb5674c40016e907075e733e"}, {"hlsUrl": "http://video.internetvideoarchive.net/video.m3u8?cmd=6&publishedid=http://link.theplatform.com/s/NGweTC/media/S5HdI7j4Mc_O&customerid=300120&e=1619087760180&sub=RTO&fmt=11&h=68dd724b426eb0e0771ea850a7b688e5", "seconds": 26, "minutes": 1, "id": 11315549, "title": "Five Easy Pieces: Official Clip - Betty & Twinky", "thumbUrl": "http://resizing.flixster.com/MmdyfjB8Tq-ZvhGZtGpE7ZQx5cU=/171x128/v1.bjsyMzkyNjM2O3A7MTg4Mzc7MjA0ODs3MjA7MTI4MA", "mp4Url": "http://video.internetvideoarchive.net/video.mp4?cmd=6&publishedid=http://link.theplatform.com/s/NGweTC/media/S5HdI7j4Mc_O&customerid=300120&e=1619087760180&sub=RTO&fmt=4&videokbrate=750&h=ffef07ab2b06a2a580ec6065fa286841"}, {"hlsUrl": "http://video.internetvideoarchive.net/video.m3u8?cmd=6&publishedid=http://link.theplatform.com/s/NGweTC/media/z8uKASWf5kiE&customerid=300120&e=1619087760180&sub=RTO&fmt=11&h=9d8c97a7f6043a4de08ca472754b7da2", "seconds": 12, "minutes": 2, "id": 11315550, "title": "Five Easy Pieces: Official Clip - I'm Fine", "thumbUrl": "http://resizing.flixster.com/N00Lamtk70apF8zjCPfCf28pQmA=/171x128/v1.bjsyMzkyNjM3O3A7MTg4Mzc7MjA0ODs3MjA7MTI4MA", "mp4Url": "http://video.internetvideoarchive.net/video.mp4?cmd=6&publishedid=http://link.theplatform.com/s/NGweTC/media/z8uKASWf5kiE&customerid=300120&e=1619087760180&sub=RTO&fmt=4&videokbrate=750&h=1d510e437dc420cf81b3eb1d20e62573"}, {"hlsUrl": "http://video.internetvideoarchive.net/video.m3u8?cmd=6&publishedid=http://link.theplatform.com/s/NGweTC/media/vbc01NCtRRJ9&customerid=300120&e=1619087760180&sub=RTO&fmt=11&h=a4b917037cfaaa599d613ffb25b65c68", "seconds": 11, "minutes": 2, "id": 11315551, "title": "Five Easy Pieces: Official Clip - The Easiest Piece", "thumbUrl": "http://resizing.flixster.com/rAXyZ7kwEyE99QXiAtWGfhEo9Ec=/171x128/v1.bjsyMzkyNjM4O3A7MTg4Mzc7MjA0ODs3MjA7MTI4MA", "mp4Url": "http://video.internetvideoarchive.net/video.mp4?cmd=6&publishedid=http://link.theplatform.com/s/NGweTC/media/vbc01NCtRRJ9&customerid=300120&e=1619087760180&sub=RTO&fmt=4&videokbrate=750&h=61242c3f8bddb88669a4d171ea735fdd"}, {"hlsUrl": "http://video.internetvideoarchive.net/video.m3u8?cmd=6&publishedid=http://link.theplatform.com/s/NGweTC/media/9F3ej0Qi7IP3&customerid=300120&e=1619087760180&sub=RTO&fmt=11&h=81e11c744c7905b6d126281edab6c4f1", "seconds": 39, "minutes": 1, "id": 11315552, "title": "Five Easy Pieces: Official Clip - Hold the Chicken", "thumbUrl": "http://resizing.flixster.com/jkP03Fm62vDqjQyWoV055yh-jFU=/171x128/v1.bjsyMzkyNjM5O3A7MTg4Mzc7MjA0ODs3MjA7MTI4MA", "mp4Url": "http://video.internetvideoarchive.net/video.mp4?cmd=6&publishedid=http://link.theplatform.com/s/NGweTC/media/9F3ej0Qi7IP3&customerid=300120&e=1619087760180&sub=RTO&fmt=4&videokbrate=750&h=34630c6b35fd7e7f027164a446713040"}, {"hlsUrl": "http://video.internetvideoarchive.net/video.m3u8?cmd=6&publishedid=http://link.theplatform.com/s/NGweTC/media/is3GJBEz8KiJ&customerid=300120&e=1619087760180&sub=RTO&fmt=11&h=a8750cde1aa696222284b90e7906d243", "seconds": 1, "minutes": 2, "id": 11315553, "title": "Five Easy Pieces: Official Clip - You Pompous Celibate!", "thumbUrl": "http://resizing.flixster.com/uJaQ2nWnDrkO_GpyDzX297jy8z0=/171x128/v1.bjsyMzkyNjQwO3A7MTg4Mzc7MjA0ODs3MjA7MTI4MA", "mp4Url": "http://video.internetvideoarchive.net/video.mp4?cmd=6&publishedid=http://link.theplatform.com/s/NGweTC/media/is3GJBEz8KiJ&customerid=300120&e=1619087760180&sub=RTO&fmt=4&videokbrate=750&h=138f658f0b6f5ed5f3849acd119a8031"}, {"hlsUrl": "http://video.internetvideoarchive.net/video.m3u8?cmd=6&publishedid=http://link.theplatform.com/s/NGweTC/media/A9VCJg3mAnaX&customerid=300120&e=1619087760180&sub=RTO&fmt=11&h=ce17e3d8aebc43b9f6cc291b45d97658", "seconds": 11, "minutes": 2, "id": 11315554, "title": "Five Easy Pieces: Official Clip - Half a Conversation", "thumbUrl": "http://resizing.flixster.com/YYsm-Eq0Z2bI3LhW1bEEEG_TnLk=/171x128/v1.bjsyMzkyNjQxO3A7MTg4Mzc7MjA0ODs3MjA7MTI4MA", "mp4Url": "http://video.internetvideoarchive.net/video.mp4?cmd=6&publishedid=http://link.theplatform.com/s/NGweTC/media/A9VCJg3mAnaX&customerid=300120&e=1619087760180&sub=RTO&fmt=4&videokbrate=750&h=6ee86b5e4ef7972fba6824713ebce696"}, {"hlsUrl": "http://video.internetvideoarchive.net/video.m3u8?cmd=6&publishedid=http://link.theplatform.com/s/NGweTC/media/urWWv86k1KC4&customerid=300120&e=1619087760180&sub=RTO&fmt=11&h=269026d143b1fd6c9e0a4b4985350a2a", "seconds": 55, "minutes": 1, "id": 11315556, "title": "Five Easy Pieces: Official Clip - No Inner Feeling", "thumbUrl": "http://resizing.flixster.com/LrMV7qjefMCyCJXVpx8YcYrKTnc=/171x128/v1.bjsyMzkyNjQzO3A7MTg4Mzc7MjA0ODs3MjA7MTI4MA", "mp4Url": "http://video.internetvideoarchive.net/video.mp4?cmd=6&publishedid=http://link.theplatform.com/s/NGweTC/media/urWWv86k1KC4&customerid=300120&e=1619087760180&sub=RTO&fmt=4&videokbrate=750&h=d5982b3eea962ff8b3e948763567238b"}]}, "isUpcoming": false, "posters": {"original": "https://resizing.flixster.com/scFUn4j8OIgp5WLGt23fvs04rac=/979x1500/v1.bTsxMTE2MTE4MTtqOzE4ODYwOzIwNDg7OTc5OzE1MDA", "detailed": "https://resizing.flixster.com/NYsYmJe_wB-ApYPPR0-PweQ1ODc=/176x270/v1.bTsxMTE2MTE4MTtqOzE4ODYwOzIwNDg7OTc5OzE1MDA", "profile": "https://resizing.flixster.com/xU6eqBWtzlbK-b-epDvIFd4BCD8=/117x180/v1.bTsxMTE2MTE4MTtqOzE4ODYwOzIwNDg7OTc5OzE1MDA", "thumbnail": "https://resizing.flixster.com/OOcfbaHXD03pqC_JT3f2Ayfmdc8=/53x81/v1.bTsxMTE2MTE4MTtqOzE4ODYwOzIwNDg7OTc5OzE1MDA"}, "isLimited": false, "mainTrailer": {"thumbUrl": "https://content.internetvideoarchive.com/content/photos/9669/779649_017.jpg", "hlsUrl": "http://video.internetvideoarchive.net/video.m3u8?cmd=6&publishedid=779649&customerid=300120&e=1619087759768&sub=RTO&fmt=11&h=e9dee0440ce234659b639f4d1ca5af72", "id": 10899186, "mp4Url": "http://video.internetvideoarchive.net/video.mp4?cmd=6&publishedid=779649&customerid=300120&e=1619087759769&sub=RTO&fmt=4&videokbrate=750&h=7a98e9339f3eb5dd8e37e52f080198bb"}, "advisory": "adult situations/language", "id": 13551}