{"url": "/m/sid_and_nancy/", "isOnOpening": false, "genreSet": [{"displayName": "Musical & Performing Arts", "id": 12}, {"displayName": "Drama", "id": 9}], "runningTime": 111, "isInTheaters": false, "synopsis": "Punk rock's first great embodiment of the motto \"live fast and die young,\" Sid Vicious joined The Sex Pistols when they were already established as the most controversial rock band in British history; and it soon became apparent that he couldn't play his instrument, had a magnetic attraction to chaos, and possessed a dangerous thirst for booze, drugs, and violence. Sid & Nancy opens shortly after Sid (Gary Oldman) joined the band, when he meets an obnoxious American punk groupie named Nancy Spungen (Chloe Webb). Nancy claims that she can get drugs, and Sid naively gives her his money. Nancy doesn't show up with the goods, but when Sid runs into her a few days later, she has a tall tale about getting ripped off - and Sid sympathizes with her. Before long, Sid and Nancy have fallen in love, and while they argue with uncommon vehemence, they also depend completely on each other. When The Sex Pistols break up, Sid has few prospects and an increasingly voracious appetite for heroin, and Nancy's attempts to \"manage\" his career only hasten his downhill slide. Former Clash leader Joe Strummer wrote the film's theme song, \"Love Kills,\" and The Pogues, The Circle Jerks, and Pray for Rain contributed to the soundtrack. ~ Mark Deming, Rovi", "links": {"alternate": "//www.rottentomatoes.com/m/sid_and_nancy/"}, "year": 1986, "trackingType": "DvdOther", "status": "Live", "isPlaying": false, "isOnDVD": true, "runningTimeStr": "1 hr. 51 min.", "ratingSummary": {"topcount": 23, "consensus": "Visceral, energetic, and often very sad, Sid and Nancy is also a surprisingly touching love story, and Gary Oldman is outstanding as the late punk rock icon Sid Vicious.", "topCritics": {"hasScore": true, "numReviews": 23, "meterClass": "certified", "numRotten": 2, "numFresh": 21, "hasReviews": true, "meterValue": 91, "averageRating": 7.472222}, "audience": {"meterScore": 76, "averageScore": 3.5554981231689453, "numTotal": 33894, "ratingType": "viewed"}, "allcount": 67, "rottencount": 8, "dvdcount": 7, "allCritics": {"hasScore": true, "numReviews": 67, "meterClass": "certified", "numRotten": 8, "numFresh": 59, "hasReviews": true, "meterValue": 88, "averageRating": 7.37}, "freshcount": 59}, "mpaaRating": "R", "vanity": "sid_and_nancy", "photos": {"photos": [{"url": "https://resizing.flixster.com/Wp9dAcuMwgefGzKxU0eLpUrLFPE=/768x1024/v1.bjsxOTM5MDQ7ajsxODgxMTsyMDQ4OzEzNjQ7MTgxOA", "index": 0, "submittedBy": "RT Staff", "height": 1024, "imageId": 193904, "thumbnail": "https://resizing.flixster.com/YB2CIRn9qhJkPLFuAnspHCSj7gY=/80x80/v1.bjsxOTM5MDQ7ajsxODgxMTsyMDQ4OzEzNjQ7MTgxOA", "submittedDate": "2014-07-02", "id": "multiuse-193904", "photoType": "movie", "width": 768}, {"url": "https://resizing.flixster.com/8md9E-eMNfqGLp8ARfMlFWczqv4=/1024x768/v1.bjsxOTM5MDU7ajsxODc2NzsyMDQ4OzE4MjA7MTM2NQ", "index": 1, "submittedBy": "RT Staff", "height": 768, "imageId": 193905, "thumbnail": "https://resizing.flixster.com/3yqX5glPTKtaZTuXtLZZfGgq34M=/80x80/v1.bjsxOTM5MDU7ajsxODc2NzsyMDQ4OzE4MjA7MTM2NQ", "submittedDate": "2014-07-02", "id": "multiuse-193905", "photoType": "movie", "width": 1024}, {"url": "https://resizing.flixster.com/IavTgQ5BHnOeMrTFHpsBGtdws5k=/768x1024/v1.bjsxOTM5MDY7ajsxODc2ODsyMDQ4OzEzMDk7MTc0Ng", "index": 2, "submittedBy": "RT Staff", "height": 1024, "imageId": 193906, "thumbnail": "https://resizing.flixster.com/TyFgZihQre0aDSKlTOxblqcsao4=/80x80/v1.bjsxOTM5MDY7ajsxODc2ODsyMDQ4OzEzMDk7MTc0Ng", "submittedDate": "2014-07-02", "id": "multiuse-193906", "photoType": "movie", "width": 768}, {"url": "https://resizing.flixster.com/NjuoQGLRb6Jp3FP-ZAseCfukh0A=/768x1024/v1.bjsxOTM5MDc7ajsxODc2OTsyMDQ4OzEzOTA7MTg1NA", "index": 3, "submittedBy": "RT Staff", "height": 1024, "imageId": 193907, "thumbnail": "https://resizing.flixster.com/Tf3afQ6cZjMvJ_M-mdcbuVIwrzI=/80x80/v1.bjsxOTM5MDc7ajsxODc2OTsyMDQ4OzEzOTA7MTg1NA", "submittedDate": "2014-07-02", "id": "multiuse-193907", "photoType": "movie", "width": 768}], "length": 4}, "studio": "New Line Cinema", "purchaseOptions": {}, "reviews": {"total": 67, "links": {"alternate": "//www.rottentomatoes.com/m/sid_and_nancy/#reviews", "self": "api.flixster.com/movies/sid-and-nancy/reviews.json?review_type=mob&country=us&page=1", "prev": "api.flixster.com/movies/sid-and-nancy/reviews.json?review_type=mob&country=us&page=0", "next": "api.flixster.com/movies/sid-and-nancy/reviews.json?review_type=mob&country=us&page=2"}, "reviews": [{"isRotten": false, "url": "http://www.newstatesman.com/culture/film/2016/09/alex-cox-s-sid-and-nancy-finest-british-film-1980s", "publication": {"url": "", "name": "New Statesman"}, "isTop": true, "creationDate": 1473965189000, "isFresh": true, "freshness": "fresh", "critic": {"url": "/critic/ryan-gilbey", "name": "Ryan Gilbey", "id": 6099, "thumbnailImage": "https://d2a5cgar23scu2.cloudfront.net/static/images/redesign/user.none.tmb.jpg"}, "quote": "Sid and Nancy has some claim on being the finest British film of the 1980s.", "id": 2350886, "links": {"review": "http://www.newstatesman.com/culture/film/2016/09/alex-cox-s-sid-and-nancy-finest-british-film-1980s"}}, {"isRotten": false, "url": "http://articles.philly.com/1986-12-19/entertainment/26071254_1_sid-nancy-love-story-alex-cox", "creationDate": 1470786207000, "isFresh": true, "id": 2343977, "quote": "They are more than zombies doing needlepoint on each other's veins. Both are brought to life in complex, deeply felt performances from two actors who have abandoned themselves to enormously demanding and difficult roles.", "links": {"review": "http://articles.philly.com/1986-12-19/entertainment/26071254_1_sid-nancy-love-story-alex-cox"}, "publication": {"name": "Philadelphia Inquirer"}, "isTop": true, "freshness": "fresh", "critic": {"url": "/critic/desmond-ryan", "name": "Desmond Ryan", "id": 1088, "thumbnailImage": "https://d2a5cgar23scu2.cloudfront.net/static/images/redesign/user.none.tmb.jpg"}, "original_score": "4/4"}, {"isRotten": false, "url": "https://www.ft.com/content/31bd62da-5a37-11e6-8d05-4eaa66292c32", "creationDate": 1470783518000, "isFresh": true, "id": 2343970, "quote": "Every character is booked through to hell or purgatory. But we gasp at the inventiveness, ferocity and cuckoo anarchy with which these rockers prepared their route to destruction or damnation.", "links": {"review": "https://www.ft.com/content/31bd62da-5a37-11e6-8d05-4eaa66292c32"}, "publication": {"url": "", "name": "Financial Times"}, "isTop": true, "freshness": "fresh", "critic": {"url": "/critic/nigel-andrews", "name": "Nigel Andrews", "id": 12627, "thumbnailImage": "https://d2a5cgar23scu2.cloudfront.net/static/images/redesign/user.none.tmb.jpg"}, "original_score": "4/5"}, {"isRotten": true, "url": "http://articles.orlandosentinel.com/1987-03-03/lifestyle/0110280055_1_nancy-spungen-sid-nancy-sid-vicious", "publication": {"name": "Orlando Sentinel"}, "isTop": true, "creationDate": 1470783104000, "isFresh": false, "freshness": "rotten", "critic": {"url": "/critic/jay-boyar", "name": "Jay Boyar", "id": 3209, "thumbnailImage": "https://d2a5cgar23scu2.cloudfront.net/static/images/redesign/user.none.tmb.jpg"}, "quote": "Sid & Nancy is an honorable try, but it could have been better had Cox found a way to imbue the movie with some of the sheer zaniness of his Repo Man.", "id": 2343968, "links": {"review": "http://articles.orlandosentinel.com/1987-03-03/lifestyle/0110280055_1_nancy-spungen-sid-nancy-sid-vicious"}}, {"isRotten": false, "url": "http://articles.chicagotribune.com/1986-11-07/entertainment/8603230903_1_star-wild-side-flick", "creationDate": 1470782019000, "isFresh": true, "id": 2343962, "quote": "Once we sense a glimmer of talent and accept these people as human beings, the tragedy of their drug use resonates enormously.", "links": {"review": "http://articles.chicagotribune.com/1986-11-07/entertainment/8603230903_1_star-wild-side-flick"}, "publication": {"url": "", "name": "Chicago Tribune"}, "isTop": true, "freshness": "fresh", "critic": {"url": "/critic/gene-siskel", "name": "Gene Siskel", "id": 308, "thumbnailImage": "https://resizing.flixster.com/-pwFyOJ0ZEfxNsvV19EmCNsmOqk=/72x72/v1.YzszNTIxO2o7MTg3NzY7MjA0ODszMDA7MzAw"}, "original_score": "3.5/4"}, {"isRotten": false, "url": "http://articles.chicagotribune.com/1986-11-07/entertainment/8603230774_1_nancy-spungen-love-story-punk", "creationDate": 1470781956000, "isFresh": true, "id": 2343961, "quote": "This is a love story -- an unlikely, perverse, disturbing love story, but a genuine one.", "links": {"review": "http://articles.chicagotribune.com/1986-11-07/entertainment/8603230774_1_nancy-spungen-love-story-punk"}, "publication": {"url": "", "name": "Chicago Tribune"}, "isTop": true, "freshness": "fresh", "critic": {"url": "/critic/dave-kehr", "name": "Dave Kehr", "id": 15, "thumbnailImage": "https://resizing.flixster.com/9JKqg6sYG8Ma4MxlrqIMwc3jppc=/72x72/v1.YzszNjQ3O2o7MTg3Njc7MjA0ODszMDA7MzAw"}, "original_score": "3.5/4"}, {"isRotten": false, "url": "https://fictionmachine.com/2021/01/05/review-sid-nancy-1986/", "creationDate": 1609814992000, "isFresh": true, "id": 2755563, "quote": "This is arguably Cox's finest film. It's arguably one of the United Kingdom's finest.", "links": {"review": "https://fictionmachine.com/2021/01/05/review-sid-nancy-1986/"}, "publication": {"url": "", "name": "Fiction Machine"}, "isTop": false, "freshness": "fresh", "critic": {"url": "/critic/grant-watson", "name": "Grant Watson", "id": 1579, "thumbnailImage": "https://resizing.flixster.com/AvGm4_gEwaTil3VeTBhw9DCLTqE=/72x72/v1.YzszMzY1O2o7MTg4MDA7MjA0ODszMDA7MzAw"}, "original_score": "8/10"}, {"isRotten": false, "url": "https://spectrumculture.com/2018/02/12/revisit-sid-nancy-review/", "publication": {"url": "", "name": "Spectrum Culture"}, "isTop": false, "creationDate": 1569820873000, "isFresh": true, "freshness": "fresh", "critic": {"url": "/critic/david-harris", "name": "David Harris", "id": 9576, "thumbnailImage": "https://resizing.flixster.com/-Q3FWy8FNZ4CG9nURdQ9A2sw-Mg=/72x72/v1.YzszNDI5O2o7MTg3NzQ7MjA0ODszMDA7MzAw"}, "quote": "Neil Young may have namedropped Johnny Rotten in \"My My, Hey Hey\" but it's Vicious he was really singing about. ", "id": 2630851, "links": {"review": "https://spectrumculture.com/2018/02/12/revisit-sid-nancy-review/"}}, {"isRotten": false, "url": "http://www.dogandwolf.com/2016/08/sid-and-nancy-film-review/", "creationDate": 1550703856000, "isFresh": true, "id": 2560292, "quote": "Sid and Nancy is a fascinating record of a volatile period in music history.", "links": {"publication": "http://www.dogandwolf.com/", "review": "http://www.dogandwolf.com/2016/08/sid-and-nancy-film-review/"}, "publication": {"url": "http://www.dogandwolf.com/", "name": "Dog and Wolf"}, "isTop": false, "freshness": "fresh", "critic": {"url": "/critic/alexa-dalby", "name": "Alexa Dalby", "id": 22696, "thumbnailImage": "https://resizing.flixster.com/J1kfQi4rPXaTp36b8Jxah0XPOEI=/72x72/v1.YzszMDU4O2c7MTg4MDg7MjA0ODsxNTA7MTUw"}, "original_score": "3/5"}, {"isRotten": false, "url": "http://www.audienceseverywhere.net/criterion-discovery-sid-nancy/", "creationDate": 1545946722000, "isFresh": true, "id": 2544433, "quote": "Sid & Nancy is a brutal tour de force.", "links": {"review": "http://www.audienceseverywhere.net/criterion-discovery-sid-nancy/"}, "publication": {"url": "", "name": "Audiences Everywhere"}, "isTop": false, "freshness": "fresh", "critic": {"url": "/critic/nathanael-hood", "name": "Nathanael Hood", "id": 17005, "thumbnailImage": "https://resizing.flixster.com/TswXfY_gtGPXUc4pmQ-8bKzjZR8=/72x72/v1.YzszMjM1O2o7MTg4MDU7MjA0ODszMDA7MzAw"}, "original_score": "B+"}, {"isRotten": true, "url": "http://www.qnetwork.com/review/3923", "creationDate": 1505527301000, "isFresh": false, "id": 2419899, "quote": "There is some nobility in the film's relentlessness and single-minded focus, but not enough to redeem its lack of having anything much to say beyond what we get on the surface.", "links": {"review": "http://www.qnetwork.com/review/3923"}, "publication": {"name": "Q Network Film Desk"}, "isTop": false, "freshness": "rotten", "critic": {"url": "/critic/james-kendrick", "name": "James Kendrick", "id": 75, "thumbnailImage": "https://resizing.flixster.com/nb7DJh4QOs3YbDatOdJmz24oi6g=/72x72/v1.YzsyNTgxO2c7MTg3ODE7MjA0ODsxNTA7MTUw"}, "original_score": "2.5/4"}, {"isRotten": false, "url": "http://www.gamesradar.com/movies-to-watch-5-august-2016/", "creationDate": 1483343433000, "isFresh": true, "id": 2370787, "quote": "Cox doesn't just plot an obvious decline: things do get grim, but he makes you care as you also despair for punk's cracked casualties.", "links": {"review": "http://www.gamesradar.com/movies-to-watch-5-august-2016/"}, "publication": {"url": "", "name": "Total Film"}, "isTop": false, "freshness": "fresh", "critic": {"url": "/critic/kevin-harley", "name": "Kevin Harley", "id": 12394, "thumbnailImage": "https://d2a5cgar23scu2.cloudfront.net/static/images/redesign/user.none.tmb.jpg"}, "original_score": "4/5"}]}, "casts": {"screenwriters": [{"url": "/celebrity/alex_cox/", "name": "Alex Cox", "thumbnailImg": "https://resizing.flixster.com/1rcKo7QohjRoDHacF5a88Bo_tiE=/80x80/v1.cDsxMTU3MzE4MTtqOzE4ODg5OzIwNDg7NDAwOzI4OQ"}, {"url": "/celebrity/abbe_wool/", "name": "Abbe Wool", "thumbnailImg": "https://d2a5cgar23scu2.cloudfront.net/static/images/redesign/actor.default.tmb.gif"}], "directors": [{"url": "/celebrity/alex_cox/", "name": "Alex Cox", "thumbnailImg": "https://resizing.flixster.com/1rcKo7QohjRoDHacF5a88Bo_tiE=/80x80/v1.cDsxMTU3MzE4MTtqOzE4ODg5OzIwNDg7NDAwOzI4OQ"}], "creators": [], "producers": [{"url": "/celebrity/eric_fellner/", "name": "Eric Fellner", "thumbnailImg": "https://d2a5cgar23scu2.cloudfront.net/static/images/redesign/actor.default.tmb.gif"}, {"url": "/celebrity/1046035-peter_mccarthy/", "name": "Peter McCarthy", "thumbnailImg": "https://d2a5cgar23scu2.cloudfront.net/static/images/redesign/actor.default.tmb.gif"}, {"url": "/celebrity/abbe_wool/", "name": "Abbe Wool", "thumbnailImg": "https://d2a5cgar23scu2.cloudfront.net/static/images/redesign/actor.default.tmb.gif"}], "castItems": [{"person": {"url": "/celebrity/gary_oldman/", "name": "Gary Oldman", "thumbnailImg": "https://resizing.flixster.com/ErtavYRxfywpzb7uBiAJncMw_7A=/80x80/v1.cjs0OTY2MztqOzE4NzkzOzIwNDg7MjA0MzszMDAw"}, "characters": [{"name": "Sid Vicious"}]}, {"person": {"url": "/celebrity/chloe_webb/", "name": "Chloe Webb", "thumbnailImg": "https://resizing.flixster.com/aqW7pol1btVTcNdY9czDzMYmBBU=/80x80/v1.cDsxNDA3OTY0NDtqOzE4ODgxOzIwNDg7MzIwOzI0MA"}, "characters": [{"name": "Nancy Spungen"}]}, {"person": {"url": "/celebrity/andrew_schofield/", "name": "Andrew Schofield", "thumbnailImg": "https://d2a5cgar23scu2.cloudfront.net/static/images/redesign/actor.default.tmb.gif"}, "characters": [{"name": "Johnny Rotten"}]}, {"person": {"url": "/celebrity/david_hayman/", "name": "David Hayman", "thumbnailImg": "https://resizing.flixster.com/0OMth2dnBE0MXCzRTczddNwPA1w=/80x80/v1.cjs0ODA3NTtqOzE4NzgwOzIwNDg7MTkwMDsxOTAw"}, "characters": [{"name": "Malcolm McLaren"}]}, {"person": {"url": "/celebrity/pray_for_rain/", "name": "Pray for Rain", "thumbnailImg": "https://d2a5cgar23scu2.cloudfront.net/static/images/redesign/actor.default.tmb.gif"}}, {"person": {"url": "/celebrity/debbie_bishop/", "name": "Debbie Bishop", "thumbnailImg": "https://d2a5cgar23scu2.cloudfront.net/static/images/redesign/actor.default.tmb.gif"}, "characters": [{"name": "Phoebe"}]}, {"person": {"url": "/celebrity/tony_london/", "name": "Tony London", "thumbnailImg": "https://d2a5cgar23scu2.cloudfront.net/static/images/redesign/actor.default.tmb.gif"}, "characters": [{"name": "Steve"}]}, {"person": {"url": "/celebrity/jude_alderson/", "name": "Jude Alderson", "thumbnailImg": "https://d2a5cgar23scu2.cloudfront.net/static/images/redesign/actor.default.tmb.gif"}, "characters": [{"name": "Ma Vicious"}]}, {"person": {"url": "/celebrity/perry-benson/", "name": "Perry Benson", "thumbnailImg": "https://d2a5cgar23scu2.cloudfront.net/static/images/redesign/actor.default.tmb.gif"}, "characters": [{"name": "Paul"}]}, {"person": {"url": "/celebrity/anne-lambton/", "name": "Anne Lambton", "thumbnailImg": "https://resizing.flixster.com/1fAYD9QhTO-S2C8ORKhiSTo56_U=/80x80/v1.cDsxMjI0NTkwODtqOzE4Nzg0OzIwNDg7MjQ2OzIzNA"}, "characters": [{"name": "Linda"}]}, {"person": {"url": "/celebrity/kathy_burke/", "name": "Kathy Burke", "thumbnailImg": "https://d2a5cgar23scu2.cloudfront.net/static/images/redesign/actor.default.tmb.gif"}, "characters": [{"name": "Brenda"}]}, {"person": {"url": "/celebrity/pogues/", "name": "The Pogues", "thumbnailImg": "https://d2a5cgar23scu2.cloudfront.net/static/images/redesign/actor.default.tmb.gif"}}, {"person": {"url": "/celebrity/mark_monero/", "name": "Mark Monero", "thumbnailImg": "https://d2a5cgar23scu2.cloudfront.net/static/images/redesign/actor.default.tmb.gif"}, "characters": [{"name": "Clive"}]}, {"person": {"url": "/celebrity/michele_winstanley/", "name": "Michele Winstanley", "thumbnailImg": "https://d2a5cgar23scu2.cloudfront.net/static/images/redesign/actor.default.tmb.gif"}, "characters": [{"name": "Olive"}]}, {"person": {"url": "/celebrity/graham_fletchercook/", "name": "Graham Fletcher-Cook", "thumbnailImg": "https://d2a5cgar23scu2.cloudfront.net/static/images/redesign/actor.default.tmb.gif"}, "characters": [{"name": "Wally"}]}, {"person": {"url": "/celebrity/sara_sugarman/", "name": "Sara Sugarman", "thumbnailImg": "https://resizing.flixster.com/-JQ4iuOh-4SwIdj6FLll1EttJgM=/80x80/v1.cDsxMDQ3NjkwMDtqOzE4ODQxOzIwNDg7NDg1OzI3NQ"}, "characters": [{"name": "Abby"}]}, {"person": {"url": "/celebrity/edward_tudor_pole/", "name": "Edward Tudor Pole", "thumbnailImg": "https://resizing.flixster.com/O7JmGLRxRbQaucsZ0hDWzqPXAYM=/80x80/v1.cDsxMTU3MzIyMTtqOzE4ODg0OzIwNDg7NDMyOzU3Ng"}, "characters": [{"name": "Hotelier (UK)"}]}, {"person": {"url": "/celebrity/1046035-peter_mccarthy/", "name": "Peter McCarthy", "thumbnailImg": "https://d2a5cgar23scu2.cloudfront.net/static/images/redesign/actor.default.tmb.gif"}, "characters": [{"name": "Hugh Kares"}]}, {"person": {"url": "/celebrity/tenpole_tudor/", "name": "Tenpole Tudor", "thumbnailImg": "https://d2a5cgar23scu2.cloudfront.net/static/images/redesign/actor.default.tmb.gif"}, "characters": [{"name": "Receptionist"}]}, {"person": {"url": "/celebrity/pete_leewilson/", "name": "Pete Lee-Wilson", "thumbnailImg": "https://resizing.flixster.com/cwDj3mYQAaegKM2J5kVVNkhC8lc=/80x80/v1.cDsxMTgyNTgzMTtqOzE4Nzc3OzIwNDg7NDkxOzM3Mw"}, "characters": [{"name": "Duke Bowman"}]}, {"person": {"url": "/celebrity/coati_mundi/", "name": "Coati Mundi", "thumbnailImg": "https://d2a5cgar23scu2.cloudfront.net/static/images/redesign/actor.default.tmb.gif"}, "characters": [{"name": "Desk Clerk"}]}, {"person": {"url": "/celebrity/courtney_love/", "name": "Courtney Love", "thumbnailImg": "https://resizing.flixster.com/jJlfxTf0aVwaRDfVxAile8m2mp8=/80x80/v1.cjsxNTk4NDtqOzE4Nzc0OzIwNDg7NjUyOzQ2NQ"}, "characters": [{"name": "Gretchen"}]}, {"person": {"url": "/celebrity/ed_pansullo/", "name": "Ed Pansullo", "thumbnailImg": "https://d2a5cgar23scu2.cloudfront.net/static/images/redesign/actor.default.tmb.gif"}, "characters": [{"name": "Detective"}]}, {"person": {"url": "/celebrity/jeanne_mccarthy/", "name": "Jeanne McCarthy", "thumbnailImg": "https://d2a5cgar23scu2.cloudfront.net/static/images/redesign/actor.default.tmb.gif"}, "characters": [{"name": "Trell"}]}, {"person": {"url": "/celebrity/vincent_j_isaac/", "name": "Vincent J. Isaac", "thumbnailImg": "https://d2a5cgar23scu2.cloudfront.net/static/images/redesign/actor.default.tmb.gif"}, "characters": [{"name": "Detective"}]}, {"person": {"url": "/celebrity/john_snyder/", "name": "John Snyder", "thumbnailImg": "https://resizing.flixster.com/GXLBdl0l6lmGbho0ELW_QfPK6Xw=/80x80/v1.cDsxMTY5ODIyNjtqOzE4NzkxOzIwNDg7MTYwMDsxMDY3"}, "characters": [{"name": "Vito"}]}, {"person": {"url": "/celebrity/ron_moseley_jr/", "name": "Ron Moseley Jr.", "thumbnailImg": "https://d2a5cgar23scu2.cloudfront.net/static/images/redesign/actor.default.tmb.gif"}, "characters": [{"name": "Wax Max"}]}, {"person": {"url": "/celebrity/fox_harris/", "name": "Fox Harris", "thumbnailImg": "https://d2a5cgar23scu2.cloudfront.net/static/images/redesign/actor.default.tmb.gif"}, "characters": [{"name": "Old Stain"}]}, {"person": {"url": "/celebrity/xander_berkeley/", "name": "Xander Berkeley", "thumbnailImg": "https://resizing.flixster.com/Ch_yAMMJzq3PcL40Tu1egmA18nQ=/80x80/v1.cDsxMDg3MzgxNztqOzE4ODYyOzIwNDg7MjUwOzI0Ng"}, "characters": [{"name": "Bowery Snax"}]}, {"person": {"url": "/celebrity/biff_yeager/", "name": "Biff Yeager", "thumbnailImg": "https://resizing.flixster.com/IiK76OxJ7niI4bkgOWRvRcb9Dck=/80x80/v1.cDsxMjA1MzcwNztqOzE4Nzc2OzIwNDg7MTUwOzE5OQ"}, "characters": [{"name": "Detective"}]}, {"person": {"url": "/celebrity/sandy_baron/", "name": "Sandy Baron", "thumbnailImg": "https://resizing.flixster.com/qdrzUkhrpg7HLAFLgYbiGz67F5c=/80x80/v1.cDsxMTc4MjQ2MDtqOzE4Nzg2OzIwNDg7NDM4OzMzOA"}, "characters": [{"name": "Hotelier"}]}, {"person": {"url": "/celebrity/andrew_bradford/", "name": "Andrew Bradford", "thumbnailImg": "https://d2a5cgar23scu2.cloudfront.net/static/images/redesign/actor.default.tmb.gif"}, "characters": [{"name": "Dick Bent"}]}, {"person": {"url": "/celebrity/milton_selzer/", "name": "Milton Selzer", "thumbnailImg": "https://resizing.flixster.com/WEgUjwiYhOF6kWkCxdcRrN6UT2U=/80x80/v1.cDsxMTkzNzI5NTtqOzE4Nzc4OzIwNDg7NTcwOzY5NA"}, "characters": [{"name": "Granpa Spungen"}]}, {"person": {"url": "/celebrity/barbara_coles/", "name": "Barbara Coles", "thumbnailImg": "https://d2a5cgar23scu2.cloudfront.net/static/images/redesign/actor.default.tmb.gif"}, "characters": [{"name": "Reporter"}]}, {"person": {"url": "/celebrity/gloria_le_roy/", "name": "Gloria Le Roy", "thumbnailImg": "https://d2a5cgar23scu2.cloudfront.net/static/images/redesign/actor.default.tmb.gif"}, "characters": [{"name": "Granma Spungen"}]}, {"person": {"url": "/celebrity/sy_richardson/", "name": "Sy Richardson", "thumbnailImg": "https://resizing.flixster.com/ZU2anv06CEsszAvmgmco6pNGoeE=/80x80/v1.cDs1MjM4Njc2O2o7MTg3ODE7MjA0ODs0NTA7NTg1"}, "characters": [{"name": "Caseworker"}]}, {"person": {"url": "/celebrity/stuart_h_fox/", "name": "Stuart H. Fox", "thumbnailImg": "https://d2a5cgar23scu2.cloudfront.net/static/images/redesign/actor.default.tmb.gif"}, "characters": [{"name": "Rock Head"}]}, {"person": {"url": "/celebrity/iggy_pop/", "name": "Iggy Pop", "thumbnailImg": "https://resizing.flixster.com/cy1JCHyLUj5Z6y_sPipsSu8Nlv4=/80x80/v1.cDsxMTA5NDI1NDtqOzE4ODkyOzIwNDg7NTAwOzMzMw"}, "characters": [{"name": "Prospective Guest"}]}, {"person": {"url": "/celebrity/james_snell/", "name": "James Snell", "thumbnailImg": "https://d2a5cgar23scu2.cloudfront.net/static/images/redesign/actor.default.tmb.gif"}, "characters": [{"name": "Edward"}]}, {"person": {"url": "/celebrity/niven_boyd/", "name": "Niven Boyd", "thumbnailImg": "https://resizing.flixster.com/PhOLW6aD1ni5rYo5-5kzLTZzjWc=/80x80/v1.cDsxMTkzNTE0NjtqOzE4Nzg5OzIwNDg7NzQ7OTU"}, "characters": [{"name": "Rock Head's Trainer"}]}, {"person": {"url": "/celebrity/miguel_sandoval/", "name": "Miguel Sandoval", "thumbnailImg": "https://resizing.flixster.com/WRd6ZfGpsD1R7xK1Bb0icjKFwkM=/80x80/v1.cDs3NDYzNzY3O2o7MTg4NzM7MjA0ODsxMDA7ODA"}, "characters": [{"name": "Record Company Executive"}]}, {"person": {"url": "/celebrity/patti_tippo/", "name": "Patti Tippo", "thumbnailImg": "https://d2a5cgar23scu2.cloudfront.net/static/images/redesign/actor.default.tmb.gif"}, "characters": [{"name": "Tanned and Sultry Blonde"}]}, {"person": {"url": "/celebrity/john_m_jackson/", "name": "John M. Jackson", "thumbnailImg": "https://resizing.flixster.com/itjib3GEe8BS3PUJTRwXJ5IMRWI=/80x80/v1.cDs4Njk4MzYwO2o7MTg4MTU7MjA0ODsyODI7MzUw"}, "characters": [{"name": "Lance Boyles, M.D"}]}, {"person": {"url": "/celebrity/desiree_erasmus/", "name": "Desiree Erasmus", "thumbnailImg": "https://d2a5cgar23scu2.cloudfront.net/static/images/redesign/actor.default.tmb.gif"}, "characters": [{"name": "Mrs. Hugh Kares"}]}, {"person": {"url": "/celebrity/bradley_lieberman/", "name": "Bradley Lieberman", "thumbnailImg": "https://d2a5cgar23scu2.cloudfront.net/static/images/redesign/actor.default.tmb.gif"}, "characters": [{"name": "Chipper"}]}, {"person": {"url": "/celebrity/tricia_bartholome/", "name": "Tricia Bartholome", "thumbnailImg": "https://d2a5cgar23scu2.cloudfront.net/static/images/redesign/actor.default.tmb.gif"}, "characters": [{"name": "Mary Jane"}]}, {"person": {"url": "/celebrity/dan_wul/", "name": "Dan Wul", "thumbnailImg": "https://d2a5cgar23scu2.cloudfront.net/static/images/redesign/actor.default.tmb.gif"}, "characters": [{"name": "Guitarist"}]}, {"person": {"url": "/celebrity/raymond_rosario/", "name": "Raymond Rosario", "thumbnailImg": "https://d2a5cgar23scu2.cloudfront.net/static/images/redesign/actor.default.tmb.gif"}, "characters": [{"name": "ABC Kid"}]}, {"person": {"url": "/celebrity/bob_ellis/", "name": "Bob Ellis", "thumbnailImg": "https://d2a5cgar23scu2.cloudfront.net/static/images/redesign/actor.default.tmb.gif"}, "characters": [{"name": "Fireman"}]}, {"person": {"url": "/celebrity/alexander_folk/", "name": "Alexander Folk", "thumbnailImg": "https://d2a5cgar23scu2.cloudfront.net/static/images/redesign/actor.default.tmb.gif"}, "characters": [{"name": "Riker's Guard"}]}, {"person": {"url": "/celebrity/dick_rude/", "name": "Dick Rude", "thumbnailImg": "https://resizing.flixster.com/EMSQqzbg3vQdVaUPQr4vSZ0NMX4=/80x80/v1.cDs1MjM5MDc3O2o7MTg4MjI7MjA0ODsyMjA7MTU2"}, "characters": [{"name": "Riker's Guard"}]}, {"person": {"url": "/celebrity/keith-morris/", "name": "Keith Morris", "thumbnailImg": "https://d2a5cgar23scu2.cloudfront.net/static/images/redesign/actor.default.tmb.gif"}, "characters": [{"name": "Riker's Junky"}]}]}, "title": "Sid and Nancy", "adjustedScore": 94.06036081605126, "ratings": {"critics_rating": "Certified Fresh", "audience_score": 76, "dvdReleaseDate": 977212800000, "critics_score": 88, "theaterReleaseDate": 531734400000, "audience_rating": "Upright"}, "videoClips": {"mainTrailer": {"hlsUrl": "http://video.internetvideoarchive.net/video.m3u8?cmd=6&publishedid=96&customerid=300120&e=1619087773882&sub=RTO&fmt=11&h=d0aff6676b0ada320891ef286b225df7", "seconds": 12, "minutes": 2, "id": 10902311, "title": "Sid And Nancy", "thumbUrl": "http://content.internetvideoarchive.com/content/photos/001/96_079.jpg", "mp4Url": "http://video.internetvideoarchive.net/video.mp4?cmd=6&publishedid=96&customerid=300120&e=1619087773882&sub=RTO&fmt=4&videokbrate=750&h=0cb826efc70764c620420ee17f4531d3"}, "size": 1, "videoClips": [{"hlsUrl": "http://video.internetvideoarchive.net/video.m3u8?cmd=6&publishedid=96&customerid=300120&e=1619087773882&sub=RTO&fmt=11&h=d0aff6676b0ada320891ef286b225df7", "seconds": 12, "minutes": 2, "id": 10902311, "title": "Sid And Nancy", "thumbUrl": "http://content.internetvideoarchive.com/content/photos/001/96_079.jpg", "mp4Url": "http://video.internetvideoarchive.net/video.mp4?cmd=6&publishedid=96&customerid=300120&e=1619087773882&sub=RTO&fmt=4&videokbrate=750&h=0cb826efc70764c620420ee17f4531d3"}]}, "isUpcoming": false, "posters": {"original": "https://resizing.flixster.com/cK99msel5Ds-_MlLDXU3sRF4OOI=/1572x2096/v1.bTsxMTIwODgzNDtqOzE4ODU4OzIwNDg7MTU3MjsyMDk2", "detailed": "https://resizing.flixster.com/Sjq4-YK3J9nbzZSVvIfEdYqVpxY=/180x240/v1.bTsxMTIwODgzNDtqOzE4ODU4OzIwNDg7MTU3MjsyMDk2", "profile": "https://resizing.flixster.com/ECrZMq1u-SJdd1O4SBqu-xoFuZU=/120x160/v1.bTsxMTIwODgzNDtqOzE4ODU4OzIwNDg7MTU3MjsyMDk2", "thumbnail": "https://resizing.flixster.com/n7nk7wY5ArTx-8mtGoK02QwqAaE=/54x72/v1.bTsxMTIwODgzNDtqOzE4ODU4OzIwNDg7MTU3MjsyMDk2"}, "isLimited": false, "mainTrailer": {"thumbUrl": "https://content.internetvideoarchive.com/content/photos/001/96_079.jpg", "hlsUrl": "http://video.internetvideoarchive.net/video.m3u8?cmd=6&publishedid=96&customerid=300120&e=1619087773025&sub=RTO&fmt=11&h=5b5acd5891c7a221f9b7ed46414ac69f", "id": 10902311, "mp4Url": "http://video.internetvideoarchive.net/video.mp4?cmd=6&publishedid=96&customerid=300120&e=1619087773026&sub=RTO&fmt=4&videokbrate=750&h=7d76f82a1a85f253f16ac19546151bf4"}, "advisory": "N/A", "id": 16345}