{"url": "/m/scratch_2002/", "isOnOpening": false, "genreSet": [{"displayName": "Musical & Performing Arts", "id": 12}, {"displayName": "Documentary", "id": 8}], "officialUrl": "http://www.scratchmovie.com", "isInTheaters": false, "synopsis": "While rappers may be the most visible musical exponents of hip-hop culture, it's the DJs (or \"turntablists,\" as some prefer to be called) who generate the funky beats and cut-and-paste musical structures that have made hip-hop the dominant musical phenomena of the past 20 years. Scratch is a documentary that examines the role of the DJ in hip-hop music, from the pioneering work of old school hip-hop artists like Afrika Bambaata and Jazzy Jay to contemporary masters like noted trip-hop musician DJ Shadow and award-winning turntablist group Invisibl Skratch Piklz. The film also explores how DJs turned the turntable into a musical instrument, the increasingly elaborate techniques involved in \"scratching\" (manipulating vinyl discs, turntables, and tone arms to produce different sonic effects), and how different turntablists dig up the rare and elusive LPs from which they draw the samples that they craft into new songs. Scratch was directed by Doug Pray, who previously examined a different musical phenomenon -- the Seattle rock scene that spawned the grunge explosion -- in his film Hype!.", "links": {"alternate": "//www.rottentomatoes.com/m/scratch_2002/"}, "runningTime": 90, "year": 2002, "trackingType": "DvdOther", "status": "Live", "isPlaying": false, "isOnDVD": true, "runningTimeStr": "1 hr. 30 min.", "ratingSummary": {"topcount": 18, "consensus": "Whether you know anything about turntablism or not, Scratch makes for fun and informative viewing.", "topCritics": {"hasScore": true, "numReviews": 18, "meterClass": "certified", "numRotten": 1, "numFresh": 17, "hasReviews": true, "meterValue": 94, "averageRating": 7.305556}, "audience": {"meterScore": 93, "averageScore": 4.1534810066223145, "numTotal": 4748, "ratingType": "viewed"}, "allcount": 46, "rottencount": 3, "dvdcount": 5, "allCritics": {"hasScore": true, "numReviews": 46, "meterClass": "certified", "numRotten": 3, "numFresh": 43, "hasReviews": true, "meterValue": 93, "averageRating": 7.29}, "freshcount": 43}, "mpaaRating": "R", "vanity": "scratch_2002", "photos": {"photos": [{"url": "https://resizing.flixster.com/TRG1CQsYV5stYCKSaUjpWaRIUXo=/682x1023/v1.bjs1NDc2MDU7ajsxODc3MTsyMDQ4OzEwMDA7MTUwMA", "index": 0, "submittedBy": "RT Staff", "height": 1023, "imageId": 547605, "thumbnail": "https://resizing.flixster.com/OsqbeV24LTFloxK2MCadPS4vLQ8=/80x80/v1.bjs1NDc2MDU7ajsxODc3MTsyMDQ4OzEwMDA7MTUwMA", "submittedDate": "2015-04-02", "id": "multiuse-547605", "photoType": "movie", "width": 682}, {"url": "https://resizing.flixster.com/OANmjnVK0aeCcksCg9lN851WNIg=/1024x576/v1.bjs1NDc2MDY7ajsxODc3MjsyMDQ4OzEyODA7NzIw", "index": 1, "submittedBy": "RT Staff", "height": 576, "imageId": 547606, "thumbnail": "https://resizing.flixster.com/3_9Q9Q-VM52f50AS0t4EpUueXgQ=/80x80/v1.bjs1NDc2MDY7ajsxODc3MjsyMDQ4OzEyODA7NzIw", "submittedDate": "2015-04-02", "id": "multiuse-547606", "photoType": "movie", "width": 1024}, {"url": "https://resizing.flixster.com/yNE8NochYN073aiolqTiuy9SZcA=/682x1023/v1.bjs2MDU0Njc7ajsxODgwOTsyMDQ4OzEwMDA7MTUwMA", "index": 2, "submittedBy": "RT Staff", "height": 1023, "imageId": 605467, "thumbnail": "https://resizing.flixster.com/qyCup7D2P3X1vwPV3vS-s5McKYc=/80x80/v1.bjs2MDU0Njc7ajsxODgwOTsyMDQ4OzEwMDA7MTUwMA", "submittedDate": "2015-04-25", "id": "multiuse-605467", "photoType": "movie", "width": 682}, {"url": "https://resizing.flixster.com/RZ5NoDfIMr-miLoeDI99VdOXLnk=/1024x576/v1.bjs2MDU0Njg7ajsxODgxMDsyMDQ4OzEyODA7NzIw", "index": 3, "submittedBy": "RT Staff", "height": 576, "imageId": 605468, "thumbnail": "https://resizing.flixster.com/JvCywFJTPKtvRBBxXmkwbzZ-6So=/80x80/v1.bjs2MDU0Njg7ajsxODgxMDsyMDQ4OzEyODA7NzIw", "submittedDate": "2015-04-25", "id": "multiuse-605468", "photoType": "movie", "width": 1024}], "length": 4}, "studio": "Palm Pictures", "purchaseOptions": {"amazon": {"url": "http://www.amazon.com/gp/product/B011KK81S6/ref=atv_feed_catalog?tag=rottetomao_aiv_mv-20", "isPrime": false, "type": "buy"}, "vudu": {"url": "http://www.vudu.com/movies/#!content/28143/Scratch", "type": "buy"}, "iTunes": {"url": "https://itunes.apple.com/movie/scratch/id995222209?uo=5", "price": "14.99"}}, "reviews": {"total": 46, "links": {"alternate": "//www.rottentomatoes.com/m/scratch_2002/#reviews", "self": "api.flixster.com/movies/scratch/reviews.json?review_type=mob&country=us&page=1", "prev": "api.flixster.com/movies/scratch/reviews.json?review_type=mob&country=us&page=0", "next": "api.flixster.com/movies/scratch/reviews.json?review_type=mob&country=us&page=2"}, "reviews": [{"isRotten": false, "url": "http://www.globeandmail.com/servlet/ArticleNews/movie/MOVIEREVIEWS/20021011/RVSCRA", "creationDate": 1034350580000, "isFresh": true, "id": 795261, "quote": "Engaging documentary.", "links": {"review": "http://www.globeandmail.com/servlet/ArticleNews/movie/MOVIEREVIEWS/20021011/RVSCRA"}, "publication": {"url": "", "name": "Globe and Mail"}, "isTop": true, "freshness": "fresh", "critic": {"url": "/critic/ray-conlogue", "name": "Ray Conlogue", "id": 4144, "thumbnailImage": "https://d2a5cgar23scu2.cloudfront.net/static/images/redesign/user.none.tmb.jpg"}, "original_score": "3/4"}, {"isRotten": false, "url": "http://www.bbc.co.uk/films/2002/08/20/scratch_2002_review.shtml", "creationDate": 1031066958000, "isFresh": true, "id": 762206, "quote": "Pray has really done his subject justice.", "links": {"review": "http://www.bbc.co.uk/films/2002/08/20/scratch_2002_review.shtml"}, "publication": {"url": "", "name": "BBC.com"}, "isTop": true, "freshness": "fresh", "critic": {"url": "/critic/laura-bushell", "name": "Laura Bushell", "id": 5512, "thumbnailImage": "https://d2a5cgar23scu2.cloudfront.net/static/images/redesign/user.none.tmb.jpg"}, "original_score": "4/5"}, {"isRotten": false, "url": "http://metromix.chicagotribune.com/movies/mmx-15538_lgcy.story", "creationDate": 1027178749000, "isFresh": true, "id": 740652, "quote": "Pray's subjects can wander off into arcane Dennis Miller-esque rants, but he manages to hit the high points and most of the major personalities.", "links": {"review": "http://metromix.chicagotribune.com/movies/mmx-15538_lgcy.story"}, "publication": {"url": "", "name": "Chicago Tribune"}, "isTop": true, "freshness": "fresh", "critic": {"url": "/critic/robert-k-elder", "name": "Robert K. Elder", "id": 3434, "thumbnailImage": "https://d2a5cgar23scu2.cloudfront.net/static/images/redesign/user.none.tmb.jpg"}, "original_score": "3/4"}, {"isRotten": false, "url": "http://www.guidelive.com/profile/332008/", "creationDate": 1022803977000, "isFresh": true, "id": 317279, "quote": "It's all stitched together with energy, intelligence and verve, enhanced by a surplus of vintage archive footage.", "links": {"review": "http://www.guidelive.com/profile/332008/"}, "publication": {"url": "", "name": "Dallas Morning News"}, "isTop": true, "freshness": "fresh", "critic": {"url": "/critic/chris-vognar", "name": "Chris Vognar", "id": 3027, "thumbnailImage": "https://resizing.flixster.com/s7O3Sl81wDfbHZt_SX0rdkXP11w=/72x72/v1.YzsxNjg3O2o7MTg3ODc7MjA0ODszODs0Nw"}, "original_score": "A-"}, {"isRotten": false, "isFresh": true, "publication": {"name": "Philadelphia Inquirer"}, "isTop": true, "creationDate": 1021586208000, "freshness": "fresh", "critic": {"url": "/critic/dan-deluca", "name": "Dan DeLuca", "id": 5615, "thumbnailImage": "https://d2a5cgar23scu2.cloudfront.net/static/images/redesign/user.none.tmb.jpg"}, "quote": "Illuminating if overly talky documentary.", "id": 314005, "original_score": "3/4", "links": {}}, {"isRotten": false, "isFresh": true, "publication": {"url": "", "name": "Washington Post"}, "isTop": true, "creationDate": 1019870245000, "freshness": "fresh", "critic": {"url": "/critic/curt-fields", "name": "Curt Fields", "id": 3630, "thumbnailImage": "https://d2a5cgar23scu2.cloudfront.net/static/images/redesign/user.none.tmb.jpg"}, "quote": "Should appeal to more than just hardcore hip-hop fans.", "id": 309875, "original_score": "3.5/5", "links": {}}, {"isRotten": false, "url": "http://www.filmthreat.com/Reviews.asp?Id=1601", "creationDate": 1042735387000, "isFresh": true, "id": 833916, "quote": "See Scratch for the history, see Scratch for the music, see Scratch for a lesson in scratching, but, most of all, see it for the passion.", "links": {"review": "http://www.filmthreat.com/Reviews.asp?Id=1601"}, "publication": {"url": "", "name": "Film Threat"}, "isTop": false, "freshness": "fresh", "critic": {"url": "/critic/chris-gore", "name": "Chris Gore", "id": 1052, "thumbnailImage": "https://resizing.flixster.com/3LCh5gK0XeXc65_edrScFKD0B7E=/72x72/v1.YzsyODY5O2c7MTg3OTk7MjA0ODsxNTA7MTUw"}, "original_score": "4/5"}, {"isRotten": false, "url": "http://www.nitrateonline.com/2002/sscratch.html", "publication": {"name": "Nitrate Online"}, "isTop": false, "creationDate": 1031931188000, "isFresh": true, "freshness": "fresh", "critic": {"url": "/critic/cynthia-fuchs", "name": "Cynthia Fuchs", "id": 597, "thumbnailImage": "https://d2a5cgar23scu2.cloudfront.net/static/images/redesign/user.none.tmb.jpg"}, "quote": "Even as it pays earnest homage to turntablists and beat jugglers, old schoolers and current innovators, Scratch is great fun, full of the kind of energy it's documenting.", "id": 782848, "links": {"review": "http://www.nitrateonline.com/2002/sscratch.html"}}, {"isRotten": false, "isFresh": true, "publication": {"url": "", "name": "Planet S Magazine"}, "isTop": false, "creationDate": 1026213122000, "freshness": "fresh", "critic": {"url": "/critic/jon-popick", "name": "Jon Popick", "id": 1146, "thumbnailImage": "https://d2a5cgar23scu2.cloudfront.net/static/images/redesign/user.none.tmb.jpg"}, "quote": "You don't need to be a hip-hop fan to appreciate Scratch, and that's the mark of a documentary that works.", "id": 734737, "original_score": "7/10", "links": {}}, {"isRotten": false, "isFresh": true, "publication": {"name": "Capital Times (Madison, WI)"}, "isTop": false, "creationDate": 1024593850000, "freshness": "fresh", "critic": {"url": "/critic/rob-thomas", "name": "Rob Thomas", "id": 5808, "thumbnailImage": "https://d2a5cgar23scu2.cloudfront.net/static/images/redesign/user.none.tmb.jpg"}, "quote": "Those moviegoers who would automatically bypass a hip-hop documentary should give \"Scratch\" a second look.", "id": 730789, "original_score": "3/4", "links": {}}, {"isRotten": true, "isFresh": false, "publication": {"name": "Milwaukee Journal Sentinel"}, "isTop": false, "creationDate": 1023489724000, "freshness": "rotten", "quote": "A determined and carefully made but ultimately unsatisfying effort.", "id": 323147, "original_score": "2/4", "links": {}}, {"isRotten": false, "url": "http://www.movieclub.com/reviews/archives/02scratch/macias.html", "creationDate": 1022883306000, "isFresh": true, "id": 317772, "quote": "It's a story of turntablism that will appeal to both newcomers and DJ diehards.", "links": {"review": "http://www.movieclub.com/reviews/archives/02scratch/macias.html"}, "publication": {"name": "Sacramento Bee"}, "isTop": false, "freshness": "fresh", "critic": {"url": "/critic/chris-macias", "name": "Chris Macias", "id": 5766, "thumbnailImage": "https://d2a5cgar23scu2.cloudfront.net/static/images/redesign/user.none.tmb.jpg"}, "original_score": "3.5/4"}]}, "casts": {"screenwriters": [], "directors": [{"url": "/celebrity/doug_pray/", "name": "Doug Pray", "thumbnailImg": "https://resizing.flixster.com/G7z7tCwIMN1N3kM_USvrlm_m16o=/80x80/v1.cDs2NTM5NjY4O2o7MTg4ODM7MjA0ODsxNTA7MjE0"}], "creators": [], "producers": [{"url": "/celebrity/heidi_rataj_addison/", "name": "Heidi Rataj Addison", "thumbnailImg": "https://d2a5cgar23scu2.cloudfront.net/static/images/redesign/actor.default.tmb.gif"}, {"url": "/celebrity/brad_blondheim/", "name": "Brad Blondheim", "thumbnailImg": "https://d2a5cgar23scu2.cloudfront.net/static/images/redesign/actor.default.tmb.gif"}, {"url": "/celebrity/ernest-meza/", "name": "Ernest Meza", "thumbnailImg": "https://d2a5cgar23scu2.cloudfront.net/static/images/redesign/actor.default.tmb.gif"}], "castItems": [{"person": {"url": "/celebrity/dj_qbert/", "name": "DJ QBert", "thumbnailImg": "https://d2a5cgar23scu2.cloudfront.net/static/images/redesign/actor.default.tmb.gif"}}, {"person": {"url": "/celebrity/grandwizzard_theodore/", "name": "GrandWizzard Theodore", "thumbnailImg": "https://resizing.flixster.com/DsL-rGzcmBvgp4SGeJAjA9cPbTA=/80x80/v1.cDsxMTU1MjIyODtqOzE4ODYxOzIwNDg7MzAwOzQwMA"}}, {"person": {"url": "/celebrity/yoga_frog/", "name": "Yoga Frog", "thumbnailImg": "https://resizing.flixster.com/A2AABSG6Kc3rc-iDB5uBJkgOnjI=/80x80/v1.cDsxMTU1MjIyMTtqOzE4ODU0OzIwNDg7NDA0Ozk2Mg"}}, {"person": {"url": "/celebrity/dj_jazzy_jay/", "name": "DJ Jazzy Jay", "thumbnailImg": "https://d2a5cgar23scu2.cloudfront.net/static/images/redesign/actor.default.tmb.gif"}}, {"person": {"url": "/celebrity/grandmixer_dxt/", "name": "GrandMixer DXT", "thumbnailImg": "https://resizing.flixster.com/2k2BVP8uzb8FsVUxzmxPWpPHO5c=/80x80/v1.cDsxMTU1MjIzNTtqOzE4ODY4OzIwNDg7MTkyOzI1MA"}}, {"person": {"url": "/celebrity/steinski/", "name": "Steinski", "thumbnailImg": "https://d2a5cgar23scu2.cloudfront.net/static/images/redesign/actor.default.tmb.gif"}}, {"person": {"url": "/celebrity/mixmaster_mike/", "name": "Mixmaster Mike", "thumbnailImg": "https://d2a5cgar23scu2.cloudfront.net/static/images/redesign/actor.default.tmb.gif"}}, {"person": {"url": "/celebrity/qbert/", "name": "Qbert", "thumbnailImg": "https://d2a5cgar23scu2.cloudfront.net/static/images/redesign/actor.default.tmb.gif"}}, {"person": {"url": "/celebrity/steve_dee/", "name": "Steve Dee", "thumbnailImg": "https://d2a5cgar23scu2.cloudfront.net/static/images/redesign/actor.default.tmb.gif"}}, {"person": {"url": "/celebrity/cut_chemist/", "name": "Cut Chemist", "thumbnailImg": "https://resizing.flixster.com/jHPTbMf5xc95dgczacwQvDDQKKM=/80x80/v1.cDsxMTU1MjIyOTtqOzE4ODYyOzIwNDg7MzAyOzI1MA"}}, {"person": {"url": "/celebrity/afrika_bambaataa/", "name": "Afrika Bambaataa", "thumbnailImg": "https://resizing.flixster.com/mhrlQJST5jn5CB0cE-SUY8EZhl8=/80x80/v1.cDsxMTQ3Nzg2NjtqOzE4ODgzOzIwNDg7MjgxOzI4NA"}}, {"person": {"url": "/celebrity/numark/", "name": "Numark", "thumbnailImg": "https://d2a5cgar23scu2.cloudfront.net/static/images/redesign/actor.default.tmb.gif"}}, {"person": {"url": "/celebrity/dj_premier/", "name": "DJ Premier", "thumbnailImg": "https://resizing.flixster.com/lTANAdmLibp1X6d1f5ZpN_EdFwE=/80x80/v1.cDsxMTU1MjIzMDtqOzE4ODYzOzIwNDg7MzUwOzM1MA"}}, {"person": {"url": "/celebrity/dj_shadow/", "name": "DJ Shadow", "thumbnailImg": "https://resizing.flixster.com/lFFP_Dmps7Rt2wVrn8RGamZrtag=/80x80/v1.cDsxMTU1MjIzMjtqOzE4ODY1OzIwNDg7MzAwOzMwMA"}}, {"person": {"url": "/celebrity/z-trip/", "name": "Z-Trip", "thumbnailImg": "https://resizing.flixster.com/_SO9Bk8ghDphmWl6y2Og0rzozVU=/80x80/v1.cDsxMTU1MjIxODtqOzE4ODk2OzIwNDg7NDQ3OzY5NQ"}}, {"person": {"url": "/celebrity/dj_relm/", "name": "D.J. Relm", "thumbnailImg": "https://resizing.flixster.com/sLkevRAapykuDq0nWhIgtZ2Fed0=/80x80/v1.cDsxMzUyMDk2OTtqOzE4ODMwOzIwNDg7NDUwOzM2Mw"}}, {"person": {"url": "/celebrity/dj_streak/", "name": "DJ Streak", "thumbnailImg": "https://d2a5cgar23scu2.cloudfront.net/static/images/redesign/actor.default.tmb.gif"}}, {"person": {"url": "/celebrity/dj_krush/", "name": "DJ Krush", "thumbnailImg": "https://d2a5cgar23scu2.cloudfront.net/static/images/redesign/actor.default.tmb.gif"}}, {"person": {"url": "/celebrity/dj_swamp/", "name": "DJ Swamp", "thumbnailImg": "https://d2a5cgar23scu2.cloudfront.net/static/images/redesign/actor.default.tmb.gif"}}, {"person": {"url": "/celebrity/almighty_kaygee/", "name": "Almighty Kaygee", "thumbnailImg": "https://d2a5cgar23scu2.cloudfront.net/static/images/redesign/actor.default.tmb.gif"}}, {"person": {"url": "/celebrity/dot_a_rock/", "name": "Dot A Rock", "thumbnailImg": "https://d2a5cgar23scu2.cloudfront.net/static/images/redesign/actor.default.tmb.gif"}}, {"person": {"url": "/celebrity/kevie_kev/", "name": "Kevie Kev", "thumbnailImg": "https://d2a5cgar23scu2.cloudfront.net/static/images/redesign/actor.default.tmb.gif"}}, {"person": {"url": "/celebrity/billy_jam/", "name": "Billy Jam", "thumbnailImg": "https://d2a5cgar23scu2.cloudfront.net/static/images/redesign/actor.default.tmb.gif"}}, {"person": {"url": "/celebrity/dave_paul/", "name": "Dave Paul", "thumbnailImg": "https://d2a5cgar23scu2.cloudfront.net/static/images/redesign/actor.default.tmb.gif"}}, {"person": {"url": "/celebrity/naut_humon/", "name": "Naut Humon", "thumbnailImg": "https://d2a5cgar23scu2.cloudfront.net/static/images/redesign/actor.default.tmb.gif"}}, {"person": {"url": "/celebrity/john_carluccio/", "name": "John Carluccio", "thumbnailImg": "https://d2a5cgar23scu2.cloudfront.net/static/images/redesign/actor.default.tmb.gif"}}, {"person": {"url": "/celebrity/christie_z_pabon/", "name": "Christie Z. Pabon", "thumbnailImg": "https://d2a5cgar23scu2.cloudfront.net/static/images/redesign/actor.default.tmb.gif"}}, {"person": {"url": "/celebrity/mark_herlihy/", "name": "Mark Herlihy", "thumbnailImg": "https://d2a5cgar23scu2.cloudfront.net/static/images/redesign/actor.default.tmb.gif"}}, {"person": {"url": "/celebrity/doze_green/", "name": "Doze Green", "thumbnailImg": "https://d2a5cgar23scu2.cloudfront.net/static/images/redesign/actor.default.tmb.gif"}}, {"person": {"url": "/celebrity/frederica_feedback/", "name": "Frederica Feedback", "thumbnailImg": "https://d2a5cgar23scu2.cloudfront.net/static/images/redesign/actor.default.tmb.gif"}}, {"person": {"url": "/celebrity/bart_klever/", "name": "Bart Klever", "thumbnailImg": "https://d2a5cgar23scu2.cloudfront.net/static/images/redesign/actor.default.tmb.gif"}}, {"person": {"url": "/celebrity/jay_slim/", "name": "Jay Slim", "thumbnailImg": "https://d2a5cgar23scu2.cloudfront.net/static/images/redesign/actor.default.tmb.gif"}}, {"person": {"url": "/celebrity/snayk_eyez/", "name": "Snayk Eyez", "thumbnailImg": "https://d2a5cgar23scu2.cloudfront.net/static/images/redesign/actor.default.tmb.gif"}}, {"person": {"url": "/celebrity/mysterio/", "name": "Mysterio", "thumbnailImg": "https://d2a5cgar23scu2.cloudfront.net/static/images/redesign/actor.default.tmb.gif"}}, {"person": {"url": "/celebrity/red_alert/", "name": "Red Alert", "thumbnailImg": "https://resizing.flixster.com/q72x_vf4yRMgMfa43zQou6UfEPo=/80x80/v1.cDsxMzczMTE5NjtqOzE4ODE5OzIwNDg7MjE4OzI3Mw"}}, {"person": {"url": "/celebrity/boogaloo_sam/", "name": "Boogaloo Sam", "thumbnailImg": "https://d2a5cgar23scu2.cloudfront.net/static/images/redesign/actor.default.tmb.gif"}}, {"person": {"url": "/celebrity/sugapop/", "name": "SugaPop", "thumbnailImg": "https://d2a5cgar23scu2.cloudfront.net/static/images/redesign/actor.default.tmb.gif"}}, {"person": {"url": "/celebrity/mr_wiggles/", "name": "Mr. Wiggles", "thumbnailImg": "https://resizing.flixster.com/3rnJ3WUjuDjwrozi9FaQiZsf4cs=/80x80/v1.cDsxMTU1MjIzNztqOzE4ODcwOzIwNDg7MzAwOzI1Nw"}}, {"person": {"url": "/celebrity/fabel/", "name": "Fabel", "thumbnailImg": "https://d2a5cgar23scu2.cloudfront.net/static/images/redesign/actor.default.tmb.gif"}}, {"person": {"url": "/celebrity/1030546-doa/", "name": "D.O.A.", "thumbnailImg": "https://d2a5cgar23scu2.cloudfront.net/static/images/redesign/actor.default.tmb.gif"}}, {"person": {"url": "/celebrity/afra/", "name": "Afra", "thumbnailImg": "https://d2a5cgar23scu2.cloudfront.net/static/images/redesign/actor.default.tmb.gif"}}]}, "title": "Scratch", "adjustedScore": 93.53816316567355, "ratings": {"critics_rating": "Certified Fresh", "audience_score": 93, "dvdReleaseDate": 1032246000000, "critics_score": 93, "theaterReleaseDate": 1014969600000, "audience_rating": "Upright"}, "videoClips": {"size": 0, "videoClips": []}, "isUpcoming": false, "posters": {"original": "https://resizing.flixster.com/MisdO0z5MbjuoUMkpz16cOaDEIM=/1512x2133/v1.bTsxMTI5MTA5MjtqOzE4ODU3OzIwNDg7MTUxMjsyMTMz", "detailed": "https://resizing.flixster.com/eszzqr3PiLQO5-slCcj4Q_SeVrc=/180x254/v1.bTsxMTI5MTA5MjtqOzE4ODU3OzIwNDg7MTUxMjsyMTMz", "profile": "https://resizing.flixster.com/KM-6rB5wlSVrCzOt6la7cmzef44=/120x169/v1.bTsxMTI5MTA5MjtqOzE4ODU3OzIwNDg7MTUxMjsyMTMz", "thumbnail": "https://resizing.flixster.com/lWjuBrOkxjaElXWYWyQrAOcGfGg=/54x76/v1.bTsxMTI5MTA5MjtqOzE4ODU3OzIwNDg7MTUxMjsyMTMz"}, "isLimited": true, "mainTrailer": {}, "advisory": "for language", "id": 13509}